<?xml version="1.0" encoding="UTF-8"?>
<kml xmlns="http://www.opengis.net/kml/2.2" xmlns:gx="http://www.google.com/kml/ext/2.2" xmlns:kml="http://www.opengis.net/kml/2.2" xmlns:atom="http://www.w3.org/2005/Atom">
<Document>
<name>R33 C34.kml</name>

<Style id="style0">

					<LineStyle>

						<color>ff00ffff</color>

					</LineStyle>

					<PolyStyle>

						<color>ff00ffff</color>

						<width>0.9</width>

					</PolyStyle>

				</Style>
<Style id="style1">

					<LineStyle>

						<color>ffff0000</color>

					</LineStyle>

					<PolyStyle>

						<color>ffff0000</color>

						<width>0.9</width>

					</PolyStyle>

				</Style>
<Style id="style2">

					<LineStyle>

						<color>ffc1f5ef</color>

					</LineStyle>

					<PolyStyle>

						<color>ffc1f5ef</color>

						<width>0.9</width>

					</PolyStyle>

				</Style>
<Style id="style3">

					<LineStyle>

						<color>ff00f4ff</color>

					</LineStyle>

					<PolyStyle>

						<color>ff00f4ff</color>

						<width>0.9</width>

					</PolyStyle>

				</Style>

<Placemark>

				<name>Water Skiing Access Lane</name>

				<description>This lane allows vessels towing people or an object (waterskiing) to exceed 5 knots between the beach and 200m from shore. If waterskiing is happening in the lane or nearby, other water users must keep out. Towing boats must carry an observer over 10 years old and stay as far as practicable to starboard (the right hand side) when inside the 
lane. Do not park boats on the beach inside the lane.</description>

				<styleUrl>#style1</styleUrl>

				<Polygon>

					<tessellate>1</tessellate>

					<outerBoundaryIs>

						<LinearRing>

							<coordinates>

							173.0440169668332,-40.97571313376029,0 173.0439854549882,-40.97536752343452,0 173.0441506616121,-40.97513681568108,0 173.0445684217446,-40.97520806278951,0 173.0452293765688,-40.97517969816857,0 173.0460030142519,-40.97528505404484,0 173.0436366947646,-40.97355356679801,0 173.0429844095503,-40.97310055261628,0 173.0424665072845,-40.97359372080572,0 173.0420796970233,-40.97421357257783,0 173.0440169668332,-40.97571313376029,0 
						
</coordinates>

						</LinearRing>

					</outerBoundaryIs>

				</Polygon>

				<flyID>0</flyID>

				<flyDescription>This lane allows vessels towing people or an object (waterskiing) to exceed 5 knots between the beach and 200m from shore. If waterskiing is happening in the lane or nearby, other water users must keep out. Towing boats must carry an observer over 10 years old and stay as far as practicable to starboard (the right hand side) when inside the 
lane. Do not park boats on the beach inside the lane.</flyDescription>

			</Placemark>
<Placemark>

				<name>Water Skiing Access Lane</name>

				<description>This lane allows vessels towing people or an object (waterskiing) to exceed 5 knots between the beach and 200m from shore. If waterskiing is happening in the lane or nearby, other water users must keep out. Towing boats must carry an observer over 10 years old and stay as far as practicable to starboard (the right hand side) when inside the 
lane. Do not park boats on the beach inside the lane.</description>

				<styleUrl>#style1</styleUrl>

				<Polygon>

					<tessellate>1</tessellate>

					<outerBoundaryIs>

						<LinearRing>

							<coordinates>

							173.0050971071309,-40.82206817453026,0 173.0074900345108,-40.82209255079865,0 173.0075464504056,-40.82108521075022,0 173.0077078241599,-40.82041496534995,0 173.0052812882608,-40.82037111560985,0 173.0050971071309,-40.82206817453026,0 
						
</coordinates>

						</LinearRing>

					</outerBoundaryIs>

				</Polygon>

				<flyID>1</flyID>

				<flyDescription>This lane allows vessels towing people or an object (waterskiing) to exceed 5 knots between the beach and 200m from shore. If waterskiing is happening in the lane or nearby, other water users must keep out. Towing boats must carry an observer over 10 years old and stay as far as practicable to starboard (the right hand side) when inside the 
lane. Do not park boats on the beach inside the lane.</flyDescription>

			</Placemark>
<Placemark>

				<name>5 Knot Zone</name>

				<description>The Anchorage-Keep to 5 knots or less (9.25km / fast walking pace) in this area.</description>

				<styleUrl>#style3</styleUrl>

				<Polygon>

					<tessellate>1</tessellate>

					<outerBoundaryIs>

						<LinearRing>

							<coordinates>

							173.0538406325802,-40.95569144533943,0 173.0548740302518,-40.95614224728563,0 173.05549908253,-40.95433431996593,0 173.0544517044781,-40.95381171052475,0 173.0538406325802,-40.95569144533943,0 
						
</coordinates>

						</LinearRing>

					</outerBoundaryIs>

				</Polygon>

				<flyID>2</flyID>

				<flyDescription>The Anchorage-Keep to 5 knots or less (9.25km / fast walking pace) in this area.</flyDescription>

			</Placemark>
<Placemark>

				<name>5 Knot Zone</name>

				<description>The Anchorage-Keep to 5 knots or less (9.25km / fast walking pace) in this area.</description>

				<styleUrl>#style3</styleUrl>

				<Polygon>

					<tessellate>1</tessellate>

					<outerBoundaryIs>

						<LinearRing>

							<coordinates>

							173.0520362001834,-40.95319855914717,0 173.0517479810332,-40.95348896463286,0 173.051706252192,-40.95357718133749,0 173.0517414684715,-40.95372825643536,0 173.0516499505475,-40.95382209398458,0 173.0516578776753,-40.95401091679202,0 173.0519937085597,-40.95442699304927,0 173.0520362001834,-40.95319855914717,0 
						
</coordinates>

						</LinearRing>

					</outerBoundaryIs>

				</Polygon>

				<flyID>3</flyID>

				<flyDescription>The Anchorage-Keep to 5 knots or less (9.25km / fast walking pace) in this area.</flyDescription>

			</Placemark>
<Placemark>

				<name>Sand Spit At Low Tide</name>

				<description>A waterski area is on the south side of the sand spit, which only appears
below half tide. It is exposed to the effects of southerly sector winds
and stronger northerly sector breezes. Vessels may be anchored or
pulled on to the beach on the north side of the sand spit only.</description>

				<styleUrl>#style2</styleUrl>

				<Polygon>

					<tessellate>1</tessellate>

					<outerBoundaryIs>

						<LinearRing>

							<coordinates>

							173.0530182005567,-40.9819113901537,0 173.0531474476052,-40.98191196753959,0 173.0531485932191,-40.98163411305542,0 173.0532436196613,-40.98142074530441,0 173.0530234927892,-40.98142953885537,0 173.0506173476338,-40.9813234818272,0 173.0530182005567,-40.9819113901537,0 
						
</coordinates>

						</LinearRing>

					</outerBoundaryIs>

				</Polygon>

				<flyID>4</flyID>

				<flyDescription>A waterski area is on the south side of the sand spit, which only appears
below half tide. It is exposed to the effects of southerly sector winds
and stronger northerly sector breezes. Vessels may be anchored or
pulled on to the beach on the north side of the sand spit only.</flyDescription>

			</Placemark>
<Placemark>

				<name>Water Skiing Area</name>

				<description>This area is for priority use by vessels towing people or an object ('waterskiing') between one hour before and one hour after high tide. Towing boats must carry an observer over 10 years old, stay as far as practicable to starboard (the right hand side) when inside the area, and make circuits in an anti-clockwise direction. Do not park boats on the landing beach inside the area. Towing boats may exceed 5 knots inside the reserved area, and when more than 200m from shore or a divers blue and white flag and 50m from any other water user when outside it. If any boat is waterskiing in the area or nearby, other water users must keep out of the reserved area.</description>

				<styleUrl>#style1</styleUrl>

				<Polygon>

					<tessellate>1</tessellate>

					<outerBoundaryIs>

						<LinearRing>

							<coordinates>

							173.0515076841791,-40.94800745564528,0 173.0543257042884,-40.94803871091798,0 173.0545924169289,-40.94803870341018,0 173.0545514505161,-40.9462404551568,0 173.0527728431968,-40.94624048915907,0 173.0511725869062,-40.94535469191605,0 173.0496827839084,-40.94454909201994,0 173.0494786454862,-40.94476352542418,0 173.0493148036307,-40.94519002352921,0 173.0491827476855,-40.9457709154365,0 173.0515076841791,-40.94800745564528,0 
						
</coordinates>

						</LinearRing>

					</outerBoundaryIs>

				</Polygon>

				<flyID>5</flyID>

				<flyDescription>This area is for priority use by vessels towing people or an object ('waterskiing') between one hour before and one hour after high tide. Towing boats must carry an observer over 10 years old, stay as far as practicable to starboard (the right hand side) when inside the area, and make circuits in an anti-clockwise direction. Do not park boats on the landing beach inside the area. Towing boats may exceed 5 knots inside the reserved area, and when more than 200m from shore or a divers blue and white flag and 50m from any other water user when outside it. If any boat is waterskiing in the area or nearby, other water users must keep out of the reserved area.</flyDescription>

			</Placemark>
<Placemark>

				<name>'Go Slow' Zone 3 Knots</name>

				<description>Keep to 3 knots or less in this area</description>

				<styleUrl>#style0</styleUrl>

				<Polygon>

					<tessellate>1</tessellate>

					<outerBoundaryIs>

						<LinearRing>

							<coordinates>

							173.055470189274,-40.95636427048058,0 173.0563620880718,-40.95646968314881,0 173.0573732577854,-40.956516570993,0 173.0582361405763,-40.95636885076451,0 173.0587262867333,-40.9563623451122,0 173.0592168867712,-40.95638007229948,0 173.0596576343001,-40.95644013031616,0 173.0596599749761,-40.95658433072629,0 173.0599558180567,-40.95686491810578,0 173.0600713353568,-40.95668596892259,0 173.0599297537063,-40.95640785622786,0 173.0599292403206,-40.95628192204585,0 173.0597851204431,-40.95586538247934,0 173.0597733071463,-40.9552711470655,0 173.0598923653983,-40.95503741553612,0 173.0603070144318,-40.95497766401205,0 173.0606805041046,-40.95506271412069,0 173.0611245849175,-40.95508096427914,0 173.0611135722994,-40.95440297113006,0 173.0612070175881,-40.9543742809847,0 173.0612289789278,-40.95422211341931,0 173.061094108988,-40.95397098615695,0 173.0610129342647,-40.95364866312647,0 173.0606087758429,-40.95324038468635,0 173.0604653635471,-40.95278433954206,0 173.0604100705117,-40.9521986010412,0 173.0604951596758,-40.95205325712653,0 173.0603124692462,-40.95172075393911,0 173.0600750327532,-40.95152421960997,0 173.0597165075017,-40.9511876055803,0 173.0593790853402,-40.9510202668181,0 173.0565921247823,-40.95104297033767,0 173.0548788986367,-40.95614661751365,0 173.055470189274,-40.95636427048058,0 
						
</coordinates>

						</LinearRing>

					</outerBoundaryIs>

				</Polygon>

				<flyID>6</flyID>

				<flyDescription>Keep to 3 knots or less in this area</flyDescription>

			</Placemark>
<Placemark>

				<name>Water Skiing Area</name>

				<description>This area is for priority use by vessels towing people or an object ('waterskiing'). Towing boats must carry an observer over 10 years old, stay as far as practicable to starboard (the right hand side) when inside the area, and make circuits in an anti-clockwise direction. Do not park boats on the landing beach inside the area. Towing boats may exceed 5 knots inside the reserved area, and when more than 200m from shore or a divers blue and white flag and 50m from any other water user when outside it. If any boat is waterskiing in the area or nearby, other water users must keep out of the reserved area.</description>

				<styleUrl>#style1</styleUrl>

				<Polygon>

					<tessellate>1</tessellate>

					<outerBoundaryIs>

						<LinearRing>

							<coordinates>

							173.0525346337853,-40.94983086184031,0 173.0526908893707,-40.94961141757538,0 173.0529313553919,-40.94981704146322,0 173.0530061962391,-40.95007700498028,0 173.0530492941047,-40.95017778254191,0 173.0525066997055,-40.95049999458225,0 173.0523948534954,-40.95072892996988,0 173.0525172844432,-40.95077891849217,0 173.0525515982923,-40.95089132223266,0 173.0523208026437,-40.95107032100583,0 173.0525072968099,-40.95140993259751,0 173.0529806825602,-40.95218105763795,0 173.0527969780727,-40.95285627027058,0 173.0524167410806,-40.95305436316902,0 173.0520318143072,-40.9531869537848,0 173.0519897692085,-40.95441168784814,0 173.0525752019689,-40.9548955646695,0 173.053815836598,-40.95570241670066,0 173.0550124707011,-40.95233887587472,0 173.055305054279,-40.95155417067176,0 173.05505578328,-40.95104749515917,0 173.0554520917681,-40.95060733715836,0 173.0554160033131,-40.9503137309613,0 173.0553777758944,-40.94969105704354,0 173.0554128986684,-40.94948972322172,0 173.0551599085526,-40.94923805310667,0 173.0535507389985,-40.94918782197224,0 173.0526481420403,-40.94919622469087,0 173.0525884087341,-40.94932068601703,0 173.0522060589216,-40.94951699366661,0 173.0521570070893,-40.9497085940959,0 173.0525346337853,-40.94983086184031,0 
						
</coordinates>

						</LinearRing>

					</outerBoundaryIs>

				</Polygon>

				<flyID>7</flyID>

				<flyDescription>This area is for priority use by vessels towing people or an object ('waterskiing'). Towing boats must carry an observer over 10 years old, stay as far as practicable to starboard (the right hand side) when inside the area, and make circuits in an anti-clockwise direction. Do not park boats on the landing beach inside the area. Towing boats may exceed 5 knots inside the reserved area, and when more than 200m from shore or a divers blue and white flag and 50m from any other water user when outside it. If any boat is waterskiing in the area or nearby, other water users must keep out of the reserved area.</flyDescription>

			</Placemark>
<Placemark>

				<name>Water Skiing Area</name>

				<description>This area is for priority use by vessels towing people or an object ('waterskiing'). Towing boats must carry an observer over 10 years old, stay as far as practicable to starboard (the right hand side) when inside the area, and make circuits in an anti-clockwise direction. Do not park boats on the landing beach inside the area. Towing boats may exceed 5 knots inside the reserved area, and when more than 200m from shore or a divers blue and white flag and 50m from any other water user when outside it. If any boat is waterskiing in the area or nearby, other water users must keep out of the reserved area.</description>

				<styleUrl>#style1</styleUrl>

				<Polygon>

					<tessellate>1</tessellate>

					<outerBoundaryIs>

						<LinearRing>

							<coordinates>

							173.053035166074,-40.98217647822796,0 173.0531563569451,-40.98192266793065,0 173.0529631593363,-40.98186356261064,0 173.0523297592351,-40.98171095214343,0 173.0505508542846,-40.98133341253587,0 173.0505561473056,-40.98202796804231,0 173.050878571454,-40.98272872246014,0 173.0511672542403,-40.98331868525102,0 173.0511764282477,-40.98385722868653,0 173.051211821772,-40.98450049818629,0 173.0513020636151,-40.98474642755254,0 173.0513803220133,-40.98477305382468,0 173.053035166074,-40.98217647822796,0 
						
</coordinates>

						</LinearRing>

					</outerBoundaryIs>

				</Polygon>

				<flyID>8</flyID>

				<flyDescription>This area is for priority use by vessels towing people or an object ('waterskiing'). Towing boats must carry an observer over 10 years old, stay as far as practicable to starboard (the right hand side) when inside the area, and make circuits in an anti-clockwise direction. Do not park boats on the landing beach inside the area. Towing boats may exceed 5 knots inside the reserved area, and when more than 200m from shore or a divers blue and white flag and 50m from any other water user when outside it. If any boat is waterskiing in the area or nearby, other water users must keep out of the reserved area.</flyDescription>

			</Placemark>
<Placemark>

				<name>'Go Slow' Zone 3 Knots</name>

				<description>Keep to 3 knots or less in this area</description>

				<styleUrl>#style0</styleUrl>

				<Polygon>

					<tessellate>1</tessellate>

					<outerBoundaryIs>

						<LinearRing>

							<coordinates>

							173.0532346842422,-40.98142226239303,0 173.0533699845746,-40.98133403714328,0 173.0534487670986,-40.98095190721891,0 173.0537148540438,-40.98048984484054,0 173.053930419608,-40.98034332504926,0 173.0548960186417,-40.98008081834956,0 173.0554829786438,-40.97990742458892,0 173.055719574985,-40.9796863077969,0 173.0560532816884,-40.97935350265396,0 173.0562646331302,-40.9793714293088,0 173.056660623552,-40.97920926349148,0 173.0569647321586,-40.97876585552615,0 173.0572520579689,-40.97833831081009,0 173.0573122662235,-40.97790782742932,0 173.057199697346,-40.97741473806257,0 173.0571343271402,-40.97701851125905,0 173.057231125257,-40.9763652290217,0 173.0573804750354,-40.97558511679024,0 173.0571766543161,-40.975588541427,0 173.056929814409,-40.9755590429614,0 173.0549408479379,-40.97545959899929,0 173.0505787192294,-40.98130785331248,0 173.0532346842422,-40.98142226239303,0 
						
</coordinates>

						</LinearRing>

					</outerBoundaryIs>

				</Polygon>

				<flyID>9</flyID>

				<flyDescription>Keep to 3 knots or less in this area</flyDescription>

			</Placemark>

</Document>
</kml>
