<?xml version="1.0" encoding="UTF-8"?>
<kml xmlns="http://www.opengis.net/kml/2.2" xmlns:gx="http://www.google.com/kml/ext/2.2" xmlns:kml="http://www.opengis.net/kml/2.2" xmlns:atom="http://www.w3.org/2005/Atom">
<Document>
	<name>R34 C34.kml</name>
	<Style id="style0">
		<LineStyle>
			<color>ffff0000</color>
		</LineStyle>
		<PolyStyle>
			<color>ffff0000</color>
			<width>0.9</width>
		</PolyStyle>
	</Style>
	<Style id="style1">
		<LineStyle>
			<color>ffe65c00</color>
		</LineStyle>
		<PolyStyle>
			<color>ffe65c00</color>
			<width>0.9</width>
		</PolyStyle>
	</Style>
	<Style id="style6">
		<LineStyle>
			<color>ff00f4ff</color>
		</LineStyle>
		<PolyStyle>
			<color>ff00f4ff</color>
			<width>0.9</width>
		</PolyStyle>
	</Style>
	<Style id="style3">
		<LineStyle>
			<color>ff0000ff</color>
		</LineStyle>
		<PolyStyle>
			<color>ff0000ff</color>
			<width>0.9</width>
		</PolyStyle>
	</Style>
	<Style id="style4">
		<LineStyle>
			<color>ffffaa00</color>
		</LineStyle>
		<PolyStyle>
			<color>ffffaa00</color>
			<width>0.9</width>
		</PolyStyle>
	</Style>
	<Style id="style2">
		<LineStyle>
			<color>ff00ff00</color>
		</LineStyle>
		<PolyStyle>
			<color>ff00ff00</color>
			<width>0.9</width>
		</PolyStyle>
	</Style>
	<Style id="style5">
		<LineStyle>
			<color>ffeb6540</color>
		</LineStyle>
		<PolyStyle>
			<color>ffeb6540</color>
			<width>0.9</width>
		</PolyStyle>
	</Style>
	<Placemark>
		<name>Transit Lane (15 Knots Speed Limit)</name>
		<description>Keep to starboard side of lane and travel at appropriate speed, not exceeding 15 Knots.</description>
		<styleUrl>#style2</styleUrl>
		<Polygon>
			<tessellate>1</tessellate>
			<outerBoundaryIs>
				<LinearRing>
					<coordinates>
						173.1032492626266,-41.25848807985342,0 173.1054032179914,-41.25484552656976,0 173.1125984448952,-41.24985726929946,0 173.1121457201402,-41.24951158433677,0 173.1050025669332,-41.25444970894385,0 173.1026339673489,-41.2583848906757,0 173.1034347335493,-41.26423286122092,0 173.1039954742294,-41.2637827785266,0 173.1032492626266,-41.25848807985342,0 
					</coordinates>
				</LinearRing>
			</outerBoundaryIs>
		</Polygon>
		<flyID>0</flyID><flyDescription>Keep to starboard side of lane and travel at appropriate speed, not exceeding 15 Knots.</flyDescription>
	</Placemark>
	<Placemark>
		<name>Personal Water Craft (Jet Ski)/Water Ski Area</name>
		<description>Personal water craft area to be shared with water skiiers. This area is for priority use by vessels towing people or an object (waterskiing). Towing boats must carry an observer over 10 years old, stay as far as practicable to starboard (the right hand side) when inside the area, and make circuits in an anti-clockwise direction. Do not park boats on the landing beach inside the area. Towing boats may exceed 5 knots inside the reserved area, and when more than 200m from shore or a divers blue and white flag and 50m from any other water user when outside it. If any boat is waterskiing in the area or nearby, other water users must keep out of the reserved area.</description>
		<styleUrl>#style0</styleUrl>
		<Polygon>
			<tessellate>1</tessellate>
			<outerBoundaryIs>
				<LinearRing>
					<coordinates>
						173.1226184849345,-41.27022540477345,0 173.1261154851414,-41.27313117203852,0 173.1320136816275,-41.27644182464238,0 173.1360790252165,-41.27777500518211,0 173.1380521699458,-41.27875558073395,0 173.1403702927381,-41.27978367999887,0 173.141201302463,-41.27901606112601,0 173.1398252452704,-41.27888195076561,0 173.1380436290384,-41.27808547627272,0 173.1384424193234,-41.277444865372,0 173.1377373841124,-41.27708088784617,0 173.1359942003642,-41.27718281556918,0 173.1344746566214,-41.27609565916702,0 173.1341983252192,-41.27540161877015,0 173.1324026046047,-41.27552054520447,0 173.1310777401379,-41.27461559954289,0 173.1313355479736,-41.27366041185437,0 173.1301370104958,-41.2724190998997,0 173.1280859097297,-41.27177022960839,0 173.1264770576362,-41.27226444610592,0 173.1259663646471,-41.27145181918307,0 173.1251647584218,-41.27051614088335,0 173.1210133113968,-41.26889191417101,0 173.1202277421203,-41.26985962816782,0 173.1226184849345,-41.27022540477345,0 
					</coordinates>
				</LinearRing>
			</outerBoundaryIs>
		</Polygon>
		<flyID>1</flyID><flyDescription>Personal water craft area to be shared with water skiiers. This area is for priority use by vessels towing people or an object (waterskiing). Towing boats must carry an observer over 10 years old, stay as far as practicable to starboard (the right hand side) when inside the area, and make circuits in an anti-clockwise direction. Do not park boats on the landing beach inside the area. Towing boats may exceed 5 knots inside the reserved area, and when more than 200m from shore or a divers blue and white flag and 50m from any other water user when outside it. If any boat is waterskiing in the area or nearby, other water users must keep out of the reserved area.</flyDescription>
	</Placemark>
	<Placemark>
		<name>Personal Water Craft (Jet Ski)/Water Ski Area</name>
		<description>Personal water craft area to be shared with water skiiers. This area is for priority use by vessels towing people or an object (waterskiing). Towing boats must carry an observer over 10 years old, stay as far as practicable to starboard (the right hand side) when inside the area, and make circuits in an anti-clockwise direction. Do not park boats on the landing beach inside the area. Towing boats may exceed 5 knots inside the reserved area, and when more than 200m from shore or a divers blue and white flag and 50m from any other water user when outside it. If any boat is waterskiing in the area or nearby, other water users must keep out of the reserved area.</description>
		<styleUrl>#style0</styleUrl>
		<Polygon>
			<tessellate>1</tessellate>
			<outerBoundaryIs>
				<LinearRing>
					<coordinates>
						173.1494275693299,-41.28469940907364,0 173.1498480855486,-41.28481247416848,0 173.1504980163876,-41.28495661847015,0 173.151681261723,-41.28536039175656,0 173.1526454693875,-41.28568149208786,0 173.1539340618226,-41.28578813621913,0 173.1574120063248,-41.28511900689753,0 173.1585804346866,-41.28517216265119,0 173.1587051798171,-41.28472212691438,0 173.1589788665192,-41.28353374835068,0 173.1536783885481,-41.28385060970388,0 173.1513785836472,-41.2838117390967,0 173.1497545921104,-41.28279679056269,0 173.1487642568349,-41.28469935313202,0 173.1494275693299,-41.28469940907364,0 
					</coordinates>
				</LinearRing>
			</outerBoundaryIs>
		</Polygon>
		<flyID>2</flyID><flyDescription>Personal water craft area to be shared with water skiiers. This area is for priority use by vessels towing people or an object (waterskiing). Towing boats must carry an observer over 10 years old, stay as far as practicable to starboard (the right hand side) when inside the area, and make circuits in an anti-clockwise direction. Do not park boats on the landing beach inside the area. Towing boats may exceed 5 knots inside the reserved area, and when more than 200m from shore or a divers blue and white flag and 50m from any other water user when outside it. If any boat is waterskiing in the area or nearby, other water users must keep out of the reserved area.</flyDescription>
	</Placemark>
	<Placemark>
		<name>Water Skiing Area</name>
		<description>This area is for priority use by vessels towing people or an object (‘waterskiing’). Towing boats must carry an observer over 10 years old, stay as far as practicable to starboard (the right hand side) when inside the area, and make circuits in an anti-clockwise direction. Do not park boats on the landing beach at the eastern end of  the area. Towing boats may exceed 5 knots inside the reserved area, and when more than 200m from shore or a diver’s blue and white flag and 50m from any other water user when outside it. If any boat is waterskiing in the area or nearby, other water users must keep out of the reserved area. This popular area only provides sufficient water for waterskiing 2 or 3 hours either side of high tide, but is sheltered from most breezes. WARNING: Local knowledge of the position and depth of sand bars and oyster banks is essential.</description>
		<styleUrl>#style1</styleUrl>
		<Polygon>
			<tessellate>1</tessellate>
			<outerBoundaryIs>
				<LinearRing>
					<coordinates>
						173.1666938006445,-41.28579055936088,0 173.1706314013382,-41.28477711413399,0 173.1794507942768,-41.28711836834641,0 173.1884308544364,-41.29110694557892,0 173.1912659664397,-41.28804639405564,0 173.190551854841,-41.28813892735509,0 173.189243263191,-41.28774835497373,0 173.1882059860099,-41.2876205393203,0 173.1871811626395,-41.28740987236768,0 173.1856291986495,-41.2870951115285,0 173.1846802094893,-41.28631576254109,0 173.183717762888,-41.28500448062452,0 173.1835835514718,-41.28473836025836,0 173.1830534719501,-41.28376175567566,0 173.1823581117725,-41.28304507697097,0 173.1819190528808,-41.28224814271697,0 173.1813910532376,-41.2817476518982,0 173.1800691515663,-41.28087994072965,0 173.1793486850932,-41.28060385380496,0 173.1784403463682,-41.28058379710785,0 173.1774501250535,-41.28068304344665,0 173.1760934356383,-41.2807617941687,0 173.175335295222,-41.28087923415912,0 173.1732300788371,-41.28130085070776,0 173.1722566098236,-41.28133843776111,0 173.1709916768885,-41.28109114519923,0 173.1692628644591,-41.28099453554333,0 173.1681049055547,-41.28091673862706,0 173.1662994736377,-41.28044102446471,0 173.164748835302,-41.28033941638792,0 173.1630058413812,-41.28089599606633,0 173.1622774037691,-41.28148601366366,0 173.1613031198359,-41.28271992942813,0 173.160357202877,-41.28333640086765,0 173.1589884154872,-41.2835108154739,0 173.158568771879,-41.28520655432948,0 173.1666938006445,-41.28579055936088,0 
					</coordinates>
				</LinearRing>
			</outerBoundaryIs>
		</Polygon>
		<flyID>3</flyID><flyDescription>This area is for priority use by vessels towing people or an object (‘waterskiing’). Towing boats must carry an observer over 10 years old, stay as far as practicable to starboard (the right hand side) when inside the area, and make circuits in an anti-clockwise direction. Do not park boats on the landing beach at the eastern end of  the area. Towing boats may exceed 5 knots inside the reserved area, and when more than 200m from shore or a diver’s blue and white flag and 50m from any other water user when outside it. If any boat is waterskiing in the area or nearby, other water users must keep out of the reserved area. This popular area only provides sufficient water for waterskiing 2 or 3 hours either side of high tide, but is sheltered from most breezes. WARNING: Local knowledge of the position and depth of sand bars and oyster banks is essential.</flyDescription>
	</Placemark>
	<Placemark>
		<name>Water Skiing Area</name>
		<description>This area is for priority use by vessels towing people or an object (‘waterskiing’). Towing boats must carry an observer over 10 years old, stay as far as practicable to starboard (the right hand side) when inside the area, and make circuits in an anti-clockwise direction. Do not park boats on the landing beach inside the area. Towing boats may exceed 5 knots inside the reserved area, and when more than 200m from shore or a diver’s blue and white flag and 50m from any other water user when outside it. If any boat is waterskiing in the area or nearby, other water users must keep out of the reserved area.</description>
		<styleUrl>#style0</styleUrl>
		<Polygon>
			<tessellate>1</tessellate>
			<outerBoundaryIs>
				<LinearRing>
					<coordinates>
						173.1045545143612,-41.26616661744102,0 173.105201568047,-41.27013122654606,0 173.1070260136801,-41.27152875813493,0 173.1086111110188,-41.27172292754216,0 173.1098286296835,-41.27161441279655,0 173.1106657483439,-41.27133013040032,0 173.1072729088827,-41.26986648130825,0 173.1063216393183,-41.2659189032492,0 173.1094147532949,-41.26602506205801,0 173.113346490366,-41.26707452527104,0 173.1164384105674,-41.26752102210238,0 173.1179613764137,-41.26827050896167,0 173.1186519776589,-41.26915031090758,0 173.1192206305855,-41.26875440155832,0 173.1183911901697,-41.26761067676139,0 173.1174705304709,-41.26699531534438,0 173.1127078926079,-41.26616500649742,0 173.1101979802605,-41.26529602978673,0 173.1093254972368,-41.26512444517496,0 173.1058861314901,-41.26496926055512,0 173.10574482934,-41.26446982978423,0 173.1051323409886,-41.2638596131992,0 173.1044364788401,-41.2635077285896,0 173.1028994646824,-41.26494929528712,0 173.1045545143612,-41.26616661744102,0 
					</coordinates>
				</LinearRing>
			</outerBoundaryIs>
		</Polygon>
		<flyID>4</flyID><flyDescription>This area is for priority use by vessels towing people or an object (‘waterskiing’). Towing boats must carry an observer over 10 years old, stay as far as practicable to starboard (the right hand side) when inside the area, and make circuits in an anti-clockwise direction. Do not park boats on the landing beach inside the area. Towing boats may exceed 5 knots inside the reserved area, and when more than 200m from shore or a diver’s blue and white flag and 50m from any other water user when outside it. If any boat is waterskiing in the area or nearby, other water users must keep out of the reserved area.</flyDescription>
	</Placemark>
	<Placemark>
		<name>Access Lane (Anchoring Prohibited)</name>
		<description>This lane is to be kept clear for access to beach for embarking and disembarking vessels. No anchoring. Speed limit 5 knots. No towing (waterskiing). Please do not leave your vessel unattended at beach for more than 10 minutes. No swimming if boats are using the access lane.</description>
		<styleUrl>#style3</styleUrl>
		<Polygon>
			<tessellate>1</tessellate>
			<outerBoundaryIs>
				<LinearRing>
					<coordinates>
						173.0204301808417,-41.03667758033794,0 173.0206890219763,-41.03654331684219,0 173.0195475739228,-41.03492251206875,0 173.0192767183522,-41.03506694392252,0 173.0204301808417,-41.03667758033794,0 
					</coordinates>
				</LinearRing>
			</outerBoundaryIs>
		</Polygon>
		<flyID>5</flyID><flyDescription>This lane is to be kept clear for access to beach for embarking and disembarking vessels. No anchoring. Speed limit 5 knots. No towing (waterskiing). Please do not leave your vessel unattended at beach for more than 10 minutes. No swimming if boats are using the access lane.</flyDescription>
	</Placemark>
	<Placemark>
		<name>Access Lane (Anchoring Prohibited)</name>
		<description>This lane is to be kept clear for access to beach for embarking and disembarking vessels. No anchoring. Speed limit 5 knots. No towing (waterskiing). Please do not leave your vessel unattended at beach for more than 10 minutes. No swimming if boats are using the access lane.</description>
		<styleUrl>#style3</styleUrl>
		<Polygon>
			<tessellate>1</tessellate>
			<outerBoundaryIs>
				<LinearRing>
					<coordinates>
						173.0198163314009,-41.03766561529457,0 173.0199575439778,-41.03740182187313,0 173.0176686763729,-41.03684085077291,0 173.0175224753137,-41.03710273651328,0 173.0198163314009,-41.03766561529457,0 
					</coordinates>
				</LinearRing>
			</outerBoundaryIs>
		</Polygon>
		<flyID>6</flyID><flyDescription>This lane is to be kept clear for access to beach for embarking and disembarking vessels. No anchoring. Speed limit 5 knots. No towing (waterskiing). Please do not leave your vessel unattended at beach for more than 10 minutes. No swimming if boats are using the access lane.</flyDescription>
	</Placemark>
	<Placemark>
		<name>Anchoring Area</name>
		<description>This area is set aside for short-stay anchoring of vessels associated with commercial activity or using the ramp.</description>
		<styleUrl>#style4</styleUrl>
		<Polygon>
			<tessellate>1</tessellate>
			<outerBoundaryIs>
				<LinearRing>
					<coordinates>
						173.0201204807969,-41.03624688145605,0 173.0192723675218,-41.0350761705377,0 173.0189141791338,-41.03534217531609,0 173.0201204807969,-41.03624688145605,0 
					</coordinates>
				</LinearRing>
			</outerBoundaryIs>
		</Polygon>
		<flyID>7</flyID><flyDescription>This area is set aside for short-stay anchoring of vessels associated with commercial activity or using the ramp.</flyDescription>
	</Placemark>
	<Placemark>
		<name>Mooring/Anchoring Zone</name>
		<description>This zone dries at chart datum, and has an array of moorings for small craft that can take the bottom. Contact Kaiteriteri Beach Camp office to rent one.</description>
		<styleUrl>#style5</styleUrl>
		<Polygon>
			<tessellate>1</tessellate>
			<outerBoundaryIs>
				<LinearRing>
					<coordinates>
						173.0206792492267,-41.03652921054452,0 173.0220134316977,-41.03580264465902,0 173.0224430410171,-41.03554323023908,0 173.0222882223239,-41.03558487757717,0 173.0220932247809,-41.03558487948462,0 173.0219365820207,-41.03563804466286,0 173.0218244575067,-41.03550183555194,0 173.0216455255778,-41.03541653177469,0 173.0215167419106,-41.03525360320877,0 173.0214334790946,-41.03509706116213,0 173.0214911327613,-41.03507779492777,0 173.0214003744317,-41.03491259844707,0 173.0213578384744,-41.03469670938915,0 173.0212305561192,-41.03473792805114,0 173.0210540701112,-41.03478043538759,0 173.0209158815843,-41.03468795285188,0 173.0201990073624,-41.03475965351636,0 173.0195656624199,-41.03492272968217,0 173.0206792492267,-41.03652921054452,0 
					</coordinates>
				</LinearRing>
			</outerBoundaryIs>
		</Polygon>
		<flyID>8</flyID><flyDescription>This zone dries at chart datum, and has an array of moorings for small craft that can take the bottom. Contact Kaiteriteri Beach Camp office to rent one.</flyDescription>
	</Placemark>
	<Placemark>
		<name>Power Craft Prohibited</name>
		<description>Power Craft Prohibited - Kaiteriteri.</description>
		<styleUrl>#style3</styleUrl>
		<Polygon>
			<tessellate>1</tessellate>
			<outerBoundaryIs>
				<LinearRing>
					<coordinates>
						173.01539992169,-41.03973509345067,0 173.0154772190624,-41.0398020021796,0 173.0156117760652,-41.03988290683371,0 173.0158707949719,-41.03991406763601,0 173.0161183498649,-41.03982442554116,0 173.0163306515177,-41.03976261107389,0 173.016450143591,-41.03955508854224,0 173.0165340557692,-41.03927567804563,0 173.0167955374037,-41.03919183385298,0 173.0169664281281,-41.03916056091376,0 173.0170637750211,-41.03931097369075,0 173.0172426380947,-41.03922476117141,0 173.0174214535866,-41.03920768547699,0 173.0175844063516,-41.03915674257013,0 173.0176881465196,-41.03918438816959,0 173.0180691485795,-41.03901009273184,0 173.017424921001,-41.03835168062776,0 173.0170860642811,-41.03799729257592,0 173.0168492013682,-41.03831653403578,0 173.0166228432832,-41.03848337896274,0 173.0163853391532,-41.03865897819581,0 173.0161286870637,-41.03884154555809,0 173.0161078685908,-41.03874362199936,0 173.015656067959,-41.0390437660834,0 173.0151556282339,-41.03954835281446,0 173.0150437216327,-41.03965120973228,0 173.01539992169,-41.03973509345067,0 
					</coordinates>
				</LinearRing>
			</outerBoundaryIs>
		</Polygon>
		<flyID>9</flyID><flyDescription>Power Craft Prohibited - Kaiteriteri.</flyDescription>
	</Placemark>
	<Placemark>
		<name>&apos;Go Slow&apos; Zone 3 Knots</name>
		<description>No wake zone&apos;. Speed limit 3 knots. Please idle and trim for no appreciable wake in this area</description>
		<styleUrl>#style6</styleUrl>
		<Polygon>
			<tessellate>1</tessellate>
			<outerBoundaryIs>
				<LinearRing>
					<coordinates>
						173.0194135216308,-41.13809595184567,0 173.0203044974989,-41.13804540821352,0 173.0206725137329,-41.13802347353472,0 173.0207283456781,-41.13799767570323,0 173.0207253447011,-41.13785747511777,0 173.0207729691683,-41.1377828657641,0 173.02092067934,-41.13775491148475,0 173.0212477008028,-41.13767361809759,0 173.0216902402763,-41.13754328273925,0 173.0216412208474,-41.1374073953921,0 173.0214991522432,-41.13720901674022,0 173.021411272506,-41.13718516274276,0 173.0209795952102,-41.1373849433835,0 173.0206307643647,-41.13757319888422,0 173.0204512301139,-41.13760282274507,0 173.0203459295337,-41.13756468503693,0 173.0202198528617,-41.13752176521098,0 173.0202195048579,-41.13747826109055,0 173.0203374628076,-41.13744745418492,0 173.0204473849089,-41.13738945141496,0 173.0204546349716,-41.13730740089546,0 173.0206007916703,-41.13721433970835,0 173.0208037535988,-41.13705737742831,0 173.0209269030336,-41.13692056781668,0 173.0208073922123,-41.13682205595381,0 173.0206425835139,-41.13679717163672,0 173.0205626185036,-41.13674709040696,0 173.0206304729493,-41.1367134697219,0 173.0206619440357,-41.13655116850065,0 173.0208969699631,-41.1364727540486,0 173.0210078637723,-41.13634399197108,0 173.02097873457,-41.13622051091489,0 173.0208370558023,-41.13615402460926,0 173.0206838254632,-41.13599579137458,0 173.0205632355467,-41.13569793013879,0 173.0204305911061,-41.13547672177883,0 173.0181380391174,-41.1349993341066,0 173.0194135216308,-41.13809595184567,0 
					</coordinates>
				</LinearRing>
			</outerBoundaryIs>
		</Polygon>
		<flyID>10</flyID><flyDescription>No wake zone&apos;. Speed limit 3 knots. Please idle and trim for no appreciable wake in this area</flyDescription>
	</Placemark>
	<Placemark>
		<name>Swimming Area</name>
		<description>This area is for priority use for swimming and similar passive recreation. If anyone is swimming within the area other water users should stay out. Do not anchor within this area.</description>
		<styleUrl>#style0</styleUrl>
		<Polygon>
			<tessellate>1</tessellate>
			<outerBoundaryIs>
				<LinearRing>
					<coordinates>
						173.0201205930125,-41.03625811090693,0 173.0189100349161,-41.03534154121763,0 173.0182499182851,-41.03585404291869,0 173.0179177832931,-41.0363714690757,0 173.0176870422735,-41.03683739117089,0 173.0193660377814,-41.03725909307661,0 173.0201205930125,-41.03625811090693,0 
					</coordinates>
				</LinearRing>
			</outerBoundaryIs>
		</Polygon>
		<flyID>12</flyID><flyDescription>This area is for priority use for swimming and similar passive recreation. If anyone is swimming within the area other water users should stay out. Do not anchor within this area.</flyDescription>
	</Placemark>
	<Placemark>
		<name>Water Skiing Area</name>
		<description>This area is for priority use by boats towing people or an object (‘waterskiing’). Personal Water Craft (Jetskis) are not permitted to tow in this area. Towing boats must carry an observer over 10 years old, stay as far as practicable to starboard (the right hand side) when inside the area, and make circuits in an anti-clockwise direction. Do not park boats on the landing beach inside the area. Towing boats may exceed 5 knots inside the reserved area, and when more than 200m from shore or a diver’s blue and white flag and 50m from any other water user when outside it. If any boat is waterskiing in the area or nearby, other water users must keep out of the reserved area. NOTE: Between 21 December 2013 and 28 February 2014, this area is only reserved for waterskiing between two hours before and two hours after high tide.</description>
		<styleUrl>#style0</styleUrl>
		<Polygon>
			<tessellate>1</tessellate>
			<outerBoundaryIs>
				<LinearRing>
					<coordinates>
						173.0209199561072,-41.04191731575632,0 173.0223513259141,-41.0404708054636,0 173.0214766265428,-41.03806287112955,0 173.0175025572451,-41.03711646891344,0 173.0170740461444,-41.037986889049,0 173.0209199561072,-41.04191731575632,0 
					</coordinates>
				</LinearRing>
			</outerBoundaryIs>
		</Polygon>
		<flyID>13</flyID><flyDescription>This area is for priority use by boats towing people or an object (‘waterskiing’). Personal Water Craft (Jetskis) are not permitted to tow in this area. Towing boats must carry an observer over 10 years old, stay as far as practicable to starboard (the right hand side) when inside the area, and make circuits in an anti-clockwise direction. Do not park boats on the landing beach inside the area. Towing boats may exceed 5 knots inside the reserved area, and when more than 200m from shore or a diver’s blue and white flag and 50m from any other water user when outside it. If any boat is waterskiing in the area or nearby, other water users must keep out of the reserved area. NOTE: Between 21 December 2013 and 28 February 2014, this area is only reserved for waterskiing between two hours before and two hours after high tide.</flyDescription>
	</Placemark>
	<Placemark>
		<name>Water Skiing Area (Kina Peninsula)</name>
		<description>This area is for priority use by vessels towing people or an object (waterskiing). Towing boats must carry an observer over 10 years old, stay as far as practicable to starboard (the right hand side) when inside the area, and make circuits in an anti-clockwise direction. Do not park boats on the landing beach inside the area. Towing boats may exceed 5 knots inside the reserved area, and when more than 200m from shore or a divers blue and white flag and 50m from any other water user when outside it. If any boat is waterskiing in the area or nearby, other water users must keep out of the reserved area. This popular area only provides sufficient water for waterskiing 2 or 3
hours either side of high tide, but is sheltered from most breezes.
WARNING: Local knowledge of the position and depth of sand bars and
mud banks is essential. Much of the seabed in this area is rock or cobbles.
Exercise due caution.</description>
		<styleUrl>#style0</styleUrl>
		<Polygon>
			<tessellate>1</tessellate>
			<outerBoundaryIs>
				<LinearRing>
					<coordinates>
						173.0331625958293,-41.15962921372627,0 173.0344481885647,-41.16109647365649,0 173.0359402654698,-41.16201749175361,0 173.0363524366079,-41.1624420595077,0 173.0369622498098,-41.16367797136201,0 173.0381697560493,-41.16495565845914,0 173.0406663074734,-41.16651462310028,0 173.0422988888241,-41.1689554620268,0 173.0433545313122,-41.17026321703187,0 173.0446423641881,-41.1683448610335,0 173.0430349563779,-41.16544521378453,0 173.0404855478398,-41.16387654917536,0 173.0393819199786,-41.16319959223827,0 173.0389427337438,-41.16260246189108,0 173.0385217922336,-41.1614229181595,0 173.0360865858208,-41.16008439532953,0 173.0342832012517,-41.15758501964505,0 173.0327996248903,-41.15463468303536,0 173.0307264470786,-41.15658106199004,0 173.0331625958293,-41.15962921372627,0 
					</coordinates>
				</LinearRing>
			</outerBoundaryIs>
		</Polygon>
		<flyID>14</flyID><flyDescription>This area is for priority use by vessels towing people or an object (waterskiing). Towing boats must carry an observer over 10 years old, stay as far as practicable to starboard (the right hand side) when inside the area, and make circuits in an anti-clockwise direction. Do not park boats on the landing beach inside the area. Towing boats may exceed 5 knots inside the reserved area, and when more than 200m from shore or a divers blue and white flag and 50m from any other water user when outside it. If any boat is waterskiing in the area or nearby, other water users must keep out of the reserved area. This popular area only provides sufficient water for waterskiing 2 or 3
hours either side of high tide, but is sheltered from most breezes.
WARNING: Local knowledge of the position and depth of sand bars and
mud banks is essential. Much of the seabed in this area is rock or cobbles.
Exercise due caution.
</flyDescription>
	</Placemark>
</Document>
</kml>
