<?xml version="1.0" encoding="UTF-8"?>
<kml xmlns="http://www.opengis.net/kml/2.2" xmlns:gx="http://www.google.com/kml/ext/2.2" xmlns:kml="http://www.opengis.net/kml/2.2" xmlns:atom="http://www.w3.org/2005/Atom">
<Document>
	<name>R12 C41.kml</name>
	<Style id="sn_ylw-pushpin">
		<LineStyle>
			<color>ff0000ff</color>
		</LineStyle>
		<PolyStyle>
			<color>ff0000ff</color>
		</PolyStyle>
	</Style>
	<Style id="sn_ylw-pushpin1">
		<LineStyle>
			<color>ff0000ff</color>
		</LineStyle>
		<PolyStyle>
			<color>ff0000ff</color>
		</PolyStyle>
	</Style>
	<Placemark>
		<name>Cable Protection Area</name>
		<description>No Fishing - No anchoring
- DANGER HIGH VOLTAGE CABLES  (10000 volts).
- FISHING in this Cable Protection Area is illegal.
- ANCHORING in this Cable Protection Area is illegal.
- Refer to Marine Charts for details.
- Ph: 0800782627 for more details.</description>
		<styleUrl>#sn_ylw-pushpin</styleUrl>
		<Polygon>
			<tessellate>1</tessellate>
			<outerBoundaryIs>
				<LinearRing>
					<coordinates>
						175.0004250529442,-36.25360003313704,0 175.0331001548027,-35.88739062574938,0 175.120077781788,-35.70084060826461,0 174.9980615489153,-35.70585895666805,0 174.9298348367277,-35.87371264860544,0 174.9216187542544,-36.11172681129728,0 175.0004250529442,-36.25360003313704,0 
					</coordinates>
				</LinearRing>
			</outerBoundaryIs>
		</Polygon>
		<flyID>0</flyID><flyDescription>No Fishing - No anchoring
- DANGER HIGH VOLTAGE CABLES  (10000 volts).
- FISHING in this Cable Protection Area is illegal.
- ANCHORING in this Cable Protection Area is illegal.
- Refer to Marine Charts for details.
- Ph: 0800782627 for more details.</flyDescription>
	</Placemark>
</Document>
</kml>
