<?xml version="1.0" encoding="UTF-8"?>
<kml xmlns="http://www.opengis.net/kml/2.2" xmlns:gx="http://www.google.com/kml/ext/2.2" xmlns:kml="http://www.opengis.net/kml/2.2" xmlns:atom="http://www.w3.org/2005/Atom">
<Document>
<name>R46 C18.kml</name>

<Style id="style0">

					<LineStyle>

						<color>ff00ffff</color>

					</LineStyle>

					<PolyStyle>

						<color>ff00ffff</color>

						<width>0.9</width>

					</PolyStyle>

				</Style>

<Placemark>

				<name>5 Knot Zone</name>

				<description>Keep to 5 knots or less (9.25km / fast walking pace) in this area</description>

				<styleUrl>#style0</styleUrl>

				<Polygon>

					<tessellate>1</tessellate>

					<outerBoundaryIs>

						<LinearRing>

							<coordinates>

							169.038372062581,-44.23818338255417,0 169.0451215279314,-44.23901639055408,0 169.0522820010536,-44.24100133614464,0 169.0552514599029,-44.24449669921962,0 169.0658201214188,-44.24989174189168,0 169.0743473682663,-44.25286038736298,0 169.0865069161094,-44.2571899493655,0 169.0923155517987,-44.25827821379114,0 169.1049308165273,-44.26062262911974,0 169.122803228046,-44.2609771312267,0 169.1488797679719,-44.2626030892535,0 169.161839137684,-44.26596934946961,0 169.168841894147,-44.26863379074006,0 169.1781142242121,-44.2722228610379,0 169.1823264043921,-44.26370996048048,0 169.1726826260633,-44.26184596513902,0 169.16329947029,-44.26148970638603,0 169.1599182590134,-44.26087382557304,0 169.1442693388943,-44.25789463523467,0 169.1362748687479,-44.25793688418737,0 169.1292994246975,-44.25770121839817,0 169.1118352670038,-44.25650736806082,0 169.1020065221544,-44.25642344646171,0 169.0934712566285,-44.2554010443485,0 169.0867569216835,-44.2544310951953,0 169.0790739621016,-44.25240903816715,0 169.0691804280318,-44.24841474817127,0 169.0625508984153,-44.24430778636072,0 169.0571669526048,-44.23951018229811,0 169.0525073115933,-44.23806607609869,0 169.0442579675164,-44.23732569890351,0 169.0372395203216,-44.23565209273929,0 169.0306655069958,-44.23659050741676,0 169.0317223170168,-44.23837457112119,0 169.038372062581,-44.23818338255417,0 
						
</coordinates>

						</LinearRing>

					</outerBoundaryIs>

				</Polygon>

				<flyID>0</flyID>

				<flyDescription>Keep to 5 knots or less (9.25km / fast walking pace) in this area</flyDescription>

			</Placemark>
<Placemark>

				<name>5 Knot Zone</name>

				<description>Keep to 5 knots or less (9.25km / fast walking pace) in this area</description>

				<styleUrl>#style0</styleUrl>

				<Polygon>

					<tessellate>1</tessellate>

					<outerBoundaryIs>

						<LinearRing>

							<coordinates>

							169.1792289119139,-44.30604464861804,0 169.1791896963029,-44.30326648078744,0 169.1820121881964,-44.29819113983072,0 169.1898181544683,-44.28899034467187,0 169.1883420038233,-44.28444739971202,0 169.1891316405505,-44.27933519863736,0 169.1880244434668,-44.27382770348002,0 169.1907003421061,-44.2657101117322,0 169.1928115184706,-44.26295319267081,0 169.2004101324212,-44.25674456077161,0 169.209510247736,-44.2491470184917,0 169.2138686433916,-44.24342300636772,0 169.2209543491066,-44.24103687478397,0 169.2239502893617,-44.23482044519751,0 169.2272201745313,-44.23108119055041,0 169.2275046513309,-44.22599798899369,0 169.2330046170264,-44.21910447272826,0 169.2377092843665,-44.21673878187877,0 169.2410849138504,-44.20905130523551,0 169.2422836299912,-44.20218045216085,0 169.234287899861,-44.20196069238966,0 169.2330333020954,-44.2068951425064,0 169.2307050475905,-44.20917154079702,0 169.2296023355195,-44.2119125298707,0 169.2283973264401,-44.21849279924604,0 169.2232581974488,-44.22726436879754,0 169.2181198258473,-44.23176329617363,0 169.2108908413719,-44.23467696613522,0 169.2074516387632,-44.24262628201468,0 169.2021427645471,-44.24881690325886,0 169.1944386811188,-44.25386548178374,0 169.1858909091109,-44.2577053328538,0 169.1783060414878,-44.27238831491049,0 169.1804840118823,-44.27693902057332,0 169.1801546549667,-44.28292906080693,0 169.1765951391589,-44.28858807544476,0 169.1685223009568,-44.30363855398475,0 169.1649290378691,-44.31129529627518,0 169.1616162970262,-44.32300551806142,0 169.184094319795,-44.3162994208927,0 169.1792289119139,-44.30604464861804,0 
						
</coordinates>

						</LinearRing>

					</outerBoundaryIs>

				</Polygon>

				<flyID>1</flyID>

				<flyDescription>Keep to 5 knots or less (9.25km / fast walking pace) in this area</flyDescription>

			</Placemark>

</Document>
</kml>
