<?xml version="1.0" encoding="UTF-8"?>
<kml xmlns="http://www.opengis.net/kml/2.2" xmlns:gx="http://www.google.com/kml/ext/2.2" xmlns:kml="http://www.opengis.net/kml/2.2" xmlns:atom="http://www.w3.org/2005/Atom">
<Document>
<name>R16C43.kml</name>

<Style id="style0">

					<LineStyle>

						<color>ff00ffff</color>

					</LineStyle>

					<PolyStyle>

						<color>ff00ffff</color>

						<width>0.9</width>

					</PolyStyle>

				</Style>
<Style id="style1">

					<LineStyle>

						<color>ffff0000</color>

					</LineStyle>

					<PolyStyle>

						<color>ffff0000</color>

						<width>0.9</width>

					</PolyStyle>

				</Style>

<Placemark>

				<name>5 Knot Zone</name>

				<description>Keep to 5 knots or less (9.25km / fast walking pace) in this area - Coromandel</description>

				<styleUrl>#style0</styleUrl>

				<Polygon>

					<tessellate>1</tessellate>

					<outerBoundaryIs>

						<LinearRing>

							<coordinates>

							175.4904795720788,-36.76421297402916,0 175.4917238642975,-36.76372804715572,0 175.4923987385816,-36.76318186640462,0 175.4929702987554,-36.76278738205467,0 175.4932356764325,-36.76260669048741,0 175.4935337874922,-36.7624934356015,0 175.4937660848966,-36.762453096953,0 175.4939635344744,-36.76240069784933,0 175.494376642012,-36.76231794645331,0 175.4948153287623,-36.7619921621855,0 175.4946314637704,-36.76185813429274,0 175.4944895618244,-36.7619565118124,0 175.4942504470289,-36.76212207711847,0 175.493877132556,-36.76223020762812,0 175.4933979087278,-36.76231494173908,0 175.4931135121631,-36.76246321504501,0 175.4925010857849,-36.76283619405617,0 175.4916158956272,-36.76351750754576,0 175.4895515357661,-36.76439021297406,0 175.4870672915639,-36.76547058176849,0 175.4838400513434,-36.76686834928941,0 175.4839362208175,-36.76702337065395,0 175.4904795720788,-36.76421297402916,0 
						
</coordinates>

						</LinearRing>

					</outerBoundaryIs>

				</Polygon>

				<flyID>0</flyID>

				<flyDescription>Keep to 5 knots or less (9.25km / fast walking pace) in this area - Coromandel</flyDescription>

			</Placemark>
<Placemark>

				<name>Towing Access Lanes</name>

				<description>In this area you may tow at speed from the shore.  The lane is marked by orange posts with horizontal black bands.  Proceed in an anti-clockwise direction.</description>

				<styleUrl>#style1</styleUrl>

				<Polygon>

					<tessellate>1</tessellate>

					<outerBoundaryIs>

						<LinearRing>

							<coordinates>

							175.4728500762611,-36.80929502238602,0 175.4734399138095,-36.8083892491881,0 175.4714616781682,-36.80747805164384,0 175.4708785282292,-36.80842277829574,0 175.4728500762611,-36.80929502238602,0 
						
</coordinates>

						</LinearRing>

					</outerBoundaryIs>

				</Polygon>

				<flyID>1</flyID>

				<flyDescription>In this area you may tow at speed from the shore.  The lane is marked by orange posts with horizontal black bands.  Proceed in an anti-clockwise direction.</flyDescription>

			</Placemark>
<Placemark>

				<name>Mooring Zone</name>

				<description>These zones are designated for moored vessels.  Keep to 5 knots or less within 50 meters of the mooring zone.  Avoid transiting through this area.</description>

				<styleUrl>#style1</styleUrl>

				<Polygon>

					<tessellate>1</tessellate>

					<outerBoundaryIs>

						<LinearRing>

							<coordinates>

							175.4832330342901,-36.80452018808283,0 175.4850296846988,-36.80437445859013,0 175.4863225934556,-36.80319145347794,0 175.4848971730044,-36.80081135593416,0 175.4838358703808,-36.8004361791749,0 175.4805098552723,-36.79969590104449,0 175.4800187194894,-36.80177309898339,0 175.4832330342901,-36.80452018808283,0 
						
</coordinates>

						</LinearRing>

					</outerBoundaryIs>

				</Polygon>

				<flyID>2</flyID>

				<flyDescription>These zones are designated for moored vessels.  Keep to 5 knots or less within 50 meters of the mooring zone.  Avoid transiting through this area.</flyDescription>

			</Placemark>
<Placemark>

				<name>Mooring Zone</name>

				<description>These zones are designated for moored vessels.  Keep to 5 knots or less within 50 meters of the mooring zone.  Avoid transiting through this area.</description>

				<styleUrl>#style1</styleUrl>

				<Polygon>

					<tessellate>1</tessellate>

					<outerBoundaryIs>

						<LinearRing>

							<coordinates>

							175.4658831491377,-36.76642416104134,0 175.4695997776633,-36.76817164540241,0 175.4782576846378,-36.76402555892975,0 175.4731051524057,-36.75816602747248,0 175.4649628553656,-36.7621036514948,0 175.4643196566889,-36.76431657023222,0 175.4658831491377,-36.76642416104134,0 
						
</coordinates>

						</LinearRing>

					</outerBoundaryIs>

				</Polygon>

				<flyID>3</flyID>

				<flyDescription>These zones are designated for moored vessels.  Keep to 5 knots or less within 50 meters of the mooring zone.  Avoid transiting through this area.</flyDescription>

			</Placemark>
<Placemark>

				<name>Mooring Zone</name>

				<description>These zones are designated for moored vessels.  Keep to 5 knots or less within 50 meters of the mooring zone.  Avoid transiting through this area.</description>

				<styleUrl>#style1</styleUrl>

				<Polygon>

					<tessellate>1</tessellate>

					<outerBoundaryIs>

						<LinearRing>

							<coordinates>

							175.4626757684187,-36.80855134632216,0 175.4629480339646,-36.80913793292653,0 175.4633699130562,-36.80945565435766,0 175.4641917507144,-36.8098850884349,0 175.4664209575527,-36.81046719356414,0 175.4674551771216,-36.81019207731554,0 175.4680773744503,-36.8098308068376,0 175.4689352497628,-36.81002326293976,0 175.4694208250425,-36.80971485667167,0 175.4704121125538,-36.80816017429344,0 175.4705139435455,-36.80708270837344,0 175.4658056972695,-36.80714098879557,0 175.4627696963336,-36.80822203399889,0 175.4626757684187,-36.80855134632216,0 
						
</coordinates>

						</LinearRing>

					</outerBoundaryIs>

				</Polygon>

				<flyID>4</flyID>

				<flyDescription>These zones are designated for moored vessels.  Keep to 5 knots or less within 50 meters of the mooring zone.  Avoid transiting through this area.</flyDescription>

			</Placemark>
<Placemark>

				<name>Mooring Zone</name>

				<description>These zones are designated for moored vessels.  Keep to 5 knots or less within 50 meters of the mooring zone.  Avoid transiting through this area.</description>

				<styleUrl>#style1</styleUrl>

				<Polygon>

					<tessellate></tessellate>

					<outerBoundaryIs>

						<LinearRing>

							<coordinates>

							175.465642913607,-36.7371635040534,0 175.467413580204,-36.7356884490526,0 175.465714691795,-36.7340280935913,0 175.463857546783,-36.7352958334729,0 175.465642913607,-36.7371635040534,0 
						
</coordinates>

						</LinearRing>

					</outerBoundaryIs>

				</Polygon>

				<flyID>5</flyID>

				<flyDescription>These zones are designated for moored vessels.  Keep to 5 knots or less within 50 meters of the mooring zone.  Avoid transiting through this area.</flyDescription>

			</Placemark>
<Placemark>

				<name>Towing Access Lanes</name>

				<description>In this area you may tow at speed from the shore.  The lane is marked by orange posts with horizontal black bands.  Proceed in an anti-clockwise direction.</description>

				<styleUrl>#style1</styleUrl>

				<Polygon>

					<tessellate></tessellate>

					<outerBoundaryIs>

						<LinearRing>

							<coordinates>

							175.470842456718,-36.7335449855137,0 175.471124275544,-36.7338443626567,0 175.471417120646,-36.734155449744,0 175.469635410091,-36.7352464321352,0 175.469067471254,-36.7346430329096,0 175.470842456718,-36.7335449855137,0 
						
</coordinates>

						</LinearRing>

					</outerBoundaryIs>

				</Polygon>

				<flyID>6</flyID>

				<flyDescription>In this area you may tow at speed from the shore.  The lane is marked by orange posts with horizontal black bands.  Proceed in an anti-clockwise direction.</flyDescription>

			</Placemark>

</Document>
</kml>
