<?xml version="1.0" encoding="UTF-8"?>
<kml xmlns="http://www.opengis.net/kml/2.2" xmlns:gx="http://www.google.com/kml/ext/2.2" xmlns:kml="http://www.opengis.net/kml/2.2" xmlns:atom="http://www.w3.org/2005/Atom">
<Document>
	<name>R15 C42.kml</name>
	<Style id="sn_ylw-pushpin">
		<LineStyle>
			<color>ff0000ff</color>
		</LineStyle>
		<PolyStyle>
			<color>ff0000ff</color>
		</PolyStyle>
	</Style>
	<Style id="sn_ylw-pushpin0">
		<LineStyle>
			<color>ff0000ff</color>
		</LineStyle>
		<PolyStyle>
			<color>ff0000ff</color>
		</PolyStyle>
	</Style>
	<Placemark>
		<name>Cable Protection Area</name>
		<description>- DANGER HIGH VOLTAGE CABLES  (10000 volts).
- FISHING in this Cable Protection Area is illegal.
- ANCHORING in this Cable Protection Area is illegal.
- Refer to Marine Charts for details.
- Ph: 0800782627 for more details.</description>
		<styleUrl>#sn_ylw-pushpin</styleUrl>
		<Polygon>
			<tessellate>1</tessellate>
			<outerBoundaryIs>
				<LinearRing>
					<coordinates>
						174.80081816999,-36.78117970291932,0 174.8337786626917,-36.67969688261233,0 174.9999153158207,-36.62666488699794,0 175.0001401397376,-36.5186833895465,0 175.0004250529442,-36.25360003313704,0 175.0331001548027,-35.88739062574938,0 175.120077781788,-35.70084060826461,0 174.9980615489153,-35.70585895666805,0 174.9298348367277,-35.87371264860544,0 174.9216187542544,-36.11172681129728,0 174.945034962499,-36.40007618180581,0 174.9451738339475,-36.60659201316969,0 174.8019396638179,-36.65192575256623,0 174.7777647966011,-36.77846247865819,0 174.7787331784892,-36.78026420215845,0 174.776717878905,-36.78563918524467,0 174.7781953679539,-36.78902081829116,0 174.7878357690577,-36.79378373527921,0 174.80081816999,-36.78117970291932,0 
					</coordinates>
				</LinearRing>
			</outerBoundaryIs>
		</Polygon>
		<flyID>0</flyID><flyDescription>- DANGER HIGH VOLTAGE CABLES  (10000 volts).
- FISHING in this Cable Protection Area is illegal.
- ANCHORING in this Cable Protection Area is illegal.
- Refer to Marine Charts for details.
- Ph: 0800782627 for more details.</flyDescription>
	</Placemark>
</Document>
</kml>
