<?xml version="1.0" encoding="UTF-8"?>
<kml xmlns="http://www.opengis.net/kml/2.2" xmlns:gx="http://www.google.com/kml/ext/2.2" xmlns:kml="http://www.opengis.net/kml/2.2" xmlns:atom="http://www.w3.org/2005/Atom">
<Document>
<name>R45 C25.kml</name>

<Style id="style0">

					<LineStyle>

						<color>ffff0000</color>

					</LineStyle>

					<PolyStyle>

						<color>ffff0000</color>

						<width>0.9</width>

					</PolyStyle>

				</Style>
<Style id="style1">

					<LineStyle>

						<color>ff0000ff</color>

					</LineStyle>

					<PolyStyle>

						<color>ff0000ff</color>

						<width>0.9</width>

					</PolyStyle>

				</Style>
<Style id="style2">

					<LineStyle>

						<color>ff00ffff</color>

					</LineStyle>

					<PolyStyle>

						<color>ff00ffff</color>

						<width>0.9</width>

					</PolyStyle>

				</Style>

<Placemark>

				<name>Water Ski Access Zone</name>

				<description>5 knot speed limit does not apply for launching and return of waterskiers provided the vessel navigates directly to and from the shore.</description>

				<styleUrl>#style0</styleUrl>

				<Polygon>

					<tessellate>1</tessellate>

					<outerBoundaryIs>

						<LinearRing>

							<coordinates>

							170.8873626560763,-43.98578477738728,0 170.8879195721129,-43.98548793917491,0 170.8882794398391,-43.98524200962496,0 170.8885886910818,-43.985015279942,0 170.8891667085755,-43.98460647635801,0 170.8897018673619,-43.98422995520642,0 170.8902433073329,-43.98386775802827,0 170.8905525871226,-43.98354957293743,0 170.8907564085878,-43.98322090554061,0 170.8911725310349,-43.98298880153279,0 170.8915858186836,-43.98273613254852,0 170.8920066270407,-43.98244030789169,0 170.8926235539217,-43.9819508658323,0 170.8930384004757,-43.98180246781877,0 170.8937445969061,-43.9815776716268,0 170.8943588260073,-43.98143138206871,0 170.8951036488811,-43.9807599179194,0 170.8948676788493,-43.98061314522309,0 170.8945514408024,-43.98050752657029,0 170.8941597625966,-43.98039332394782,0 170.8939339643462,-43.9804149176835,0 170.8936227000525,-43.98063273090034,0 170.8932117586567,-43.98085749140591,0 170.8926389147467,-43.98116705221711,0 170.8921546253189,-43.98135042177268,0 170.8918060326554,-43.98139649876372,0 170.8915134162553,-43.98142488999635,0 170.8911899270538,-43.98144612811395,0 170.8909235869588,-43.98151386433377,0 170.8904905335791,-43.98181153142219,0 170.8902705335487,-43.98198488805618,0 170.8900226450523,-43.98224817268551,0 170.8898078934258,-43.98252355789396,0 170.8894819004156,-43.98288338627887,0 170.8891906264781,-43.98312960327426,0 170.8889361132684,-43.98325145922139,0 170.8887833075646,-43.98325127780714,0 170.8885767083042,-43.98318257055621,0 170.8883832207297,-43.98302633556775,0 170.8881737983182,-43.98300078107505,0 170.8879924324005,-43.98299761534801,0 170.8877741684714,-43.98316156593072,0 170.8876997979398,-43.98343226484447,0 170.8876959555577,-43.98375105652787,0 170.8874181584702,-43.98387270699755,0 170.886800730246,-43.9838867426934,0 170.8873626560763,-43.98578477738728,0 
						
</coordinates>

						</LinearRing>

					</outerBoundaryIs>

				</Polygon>

				<flyID>0</flyID>

				<flyDescription>5 knot speed limit does not apply for launching and return of waterskiers provided the vessel navigates directly to and from the shore.</flyDescription>

			</Placemark>
<Placemark>

				<name>Water Ski Access Zone</name>

				<description>5 knot speed limit does not apply for launching and return of waterskiers provided the vessel navigates directly to and from the shore.</description>

				<styleUrl>#style0</styleUrl>

				<Polygon>

					<tessellate>1</tessellate>

					<outerBoundaryIs>

						<LinearRing>

							<coordinates>

							170.8888510384877,-43.98993266139031,0 170.8884597248436,-43.98945459435999,0 170.8884480021127,-43.98921364675907,0 170.8884964494054,-43.98908598960826,0 170.8886982269268,-43.9889176724686,0 170.8889272440716,-43.9888144972537,0 170.8890943150333,-43.98867707482845,0 170.888910114778,-43.98861006674382,0 170.8887027444424,-43.98861079492982,0 170.8883849473202,-43.98858079671425,0 170.8882135552779,-43.98864726544044,0 170.8879402808894,-43.98883416831711,0 170.8877120901178,-43.98877800892754,0 170.887383279699,-43.98853742866566,0 170.8872644662343,-43.98838939706085,0 170.8872781336379,-43.98805553687437,0 170.8874178094302,-43.98781902664003,0 170.8874700409766,-43.98740960967781,0 170.8875289554292,-43.98705871761896,0 170.8875160495776,-43.98650738068896,0 170.8873556314378,-43.98617502920937,0 170.8873124509082,-43.98593300599138,0 170.8873626560763,-43.98578477738728,0 170.886800730246,-43.9838867426934,0 170.8862207790224,-43.98360418996582,0 170.8859317561576,-43.98322133041572,0 170.8855167707809,-43.98267636391036,0 170.8853341858738,-43.98245000390938,0 170.8849574805818,-43.98173656614498,0 170.8846209704809,-43.98083638633561,0 170.8846043940868,-43.98034509909034,0 170.8844187269315,-43.98034505878113,0 170.8840589627609,-43.9803990517574,0 170.8826531237559,-43.98062814459932,0 170.8815856042203,-43.98080179746092,0 170.8823995745923,-43.98346305053258,0 170.8835070438819,-43.9858215846423,0 170.8840659936808,-43.98708072533678,0 170.8840133281238,-43.98739381586213,0 170.8840241675837,-43.98826892291971,0 170.8840534319301,-43.98883725720824,0 170.8841958587694,-43.98918319864693,0 170.8846729567137,-43.98991502889017,0 170.8851128319142,-43.9904428103443,0 170.8857022269258,-43.99099850550265,0 170.8864229289233,-43.99162039877572,0 170.8870021560275,-43.99209428602703,0 170.8895872285143,-43.99105193289939,0 170.8888510384877,-43.98993266139031,0 
						
</coordinates>

						</LinearRing>

					</outerBoundaryIs>

				</Polygon>

				<flyID>1</flyID>

				<flyDescription>5 knot speed limit does not apply for launching and return of waterskiers provided the vessel navigates directly to and from the shore.</flyDescription>

			</Placemark>
<Placemark>

				<name>Water Ski Access Zone</name>

				<description>5 knot speed limit does not apply for launching and return of waterskiers provided the vessel navigates directly to and from the shore.</description>

				<styleUrl>#style0</styleUrl>

				<Polygon>

					<tessellate>1</tessellate>

					<outerBoundaryIs>

						<LinearRing>

							<coordinates>

							170.8761498470938,-43.99027340963604,0 170.8758338002188,-43.99025941242677,0 170.8753084586029,-43.99028900692368,0 170.8746134621416,-43.9903881008178,0 170.8738702074591,-43.99067750597938,0 170.8733563484173,-43.99105251012202,0 170.8730379434052,-43.99152297651803,0 170.8727682044287,-43.99213819725218,0 170.8728187260476,-43.99276021393352,0 170.872995574248,-43.99316084545932,0 170.8732494197571,-43.99348407737817,0 170.8734440987131,-43.99386372090721,0 170.8738812565995,-43.99444620724577,0 170.8745688805006,-43.99496939976667,0 170.875300864505,-43.9953018641822,0 170.8758620161476,-43.99541866477081,0 170.8761716447636,-43.99553819323322,0 170.8766998877715,-43.99572147199133,0 170.8786030949682,-43.99701452718512,0 170.8790702073222,-43.99693756356609,0 170.8793772922452,-43.99692662216017,0 170.8799617918284,-43.99692424364675,0 170.880352815801,-43.99691865043903,0 170.880780555166,-43.99699598757292,0 170.8812255076615,-43.99702378431329,0 170.8813737933608,-43.99723913350434,0 170.8814021649842,-43.99744179441243,0 170.8818766851697,-43.9973408789489,0 170.8823470779774,-43.9971631065198,0 170.8828123051704,-43.99683201003543,0 170.8833445007027,-43.9965762941977,0 170.8837212952091,-43.99662276307469,0 170.8842576951801,-43.99670052241388,0 170.8844652484845,-43.99686063538814,0 170.8847635097795,-43.99704965796772,0 170.8851960738215,-43.99722878578777,0 170.8859510113149,-43.99727957650337,0 170.8869288553738,-43.99741647416596,0 170.8872511206329,-43.99760450675993,0 170.887707808296,-43.99782447858131,0 170.8879924799995,-43.99799596442226,0 170.8879884746752,-43.99809381384367,0 170.8880253660764,-43.9983517457533,0 170.8881730317762,-43.9986512351813,0 170.8884999326256,-43.99836534240686,0 170.8887967606792,-43.99796975201554,0 170.8889381177547,-43.99754328190366,0 170.8889672717889,-43.99717191933745,0 170.8888585845383,-43.99673881807055,0 170.8885025244114,-43.9963317650672,0 170.8886198176006,-43.99611906861094,0 170.8887055307673,-43.99564919035591,0 170.8886797577948,-43.99525918416823,0 170.8885109647897,-43.99484080686668,0 170.888023039916,-43.99403911482452,0 170.8874171166004,-43.99339636283579,0 170.8868353508117,-43.99295493849791,0 170.886781503592,-43.99251295001169,0 170.8866541583842,-43.99212161181237,0 170.8863415300939,-43.99162407975931,0 170.8859355936281,-43.99120606275049,0 170.885455218589,-43.99089753643633,0 170.8848138471361,-43.99067198004298,0 170.8840659373591,-43.99055938134313,0 170.8832195831813,-43.99050957568394,0 170.8822738064146,-43.99059356646749,0 170.8816881964058,-43.99068963402856,0 170.8810439064616,-43.99070489195489,0 170.8805188632881,-43.99044168846125,0 170.8795741143894,-43.99030957683485,0 170.879285209289,-43.99210169397623,0 170.8794776586817,-43.99213472233089,0 170.8804248658833,-43.99256898429876,0 170.8813741692094,-43.99249816557929,0 170.8820126845822,-43.99246790599948,0 170.8827776824248,-43.99237566740573,0 170.883404341884,-43.99235049038713,0 170.883730855697,-43.99235473431495,0 170.8840611268756,-43.99241547948807,0 170.8843252560457,-43.99294034369635,0 170.8843062984279,-43.99339251888557,0 170.8842641202896,-43.99358211645011,0 170.8841080394358,-43.99380621299287,0 170.8840715567464,-43.99397842429016,0 170.8841375557516,-43.99411799797494,0 170.8844188931354,-43.99420213241044,0 170.8846200184628,-43.99424599927235,0 170.8848582195489,-43.99427169290014,0 170.8850393415012,-43.99430733845206,0 170.8852307476576,-43.99435154829094,0 170.8856395212965,-43.99471848491666,0 170.8858559626643,-43.99495706240644,0 170.8860380134629,-43.99527225131045,0 170.8861453444282,-43.99542062142319,0 170.8861836022719,-43.99557365312636,0 170.8861621396874,-43.99568063545967,0 170.8860479432867,-43.99567967553056,0 170.8857781915503,-43.99568290143331,0 170.8854410627797,-43.99567535828878,0 170.8850140895007,-43.99559443340092,0 170.8846020612037,-43.99540490052925,0 170.8841197141848,-43.9951383222631,0 170.883696766594,-43.99485657512913,0 170.8835968454777,-43.99479273202048,0 170.8834335605174,-43.99451482240083,0 170.8832683597591,-43.99435013651083,0 170.8830330942979,-43.99432414825927,0 170.8826860750261,-43.99428633468659,0 170.8824930296273,-43.99420376764061,0 170.8823376374848,-43.99421249163915,0 170.8822838364715,-43.9942610829287,0 170.8822562253122,-43.99439750332954,0 170.8822227039522,-43.99455323441862,0 170.8821980807249,-43.99472577920964,0 170.8821218253432,-43.99480845148641,0 170.8820636612599,-43.99484696300475,0 170.8818876795658,-43.99483735854662,0 170.8817701032844,-43.99473068728409,0 170.8817184870368,-43.99461698023802,0 170.8816981994369,-43.99440410531125,0 170.8816912153903,-43.9942708892891,0 170.8816394859516,-43.9942000600371,0 170.8815470825875,-43.9941858137718,0 170.8814684265173,-43.99423439863659,0 170.8813458083772,-43.99433546981326,0 170.8811981936326,-43.99437313565545,0 170.8810028956892,-43.99430797747658,0 170.8808102040775,-43.99419646563487,0 170.8806609711675,-43.99398039594134,0 170.880484721092,-43.993670747285,0 170.880133401839,-43.99350783203952,0 170.8795821988026,-43.99332310553152,0 170.8789310382279,-43.9931581505276,0 170.8785303541181,-43.99309039385723,0 170.8783690519894,-43.99313936926821,0 170.8783231056203,-43.99325129659222,0 170.878423303392,-43.99339270853,0 170.8786107994332,-43.99354891692465,0 170.8788519846721,-43.99372221827972,0 170.8789453845476,-43.99381263830988,0 170.8789746865131,-43.99401279441928,0 170.8790152676045,-43.99418980142397,0 170.8786976403791,-43.9941789464431,0 170.8782730820977,-43.99415169204359,0 170.8779364138936,-43.99412475137295,0 170.8775796141722,-43.99400754244506,0 170.8771362113808,-43.99384846484893,0 170.8768285100179,-43.993692258572,0 170.8765323025955,-43.99366214687311,0 170.8763483983119,-43.99362551721818,0 170.8761590231648,-43.9935314840925,0 170.8759493428287,-43.99335521754413,0 170.875698919725,-43.99302061199752,0 170.875563413286,-43.99271357744183,0 170.8753085178417,-43.99236982653358,0 170.8754437741273,-43.99213112700274,0 170.8757138015268,-43.99209552806482,0 170.8760364980978,-43.99209552789621,0 170.8764157418648,-43.99218256439976,0 170.8769031360078,-43.99212132237901,0 170.8772322767283,-43.99206012161305,0 170.8774633540635,-43.99206053061933,0 170.8780316990203,-43.99213853428213,0 170.878274360694,-43.99218392658091,0 170.8785961423472,-43.99230988446059,0 170.878824392864,-43.99222938481812,0 170.8790292040497,-43.99210225668661,0 170.8792036607961,-43.99210769040464,0 170.8794634941807,-43.99029634977908,0 170.8789520751021,-43.99028417995148,0 170.8784674229233,-43.99034240453425,0 170.8782430822199,-43.99030244535366,0 170.8774402161699,-43.9902341816677,0 170.8770115345697,-43.99025122257729,0 170.8765281501956,-43.99031863382073,0 170.8761498470938,-43.99027340963604,0 
						
</coordinates>

						</LinearRing>

					</outerBoundaryIs>

				</Polygon>

				<flyID>2</flyID>

				<flyDescription>5 knot speed limit does not apply for launching and return of waterskiers provided the vessel navigates directly to and from the shore.</flyDescription>

			</Placemark>
<Placemark>

				<name>Water Ski Access Zone</name>

				<description>5 knot speed limit does not apply for launching and return of waterskiers provided the vessel navigates directly to and from the shore.</description>

				<styleUrl>#style0</styleUrl>

				<Polygon>

					<tessellate>1</tessellate>

					<outerBoundaryIs>

						<LinearRing>

							<coordinates>

							170.8766998877715,-43.99572147199133,0 170.8764780627785,-43.99581761077548,0 170.8761241316687,-43.99603372853474,0 170.8758114787875,-43.99632200786979,0 170.8755563601334,-43.99668006889241,0 170.8750130062917,-43.99681132639754,0 170.8746924186761,-43.99678041449431,0 170.8738381868765,-43.99691413873443,0 170.8728069042902,-43.99721141764879,0 170.8719637319387,-43.99757724045919,0 170.870827704365,-43.99825838810389,0 170.8703530071863,-43.9984554822773,0 170.8699527419774,-43.99873260784215,0 170.8695584855702,-43.99911331327633,0 170.869259463379,-43.99962529320042,0 170.8691045441137,-44.00036069186094,0 170.8691301402385,-44.00075942400989,0 170.8692558950024,-44.00111743571579,0 170.8691838292232,-44.00118545457018,0 170.8690154572909,-44.00135952096525,0 170.8688790474421,-44.00156280599226,0 170.8687411982746,-44.00181547167405,0 170.8686225384084,-44.0018549332077,0 170.8684764914991,-44.00185865780095,0 170.8680736640468,-44.0019149598181,0 170.8676919893171,-44.00202056981057,0 170.867348156869,-44.00216527681138,0 170.8682094206036,-44.00395347974481,0 170.8685477696056,-44.00393747968838,0 170.8687564712568,-44.00366453847796,0 170.8690435396884,-44.00364726708554,0 170.8691901946611,-44.00363337452067,0 170.8694628116982,-44.00356222537839,0 170.869765882756,-44.00355325443577,0 170.8700356701612,-44.00378857635515,0 170.8701625369682,-44.00402711028133,0 170.8702775070604,-44.00432387314402,0 170.870357245792,-44.00447531607259,0 170.8705361757769,-44.00471754153989,0 170.870853229139,-44.0048657490261,0 170.8709611360332,-44.00473045940749,0 170.8712391313443,-44.0046697062993,0 170.8709821515317,-44.00446898128992,0 170.8707544995833,-44.00426156812327,0 170.870673259624,-44.00407669273996,0 170.8706863796605,-44.00395710148495,0 170.8707117102098,-44.00380202228474,0 170.8707980523529,-44.00375490723939,0 170.8709469320907,-44.0037146132326,0 170.8711514849305,-44.00367777891923,0 170.8710449899073,-44.00342563431786,0 170.87097028366,-44.00320988837161,0 170.8709404816889,-44.0028759112091,0 170.8709507542683,-44.00273039103445,0 170.8712064325884,-44.00226513678122,0 170.8721039958992,-44.00172924299699,0 170.8724702887221,-44.00175039405045,0 170.8730067032221,-44.00172811851081,0 170.8735119233502,-44.00173262188422,0 170.8732914333973,-44.00152248764059,0 170.873149226406,-44.00145497157826,0 170.8727628054665,-44.00131872811598,0 170.872285854453,-44.0012722415175,0 170.8721053646045,-44.00122109374259,0 170.8718602399067,-44.00083427741274,0 170.8716348379439,-44.00051243766575,0 170.8716449711968,-44.00028190587776,0 170.8716928612529,-44.00008551917492,0 170.8718537237479,-43.99992043866976,0 170.8720849104862,-43.99986641937979,0 170.8722161826869,-43.99986859193547,0 170.8725323244969,-43.99991691084368,0 170.8727196699418,-43.99992506639796,0 170.87291047442,-43.99998051884577,0 170.8729369980066,-43.99981075705384,0 170.8727670993919,-43.99969634082553,0 170.8727507764416,-43.9995732035671,0 170.8727434948426,-43.99941607484576,0 170.8729625359876,-43.99931217362175,0 170.8733401129512,-43.99911140925937,0 170.8737119370142,-43.99891111462507,0 170.8740240179661,-43.99884078185909,0 170.8744873002586,-43.99869330912361,0 170.8748497347825,-43.99864242504356,0 170.8751164267152,-43.9986471439999,0 170.875457514016,-43.99862934480671,0 170.8756789517688,-43.99859397142597,0 170.8760261017912,-43.99851027861681,0 170.8764312439688,-43.99839416409924,0 170.8766535750029,-43.99853607171261,0 170.8766993276562,-43.99874086433125,0 170.8769006098567,-43.99913690742549,0 170.8770590582873,-43.99928160804337,0 170.877368273337,-43.99964025281471,0 170.8777113602321,-43.99899385608646,0 170.8777008109528,-43.99880254669675,0 170.8776387629681,-43.99826633734766,0 170.8776717019136,-43.99791710716734,0 170.8777335147267,-43.99758461758813,0 170.8779390576383,-43.99733688723002,0 170.87820641402,-43.99718994708212,0 170.8786030949682,-43.99701452718512,0 170.8766998877715,-43.99572147199133,0 
						
</coordinates>

						</LinearRing>

					</outerBoundaryIs>

				</Polygon>

				<flyID>3</flyID>

				<flyDescription>5 knot speed limit does not apply for launching and return of waterskiers provided the vessel navigates directly to and from the shore.</flyDescription>

			</Placemark>
<Placemark>

				<name>No Boating Or Swimming</name>

				<description>No boating or swimming in this area.</description>

				<styleUrl>#style1</styleUrl>

				<Polygon>

					<tessellate>1</tessellate>

					<outerBoundaryIs>

						<LinearRing>

							<coordinates>

							170.8980357610712,-44.01166722286472,0 170.8980177444041,-44.01188167290935,0 170.8978974245968,-44.01202061113418,0 170.8977355840644,-44.012283884432,0 170.8975633043871,-44.01255418812919,0 170.8973504380858,-44.01301223582836,0 170.8972506692468,-44.01350876505653,0 170.8971924208718,-44.01394862285886,0 170.8971965199121,-44.01437157486826,0 170.8972742615661,-44.01451903302077,0 170.8975118827791,-44.01468376853691,0 170.8978037472442,-44.01477495920832,0 170.8980083232581,-44.01478268804928,0 170.898157397699,-44.01466537619147,0 170.8983917226267,-44.01422638874149,0 170.8985652157968,-44.01371736003874,0 170.8986470304543,-44.01308852348372,0 170.8986271924548,-44.01252262560617,0 170.8985929187365,-44.01211805752056,0 170.8986466143137,-44.01199879918656,0 170.8987363010373,-44.01199402616385,0 170.8989330896742,-44.01193379667492,0 170.8991915760801,-44.01185412644,0 170.8994603484044,-44.01180448491728,0 170.8996655819216,-44.01174744122262,0 170.8998438571302,-44.01156794791215,0 170.899876488898,-44.01142253188674,0 170.8997413961964,-44.01129719515987,0 170.8994906636505,-44.01108612578165,0 170.8990735878191,-44.01128077172754,0 170.8987294204017,-44.01137626051178,0 170.8984593299806,-44.01142331463737,0 170.8982603380608,-44.01144973047546,0 170.8978596719072,-44.01151289804421,0 170.8980357610712,-44.01166722286472,0 
						
</coordinates>

						</LinearRing>

					</outerBoundaryIs>

				</Polygon>

				<flyID>4</flyID>

				<flyDescription>No boating or swimming in this area.</flyDescription>

			</Placemark>
<Placemark>

				<name>Non-powered Water Craft Only Area</name>

				<description>The use of power driven vessels in this area is prohibited.</description>

				<styleUrl>#style0</styleUrl>

				<Polygon>

					<tessellate>1</tessellate>

					<outerBoundaryIs>

						<LinearRing>

							<coordinates>

							170.8926354056441,-44.00347284561254,0 170.8929183937392,-44.0039010669868,0 170.8930593271496,-44.00423703643571,0 170.8931922405056,-44.00457728515585,0 170.8933864343809,-44.00483486324812,0 170.8937539637648,-44.00511531737464,0 170.8942180045107,-44.00553095839098,0 170.8946288825397,-44.00598527368968,0 170.8949485208423,-44.00644104872121,0 170.8952518679394,-44.0069629638561,0 170.8955937347452,-44.00770658628466,0 170.8958382982247,-44.0084293446856,0 170.8960222696891,-44.00904280677962,0 170.8961148310949,-44.00945968226399,0 170.89638704325,-44.01002411691597,0 170.8965822941481,-44.01028923983733,0 170.8970158371384,-44.01063568128949,0 170.8973137788125,-44.01092157006826,0 170.8976780100524,-44.01135428410509,0 170.897866295328,-44.01151922135784,0 170.8989928843481,-44.01129609957161,0 170.8994796559593,-44.01108409586824,0 170.8991240857816,-44.01064326147066,0 170.8986988596151,-44.01022443238982,0 170.8981920341975,-44.0098544427473,0 170.8974546994496,-44.00934348571568,0 170.8967515041966,-44.00887108436347,0 170.8964547268488,-44.00863394571825,0 170.8963388806961,-44.00831931656614,0 170.896097930092,-44.00777010257036,0 170.8956710240118,-44.0069325021983,0 170.8952433005497,-44.00611862026598,0 170.8950855870631,-44.00593796135066,0 170.8947722201187,-44.00571766298373,0 170.8942886768745,-44.00519466108285,0 170.8935953030831,-44.00448441694207,0 170.8934631203064,-44.00398476802398,0 170.8932691953218,-44.00371415116857,0 170.8928823861811,-44.00329340117575,0 170.8924862931621,-44.00288375838143,0 170.8922801451159,-44.00304368511042,0 170.8926354056441,-44.00347284561254,0 
						
</coordinates>

						</LinearRing>

					</outerBoundaryIs>

				</Polygon>

				<flyID>5</flyID>

				<flyDescription>The use of power driven vessels in this area is prohibited.</flyDescription>

			</Placemark>
<Placemark>

				<name>No Boating Or Swimming</name>

				<description>No boating or swimming in this area.</description>

				<styleUrl>#style1</styleUrl>

				<Polygon>

					<tessellate>1</tessellate>

					<outerBoundaryIs>

						<LinearRing>

							<coordinates>

							170.8916561120185,-44.00141011483004,0 170.8919353275291,-44.00166448762154,0 170.8919257434555,-44.00210054708664,0 170.892078944465,-44.00273888323863,0 170.8922676755607,-44.00303249068038,0 170.8924691337808,-44.00288700768898,0 170.8923489207029,-44.00272609496625,0 170.8923046766591,-44.00213677643859,0 170.8922628229323,-44.00159385995352,0 170.8922374472123,-44.00102158137779,0 170.8921859675858,-44.00065455813015,0 170.8918802036177,-44.00096352526723,0 170.8915897675084,-44.00116285033932,0 170.8916561120185,-44.00141011483004,0 
						
</coordinates>

						</LinearRing>

					</outerBoundaryIs>

				</Polygon>

				<flyID>6</flyID>

				<flyDescription>No boating or swimming in this area.</flyDescription>

			</Placemark>
<Placemark>

				<name>Water Ski Access Zone</name>

				<description>5 knot speed limit does not apply for launching and return of waterskiers provided the vessel navigates directly to and from the shore.</description>

				<styleUrl>#style0</styleUrl>

				<Polygon>

					<tessellate>1</tessellate>

					<outerBoundaryIs>

						<LinearRing>

							<coordinates>

							170.8557858937131,-44.00461346771531,0 170.8558655002679,-44.00500651643198,0 170.8559368691232,-44.00558694773032,0 170.8559987977747,-44.00571626445185,0 170.8561482587064,-44.00581291714195,0 170.8565244224708,-44.00586996107312,0 170.8568949542757,-44.00589975856814,0 170.8571829743983,-44.00578002986369,0 170.8574434054361,-44.00583056934665,0 170.8577511632417,-44.00563840368965,0 170.8580682240761,-44.00543095354834,0 170.8583412613903,-44.00546630032714,0 170.8589828949762,-44.00548481432576,0 170.8598080101821,-44.00550425098398,0 170.8607665343547,-44.00548945307861,0 170.8613230772742,-44.00548418195921,0 170.8615296754762,-44.00541451338059,0 170.8618050303442,-44.00532361223418,0 170.8619397018947,-44.00533193889169,0 170.8623520448153,-44.0053541394319,0 170.8627705459122,-44.00517736750437,0 170.86398350607,-44.00468238873327,0 170.8647403710297,-44.00443508198097,0 170.863806546711,-44.0027370134399,0 170.863375222359,-44.00287596770404,0 170.8624956312058,-44.00318553764404,0 170.8617073315419,-44.00351723201225,0 170.861184878813,-44.00355433302319,0 170.8607683631736,-44.00366437824748,0 170.8595196120169,-44.00365743488346,0 170.8586736982203,-44.00361972410708,0 170.8580233596065,-44.00365105097379,0 170.8562421873876,-44.0036638672406,0 170.8558357348044,-44.00399977352341,0 170.8557858937131,-44.00461346771531,0 
						
</coordinates>

						</LinearRing>

					</outerBoundaryIs>

				</Polygon>

				<flyID>7</flyID>

				<flyDescription>5 knot speed limit does not apply for launching and return of waterskiers provided the vessel navigates directly to and from the shore.</flyDescription>

			</Placemark>
<Placemark>

				<name>No Boating Or Swimming</name>

				<description>No boating or swimming in this area.</description>

				<styleUrl>#style1</styleUrl>

				<Polygon>

					<tessellate>1</tessellate>

					<outerBoundaryIs>

						<LinearRing>

							<coordinates>

							170.890265574157,-44.00056980093687,0 170.8904737964043,-44.00025409803868,0 170.8908242492958,-43.99986794531881,0 170.8918395311233,-43.99923549932912,0 170.892764389653,-43.99873671617267,0 170.8927780650003,-43.99854014465197,0 170.892830255028,-43.99847361755213,0 170.8928362389839,-43.99828582981743,0 170.8927879471796,-43.9980722260867,0 170.8928403840142,-43.99787493867429,0 170.8928995417149,-43.9975490143465,0 170.8928067008379,-43.99731155023778,0 170.8922369844872,-43.99761250995312,0 170.8921081546268,-43.99752405064714,0 170.8919798374341,-43.99727349461537,0 170.8912149072633,-43.99780465162561,0 170.8909205917429,-43.99802386138153,0 170.8905380986771,-43.99828635455899,0 170.8893271914673,-43.99910771318407,0 170.8904132035432,-43.99987486818988,0 170.8898818374126,-44.00034620602956,0 170.890265574157,-44.00056980093687,0 
						
</coordinates>

						</LinearRing>

					</outerBoundaryIs>

				</Polygon>

				<flyID>8</flyID>

				<flyDescription>No boating or swimming in this area.</flyDescription>

			</Placemark>
<Placemark>

				<name>Dangerous Boating Conditions</name>

				<description>Shallow Waters Dangerous Boating Conditions</description>

				<styleUrl>#style1</styleUrl>

				<Polygon>

					<tessellate>1</tessellate>

					<outerBoundaryIs>

						<LinearRing>

							<coordinates>

							170.884012762366,-43.97788469600322,0 170.8838493146432,-43.97760785077615,0 170.8836104074069,-43.97721753275347,0 170.8835344607635,-43.97698773535288,0 170.8835155375428,-43.97672607622157,0 170.8835360281467,-43.97642788836336,0 170.8835655532141,-43.97597900509741,0 170.8836848193587,-43.97537489383186,0 170.8836978968399,-43.9748083196107,0 170.8837249638038,-43.97464920324583,0 170.8836402649911,-43.97449713223192,0 170.883428725143,-43.97435416230087,0 170.8833494227336,-43.9741592116451,0 170.8833541161145,-43.97391531337671,0 170.8833249071155,-43.9737400738856,0 170.8832846534524,-43.9735321689885,0 170.8830307550236,-43.97351756657804,0 170.8829214876722,-43.97370377439474,0 170.8828679504922,-43.97381015607662,0 170.8822896979977,-43.97403761062341,0 170.8814843756132,-43.9742839729738,0 170.8812247163181,-43.974327003651,0 170.8808074479126,-43.97438267925468,0 170.8804457307183,-43.97424676463412,0 170.8800640984381,-43.97423953954961,0 170.8797273706063,-43.97424470859916,0 170.8794930469111,-43.97429281712543,0 170.8793171031746,-43.974370937485,0 170.8792667741296,-43.97450771030015,0 170.8791796053998,-43.974779347637,0 170.8789454542685,-43.97500849671879,0 170.8785592915902,-43.97519643012574,0 170.8782784925379,-43.97530375115008,0 170.8776978150238,-43.97545023760801,0 170.8769718507787,-43.9756320907098,0 170.8768543926246,-43.97573756072143,0 170.8765848082369,-43.97596253726555,0 170.8766058564442,-43.97613408215583,0 170.8764701672581,-43.97634902959685,0 170.8765187733255,-43.97648031823123,0 170.8766546310404,-43.97690805335375,0 170.8781183440903,-43.97819278708174,0 170.8809061909773,-43.97840106572281,0 170.8832451379211,-43.97854719018497,0 170.8844354521552,-43.97861740435622,0 170.8847080135557,-43.97863883725648,0 170.884012762366,-43.97788469600322,0 
						
</coordinates>

						</LinearRing>

					</outerBoundaryIs>

				</Polygon>

				<flyID>9</flyID>

				<flyDescription>Shallow Waters Dangerous Boating Conditions</flyDescription>

			</Placemark>
<Placemark>

				<name>5 Knot Zone</name>

				<description>5 Knot speed limit within 50 metres of shore.</description>

				<styleUrl>#style2</styleUrl>

				<Polygon>

					<tessellate>1</tessellate>

					<outerBoundaryIs>

						<LinearRing>

							<coordinates>

							170.8896982250324,-44.00008938798003,0 170.8900122674437,-43.99982119821025,0 170.8902552567391,-43.99999270389213,0 170.8904107960306,-43.99987311423912,0 170.8893266332071,-43.99910876472101,0 170.8888416762534,-43.99944491605567,0 170.8896982250324,-44.00008938798003,0 
						
</coordinates>

						</LinearRing>

					</outerBoundaryIs>

				</Polygon>

				<flyID>10</flyID>

				<flyDescription>5 Knot speed limit within 50 metres of shore.</flyDescription>

			</Placemark>

</Document>
</kml>
