<?xml version="1.0" encoding="UTF-8"?>
<kml xmlns="http://www.opengis.net/kml/2.2" xmlns:gx="http://www.google.com/kml/ext/2.2" xmlns:kml="http://www.opengis.net/kml/2.2" xmlns:atom="http://www.w3.org/2005/Atom">
<Document>
<name>R25 C45.kml</name>

<Style id="style0">

					<LineStyle>

						<color>ffff0000</color>

					</LineStyle>

					<PolyStyle>

						<color>ffff0000</color>

						<width>0.9</width>

					</PolyStyle>

				</Style>

<Placemark>

				<name>Kuratau Ski Lane</name>

				<description>Access lanes enable vessels involved in water sports to legally leave or approach the shore at speeds in excess of 5 knots.

Direction of travel is anti-clockwise. All access lane buoys are coloured orange and black.

You must:

Keep to the right in the lanes.
Enter and leave at right angles to the shore.
Have an observer who is not under the age of 10 years to report every mishap that occurs to the person and/or object that is being towed.
Not proceed in a manner dangerous to other persons or vessels in the lane.
Not beach your boat in the lane.
Not use lane for any other purposes.
No person may operate between sunset and sunrise.
Wear a life jacket when being towed.</description>

				<styleUrl>#style0</styleUrl>

				<Polygon>

					<tessellate>1</tessellate>

					<outerBoundaryIs>

						<LinearRing>

							<coordinates>

							175.767209968949,-38.89618533989845,0 175.7680836525707,-38.89787544540553,0 175.769227142823,-38.89753696468171,0 175.7683602348554,-38.89580563885795,0 175.767209968949,-38.89618533989845,0 
						
</coordinates>

						</LinearRing>

					</outerBoundaryIs>

				</Polygon>

				<flyID>0</flyID>

				<flyDescription>Access lanes enable vessels involved in water sports to legally leave or approach the shore at speeds in excess of 5 knots.

Direction of travel is anti-clockwise. All access lane buoys are coloured orange and black.

You must:

Keep to the right in the lanes.
Enter and leave at right angles to the shore.
Have an observer who is not under the age of 10 years to report every mishap that occurs to the person and/or object that is being towed.
Not proceed in a manner dangerous to other persons or vessels in the lane.
Not beach your boat in the lane.
Not use lane for any other purposes.
No person may operate between sunset and sunrise.
Wear a life jacket when being towed.</flyDescription>

			</Placemark>
<Placemark>

				<name>Kaiapo Bay Access Lane</name>

				<description>Access lanes enable vessels involved in water sports to legally leave or approach the shore at speeds in excess of 5 knots.

Direction of travel is anti-clockwise. All access lane buoys are coloured orange and black.

You must:

Keep to the right in the lanes.
Enter and leave at right angles to the shore.
Have an observer who is not under the age of 10 years to report every mishap that occurs to the person and/or object that is being towed.
Not proceed in a manner dangerous to other persons or vessels in the lane.
Not beach your boat in the lane.
Not use lane for any other purposes.
No person may operate between sunset and sunrise.
Wear a life jacket when being towed.</description>

				<styleUrl>#style0</styleUrl>

				<Polygon>

					<tessellate>1</tessellate>

					<outerBoundaryIs>

						<LinearRing>

							<coordinates>

							175.9757850925846,-38.7130524517578,0 175.9769113869902,-38.71398639033755,0 175.9780398499102,-38.71256628357674,0 175.9769994538346,-38.7114726314644,0 175.9757850925846,-38.7130524517578,0 
						
</coordinates>

						</LinearRing>

					</outerBoundaryIs>

				</Polygon>

				<flyID>1</flyID>

				<flyDescription>Access lanes enable vessels involved in water sports to legally leave or approach the shore at speeds in excess of 5 knots.

Direction of travel is anti-clockwise. All access lane buoys are coloured orange and black.

You must:

Keep to the right in the lanes.
Enter and leave at right angles to the shore.
Have an observer who is not under the age of 10 years to report every mishap that occurs to the person and/or object that is being towed.
Not proceed in a manner dangerous to other persons or vessels in the lane.
Not beach your boat in the lane.
Not use lane for any other purposes.
No person may operate between sunset and sunrise.
Wear a life jacket when being towed.</flyDescription>

			</Placemark>
<Placemark>

				<name>Waihaha Access Lane</name>

				<description>Access lanes enable vessels involved in water sports to legally leave or approach the shore at speeds in excess of 5 knots.

Direction of travel is anti-clockwise. All access lane buoys are coloured orange and black.

You must:

Keep to the right in the lanes.
Enter and leave at right angles to the shore.
Have an observer who is not under the age of 10 years to report every mishap that occurs to the person and/or object that is being towed.
Not proceed in a manner dangerous to other persons or vessels in the lane.
Not beach your boat in the lane.
Not use lane for any other purposes.
No person may operate between sunset and sunrise.
Wear a life jacket when being towed.</description>

				<styleUrl>#style0</styleUrl>

				<Polygon>

					<tessellate>1</tessellate>

					<outerBoundaryIs>

						<LinearRing>

							<coordinates>

							175.74609790064,-38.72877565084134,0 175.7470643687237,-38.72745806143776,0 175.7451687780375,-38.72627253398413,0 175.7442485464082,-38.72761066760377,0 175.74609790064,-38.72877565084134,0 
						
</coordinates>

						</LinearRing>

					</outerBoundaryIs>

				</Polygon>

				<flyID>2</flyID>

				<flyDescription>Access lanes enable vessels involved in water sports to legally leave or approach the shore at speeds in excess of 5 knots.

Direction of travel is anti-clockwise. All access lane buoys are coloured orange and black.

You must:

Keep to the right in the lanes.
Enter and leave at right angles to the shore.
Have an observer who is not under the age of 10 years to report every mishap that occurs to the person and/or object that is being towed.
Not proceed in a manner dangerous to other persons or vessels in the lane.
Not beach your boat in the lane.
Not use lane for any other purposes.
No person may operate between sunset and sunrise.
Wear a life jacket when being towed.</flyDescription>

			</Placemark>
<Placemark>

				<name>Whareroa Swim Only Zone</name>

				<description>Lake Taupō has five designated areas for swimming only.
These are marked with white and black banded posts ashore, and black and white buoys in the water.
No vessels may enter these areas at all</description>

				<styleUrl>#style0</styleUrl>

				<Polygon>

					<tessellate>1</tessellate>

					<outerBoundaryIs>

						<LinearRing>

							<coordinates>

							175.7805278849798,-38.86472239387389,0 175.7810865970695,-38.86422090126926,0 175.7797194637256,-38.86324537556723,0 175.7792486275221,-38.86379128159338,0 175.7805278849798,-38.86472239387389,0 
						
</coordinates>

						</LinearRing>

					</outerBoundaryIs>

				</Polygon>

				<flyID>3</flyID>

				<flyDescription>Lake Taupō has five designated areas for swimming only.
These are marked with white and black banded posts ashore, and black and white buoys in the water.
No vessels may enter these areas at all</flyDescription>

			</Placemark>
<Placemark>

				<name>Whareroa Ski Lane</name>

				<description>Access lanes enable vessels involved in water sports to legally leave or approach the shore at speeds in excess of 5 knots.

Direction of travel is anti-clockwise. All access lane buoys are coloured orange and black.

You must:

Keep to the right in the lanes.
Enter and leave at right angles to the shore.
Have an observer who is not under the age of 10 years to report every mishap that occurs to the person and/or object that is being towed.
Not proceed in a manner dangerous to other persons or vessels in the lane.
Not beach your boat in the lane.
Not use lane for any other purposes.
No person may operate between sunset and sunrise.
Wear a life jacket when being towed.</description>

				<styleUrl>#style0</styleUrl>

				<Polygon>

					<tessellate>1</tessellate>

					<outerBoundaryIs>

						<LinearRing>

							<coordinates>

							175.7778997649132,-38.86797107365838,0 175.7785893593792,-38.86669664972904,0 175.7763171763987,-38.86558665622943,0 175.7757363297308,-38.86700980712173,0 175.7778997649132,-38.86797107365838,0 
						
</coordinates>

						</LinearRing>

					</outerBoundaryIs>

				</Polygon>

				<flyID>4</flyID>

				<flyDescription>Access lanes enable vessels involved in water sports to legally leave or approach the shore at speeds in excess of 5 knots.

Direction of travel is anti-clockwise. All access lane buoys are coloured orange and black.

You must:

Keep to the right in the lanes.
Enter and leave at right angles to the shore.
Have an observer who is not under the age of 10 years to report every mishap that occurs to the person and/or object that is being towed.
Not proceed in a manner dangerous to other persons or vessels in the lane.
Not beach your boat in the lane.
Not use lane for any other purposes.
No person may operate between sunset and sunrise.
Wear a life jacket when being towed.</flyDescription>

			</Placemark>
<Placemark>

				<name>Hallets Bay Access Lane</name>

				<description>Access lanes enable vessels involved in water sports to legally leave or approach the shore at speeds in excess of 5 knots.

Direction of travel is anti-clockwise. All access lane buoys are coloured orange and black.

You must:

Keep to the right in the lanes.
Enter and leave at right angles to the shore.
Have an observer who is not under the age of 10 years to report every mishap that occurs to the person and/or object that is being towed.
Not proceed in a manner dangerous to other persons or vessels in the lane.
Not beach your boat in the lane.
Not use lane for any other purposes.
No person may operate between sunset and sunrise.
Wear a life jacket when being towed.</description>

				<styleUrl>#style0</styleUrl>

				<Polygon>

					<tessellate>1</tessellate>

					<outerBoundaryIs>

						<LinearRing>

							<coordinates>

							176.007896320797,-38.8641497367497,0 176.0080844097489,-38.86220555503494,0 176.005615622301,-38.86198004975059,0 176.0055731947464,-38.8639426346409,0 176.007896320797,-38.8641497367497,0 
						
</coordinates>

						</LinearRing>

					</outerBoundaryIs>

				</Polygon>

				<flyID>5</flyID>

				<flyDescription>Access lanes enable vessels involved in water sports to legally leave or approach the shore at speeds in excess of 5 knots.

Direction of travel is anti-clockwise. All access lane buoys are coloured orange and black.

You must:

Keep to the right in the lanes.
Enter and leave at right angles to the shore.
Have an observer who is not under the age of 10 years to report every mishap that occurs to the person and/or object that is being towed.
Not proceed in a manner dangerous to other persons or vessels in the lane.
Not beach your boat in the lane.
Not use lane for any other purposes.
No person may operate between sunset and sunrise.
Wear a life jacket when being towed.</flyDescription>

			</Placemark>
<Placemark>

				<name>Mission Bay Access Lane</name>

				<description>Access lanes enable vessels involved in water sports to legally leave or approach the shore at speeds in excess of 5 knots.

Direction of travel is anti-clockwise. All access lane buoys are coloured orange and black.

You must:

Keep to the right in the lanes.
Enter and leave at right angles to the shore.
Have an observer who is not under the age of 10 years to report every mishap that occurs to the person and/or object that is being towed.
Not proceed in a manner dangerous to other persons or vessels in the lane.
Not beach your boat in the lane.
Not use lane for any other purposes.
No person may operate between sunset and sunrise.
Wear a life jacket when being towed.</description>

				<styleUrl>#style0</styleUrl>

				<Polygon>

					<tessellate>1</tessellate>

					<outerBoundaryIs>

						<LinearRing>

							<coordinates>

							175.9403990466514,-38.90424390359132,0 175.9394687731719,-38.90259943129246,0 175.9374270935142,-38.90352496480045,0 175.9383208231291,-38.90521482270004,0 175.9403990466514,-38.90424390359132,0 
						
</coordinates>

						</LinearRing>

					</outerBoundaryIs>

				</Polygon>

				<flyID>6</flyID>

				<flyDescription>Access lanes enable vessels involved in water sports to legally leave or approach the shore at speeds in excess of 5 knots.

Direction of travel is anti-clockwise. All access lane buoys are coloured orange and black.

You must:

Keep to the right in the lanes.
Enter and leave at right angles to the shore.
Have an observer who is not under the age of 10 years to report every mishap that occurs to the person and/or object that is being towed.
Not proceed in a manner dangerous to other persons or vessels in the lane.
Not beach your boat in the lane.
Not use lane for any other purposes.
No person may operate between sunset and sunrise.
Wear a life jacket when being towed.</flyDescription>

			</Placemark>
<Placemark>

				<name>Stump Bay Access Lane</name>

				<description>Access lanes enable vessels involved in water sports to legally leave or approach the shore at speeds in excess of 5 knots.

Direction of travel is anti-clockwise. All access lane buoys are coloured orange and black.

You must:

Keep to the right in the lanes.
Enter and leave at right angles to the shore.
Have an observer who is not under the age of 10 years to report every mishap that occurs to the person and/or object that is being towed.
Not proceed in a manner dangerous to other persons or vessels in the lane.
Not beach your boat in the lane.
Not use lane for any other purposes.
No person may operate between sunset and sunrise.
Wear a life jacket when being towed.</description>

				<styleUrl>#style0</styleUrl>

				<Polygon>

					<tessellate>1</tessellate>

					<outerBoundaryIs>

						<LinearRing>

							<coordinates>

							175.8549213608563,-38.93467248361858,0 175.8558604548589,-38.93228315892691,0 175.853652832095,-38.9316804332487,0 175.8527011030452,-38.93413232261406,0 175.8549213608563,-38.93467248361858,0 
						
</coordinates>

						</LinearRing>

					</outerBoundaryIs>

				</Polygon>

				<flyID>7</flyID>

				<flyDescription>Access lanes enable vessels involved in water sports to legally leave or approach the shore at speeds in excess of 5 knots.

Direction of travel is anti-clockwise. All access lane buoys are coloured orange and black.

You must:

Keep to the right in the lanes.
Enter and leave at right angles to the shore.
Have an observer who is not under the age of 10 years to report every mishap that occurs to the person and/or object that is being towed.
Not proceed in a manner dangerous to other persons or vessels in the lane.
Not beach your boat in the lane.
Not use lane for any other purposes.
No person may operate between sunset and sunrise.
Wear a life jacket when being towed.</flyDescription>

			</Placemark>
<Placemark>

				<name>Motutere Access Lane</name>

				<description>Access lanes enable vessels involved in water sports to legally leave or approach the shore at speeds in excess of 5 knots.

Direction of travel is anti-clockwise. All access lane buoys are coloured orange and black.

You must:

Keep to the right in the lanes.
Enter and leave at right angles to the shore.
Have an observer who is not under the age of 10 years to report every mishap that occurs to the person and/or object that is being towed.
Not proceed in a manner dangerous to other persons or vessels in the lane.
Not beach your boat in the lane.
Not use lane for any other purposes.
No person may operate between sunset and sunrise.
Wear a life jacket when being towed.</description>

				<styleUrl>#style0</styleUrl>

				<Polygon>

					<tessellate>1</tessellate>

					<outerBoundaryIs>

						<LinearRing>

							<coordinates>

							175.9642892185107,-38.88549619636,0 175.9658489323608,-38.88451938218836,0 175.9648233947167,-38.88279036559432,0 175.963161502063,-38.88361090334166,0 175.9642892185107,-38.88549619636,0 
						
</coordinates>

						</LinearRing>

					</outerBoundaryIs>

				</Polygon>

				<flyID>8</flyID>

				<flyDescription>Access lanes enable vessels involved in water sports to legally leave or approach the shore at speeds in excess of 5 knots.

Direction of travel is anti-clockwise. All access lane buoys are coloured orange and black.

You must:

Keep to the right in the lanes.
Enter and leave at right angles to the shore.
Have an observer who is not under the age of 10 years to report every mishap that occurs to the person and/or object that is being towed.
Not proceed in a manner dangerous to other persons or vessels in the lane.
Not beach your boat in the lane.
Not use lane for any other purposes.
No person may operate between sunset and sunrise.
Wear a life jacket when being towed.</flyDescription>

			</Placemark>
<Placemark>

				<name>Mission Bay Access Lane</name>

				<description>Access lanes enable vessels involved in water sports to legally leave or approach the shore at speeds in excess of 5 knots.

Direction of travel is anti-clockwise. All access lane buoys are coloured orange and black.

You must:

Keep to the right in the lanes.
Enter and leave at right angles to the shore.
Have an observer who is not under the age of 10 years to report every mishap that occurs to the person and/or object that is being towed.
Not proceed in a manner dangerous to other persons or vessels in the lane.
Not beach your boat in the lane.
Not use lane for any other purposes.
No person may operate between sunset and sunrise.
Wear a life jacket when being towed.</description>

				<styleUrl>#style0</styleUrl>

				<Polygon>

					<tessellate>1</tessellate>

					<outerBoundaryIs>

						<LinearRing>

							<coordinates>

							175.9403990466514,-38.90424390359132,0 175.9394687731719,-38.90259943129246,0 175.9374270935142,-38.90352496480045,0 175.9383208231291,-38.90521482270004,0 175.9403990466514,-38.90424390359132,0 
						
</coordinates>

						</LinearRing>

					</outerBoundaryIs>

				</Polygon>

				<flyID>9</flyID>

				<flyDescription>Access lanes enable vessels involved in water sports to legally leave or approach the shore at speeds in excess of 5 knots.

Direction of travel is anti-clockwise. All access lane buoys are coloured orange and black.

You must:

Keep to the right in the lanes.
Enter and leave at right angles to the shore.
Have an observer who is not under the age of 10 years to report every mishap that occurs to the person and/or object that is being towed.
Not proceed in a manner dangerous to other persons or vessels in the lane.
Not beach your boat in the lane.
Not use lane for any other purposes.
No person may operate between sunset and sunrise.
Wear a life jacket when being towed.</flyDescription>

			</Placemark>

</Document>
</kml>
