<?xml version="1.0" encoding="UTF-8"?>
<kml xmlns="http://www.opengis.net/kml/2.2" xmlns:gx="http://www.google.com/kml/ext/2.2" xmlns:kml="http://www.opengis.net/kml/2.2" xmlns:atom="http://www.w3.org/2005/Atom">
<Document>
<name>R53 C15.kml</name>

<Style id="style0">

					<LineStyle>

						<color>ff00aa00</color>

					</LineStyle>

					<PolyStyle>

						<color>ff00aa00</color>

						<width>0.9</width>

					</PolyStyle>

				</Style>
<Style id="style1">

					<LineStyle>

						<color>ff00ff00</color>

					</LineStyle>

					<PolyStyle>

						<color>ff00ff00</color>

						<width>0.9</width>

					</PolyStyle>

				</Style>

<Placemark>

				<name>Speed Exemption 1 Oct To 31 July</name>

				<description>There is no speed restriction on Oreti River from the 1st Oct to 31st July from the road bridge at Dipton downstream to the road bridge at Winton.</description>

				<styleUrl>#style0</styleUrl>

				<Polygon>

					<tessellate>1</tessellate>

					<outerBoundaryIs>

						<LinearRing>

							<coordinates>

							168.3609913856805,-45.89499276192359,0 168.3605237349207,-45.8989804122399,0 168.3598404890646,-45.90115065947359,0 168.359536117559,-45.90196411057729,0 168.3590114591321,-45.90416235354891,0 168.3583116578068,-45.90475199513259,0 168.3570035984953,-45.9071560591401,0 168.3549331476385,-45.90989667774776,0 168.3535328808401,-45.91159660102345,0 168.3525677744778,-45.91267500271945,0 168.3521290313618,-45.91400634257518,0 168.3511687315692,-45.91534830842944,0 168.3510806360548,-45.91619338451632,0 168.3513946953165,-45.91750532738912,0 168.3510922338544,-45.91877027006943,0 168.3503433101599,-45.91988118990477,0 168.3490330181612,-45.9205563430987,0 168.3485131898945,-45.92110931832865,0 168.3483912245652,-45.92204630743508,0 168.3479426868931,-45.92414563074185,0 168.3471689942635,-45.92480802749819,0 168.3457921539579,-45.92534094391775,0 168.3440027376302,-45.92630140424148,0 168.3433465769064,-45.92707864416357,0 168.3439436488586,-45.92790914051665,0 168.3443650964171,-45.92934065062122,0 168.3436549860437,-45.93033449600051,0 168.3423245564452,-45.93150251072433,0 168.3412431791772,-45.93268583260509,0 168.3404496148406,-45.93468165702713,0 168.3405959507339,-45.93560058655598,0 168.3408299503527,-45.93641731737432,0 168.3396762151979,-45.93766342931557,0 168.338586660014,-45.9390453838929,0 168.3371022105062,-45.94083547404646,0 168.3355959102494,-45.94208851285893,0 168.334840187814,-45.94318435192253,0 168.3334317903233,-45.94484072978008,0 168.3320667031732,-45.94599699772436,0 168.3302809350933,-45.94659625339676,0 168.3288504591104,-45.94711528106451,0 168.3279675486949,-45.94798128998539,0 168.3265038543675,-45.94887963540219,0 168.325918758132,-45.9497558979303,0 168.3244598461731,-45.95180097515121,0 168.3258839230952,-45.95168492423311,0 168.3271414811436,-45.9517733946831,0 168.3285404742408,-45.9512969471069,0 168.3287926469403,-45.9503893103378,0 168.3293738137425,-45.94931939575924,0 168.33184617882,-45.94825156511779,0 168.333706069062,-45.94767730161281,0 168.3345821996067,-45.947019875493,0 168.3357104453932,-45.94576637156915,0 168.337779694776,-45.94387042416958,0 168.3395915113965,-45.94184807845926,0 168.3416861730459,-45.93963694838507,0 168.3431747459528,-45.93771400510807,0 168.3437778650248,-45.93610350196701,0 168.343744072714,-45.93413196593001,0 168.3456408936229,-45.93211625170392,0 168.3463269602693,-45.93061151265782,0 168.3486864590335,-45.92923651119321,0 168.3505566185272,-45.92771088032072,0 168.3506828311798,-45.92651078589593,0 168.3507319155738,-45.92529305389785,0 168.3504957311465,-45.92402108179009,0 168.3521052644989,-45.92109954860705,0 168.3534907300993,-45.91870719869437,0 168.3546453431347,-45.91558669625876,0 168.3551458630614,-45.91382892044918,0 168.3555578617006,-45.91297329627646,0 168.3570912073612,-45.91162853195429,0 168.3586574766741,-45.91076238250486,0 168.359325560348,-45.90972743590864,0 168.3607553971191,-45.90631076059783,0 168.3614008186303,-45.90448345971573,0 168.362135106995,-45.90269579699004,0 168.3628890164955,-45.9013970627185,0 168.3631889629435,-45.89599010258024,0 168.3609913856805,-45.89499276192359,0 
						
</coordinates>

						</LinearRing>

					</outerBoundaryIs>

				</Polygon>

				<flyID>0</flyID>

				<flyDescription>There is no speed restriction on Oreti River from the 1st Oct to 31st July from the road bridge at Dipton downstream to the road bridge at Winton.</flyDescription>

			</Placemark>
<Placemark>

				<name>Speed Exemption 1 Oct To 31 July</name>

				<description>There is no speed restriction on Oreti River from the 1st Oct to 31st July from the road bridge at Dipton downstream to the road bridge at Winton.</description>

				<styleUrl>#style0</styleUrl>

				<Polygon>

					<tessellate>1</tessellate>

					<outerBoundaryIs>

						<LinearRing>

							<coordinates>

							168.3244598461731,-45.95180097515121,0 168.3236981236581,-45.9534969087238,0 168.3238386388777,-45.95429761500796,0 168.3243131611559,-45.95517592096788,0 168.3249997474551,-45.95683641312226,0 168.3249728257748,-45.95772520939286,0 168.3242778924999,-45.95947472029457,0 168.3235503296703,-45.96077323630897,0 168.3226316728518,-45.96188550795018,0 168.3224737468151,-45.96282649098678,0 168.3234074994975,-45.96564903757963,0 168.3233810639493,-45.9675923744144,0 168.323116200776,-45.97074970628108,0 168.3231578004665,-45.97224164733888,0 168.3234399473497,-45.97414152483196,0 168.3239173212757,-45.97618342476719,0 168.323961320909,-45.9777673186954,0 168.3244204262888,-45.97940250697215,0 168.3242326491065,-45.9803867543956,0 168.3236333186905,-45.98159181268535,0 168.3226627322194,-45.98330918162496,0 168.3224186945669,-45.98456767048682,0 168.3229134081849,-45.98548482723314,0 168.3238941821108,-45.98659994483104,0 168.325037708257,-45.98794942547485,0 168.3257826446552,-45.98924524310172,0 168.3259910201994,-45.98985530323241,0 168.3247595044697,-45.99013455917171,0 168.3234884486562,-45.99048809549286,0 168.3221302081322,-45.99088019142843,0 168.3215032493058,-45.99219094074482,0 168.3215096236289,-45.99305200794477,0 168.321583502303,-45.99455238469443,0 168.3221689603589,-45.99516258834887,0 168.3220564334563,-45.99579472771591,0 168.3216008027704,-45.99709770107667,0 168.3207927892087,-45.99787048693665,0 168.3199548886573,-45.99912988153822,0 168.3190276115582,-46.00008383836845,0 168.3210000439127,-46.00040277399548,0 168.3220476933633,-45.99929479051519,0 168.3236159823009,-45.99777318200229,0 168.3246047276786,-45.9970977146301,0 168.3247419727393,-45.99614653473119,0 168.3239476769051,-45.99494753326329,0 168.3237060241735,-45.99436176312761,0 168.3235725269007,-45.99365842413452,0 168.3246494110686,-45.99308781336262,0 168.3252717011318,-45.99228062660186,0 168.3253777639432,-45.99098323008662,0 168.3272646123947,-45.99004850695587,0 168.3274213122285,-45.98903858773885,0 168.3271360360332,-45.98729442864669,0 168.3261277722216,-45.98591805528317,0 168.3249437360595,-45.98481977997142,0 168.3248797932727,-45.98347914413175,0 168.3250078299753,-45.98186141726215,0 168.3259647355278,-45.97978607095759,0 168.3260517469448,-45.97753946949313,0 168.3258659687925,-45.97504966122726,0 168.326325426934,-45.97315428510803,0 168.3258326709376,-45.97130273493136,0 168.3251226645752,-45.96871018073964,0 168.3249691651977,-45.96566782611645,0 168.3243747994655,-45.96413240152903,0 168.3247606839712,-45.96311877836843,0 168.3263542106404,-45.9624475513077,0 168.3274179590766,-45.96194189596506,0 168.3285744118631,-45.96101313807165,0 168.3289970927362,-45.96008978104635,0 168.3285240179962,-45.95961388046643,0 168.3275321926079,-45.95924887355551,0 168.3269662122526,-45.9586772994695,0 168.3262549918712,-45.95715507779272,0 168.3261630208704,-45.95567826915175,0 168.325836442725,-45.95402811809396,0 168.3258839230952,-45.95168492423311,0 168.3244598461731,-45.95180097515121,0 
						
</coordinates>

						</LinearRing>

					</outerBoundaryIs>

				</Polygon>

				<flyID>1</flyID>

				<flyDescription>There is no speed restriction on Oreti River from the 1st Oct to 31st July from the road bridge at Dipton downstream to the road bridge at Winton.</flyDescription>

			</Placemark>
<Placemark>

				<name>Speed Exemption 1 Oct To 31 July</name>

				<description>There is no speed restriction on Oreti River from the 1st Oct to 31st July from the road bridge at Dipton downstream to the road bridge at Winton.</description>

				<styleUrl>#style0</styleUrl>

				<Polygon>

					<tessellate>1</tessellate>

					<outerBoundaryIs>

						<LinearRing>

							<coordinates>

							168.3190276115582,-46.00008383836845,0 168.317785023221,-46.00083353174347,0 168.3171291873582,-46.00149595496646,0 168.3164757135173,-46.00229932201587,0 168.3168212229645,-46.00308586683536,0 168.3165203591155,-46.00412196205541,0 168.3157752556564,-46.00475075236901,0 168.3150816861245,-46.00563858371209,0 168.3150441143312,-46.00654071655032,0 168.3160888471014,-46.00699116725123,0 168.316984891613,-46.0071569975908,0 168.3168226969432,-46.00819213172096,0 168.3161508261037,-46.00884409133729,0 168.3155393106185,-46.00928882180462,0 168.3156988550736,-46.00983785617977,0 168.3162616128584,-46.01102829606809,0 168.317056168861,-46.01165894478056,0 168.3181543147524,-46.01210709430048,0 168.3192294482621,-46.01287109567656,0 168.3191324379455,-46.01346797355628,0 168.3199557620016,-46.0138744131485,0 168.321505321885,-46.01517138132065,0 168.3224646300981,-46.0163294587534,0 168.3233828003441,-46.01777746066938,0 168.3247438610895,-46.01984568453808,0 168.3256554091294,-46.02105388598028,0 168.327006714582,-46.02261500388603,0 168.3265664254483,-46.02335453862012,0 168.3250103301416,-46.02392660075843,0 168.3233267649746,-46.02471135842949,0 168.321555552545,-46.02598150248797,0 168.3202784167597,-46.02757953422867,0 168.3197070010581,-46.0290519155638,0 168.3195164794863,-46.03007305739691,0 168.3204992174128,-46.03141242030011,0 168.320345508475,-46.03209604844189,0 168.3198567925656,-46.03402410978809,0 168.3187588279026,-46.03581083829887,0 168.3178844374907,-46.03793520077811,0 168.3176867405611,-46.039267727119,0 168.3169143684366,-46.04033527945024,0 168.3169722158631,-46.04097329909823,0 168.3169712886894,-46.04214009547167,0 168.3164353492018,-46.04304732398839,0 168.316053140214,-46.04414965226611,0 168.3163813208048,-46.04560134930363,0 168.3157758974326,-46.04740576113194,0 168.3147962410797,-46.04900395156359,0 168.3135368605117,-46.05034817545591,0 168.3120478436256,-46.05085658843588,0 168.3111104093564,-46.05107214793247,0 168.3097942436039,-46.05178224957136,0 168.3087232196079,-46.05282000080255,0 168.3141055484467,-46.05315570157643,0 168.3152776414879,-46.05206850311996,0 168.3166373514839,-46.05057325129589,0 168.3174701786962,-46.04971931648539,0 168.318800498142,-46.04899508618887,0 168.3185037277087,-46.04785242456463,0 168.3179741820215,-46.04611684668388,0 168.3191249849883,-46.04399553229104,0 168.3194969014682,-46.042742520124,0 168.3194957077462,-46.04161723327918,0 168.3203379044255,-46.039506562406,0 168.3207561131395,-46.03853267301479,0 168.3207692337937,-46.03774306097017,0 168.3221963954099,-46.03675975522161,0 168.3230314224725,-46.03596586670972,0 168.3234220459157,-46.03547126152716,0 168.3237061619896,-46.03482320933675,0 168.3248336534549,-46.0339740078756,0 168.3250910440585,-46.03268372635156,0 168.3248125564712,-46.03185235759577,0 168.3244429034008,-46.03034988512402,0 168.3238828779639,-46.02993386333897,0 168.3223851077513,-46.0295094402351,0 168.3219289349188,-46.02900893702909,0 168.3221368544353,-46.02827779960857,0 168.3231685000937,-46.02786759790949,0 168.3243062215111,-46.0277935165996,0 168.3256048450561,-46.02691356785862,0 168.3268172086715,-46.02564521207203,0 168.3284290666124,-46.02320731837659,0 168.3287927965374,-46.0222337869936,0 168.3288109203169,-46.02162857313276,0 168.3282367509589,-46.02047162378917,0 168.3275488423261,-46.01947591638164,0 168.327138949768,-46.0185240033495,0 168.3263973063547,-46.01791984795005,0 168.3255202912495,-46.01629842844524,0 168.3252853043975,-46.01535868580741,0 168.3249935125393,-46.01482766685662,0 168.3233205400093,-46.01298546835134,0 168.3215200924495,-46.01089380163591,0 168.321223254999,-46.00972293939078,0 168.3207200080556,-46.00886480975415,0 168.3213193884056,-46.00744443283332,0 168.3212305684758,-46.0068903951007,0 168.3194291525255,-46.00487690370965,0 168.3183217200941,-46.00313847539275,0 168.3190012719795,-46.00191812322192,0 168.3200010553586,-46.00094330486849,0 168.3210000439127,-46.00040277399548,0 168.3190276115582,-46.00008383836845,0 
						
</coordinates>

						</LinearRing>

					</outerBoundaryIs>

				</Polygon>

				<flyID>2</flyID>

				<flyDescription>There is no speed restriction on Oreti River from the 1st Oct to 31st July from the road bridge at Dipton downstream to the road bridge at Winton.</flyDescription>

			</Placemark>
<Placemark>

				<name>Speed Exemption 1 Aug To 30 Sept</name>

				<description>There is no speed restriction from the 1st of August to 30th of September on Oreti River from the State Highway 94 bridge, near Lumsden downstream to the State Highway 99 bridge near Wallacetown.</description>

				<styleUrl>#style1</styleUrl>

				<Polygon>

					<tessellate>1</tessellate>

					<outerBoundaryIs>

						<LinearRing>

							<coordinates>

							168.429045965106,-45.72432141390101,0 168.4273816104219,-45.72741004806856,0 168.4264023540712,-45.73087704918711,0 168.427712421344,-45.73475469248405,0 168.4278002510695,-45.74093593094414,0 168.4291874520814,-45.74549742202778,0 168.4319092883271,-45.75079198897971,0 168.4331034099154,-45.75233980408904,0 168.4331118975779,-45.75473976883891,0 168.4318755024054,-45.75843005453383,0 168.4319697401733,-45.76015745293184,0 168.429931494748,-45.76439673517374,0 168.4266361474304,-45.76820112027049,0 168.4262704125266,-45.7700229409063,0 168.4265354012731,-45.77318298857607,0 168.4243188231152,-45.77586898730837,0 168.4215231323176,-45.77752991954873,0 168.4185140668229,-45.77967052975597,0 168.4167271519319,-45.78116616338485,0 168.4200232801815,-45.78183950145242,0 168.4234958802155,-45.78058681398048,0 168.4251366622288,-45.77991456246126,0 168.4263736661051,-45.77901435098737,0 168.4275556333562,-45.77742037605605,0 168.4290571833808,-45.77580919891432,0 168.4292115370882,-45.7741441520955,0 168.4292247024426,-45.77140462148626,0 168.4323074518031,-45.76661796374973,0 168.4338838985194,-45.76471154588696,0 168.4361102909321,-45.76341849353898,0 168.4372510589685,-45.75994528719582,0 168.4377521564197,-45.75787702822293,0 168.4372659770602,-45.75614437155732,0 168.4355741700111,-45.75179887330783,0 168.4349944127189,-45.74895606903589,0 168.4334154509432,-45.7458776505681,0 168.4313982272898,-45.74319997869878,0 168.4314067296336,-45.7415732986029,0 168.4320804560613,-45.7392589132641,0 168.4318745586047,-45.7382919244902,0 168.4313588631372,-45.73672912801621,0 168.4316021723654,-45.73523711405007,0 168.4304543803443,-45.73381968102958,0 168.4309525828464,-45.73227459941489,0 168.4306395641341,-45.73027162105746,0 168.431094870488,-45.72793582888171,0 168.4320573346803,-45.72672629607824,0 168.4316966394453,-45.72560007384824,0 168.4328856356913,-45.72339469648891,0 168.4333117067104,-45.7216060002212,0 168.4325152436659,-45.72009230190603,0 168.4328897055939,-45.71807036841116,0 168.4308875051867,-45.71640941056506,0 168.4286368339458,-45.71644054483244,0 168.4293189256922,-45.71825535099465,0 168.4293119617925,-45.71930208751691,0 168.4297200733364,-45.72010359320647,0 168.430606661952,-45.72085131646984,0 168.4300981404776,-45.72207181902772,0 168.429045965106,-45.72432141390101,0 
						
</coordinates>

						</LinearRing>

					</outerBoundaryIs>

				</Polygon>

				<flyID>3</flyID>

				<flyDescription>There is no speed restriction from the 1st of August to 30th of September on Oreti River from the State Highway 94 bridge, near Lumsden downstream to the State Highway 99 bridge near Wallacetown.</flyDescription>

			</Placemark>
<Placemark>

				<name>Speed Exemption 1 Aug To 30 Sept</name>

				<description>There is no speed restriction from the 1st of August to 30th of September on Oreti River from the State Highway 94 bridge, near Lumsden downstream to the State Highway 99 bridge near Wallacetown.</description>

				<styleUrl>#style1</styleUrl>

				<Polygon>

					<tessellate>1</tessellate>

					<outerBoundaryIs>

						<LinearRing>

							<coordinates>

							168.4167271519319,-45.78116616338485,0 168.4147508427072,-45.78328449780406,0 168.41321779581,-45.78474347638982,0 168.411599718465,-45.78621525944724,0 168.4102574924947,-45.78626791377497,0 168.4082527617139,-45.78580129942729,0 168.4060909942741,-45.78668328566579,0 168.4041812727672,-45.78822092634075,0 168.4022674317697,-45.78932600939609,0 168.4000847331085,-45.78924532724636,0 168.3963753505261,-45.7899800648515,0 168.3938708431688,-45.79134738699633,0 168.3911505193764,-45.79263109409791,0 168.3903822786087,-45.79327534223222,0 168.3894824619061,-45.79489129700018,0 168.3885908887245,-45.79591480668751,0 168.38701038152,-45.79670011631953,0 168.3853436275815,-45.79760074259777,0 168.384699132581,-45.79904872736496,0 168.3844621800423,-45.80018829587763,0 168.3852445407047,-45.80138915677346,0 168.3852038413863,-45.80236267776379,0 168.3839025371122,-45.80397001418032,0 168.3822606943371,-45.80563908127191,0 168.3818018611698,-45.80669064786038,0 168.3805530596352,-45.80865531126915,0 168.3793345322178,-45.80956815835535,0 168.3789799388982,-45.81115117957695,0 168.3794856290033,-45.81223868808365,0 168.3805977315905,-45.81362735393209,0 168.3808187664656,-45.81433023726012,0 168.3801183567769,-45.81529964282055,0 168.3805642876518,-45.81763060910406,0 168.3810404908841,-45.81986065418492,0 168.3812101430409,-45.8228558769594,0 168.3808662681763,-45.8241072877475,0 168.3801780834572,-45.82603141160727,0 168.3804347433136,-45.82661422076652,0 168.3807064888216,-45.8276269276647,0 168.3801698127521,-45.82881624628215,0 168.3802407104692,-45.82952451268353,0 168.3806017725435,-45.83013753179094,0 168.3806665221639,-45.83141010611723,0 168.3798114469336,-45.8334035437611,0 168.3783877198413,-45.83433274278468,0 168.3761843603919,-45.83523612483496,0 168.3746869399577,-45.83611039512024,0 168.3737637859786,-45.83688717744509,0 168.3721206212759,-45.83764579797639,0 168.3713243232568,-45.83860976686004,0 168.3708761796492,-45.8397972745783,0 168.374327971776,-45.84123272967712,0 168.3787983169711,-45.83788581652616,0 168.3809521986135,-45.83682996811235,0 168.3822812389254,-45.8358910893952,0 168.3832960779213,-45.83473539760373,0 168.3852559006571,-45.83361411390342,0 168.3856109104008,-45.83277565438706,0 168.3858428342713,-45.83105657722625,0 168.3861157207778,-45.8283704975803,0 168.3865279192065,-45.82601453275263,0 168.3856820839037,-45.82399337932219,0 168.3854480526959,-45.82131347014932,0 168.3841210563492,-45.81653554725556,0 168.3841760416923,-45.81526788551015,0 168.386497835027,-45.81260017101241,0 168.3871584925249,-45.81042232460044,0 168.3875569645516,-45.80740131578733,0 168.3889422802729,-45.80338658051807,0 168.3887823403171,-45.80139591626175,0 168.3882430839185,-45.79988382828281,0 168.3893831308518,-45.79861793194576,0 168.3916081198647,-45.79673864734162,0 168.3940986417235,-45.79675123176408,0 168.3963375341628,-45.7974797941953,0 168.3987601463157,-45.79838929330164,0 168.3999523678149,-45.79856582274838,0 168.4007261750583,-45.79788002125225,0 168.4013031552278,-45.79712200810447,0 168.4031702978718,-45.79625211674115,0 168.4047656383474,-45.79531127420703,0 168.4062458983927,-45.79424175964934,0 168.4080653093316,-45.79333887619465,0 168.4097038883596,-45.79310781207528,0 168.4112373697335,-45.79235692626632,0 168.4122959008097,-45.7913124004444,0 168.4133823697842,-45.79059587282476,0 168.4151036594343,-45.79003202223984,0 168.4162205142149,-45.78872643821465,0 168.4168254698469,-45.78645120822408,0 168.4164836307627,-45.78566994965251,0 168.4168486893633,-45.78486565069178,0 168.418240195412,-45.78381765178569,0 168.419352625631,-45.78269265977446,0 168.4200232801815,-45.78183950145242,0 168.4167271519319,-45.78116616338485,0 
						
</coordinates>

						</LinearRing>

					</outerBoundaryIs>

				</Polygon>

				<flyID>4</flyID>

				<flyDescription>There is no speed restriction from the 1st of August to 30th of September on Oreti River from the State Highway 94 bridge, near Lumsden downstream to the State Highway 99 bridge near Wallacetown.</flyDescription>

			</Placemark>
<Placemark>

				<name>Speed Exemption 1 Aug To 30 Sept</name>

				<description>There is no speed restriction from the 1st of August to 30th of September on Oreti River from the State Highway 94 bridge, near Lumsden downstream to the State Highway 99 bridge near Wallacetown.</description>

				<styleUrl>#style1</styleUrl>

				<Polygon>

					<tessellate>1</tessellate>

					<outerBoundaryIs>

						<LinearRing>

							<coordinates>

							168.3708761796492,-45.8397972745783,0 168.3704119868206,-45.84046333037927,0 168.3695232819034,-45.84131821201169,0 168.3691984307383,-45.84303685178159,0 168.3686698360193,-45.84475033762843,0 168.3681925236909,-45.84646087158726,0 168.3681899860308,-45.84841042121101,0 168.367891078645,-45.85022825817191,0 168.366981750011,-45.85128864361439,0 168.3654644880024,-45.85197972604904,0 168.3648504306911,-45.85262029348682,0 168.3637943864925,-45.85401103873888,0 168.3631412175921,-45.85536494388469,0 168.3633916294942,-45.85625767419297,0 168.3636346956022,-45.85709411453409,0 168.3628956514598,-45.85791446353495,0 168.3623854329155,-45.85896917560513,0 168.3625562263496,-45.86002617506557,0 168.3628903261465,-45.86190149714745,0 168.362881537,-45.86337239421691,0 168.3632018161889,-45.86460039748494,0 168.3640356242741,-45.86574962771146,0 168.3645290705428,-45.8672400957483,0 168.3649314067646,-45.86917606168775,0 168.3646678247745,-45.86998871960549,0 168.3640605120799,-45.87049574084526,0 168.3634762187432,-45.87124271430341,0 168.3635949785867,-45.87287127223166,0 168.3635467152228,-45.87382290331207,0 168.3628583951381,-45.87460202700241,0 168.3620630046243,-45.87564979118129,0 168.3615841735442,-45.87731612997312,0 168.3611486274817,-45.87815174798167,0 168.3605600481937,-45.87870777529514,0 168.3604376672985,-45.87928435589714,0 168.3598496843119,-45.88015483248713,0 168.3590285904699,-45.88174838671408,0 168.3590073525292,-45.88238853446047,0 168.3595875380832,-45.88359840960892,0 168.3606388563825,-45.88494121544606,0 168.3604107805946,-45.88545678085399,0 168.3603552052085,-45.88688321823239,0 168.3606950321513,-45.88829712535121,0 168.3612884229467,-45.88991185522022,0 168.3614431713463,-45.89115874154573,0 168.3609377578871,-45.89295200171142,0 168.3607230067144,-45.89363003051103,0 168.3606734048852,-45.89406302018574,0 168.361023743335,-45.89516431555483,0 168.3632183242348,-45.8960211210729,0 168.362905479327,-45.89310739572804,0 168.3630479043424,-45.89214592443486,0 168.3640147394293,-45.89052847063156,0 168.3644412522007,-45.88924491424631,0 168.364535755059,-45.88849285798042,0 168.3646873377872,-45.88723246414361,0 168.3636886355211,-45.88584526964733,0 168.3633539844904,-45.88302175015281,0 168.3630892658904,-45.88034223161915,0 168.3647463336744,-45.87787611150112,0 168.3657774494306,-45.87616562021875,0 168.3664809666558,-45.87342801315695,0 168.3666428216335,-45.87147932475848,0 168.3671120697867,-45.87099017391515,0 168.3683615132596,-45.87049539552746,0 168.369255456832,-45.87006954590127,0 168.3694246039666,-45.86931302165459,0 168.3691600182251,-45.86861137287151,0 168.368509225605,-45.86715579317934,0 168.3684862423041,-45.86551491520586,0 168.368636387829,-45.8648198959537,0 168.3683510256352,-45.86455657185965,0 168.3674304702664,-45.86375102424211,0 168.3668866400618,-45.86154097799373,0 168.3670174230265,-45.8603656552749,0 168.3682961514548,-45.85894138851486,0 168.3687930385725,-45.85807933240839,0 168.3702063888273,-45.85639229464337,0 168.3704159578762,-45.85401996711303,0 168.3701576149027,-45.85292350366955,0 168.3709842928722,-45.8515876055054,0 168.3716036764978,-45.84986937791947,0 168.3717806681048,-45.84819162026626,0 168.3724808392284,-45.84597597677949,0 168.3730467880047,-45.84239399629573,0 168.3743878555961,-45.84117185448162,0 168.3708761796492,-45.8397972745783,0 
						
</coordinates>

						</LinearRing>

					</outerBoundaryIs>

				</Polygon>

				<flyID>5</flyID>

				<flyDescription>There is no speed restriction from the 1st of August to 30th of September on Oreti River from the State Highway 94 bridge, near Lumsden downstream to the State Highway 99 bridge near Wallacetown.</flyDescription>

			</Placemark>

</Document>
</kml>
