<?xml version="1.0" encoding="UTF-8"?>
<kml xmlns="http://www.opengis.net/kml/2.2" xmlns:gx="http://www.google.com/kml/ext/2.2" xmlns:kml="http://www.opengis.net/kml/2.2" xmlns:atom="http://www.w3.org/2005/Atom">
<Document>
	<name>R56 C17.kml</name>
	<Style id="style1">
		<LineStyle>
			<color>ff00ff00</color>
		</LineStyle>
		<PolyStyle>
			<color>ff00ff00</color>
			<width>0.9</width>
		</PolyStyle>
	</Style>
	<Style id="style10">
		<LineStyle>
			<color>ff00ff00</color>
		</LineStyle>
		<PolyStyle>
			<color>ff00ff00</color>
			<width>0.9</width>
		</PolyStyle>
	</Style>
	<Style id="style16">
		<LineStyle>
			<color>ff00ff00</color>
		</LineStyle>
		<PolyStyle>
			<color>ff00ff00</color>
			<width>0.9</width>
		</PolyStyle>
	</Style>
	<Style id="style17">
		<LineStyle>
			<color>ff00ff00</color>
		</LineStyle>
		<PolyStyle>
			<color>ff00ff00</color>
			<width>0.9</width>
		</PolyStyle>
	</Style>
	<Style id="style13">
		<LineStyle>
			<color>ff00ff00</color>
		</LineStyle>
		<PolyStyle>
			<color>ff00ff00</color>
			<width>0.9</width>
		</PolyStyle>
	</Style>
	<Style id="style15">
		<LineStyle>
			<color>ff00ff00</color>
		</LineStyle>
		<PolyStyle>
			<color>ff00ff00</color>
			<width>0.9</width>
		</PolyStyle>
	</Style>
	<Style id="style0">
		<LineStyle>
			<color>ff00ff00</color>
		</LineStyle>
		<PolyStyle>
			<color>ff00ff00</color>
			<width>0.9</width>
		</PolyStyle>
	</Style>
	<Placemark>
		<name>Speed Exemption</name>
		<description>There is no speed restriction downstream of the SH92 road bridge to the sea, including the waters of Toetoes Harbour, but excluding the waters of the Titiroa Stream.</description>
		<styleUrl>#style0</styleUrl>
		<Polygon>
			<tessellate>1</tessellate>
			<outerBoundaryIs>
				<LinearRing>
					<coordinates>
						168.742335724632,-46.53672129932415,0 168.7449505366372,-46.53687882885762,0 168.7466937666033,-46.53684799915772,0 168.7478849600306,-46.53665698777294,0 168.7493838040759,-46.53652965738987,0 168.7504580820897,-46.53633716492058,0 168.7513486332908,-46.53579610842839,0 168.7521148250365,-46.53512224798561,0 168.7522901658768,-46.53427411014568,0 168.7516756553163,-46.53379222278836,0 168.750467529036,-46.53306829571304,0 168.7495087857061,-46.53253108976163,0 168.7476002273585,-46.53225974429018,0 168.746190112539,-46.53215740392509,0 168.7451857831923,-46.53167432937895,0 168.7444230240557,-46.53104021205047,0 168.7437996356153,-46.53014361399215,0 168.7434724128396,-46.52910249138387,0 168.7440183603447,-46.5281432180471,0 168.7449088421714,-46.52790863868929,0 168.7461008712875,-46.52771181469253,0 168.7476175281139,-46.52787323581627,0 168.7492923446484,-46.5285339877086,0 168.7505530760477,-46.52914494924843,0 168.7520720586356,-46.5304014870141,0 168.7535747529252,-46.53174770134941,0 168.7546562688936,-46.53307036448219,0 168.7549923290525,-46.53437087426516,0 168.754585304328,-46.5362036152773,0 168.7542405480486,-46.53692065697968,0 168.7554859639668,-46.53705294849036,0 168.75587847103,-46.53607274472116,0 168.7561385016927,-46.5351418124686,0 168.7562258016027,-46.53437640154788,0 168.7558906621177,-46.5334681629037,0 168.7551808522301,-46.53230792136179,0 168.7540925872924,-46.53102615787466,0 168.7526781275939,-46.52985596843833,0 168.7513692092637,-46.52848760607751,0 168.7503484642299,-46.52772208508947,0 168.7473649283185,-46.52708720510568,0 168.7446903622734,-46.52708038768241,0 168.7429763755758,-46.52745597783564,0 168.7424335779773,-46.52837378410301,0 168.7424360419463,-46.52971381327493,0 168.7433946353362,-46.53121703522758,0 168.744162799768,-46.53217509254458,0 168.7462001474653,-46.53291759442542,0 168.7484597902852,-46.53313019453479,0 168.7493574332225,-46.5334012014527,0 168.750594824268,-46.53411130823488,0 168.7510882179919,-46.53460208865813,0 168.7504615130605,-46.53533327974616,0 168.7489673422474,-46.5358001412741,0 168.7464879523063,-46.536285071725,0 168.7445127445102,-46.53615280148996,0 168.7422237685552,-46.53584080270197,0 168.742335724632,-46.53672129932415,0 
					</coordinates>
				</LinearRing>
			</outerBoundaryIs>
		</Polygon>
		<flyID>0</flyID><flyDescription>There is no speed restriction downstream of the SH92 road bridge to the sea, including the waters of Toetoes Harbour, but excluding the waters of the Titiroa Stream.</flyDescription>
	</Placemark>
	<Placemark>
		<name>Speed Exemption</name>
		<description>There is no speed restriction downstream of the SH92 road bridge to the sea, including the waters of Toetoes Harbour, but excluding the waters of the Titiroa Stream.</description>
		<styleUrl>#style0</styleUrl>
		<Polygon>
			<tessellate>1</tessellate>
			<outerBoundaryIs>
				<LinearRing>
					<coordinates>
						168.7542405480486,-46.53692065697968,0 168.7544899060501,-46.53763135784389,0 168.7552100463312,-46.53855553255589,0 168.7555398302649,-46.53947269934478,0 168.7552652485746,-46.53992210516591,0 168.7545155999495,-46.54019452747832,0 168.7540437564958,-46.54055260438236,0 168.7537576523019,-46.54110503631302,0 168.7533048847125,-46.5415245743516,0 168.7527411341403,-46.54134927346268,0 168.7523428086749,-46.54092580111277,0 168.7514457364571,-46.54042298613798,0 168.7503205834687,-46.54030694912513,0 168.7494419441247,-46.54058487970261,0 168.7488542825,-46.54076786980632,0 168.7483465913961,-46.54117291450534,0 168.7472836124427,-46.54210282980417,0 168.7467053616348,-46.54241644589549,0 168.7454535875507,-46.54309133554656,0 168.7441343060665,-46.54415570717449,0 168.7434031108869,-46.54502322657613,0 168.7429745773123,-46.54602001387192,0 168.7425344224344,-46.54708653334741,0 168.7424985205918,-46.54776734208113,0 168.7427796318927,-46.54856919606728,0 168.7430556081936,-46.54901665728422,0 168.7436755823058,-46.5493837313479,0 168.7447688710685,-46.55024268861278,0 168.7458566081412,-46.55100119214454,0 168.7461542966451,-46.55146103781372,0 168.7460767795076,-46.55193889260532,0 168.7475374092703,-46.55178646850965,0 168.7470749627895,-46.5509177269225,0 168.7464523048479,-46.54998907242594,0 168.7450479905029,-46.54928314857307,0 168.7439508000971,-46.54834109483696,0 168.7436258129832,-46.54729162664853,0 168.7440859579181,-46.54575097147665,0 168.7447534890323,-46.54480966046744,0 168.746296319421,-46.54343572302246,0 168.7478048940065,-46.54281143390597,0 168.7494577634149,-46.5414062222441,0 168.7504813640939,-46.54118857678501,0 168.7511517282661,-46.54121967177936,0 168.7515916034688,-46.54162166751709,0 168.752217682375,-46.54201750342845,0 168.7530451483925,-46.54261484995378,0 168.7538459505326,-46.54261471184251,0 168.7547326027376,-46.54213768810452,0 168.755543554742,-46.54131237033828,0 168.7561824904933,-46.54046318237114,0 168.756796889544,-46.53931884574919,0 168.7567828867676,-46.53857247200558,0 168.7559828198263,-46.53801678944668,0 168.7554859639668,-46.53705294849036,0 168.7542405480486,-46.53692065697968,0 
					</coordinates>
				</LinearRing>
			</outerBoundaryIs>
		</Polygon>
		<flyID>1</flyID><flyDescription>There is no speed restriction downstream of the SH92 road bridge to the sea, including the waters of Toetoes Harbour, but excluding the waters of the Titiroa Stream.</flyDescription>
	</Placemark>
	<Placemark>
		<name>Speed Exemption</name>
		<description>There is no speed restriction from the 1st of August to 30th of September on Mataura River from the Ardlussa Bridge downstream to the Seaward Downs Bridge.</description>
		<styleUrl>#style13</styleUrl>
		<Polygon>
			<tessellate>1</tessellate>
			<outerBoundaryIs>
				<LinearRing>
					<coordinates>
						168.7465194929388,-46.57005293491946,0 168.7475482212648,-46.57024901708115,0 168.7487230971893,-46.57038404688415,0 168.7493435977152,-46.57059054035411,0 168.7499807384625,-46.57081222082402,0 168.750870520253,-46.57081245439845,0 168.7515798986231,-46.57083092767505,0 168.7526660124274,-46.57072104945304,0 168.753903294139,-46.57075814180455,0 168.7569766702342,-46.57111978406684,0 168.7585854088072,-46.57144760955595,0 168.760598364107,-46.57164913099134,0 168.7623510065783,-46.5716845055201,0 168.7629499128792,-46.57173552337153,0 168.7643501500039,-46.57183329400458,0 168.7665580771796,-46.57208895867409,0 168.769679993496,-46.57278867634731,0 168.7713628352953,-46.57333947395004,0 168.7730951823206,-46.57371972857045,0 168.7746077308009,-46.57399783711604,0 168.7759384573805,-46.57430637763401,0 168.7743692342637,-46.56767671279797,0 168.7720821637392,-46.56747473708784,0 168.7681012440503,-46.56706872861149,0 168.7665107877182,-46.56689569945694,0 168.7657447334746,-46.56701110635984,0 168.7647294270338,-46.56712550193238,0 168.7640381943999,-46.56735158650046,0 168.7625876055863,-46.56783398122133,0 168.7609982175771,-46.56780709413499,0 168.7595985429489,-46.5679398772078,0 168.7586408926154,-46.56817685675681,0 168.7571949558222,-46.5683331209553,0 168.7559224051132,-46.56823916260226,0 168.7535190465562,-46.5679652145031,0 168.751627557332,-46.56769822506656,0 168.7507938273774,-46.5678050574054,0 168.7497130741131,-46.5680171220775,0 168.7483078346506,-46.56791080760257,0 168.7468485266664,-46.56748098669608,0 168.7442084074462,-46.56901866167994,0 168.7465194929388,-46.57005293491946,0 
					</coordinates>
				</LinearRing>
			</outerBoundaryIs>
		</Polygon>
		<flyID>2</flyID><flyDescription>There is no speed restriction from the 1st of August to 30th of September on Mataura River from the Ardlussa Bridge downstream to the Seaward Downs Bridge.</flyDescription>
	</Placemark>
	<Placemark>
		<name>Speed Exemption</name>
		<description>There is no speed restriction from the 1st of August to 30th of September on Mataura River from the Ardlussa Bridge downstream to the Seaward Downs Bridge.</description>
		<styleUrl>#style16</styleUrl>
		<Polygon>
			<tessellate>1</tessellate>
			<outerBoundaryIs>
				<LinearRing>
					<coordinates>
						168.7759384573805,-46.57430637763401,0 168.7766612819771,-46.57469511548866,0 168.7769519292787,-46.57493655046545,0 168.7779294944517,-46.57505215289317,0 168.7795052919534,-46.57492359881585,0 168.7807112175873,-46.57505218638705,0 168.7818844123154,-46.57519910448297,0 168.784104813593,-46.57529162253006,0 168.7866349690036,-46.57561835674288,0 168.7873702831461,-46.57570832407704,0 168.788439657924,-46.57563896781419,0 168.7894631375435,-46.57566588394333,0 168.7906826010348,-46.57576932801704,0 168.7910479179825,-46.57613634813063,0 168.7909799373784,-46.57662302371438,0 168.7913044608865,-46.57693185279494,0 168.7914942674544,-46.57730784420491,0 168.7918693248953,-46.57757174028066,0 168.7930343488108,-46.57780471762257,0 168.7939214601939,-46.57803714304976,0 168.7963095504594,-46.57590600011036,0 168.7961363778258,-46.57527577671139,0 168.7960405168676,-46.57403385759908,0 168.7959304857026,-46.57328971369431,0 168.795626649633,-46.57265199744042,0 168.7949469792971,-46.57153353862164,0 168.7938958391343,-46.56951162622932,0 168.7928564550692,-46.56766688818307,0 168.7907530081058,-46.56439119452385,0 168.7896524613258,-46.56313218207343,0 168.7889909330787,-46.56273069805081,0 168.7889370623398,-46.56236754352454,0 168.7882643242198,-46.56242831069795,0 168.7864973286402,-46.56165629991769,0 168.7846075142725,-46.56061359964247,0 168.7828230720851,-46.55977747055154,0 168.7812196287104,-46.55946606183109,0 168.7798470045748,-46.55943976104999,0 168.7785227035218,-46.5597789826872,0 168.7777692047399,-46.56051473425644,0 168.7767425219756,-46.56131418933207,0 168.7753549447468,-46.56171007424613,0 168.774423346972,-46.56161780002031,0 168.7727914928546,-46.56222931861592,0 168.7740890114074,-46.56372426325105,0 168.7760849030742,-46.56518177241408,0 168.7772912813488,-46.56548315884189,0 168.7786271038322,-46.56565722462744,0 168.7794500534912,-46.56560523899728,0 168.78001937513,-46.5654128495032,0 168.780377454171,-46.5654128390495,0 168.7807944244419,-46.56570893655049,0 168.7812958145254,-46.56594776324862,0 168.7812337569627,-46.56642027984728,0 168.7801863580697,-46.5671042544768,0 168.7786651457735,-46.56767681836184,0 168.7773839024075,-46.5679545060649,0 168.7763430112179,-46.56793483033507,0 168.7743692342637,-46.56767671279797,0 168.7759384573805,-46.57430637763401,0 
					</coordinates>
				</LinearRing>
			</outerBoundaryIs>
		</Polygon>
		<flyID>3</flyID><flyDescription>There is no speed restriction from the 1st of August to 30th of September on Mataura River from the Ardlussa Bridge downstream to the Seaward Downs Bridge.</flyDescription>
	</Placemark>
	<Placemark>
		<name>Speed Exemption</name>
		<description>There is no speed restriction from the 1st of August to 30th of September on Mataura River from the Ardlussa Bridge downstream to the Seaward Downs Bridge.</description>
		<styleUrl>#style17</styleUrl>
		<Polygon>
			<tessellate>1</tessellate>
			<outerBoundaryIs>
				<LinearRing>
					<coordinates>
						168.7939214601939,-46.57803714304976,0 168.7941465782978,-46.57836229080668,0 168.7941633441293,-46.57875344189739,0 168.7942174943078,-46.57928461721599,0 168.7946644239948,-46.57994530937172,0 168.7959132914849,-46.58050062492337,0 168.7962188850297,-46.58074437270788,0 168.7966170899215,-46.5812841005151,0 168.796447030592,-46.58137228457806,0 168.7959970214249,-46.58156422130167,0 168.795369240491,-46.58182377445773,0 168.7949299100554,-46.58182397853825,0 168.7952339104189,-46.58207349606872,0 168.7962504255043,-46.58255115211697,0 168.7973601850817,-46.58292305079287,0 168.7976630721994,-46.58282699898644,0 168.7976992893152,-46.58253447717474,0 168.7978355100766,-46.58241883250954,0 168.7980911620858,-46.58248832720056,0 168.7985338753019,-46.58230603526908,0 168.7993793030848,-46.58178315393171,0 168.7996694853616,-46.58127755626315,0 168.8001492848147,-46.58108265106257,0 168.8012068771824,-46.58088221544481,0 168.8023812357697,-46.58045085012526,0 168.8029058661075,-46.57999490632384,0 168.8029748971465,-46.57981467127515,0 168.8023555257333,-46.57942575627693,0 168.8017348796665,-46.57880107022359,0 168.800655867305,-46.57743572983294,0 168.799839325219,-46.57689039808395,0 168.7982082291042,-46.57643203734229,0 168.796795178955,-46.57622043560405,0 168.7963095504594,-46.57590600011036,0 168.7939214601939,-46.57803714304976,0 
					</coordinates>
				</LinearRing>
			</outerBoundaryIs>
		</Polygon>
		<flyID>4</flyID><flyDescription>There is no speed restriction from the 1st of August to 30th of September on Mataura River from the Ardlussa Bridge downstream to the Seaward Downs Bridge.</flyDescription>
	</Placemark>
	<Placemark>
		<name>Speed Exemption</name>
		<description>There is no speed restriction downstream of the SH92 road bridge to the sea, including the waters of Toetoes Harbour, but excluding the waters of the Titiroa Stream.</description>
		<styleUrl>#style0</styleUrl>
		<Polygon>
			<tessellate>1</tessellate>
			<outerBoundaryIs>
				<LinearRing>
					<coordinates>
						168.7367195238146,-46.51061055875532,0 168.7378877571275,-46.51311781154537,0 168.7378643905168,-46.51441227152241,0 168.7379746150762,-46.51606072430911,0 168.738319617798,-46.51854506029597,0 168.7390872897836,-46.5216567303512,0 168.7392051455382,-46.52406867995735,0 168.7391540303198,-46.52617558785717,0 168.7385616594454,-46.52755107790897,0 168.7379938746664,-46.52867963981278,0 168.7365031577744,-46.53009565579222,0 168.7351816955554,-46.53155996376115,0 168.7340989112174,-46.53292491471134,0 168.7337419639688,-46.53392125025799,0 168.7342512647022,-46.53488601207023,0 168.7358362515766,-46.53568913425494,0 168.7371505647994,-46.53595079992446,0 168.7392961901286,-46.53630592335885,0 168.742335724632,-46.53672129932415,0 168.7422237685552,-46.53584080270197,0 168.7366503763892,-46.53516692828855,0 168.7351052488086,-46.53467863633782,0 168.7348804742584,-46.53383663237729,0 168.7351129562975,-46.53296536568302,0 168.7361075239871,-46.53172880013419,0 168.7378721459426,-46.52986660256079,0 168.7387614196282,-46.52939256230503,0 168.7394592131408,-46.52827118891541,0 168.7396404664242,-46.52738456816729,0 168.7401573184228,-46.525849170359,0 168.7400203127109,-46.5238612218936,0 168.7398140767116,-46.52207293107996,0 168.7393905850566,-46.51948108518684,0 168.7390355797685,-46.51709005571539,0 168.7390460878719,-46.5158185125129,0 168.7385248759393,-46.51335301592928,0 168.7379452119286,-46.51150313906657,0 168.7376083046443,-46.51023919715532,0 168.7368003157799,-46.51022042582721,0 168.7367195238146,-46.51061055875532,0 
					</coordinates>
				</LinearRing>
			</outerBoundaryIs>
		</Polygon>
		<flyID>5</flyID><flyDescription>There is no speed restriction downstream of the SH92 road bridge to the sea, including the waters of Toetoes Harbour, but excluding the waters of the Titiroa Stream.</flyDescription>
	</Placemark>
	<Placemark>
		<name>Speed Exemption</name>
		<description>There is no speed restriction downstream of the SH92 road bridge to the sea, including the waters of Toetoes Harbour, but excluding the waters of the Titiroa Stream.</description>
		<styleUrl>#style0</styleUrl>
		<Polygon>
			<tessellate>1</tessellate>
			<outerBoundaryIs>
				<LinearRing>
					<coordinates>
						168.7460656493173,-46.55190957847139,0 168.7454432320618,-46.55208293364249,0 168.7446880771834,-46.55186376310325,0 168.743258519423,-46.55142145215494,0 168.7420031334193,-46.55130990694045,0 168.7405551147165,-46.55146081456402,0 168.7388973826744,-46.55212442500789,0 168.7375762664916,-46.55375074468108,0 168.7368746048619,-46.55539915811129,0 168.7363738901697,-46.5563639822911,0 168.7355463536809,-46.55696164081376,0 168.7343484580409,-46.55686368743113,0 168.7328946296867,-46.55661896914279,0 168.7315580724221,-46.55666991487065,0 168.7297233040291,-46.5573070660358,0 168.728681642015,-46.558458245624,0 168.7282850680783,-46.55967053245264,0 168.729062153471,-46.56142289644423,0 168.7293297059225,-46.56276422384963,0 168.7279125350704,-46.56389826723891,0 168.7264811308932,-46.56470059226488,0 168.727311987732,-46.56551679709158,0 168.7291712945963,-46.56489476010442,0 168.7299325128617,-46.5640953955648,0 168.7303785866373,-46.56301907963655,0 168.7303790185679,-46.56164248144505,0 168.7298195889069,-46.56063706487961,0 168.7295619048818,-46.55965130131644,0 168.7294878856931,-46.55864434440731,0 168.730534748863,-46.55795747470287,0 168.7322281334743,-46.55745085335916,0 168.7332794065486,-46.55753134404016,0 168.7345382954759,-46.55777055649987,0 168.7355814155193,-46.55784914572691,0 168.7369016364326,-46.5571222353508,0 168.7380502626706,-46.55567248407868,0 168.7387664138654,-46.55416806386553,0 168.739362288398,-46.55314707329458,0 168.7404992086558,-46.55232786349078,0 168.7422442565537,-46.55214378228607,0 168.7435584977027,-46.55234605970338,0 168.7456066119108,-46.55288814646806,0 168.7469854091863,-46.55282433956772,0 168.7474453781857,-46.55234225025875,0 168.7475374092703,-46.55178646850965,0 168.7460656493173,-46.55190957847139,0 
					</coordinates>
				</LinearRing>
			</outerBoundaryIs>
		</Polygon>
		<flyID>6</flyID><flyDescription>There is no speed restriction downstream of the SH92 road bridge to the sea, including the waters of Toetoes Harbour, but excluding the waters of the Titiroa Stream.</flyDescription>
	</Placemark>
	<Placemark>
		<name>Speed Exemption</name>
		<description>There is no speed restriction downstream of the SH92 road bridge to the sea, including the waters of Toetoes Harbour, but excluding the waters of the Titiroa Stream.</description>
		<styleUrl>#style0</styleUrl>
		<Polygon>
			<tessellate>1</tessellate>
			<outerBoundaryIs>
				<LinearRing>
					<coordinates>
						168.7264811308932,-46.56470059226488,0 168.7245968577032,-46.56554965174351,0 168.7233197150981,-46.56576935383761,0 168.7225494092218,-46.56556121897002,0 168.7214653661404,-46.56464341402526,0 168.720440196621,-46.56401646861684,0 168.7197386253734,-46.56358027112256,0 168.7180495569898,-46.56335472420239,0 168.7167709813888,-46.56382209310674,0 168.7163114504836,-46.56483986739682,0 168.7172051190376,-46.56661423602515,0 168.7194159510486,-46.56801554761611,0 168.7215607177042,-46.56874665685815,0 168.7244359484759,-46.56875409706829,0 168.7274296623013,-46.56827883531633,0 168.7302602783252,-46.56741234282599,0 168.7327405936848,-46.56675171719748,0 168.7355645373288,-46.5668401143648,0 168.7373785416856,-46.5672338594113,0 168.7396098906623,-46.56758236073599,0 168.7419853513275,-46.5681435677726,0 168.7441536545398,-46.56903360316994,0 168.7467214927525,-46.56740748589213,0 168.7446958395584,-46.56634547447558,0 168.7394930871685,-46.56623417947257,0 168.7375217056767,-46.56562813819085,0 168.7357631577558,-46.56517960607734,0 168.7327221397552,-46.56547104581061,0 168.729661651119,-46.56587730299329,0 168.7268139234783,-46.5666397293592,0 168.723660445261,-46.56747796401145,0 168.7213649843366,-46.56754801916579,0 168.7189664355705,-46.56687165178457,0 168.7180248075594,-46.56599188418116,0 168.7175788325756,-46.56488324812931,0 168.7178466161196,-46.56417740609536,0 168.718754330549,-46.56423185805623,0 168.7197371249908,-46.56485438936274,0 168.7211245111482,-46.56592853895409,0 168.7227846099486,-46.56661622686931,0 168.7243331337159,-46.56669212259489,0 168.7257320494075,-46.56632573048993,0 168.7273048414999,-46.56551749945977,0 168.7264811308932,-46.56470059226488,0 
					</coordinates>
				</LinearRing>
			</outerBoundaryIs>
		</Polygon>
		<flyID>7</flyID><flyDescription>There is no speed restriction downstream of the SH92 road bridge to the sea, including the waters of Toetoes Harbour, but excluding the waters of the Titiroa Stream.</flyDescription>
	</Placemark>
</Document>
</kml>
