<?xml version="1.0" encoding="UTF-8"?>
<kml xmlns="http://www.opengis.net/kml/2.2" xmlns:gx="http://www.google.com/kml/ext/2.2" xmlns:kml="http://www.opengis.net/kml/2.2" xmlns:atom="http://www.w3.org/2005/Atom">
<Document>
	<name>R32 C43.kml</name>
	<Style id="msn_ylw-pushpin2">
		<LineStyle>
			<color>ffff00ff</color>
		</LineStyle>
		<PolyStyle>
			<color>ffff00ff</color>
		</PolyStyle>
	</Style>
	<Style id="msn_ylw-pushpin">
		<LineStyle>
			<color>ffff00ff</color>
		</LineStyle>
		<PolyStyle>
			<color>ffff00ff</color>
		</PolyStyle>
	</Style>
	<Style id="msn_ylw-pushpin10">
		<LineStyle>
			<color>ff00ff00</color>
		</LineStyle>
		<PolyStyle>
			<color>ff00ff00</color>
		</PolyStyle>
	</Style>
	<Style id="msn_ylw-pushpin1">
		<LineStyle>
			<color>ffff00ff</color>
		</LineStyle>
		<PolyStyle>
			<color>ffff00ff</color>
		</PolyStyle>
	</Style>
	<Style id="msn_ylw-pushpin3">
		<LineStyle>
			<color>ffff00ff</color>
		</LineStyle>
		<PolyStyle>
			<color>ffff00ff</color>
		</PolyStyle>
	</Style>
	<Style id="msn_ylw-pushpin0">
		<LineStyle>
			<color>ff00ff00</color>
		</LineStyle>
		<PolyStyle>
			<color>ff00ff00</color>
		</PolyStyle>
	</Style>
	<Style id="msn_ylw-pushpin30">
		<LineStyle>
			<color>ff00ff00</color>
		</LineStyle>
		<PolyStyle>
			<color>ff00ff00</color>
		</PolyStyle>
	</Style>
	<Style id="msn_ylw-pushpin11">
		<LineStyle>
			<color>ff00ff00</color>
		</LineStyle>
		<PolyStyle>
			<color>ff00ff00</color>
		</PolyStyle>
	</Style>
	<Style id="msn_ylw-pushpin7">
		<LineStyle>
			<color>ff00ff00</color>
		</LineStyle>
		<PolyStyle>
			<color>ff00ff00</color>
		</PolyStyle>
	</Style>
	<Placemark>
		<name>Speed restriction lifted subject to Subclause 3.2.5</name>
		<open>1</open>
		<description>Subclause 3.2.5 restrictions:
a. No person shall propel or navigate a vessel at a proper speed exceeding 5 knots during the period one week prior to and one week following the opening of the Duck shooting season (being the first Saturday in May each year). Vessels may continue to operate at a proper speed exceeding 5 knots downstream from the point 200 metres below the Manawatu Marine Boating Club launching ramp while transiting to and from the open sea for the purposes of maintaining safe navigation.

b. No person shall propel or navigate a vessel at a proper speed exceeding 5 knots at any time within 200 metres upstream and 200 metres downstream of the Manawatu Marine Boating Club launching ramp.

c. No person shall propel or navigate a vessel at a proper speed exceeding 5 knots during the period 1 October to 31 March each year on the Manawatu River between the point 350 metres upstream of the State Highway 3 Bridge
at Ashhurst and Jackeytown Road.

d. No person shall propel or navigate a Personal Water Craft at a proper speed exceeding 5 knots at any time on the Manawatu River between the point 350 metres upstream of the State Highway 3 Bridge at Ashhurst and Jackeytown Road.

e. No person shall propel or navigate a vessel at a proper speed exceeding 5 knots at any time in the Foxton River Loop between ‘Speir’s Corner’ and the corner adjacent the Water Tower.</description>
		<styleUrl>#msn_ylw-pushpin0</styleUrl>
		<Polygon>
			<tessellate>1</tessellate>
			<outerBoundaryIs>
				<LinearRing>
					<coordinates>
						175.2109124936799,-40.47586814109006,0 175.2104624672851,-40.47716737088714,0 175.2108515595121,-40.47844397482557,0 175.2123828640768,-40.47958195799581,0 175.2141223530149,-40.47989977711732,0 175.2156088449078,-40.47958719801796,0 175.2216738855771,-40.47747589738856,0 175.2268496618927,-40.47618528525049,0 175.2327824905752,-40.47567829383173,0 175.2339734098646,-40.47576828520061,0 175.2346859768073,-40.47038801869707,0 175.2325721009768,-40.47022782904832,0 175.2253238134357,-40.47088102425045,0 175.219034860643,-40.47245038910431,0 175.2121115556955,-40.47486539711044,0 175.2109124936799,-40.47586814109006,0 
					</coordinates>
				</LinearRing>
			</outerBoundaryIs>
		</Polygon>
		<flyID>9</flyID><flyDescription>Subclause 3.2.5 restrictions:
a. No person shall propel or navigate a vessel at a proper speed exceeding 5 knots during the period one week prior to and one week following the opening of the Duck shooting season (being the first Saturday in May each year). Vessels may continue to operate at a proper speed exceeding 5 knots downstream from the point 200 metres below the Manawatu Marine Boating Club launching ramp while transiting to and from the open sea for the purposes of maintaining safe navigation.

b. No person shall propel or navigate a vessel at a proper speed exceeding 5 knots at any time within 200 metres upstream and 200 metres downstream of the Manawatu Marine Boating Club launching ramp.

c. No person shall propel or navigate a vessel at a proper speed exceeding 5 knots during the period 1 October to 31 March each year on the Manawatu River between the point 350 metres upstream of the State Highway 3 Bridge
at Ashhurst and Jackeytown Road.

d. No person shall propel or navigate a Personal Water Craft at a proper speed exceeding 5 knots at any time on the Manawatu River between the point 350 metres upstream of the State Highway 3 Bridge at Ashhurst and Jackeytown Road.

e. No person shall propel or navigate a vessel at a proper speed exceeding 5 knots at any time in the Foxton River Loop between ‘Speir’s Corner’ and the corner adjacent the Water Tower.</flyDescription>
	</Placemark>
	<Placemark>
		<name>Speed shall not exceed 5 knots year round</name>
		<open>1</open>
		<description>Speed shall not exceed 5 knots year round</description>
		<styleUrl>#msn_ylw-pushpin2</styleUrl>
		<Polygon>
			<tessellate>1</tessellate>
			<outerBoundaryIs>
				<LinearRing>
					<coordinates>
						175.2766452704736,-40.46966877692152,0 175.2778693973347,-40.47201685198746,0 175.2793345459747,-40.4743487591013,0 175.2794240950417,-40.47732884705057,0 175.2789773367008,-40.47793441407151,0 175.2786762443909,-40.47806840372997,0 175.2795577711745,-40.47871306222998,0 175.279819508343,-40.47859933732057,0 175.2799688051959,-40.47841872347565,0 175.2804893493112,-40.47771615272647,0 175.2806134103353,-40.4775553405637,0 175.2805218322251,-40.47424548169062,0 175.2804599564341,-40.47405616311467,0 175.2792310049161,-40.47213514002366,0 175.2776797082113,-40.46919957056577,0 175.275588654209,-40.46758525106557,0 175.2747374864917,-40.46711235179008,0 175.2747356958675,-40.46821867931755,0 175.2766452704736,-40.46966877692152,0 
					</coordinates>
				</LinearRing>
			</outerBoundaryIs>
		</Polygon>
		<flyID>11</flyID><flyDescription>Speed shall not exceed 5 knots year round</flyDescription>
	</Placemark>
	<Placemark>
		<name>Speed shall not exceed 5 knots year round</name>
		<open>1</open>
		<description>Speed shall not exceed 5 knots year round</description>
		<styleUrl>#msn_ylw-pushpin3</styleUrl>
		<Polygon>
			<tessellate>1</tessellate>
			<outerBoundaryIs>
				<LinearRing>
					<coordinates>
						175.2373929213735,-40.47387712495161,0 175.2389291250004,-40.47422226730515,0 175.2391212194927,-40.47294456288434,0 175.2376885406963,-40.47265606499391,0 175.2344270129676,-40.4723487848823,0 175.2342762248029,-40.47359612872103,0 175.2373929213735,-40.47387712495161,0 
					</coordinates>
				</LinearRing>
			</outerBoundaryIs>
		</Polygon>
		<flyID>10</flyID><flyDescription>Speed shall not exceed 5 knots year round</flyDescription>
	</Placemark>
	<Placemark>
		<name>Speed restriction lifted subject to Subclause 3.2.5</name>
		<open>1</open>
		<description>Subclause 3.2.5 restrictions:
a. No person shall propel or navigate a vessel at a proper speed exceeding 5 knots during the period one week prior to and one week following the opening of the Duck shooting season (being the first Saturday in May each year). Vessels may continue to operate at a proper speed exceeding 5 knots downstream from the point 200 metres below the Manawatu Marine Boating Club launching ramp while transiting to and from the open sea for the purposes of maintaining safe navigation.

b. No person shall propel or navigate a vessel at a proper speed exceeding 5 knots at any time within 200 metres upstream and 200 metres downstream of the Manawatu Marine Boating Club launching ramp.

c. No person shall propel or navigate a vessel at a proper speed exceeding 5 knots during the period 1 October to 31 March each year on the Manawatu River between the point 350 metres upstream of the State Highway 3 Bridge
at Ashhurst and Jackeytown Road.

d. No person shall propel or navigate a Personal Water Craft at a proper speed exceeding 5 knots at any time on the Manawatu River between the point 350 metres upstream of the State Highway 3 Bridge at Ashhurst and Jackeytown Road.

e. No person shall propel or navigate a vessel at a proper speed exceeding 5 knots at any time in the Foxton River Loop between ‘Speir’s Corner’ and the corner adjacent the Water Tower.</description>
		<styleUrl>#msn_ylw-pushpin7</styleUrl>
		<Polygon>
			<tessellate>1</tessellate>
			<outerBoundaryIs>
				<LinearRing>
					<coordinates>
						175.404000612517,-40.46264241677624,0 175.4055781172377,-40.46136359483394,0 175.4116087299227,-40.45937344570211,0 175.4136396634316,-40.45851093017042,0 175.4161882487583,-40.45710377893426,0 175.4173898903005,-40.45592387014881,0 175.4180227150476,-40.45488443572251,0 175.4182057557293,-40.45378166806997,0 175.4177889155866,-40.45148988903357,0 175.4169390486004,-40.44928447690529,0 175.4167766159385,-40.44783966816686,0 175.4196576102455,-40.44761176340067,0 175.4213443731264,-40.44733989362087,0 175.4246651812234,-40.44621620418783,0 175.4268300160911,-40.44459335444672,0 175.4285887188498,-40.44234387745252,0 175.4294546391607,-40.43849121191195,0 175.4315032164828,-40.43889639372642,0 175.4346046516843,-40.43984500321094,0 175.4403466807753,-40.44130053580786,0 175.4440402730968,-40.44129924875469,0 175.4465007613614,-40.44057000630566,0 175.4480069942445,-40.44233843691416,0 175.4516006330812,-40.44371357218417,0 175.4523293446702,-40.44388719135375,0 175.4542926044849,-40.43850460728061,0 175.4525764262873,-40.43776587762656,0 175.4523494142867,-40.43745159222163,0 175.4527628202359,-40.43726277493427,0 175.4554902951421,-40.43635019659983,0 175.4574521025038,-40.43518569331061,0 175.4570196141142,-40.4369942575965,0 175.4567938845398,-40.43877108961139,0 175.4566496123067,-40.43910141798789,0 175.4553885874301,-40.43892897958587,0 175.4542956485917,-40.43850773552975,0 175.4523325108191,-40.44388605036826,0 175.4575319068124,-40.44459839411903,0 175.4598548546083,-40.44422528611626,0 175.461484612603,-40.44339337705661,0 175.4629018505103,-40.4417468195708,0 175.463626307424,-40.44022446610711,0 175.4642762224607,-40.43675562995153,0 175.4649462039471,-40.43451004383997,0 175.4651342395399,-40.43642017025935,0 175.4658105909302,-40.43751618254682,0 175.4683930400747,-40.43962391713529,0 175.4719480058726,-40.44014234366023,0 175.4745454895194,-40.43910016529461,0 175.4786394433197,-40.43622213714294,0 175.4790759144851,-40.43729995741894,0 175.4797796146224,-40.43801854916264,0 175.4808460888705,-40.43883808971133,0 175.4822042440867,-40.43924271664552,0 175.4852199887021,-40.43976600663711,0 175.4880556340585,-40.43971661468159,0 175.4983492362803,-40.43799616973108,0 175.4999758661092,-40.43745216226598,0 175.5014249282495,-40.43724771742838,0 175.5032967694934,-40.43618866923836,0 175.503943508515,-40.43554168799301,0 175.5049760359163,-40.43366663132662,0 175.5050340687759,-40.43206714365123,0 175.5040532473582,-40.43025812462368,0 175.5071578021754,-40.42794082701527,0 175.5132260991656,-40.42492271823236,0 175.5159138723801,-40.42312913199427,0 175.5168292343918,-40.42219585877611,0 175.5110434008225,-40.41910505344109,0 175.5069299534237,-40.42180731556749,0 175.5014732085007,-40.42427378869632,0 175.4972849357622,-40.42808533429224,0 175.4966456049824,-40.43091156995877,0 175.4975001646676,-40.4323637323437,0 175.4921279996311,-40.43348357875042,0 175.4924356858821,-40.4323675680061,0 175.491977392085,-40.43053217441213,0 175.490834180262,-40.42869714879304,0 175.4888622406918,-40.42734611512738,0 175.4868402257439,-40.4267893146209,0 175.4845380766064,-40.42686651227137,0 175.4795538473591,-40.42939939107523,0 175.4771259954912,-40.43023222741667,0 175.4748491156778,-40.43154882699955,0 175.4719983542248,-40.43346129272326,0 175.4723065328441,-40.43188531656503,0 175.4728920446657,-40.43055791008897,0 175.4741780853881,-40.42888210685709,0 175.4747301013436,-40.42674022385379,0 175.4742559544519,-40.42530119290267,0 175.4732404631735,-40.42405356289369,0 175.4722448464522,-40.42329677349881,0 175.4696672227732,-40.42247877159778,0 175.4676123042165,-40.42250470478177,0 175.4661448098824,-40.42287794316404,0 175.4631663654457,-40.42454320582636,0 175.4605057746184,-40.4266673129853,0 175.45921810896,-40.42894036233996,0 175.4570534378276,-40.42696670886979,0 175.4540664881307,-40.42593227641268,0 175.4517458102401,-40.42579191601144,0 175.4509499475077,-40.425899716259,0 175.4504380534532,-40.42604605653668,0 175.4523847107129,-40.43126560974182,0 175.4525601165548,-40.43130194851345,0 175.4522892147972,-40.4315083708016,0 175.4519863573497,-40.43161771666301,0 175.4521297024609,-40.43139920884646,0 175.4523851225,-40.4312682400397,0 175.4504319552659,-40.42604604469551,0 175.4477375775048,-40.42700625623864,0 175.4453203095256,-40.42946402283857,0 175.4445169028801,-40.43302719989305,0 175.442743640897,-40.4359760613674,0 175.4375789554348,-40.43487225445249,0 175.4380618173951,-40.43327445903769,0 175.4374148332603,-40.43081757045825,0 175.4349944587229,-40.42983623288387,0 175.4349935428076,-40.4287301045173,0 175.4416022378591,-40.42541021739043,0 175.4397232811195,-40.42005783811761,0 175.4348843889297,-40.42251387051965,0 175.4280982216429,-40.42587094765178,0 175.4276586061399,-40.43176265877958,0 175.428242032638,-40.43287439901391,0 175.4247429077002,-40.43342894901186,0 175.4229937338091,-40.43576226877302,0 175.4219735613701,-40.43998515692213,0 175.420951204259,-40.44165254890429,0 175.4187263580143,-40.4422158812185,0 175.4130372077228,-40.44288102832243,0 175.4099597380108,-40.44566408820704,0 175.4098088709602,-40.44977877651521,0 175.4111208941076,-40.45333723167719,0 175.4034480111033,-40.4560942143325,0 175.3993573104965,-40.45831777304184,0 175.404000612517,-40.46264241677624,0 
					</coordinates>
				</LinearRing>
			</outerBoundaryIs>
		</Polygon>
		<flyID>6</flyID><flyDescription>Subclause 3.2.5 restrictions:
a. No person shall propel or navigate a vessel at a proper speed exceeding 5 knots during the period one week prior to and one week following the opening of the Duck shooting season (being the first Saturday in May each year). Vessels may continue to operate at a proper speed exceeding 5 knots downstream from the point 200 metres below the Manawatu Marine Boating Club launching ramp while transiting to and from the open sea for the purposes of maintaining safe navigation.

b. No person shall propel or navigate a vessel at a proper speed exceeding 5 knots at any time within 200 metres upstream and 200 metres downstream of the Manawatu Marine Boating Club launching ramp.

c. No person shall propel or navigate a vessel at a proper speed exceeding 5 knots during the period 1 October to 31 March each year on the Manawatu River between the point 350 metres upstream of the State Highway 3 Bridge
at Ashhurst and Jackeytown Road.

d. No person shall propel or navigate a Personal Water Craft at a proper speed exceeding 5 knots at any time on the Manawatu River between the point 350 metres upstream of the State Highway 3 Bridge at Ashhurst and Jackeytown Road.

e. No person shall propel or navigate a vessel at a proper speed exceeding 5 knots at any time in the Foxton River Loop between ‘Speir’s Corner’ and the corner adjacent the Water Tower.</flyDescription>
	</Placemark>
	<Placemark>
		<name>Speed restriction lifted subject to Subclause 3.2.5</name>
		<open>1</open>
		<description>Subclause 3.2.5 restrictions:
a. No person shall propel or navigate a vessel at a proper speed exceeding 5 knots during the period one week prior to and one week following the opening of the Duck shooting season (being the first Saturday in May each year). Vessels may continue to operate at a proper speed exceeding 5 knots downstream from the point 200 metres below the Manawatu Marine Boating Club launching ramp while transiting to and from the open sea for the purposes of maintaining safe navigation.

b. No person shall propel or navigate a vessel at a proper speed exceeding 5 knots at any time within 200 metres upstream and 200 metres downstream of the Manawatu Marine Boating Club launching ramp.

c. No person shall propel or navigate a vessel at a proper speed exceeding 5 knots during the period 1 October to 31 March each year on the Manawatu River between the point 350 metres upstream of the State Highway 3 Bridge
at Ashhurst and Jackeytown Road.

d. No person shall propel or navigate a Personal Water Craft at a proper speed exceeding 5 knots at any time on the Manawatu River between the point 350 metres upstream of the State Highway 3 Bridge at Ashhurst and Jackeytown Road.

e. No person shall propel or navigate a vessel at a proper speed exceeding 5 knots at any time in the Foxton River Loop between ‘Speir’s Corner’ and the corner adjacent the Water Tower.</description>
		<styleUrl>#msn_ylw-pushpin7</styleUrl>
		<Polygon>
			<tessellate>1</tessellate>
			<outerBoundaryIs>
				<LinearRing>
					<coordinates>
						175.3830032667868,-40.48004932487815,0 175.3802251644957,-40.47979535612606,0 175.3810954853234,-40.47903086927602,0 175.3833973302838,-40.4754286289783,0 175.3849250517327,-40.47364963197708,0 175.3860078424608,-40.47270870765922,0 175.3863336298019,-40.4755753461006,0 175.3875514814053,-40.47719384041074,0 175.3894660612705,-40.47823872538503,0 175.3914582503825,-40.47843025647632,0 175.393547240468,-40.47823924040529,0 175.3960286901962,-40.47787063939154,0 175.3976140532099,-40.47731203556332,0 175.3992642152148,-40.47603125127697,0 175.3999807424238,-40.47496503258486,0 175.4001642167691,-40.47291164870938,0 175.3998976943881,-40.4720716016674,0 175.3985151997533,-40.46981471496142,0 175.3971650394937,-40.46843849692855,0 175.3994258738946,-40.46706024153703,0 175.4013409748418,-40.46586987260014,0 175.4024529740348,-40.46467107671275,0 175.404000612517,-40.46264241677624,0 175.3993573104965,-40.45831777304184,0 175.3964351439635,-40.4620965380501,0 175.3924900516947,-40.46398604096684,0 175.3898588392771,-40.4668767184362,0 175.3883984415083,-40.4664311107282,0 175.3850390653385,-40.46620714770924,0 175.382115646084,-40.46798582706311,0 175.3788990782145,-40.4703206285304,0 175.3752429021109,-40.47583884559607,0 175.3696903185594,-40.47650390006287,0 175.3637201926573,-40.47805106932724,0 175.3607732430665,-40.48050250510843,0 175.3603307161159,-40.48319721342296,0 175.3630531307873,-40.48921855749487,0 175.3650573288766,-40.49106969728412,0 175.3692299470523,-40.48647816472298,0 175.3684920844088,-40.48513836054811,0 175.3676680831711,-40.48278288791774,0 175.3696559764356,-40.4821782277287,0 175.3719314220179,-40.48161775582818,0 175.3751128240392,-40.48129450621535,0 175.3740039444234,-40.48250393840085,0 175.3728087675008,-40.48431885645989,0 175.3727232860998,-40.4848807729596,0 175.3727238663718,-40.48706256071695,0 175.3731209116573,-40.48838064096721,0 175.3711335306112,-40.48745057758193,0 175.3699125534181,-40.4869748535694,0 175.3692443700772,-40.48648531805002,0 175.3650622487731,-40.49107782890645,0 175.3698080349027,-40.49326452438002,0 175.3721642591831,-40.49373912153506,0 175.3748941555219,-40.49381846619394,0 175.3779042897019,-40.49302447429719,0 175.3793440288362,-40.49190503518923,0 175.3800646073683,-40.49073435960333,0 175.380350335891,-40.48876163159122,0 175.3793273281087,-40.48575971658237,0 175.380642707101,-40.48520409546902,0 175.3830032667868,-40.48004932487815,0 
					</coordinates>
				</LinearRing>
			</outerBoundaryIs>
		</Polygon>
		<flyID>5</flyID><flyDescription>Subclause 3.2.5 restrictions:
a. No person shall propel or navigate a vessel at a proper speed exceeding 5 knots during the period one week prior to and one week following the opening of the Duck shooting season (being the first Saturday in May each year). Vessels may continue to operate at a proper speed exceeding 5 knots downstream from the point 200 metres below the Manawatu Marine Boating Club launching ramp while transiting to and from the open sea for the purposes of maintaining safe navigation.

b. No person shall propel or navigate a vessel at a proper speed exceeding 5 knots at any time within 200 metres upstream and 200 metres downstream of the Manawatu Marine Boating Club launching ramp.

c. No person shall propel or navigate a vessel at a proper speed exceeding 5 knots during the period 1 October to 31 March each year on the Manawatu River between the point 350 metres upstream of the State Highway 3 Bridge
at Ashhurst and Jackeytown Road.

d. No person shall propel or navigate a Personal Water Craft at a proper speed exceeding 5 knots at any time on the Manawatu River between the point 350 metres upstream of the State Highway 3 Bridge at Ashhurst and Jackeytown Road.

e. No person shall propel or navigate a vessel at a proper speed exceeding 5 knots at any time in the Foxton River Loop between ‘Speir’s Corner’ and the corner adjacent the Water Tower.</flyDescription>
	</Placemark>
	<Placemark>
		<name>Speed restriction lifted subject to Subclause 3.2.5</name>
		<open>1</open>
		<description>Subclause 3.2.5 restrictions:
a. No person shall propel or navigate a vessel at a proper speed exceeding 5 knots during the period one week prior to and one week following the opening of the Duck shooting season (being the first Saturday in May each year). Vessels may continue to operate at a proper speed exceeding 5 knots downstream from the point 200 metres below the Manawatu Marine Boating Club launching ramp while transiting to and from the open sea for the purposes of maintaining safe navigation.

b. No person shall propel or navigate a vessel at a proper speed exceeding 5 knots at any time within 200 metres upstream and 200 metres downstream of the Manawatu Marine Boating Club launching ramp.

c. No person shall propel or navigate a vessel at a proper speed exceeding 5 knots during the period 1 October to 31 March each year on the Manawatu River between the point 350 metres upstream of the State Highway 3 Bridge
at Ashhurst and Jackeytown Road.

d. No person shall propel or navigate a Personal Water Craft at a proper speed exceeding 5 knots at any time on the Manawatu River between the point 350 metres upstream of the State Highway 3 Bridge at Ashhurst and Jackeytown Road.

e. No person shall propel or navigate a vessel at a proper speed exceeding 5 knots at any time in the Foxton River Loop between ‘Speir’s Corner’ and the corner adjacent the Water Tower.</description>
		<styleUrl>#msn_ylw-pushpin7</styleUrl>
		<Polygon>
			<tessellate>1</tessellate>
			<outerBoundaryIs>
				<LinearRing>
					<coordinates>
						175.4076292404902,-40.51852134582383,0 175.4050270271557,-40.51643901793663,0 175.4021514706887,-40.51456435843011,0 175.4044831329771,-40.50612812156765,0 175.4064010395384,-40.5008181068405,0 175.4065384938539,-40.49842348083439,0 175.4033912817456,-40.49519590937395,0 175.3969565301734,-40.49254510401842,0 175.3923035342105,-40.49171110393313,0 175.3932622281749,-40.48994142573331,0 175.3920311945158,-40.4866101884185,0 175.3887468278914,-40.48411162573488,0 175.3858752301923,-40.48140375870175,0 175.3830032667868,-40.48004932487815,0 175.380642707101,-40.48520409546902,0 175.38599494709,-40.48954088926443,0 175.3848803627978,-40.4902385584444,0 175.3812767591065,-40.49128305673818,0 175.3799656773606,-40.4924290650977,0 175.3793266339609,-40.49376375270364,0 175.3789231236562,-40.49498135539174,0 175.3799382619089,-40.49675041389124,0 175.3827880505006,-40.49812148575022,0 175.3859014179774,-40.4978787090091,0 175.3924341024232,-40.49681294716844,0 175.3959775909599,-40.49849804575887,0 175.3992895456157,-40.49987881486064,0 175.3972508390801,-40.5052824240012,0 175.3962719076017,-40.50959081515588,0 175.394967851577,-40.51359081712761,0 175.3951718145213,-40.5160102897576,0 175.3959720752469,-40.5173807749639,0 175.3987027939967,-40.5195761664612,0 175.4012185150508,-40.52099863839713,0 175.4076292404902,-40.51852134582383,0 
					</coordinates>
				</LinearRing>
			</outerBoundaryIs>
		</Polygon>
		<flyID>4</flyID><flyDescription>Subclause 3.2.5 restrictions:
a. No person shall propel or navigate a vessel at a proper speed exceeding 5 knots during the period one week prior to and one week following the opening of the Duck shooting season (being the first Saturday in May each year). Vessels may continue to operate at a proper speed exceeding 5 knots downstream from the point 200 metres below the Manawatu Marine Boating Club launching ramp while transiting to and from the open sea for the purposes of maintaining safe navigation.

b. No person shall propel or navigate a vessel at a proper speed exceeding 5 knots at any time within 200 metres upstream and 200 metres downstream of the Manawatu Marine Boating Club launching ramp.

c. No person shall propel or navigate a vessel at a proper speed exceeding 5 knots during the period 1 October to 31 March each year on the Manawatu River between the point 350 metres upstream of the State Highway 3 Bridge
at Ashhurst and Jackeytown Road.

d. No person shall propel or navigate a Personal Water Craft at a proper speed exceeding 5 knots at any time on the Manawatu River between the point 350 metres upstream of the State Highway 3 Bridge at Ashhurst and Jackeytown Road.

e. No person shall propel or navigate a vessel at a proper speed exceeding 5 knots at any time in the Foxton River Loop between ‘Speir’s Corner’ and the corner adjacent the Water Tower.</flyDescription>
	</Placemark>
	<Placemark>
		<name>Speed restriction lifted subject to Subclause 3.2.5</name>
		<open>1</open>
		<description>Subclause 3.2.5 restrictions:
a. No person shall propel or navigate a vessel at a proper speed exceeding 5 knots during the period one week prior to and one week following the opening of the Duck shooting season (being the first Saturday in May each year). Vessels may continue to operate at a proper speed exceeding 5 knots downstream from the point 200 metres below the Manawatu Marine Boating Club launching ramp while transiting to and from the open sea for the purposes of maintaining safe navigation.

b. No person shall propel or navigate a vessel at a proper speed exceeding 5 knots at any time within 200 metres upstream and 200 metres downstream of the Manawatu Marine Boating Club launching ramp.

c. No person shall propel or navigate a vessel at a proper speed exceeding 5 knots during the period 1 October to 31 March each year on the Manawatu River between the point 350 metres upstream of the State Highway 3 Bridge
at Ashhurst and Jackeytown Road.

d. No person shall propel or navigate a Personal Water Craft at a proper speed exceeding 5 knots at any time on the Manawatu River between the point 350 metres upstream of the State Highway 3 Bridge at Ashhurst and Jackeytown Road.

e. No person shall propel or navigate a vessel at a proper speed exceeding 5 knots at any time in the Foxton River Loop between ‘Speir’s Corner’ and the corner adjacent the Water Tower.</description>
		<styleUrl>#msn_ylw-pushpin30</styleUrl>
		<Polygon>
			<tessellate>1</tessellate>
			<outerBoundaryIs>
				<LinearRing>
					<coordinates>
						175.3436921843145,-40.54044582545967,0 175.3476681028967,-40.54023887189418,0 175.3484889495262,-40.54252992298206,0 175.3504104693283,-40.54398622711197,0 175.3539792637669,-40.54481624163424,0 175.3598744182253,-40.54367091023785,0 175.3639844350591,-40.54190331096519,0 175.3638476047483,-40.54283943667774,0 175.3648052336905,-40.54512944245848,0 175.367952426686,-40.54648657383497,0 175.3706901052407,-40.54628240222704,0 175.3737061262737,-40.54430396172421,0 175.3743942062454,-40.54065870785197,0 175.3772721348924,-40.53795272573596,0 175.3817915034847,-40.53920347679933,0 175.3853528544601,-40.5392045913642,0 175.3901475926358,-40.53753955256808,0 175.386038584456,-40.53660214213785,0 175.3878194252177,-40.53608175394483,0 175.390832681425,-40.53660264173658,0 175.3922026109303,-40.53556170865495,0 175.3926139741773,-40.5330631697775,0 175.3908341848007,-40.53014831853801,0 175.393846996383,-40.530773091744,0 175.3971338329334,-40.53077332577617,0 175.4019271442647,-40.52931624166001,0 175.4063104533131,-40.52536110277291,0 175.4082286888358,-40.52130132758983,0 175.4076292404902,-40.51852134582383,0 175.4012185150508,-40.52099863839713,0 175.3978650839883,-40.52492155624623,0 175.3958858819468,-40.52544994658275,0 175.3946021594661,-40.52524651764664,0 175.3886634695284,-40.52435273461362,0 175.3863083969389,-40.5247595575668,0 175.3850239123036,-40.52536946726382,0 175.3831514074705,-40.52740201958143,0 175.3829373633691,-40.52971943757776,0 175.3836326978919,-40.53154914658693,0 175.385018370843,-40.53361415013727,0 175.3837875822781,-40.53393900660344,0 175.3830922790369,-40.53373566286287,0 175.3796159994442,-40.53267877635072,0 175.3759242129518,-40.53235250576247,0 175.373623040255,-40.5328810682406,0 175.3724455475172,-40.53369374139582,0 175.3694104950423,-40.53689412154803,0 175.3674343143308,-40.53591754655194,0 175.3642259745323,-40.5354689050263,0 175.3615497207133,-40.53615935411224,0 175.3594614002541,-40.53754148673159,0 175.3570524490219,-40.53859822694334,0 175.3587682112993,-40.53615816915053,0 175.3595199338577,-40.53377532224074,0 175.3586110532789,-40.53194381555904,0 175.3565774481018,-40.53084427442438,0 175.3531514972374,-40.53043491019496,0 175.3494594254033,-40.52961880012096,0 175.3460339573761,-40.53014574431199,0 175.343783086438,-40.53165077265556,0 175.3432985421098,-40.53364478937201,0 175.3437535001233,-40.53498947263035,0 175.3410224663813,-40.53474383022898,0 175.3382914849727,-40.53523049025624,0 175.3436921843145,-40.54044582545967,0 
					</coordinates>
				</LinearRing>
			</outerBoundaryIs>
		</Polygon>
		<flyID>3</flyID><flyDescription>Subclause 3.2.5 restrictions:
a. No person shall propel or navigate a vessel at a proper speed exceeding 5 knots during the period one week prior to and one week following the opening of the Duck shooting season (being the first Saturday in May each year). Vessels may continue to operate at a proper speed exceeding 5 knots downstream from the point 200 metres below the Manawatu Marine Boating Club launching ramp while transiting to and from the open sea for the purposes of maintaining safe navigation.

b. No person shall propel or navigate a vessel at a proper speed exceeding 5 knots at any time within 200 metres upstream and 200 metres downstream of the Manawatu Marine Boating Club launching ramp.

c. No person shall propel or navigate a vessel at a proper speed exceeding 5 knots during the period 1 October to 31 March each year on the Manawatu River between the point 350 metres upstream of the State Highway 3 Bridge
at Ashhurst and Jackeytown Road.

d. No person shall propel or navigate a Personal Water Craft at a proper speed exceeding 5 knots at any time on the Manawatu River between the point 350 metres upstream of the State Highway 3 Bridge at Ashhurst and Jackeytown Road.

e. No person shall propel or navigate a vessel at a proper speed exceeding 5 knots at any time in the Foxton River Loop between ‘Speir’s Corner’ and the corner adjacent the Water Tower.</flyDescription>
	</Placemark>
	<Placemark>
		<name>Speed restriction lifted subject to Subclause 3.2.5</name>
		<open>1</open>
		<description>Subclause 3.2.5 restrictions:
a. No person shall propel or navigate a vessel at a proper speed exceeding 5 knots during the period one week prior to and one week following the opening of the Duck shooting season (being the first Saturday in May each year). Vessels may continue to operate at a proper speed exceeding 5 knots downstream from the point 200 metres below the Manawatu Marine Boating Club launching ramp while transiting to and from the open sea for the purposes of maintaining safe navigation.

b. No person shall propel or navigate a vessel at a proper speed exceeding 5 knots at any time within 200 metres upstream and 200 metres downstream of the Manawatu Marine Boating Club launching ramp.

c. No person shall propel or navigate a vessel at a proper speed exceeding 5 knots during the period 1 October to 31 March each year on the Manawatu River between the point 350 metres upstream of the State Highway 3 Bridge
at Ashhurst and Jackeytown Road.

d. No person shall propel or navigate a Personal Water Craft at a proper speed exceeding 5 knots at any time on the Manawatu River between the point 350 metres upstream of the State Highway 3 Bridge at Ashhurst and Jackeytown Road.

e. No person shall propel or navigate a vessel at a proper speed exceeding 5 knots at any time in the Foxton River Loop between ‘Speir’s Corner’ and the corner adjacent the Water Tower.</description>
		<styleUrl>#msn_ylw-pushpin11</styleUrl>
		<Polygon>
			<tessellate>1</tessellate>
			<outerBoundaryIs>
				<LinearRing>
					<coordinates>
						175.2896511586,-40.52925638923101,0 175.2919786740859,-40.53061099763276,0 175.2919772530364,-40.53258739484078,0 175.2929323629996,-40.53404575436365,0 175.2945722906153,-40.53508906417112,0 175.297446753071,-40.53550863717971,0 175.3015544641705,-40.53530540871891,0 175.3023744652487,-40.53634718270705,0 175.3034675122072,-40.5382213765932,0 175.303601050883,-40.54040741959499,0 175.3045568869675,-40.54207448600352,0 175.3067464120134,-40.5433261322872,0 175.3096220023924,-40.54405710295107,0 175.3123630123781,-40.54322448760384,0 175.3151049074082,-40.54135260551967,0 175.3160613118696,-40.54322955923858,0 175.3186606054417,-40.54677837168656,0 175.3216738987846,-40.54844945858845,0 175.3247636686242,-40.54866421108211,0 175.3280601447956,-40.54803891494156,0 175.3303912106358,-40.54637452121487,0 175.3309430543617,-40.54439562012241,0 175.3338156472528,-40.54627348666025,0 175.3386130166861,-40.5475253078279,0 175.3425901044337,-40.54700575904625,0 175.344922687595,-40.54481971204716,0 175.3447873601066,-40.5425288241083,0 175.3436921843145,-40.54044582545967,0 175.3382914849727,-40.53523049025624,0 175.3365230893963,-40.53697913252993,0 175.335932425126,-40.53860629241079,0 175.3359305155124,-40.54039691894243,0 175.334647366352,-40.53872744770785,0 175.3319729935829,-40.53693522043734,0 175.3285996945629,-40.53624125299053,0 175.3262941510139,-40.53701220107011,0 175.3246853121212,-40.53880029911908,0 175.3240434897382,-40.54103775558302,0 175.3242039838656,-40.54319501429593,0 175.3225967526716,-40.5412802035045,0 175.3216315195224,-40.53948852514759,0 175.3215828288051,-40.53599181597291,0 175.3199823646975,-40.53359148853007,0 175.3180564871809,-40.53261430079225,0 175.3143628294038,-40.53281542599441,0 175.3114181167983,-40.53476418365826,0 175.3100249759626,-40.53667323093033,0 175.3089065581615,-40.53354270980546,0 175.3055939798308,-40.53093738485765,0 175.302224499586,-40.53003924993618,0 175.2991222636392,-40.53012024402668,0 175.2991232514487,-40.5294803612781,0 175.2989738349688,-40.52860842872108,0 175.2972931288574,-40.52668707073683,0 175.2945379830073,-40.52540407981257,0 175.2896511586,-40.52925638923101,0 
					</coordinates>
				</LinearRing>
			</outerBoundaryIs>
		</Polygon>
		<flyID>2</flyID><flyDescription>Subclause 3.2.5 restrictions:
a. No person shall propel or navigate a vessel at a proper speed exceeding 5 knots during the period one week prior to and one week following the opening of the Duck shooting season (being the first Saturday in May each year). Vessels may continue to operate at a proper speed exceeding 5 knots downstream from the point 200 metres below the Manawatu Marine Boating Club launching ramp while transiting to and from the open sea for the purposes of maintaining safe navigation.

b. No person shall propel or navigate a vessel at a proper speed exceeding 5 knots at any time within 200 metres upstream and 200 metres downstream of the Manawatu Marine Boating Club launching ramp.

c. No person shall propel or navigate a vessel at a proper speed exceeding 5 knots during the period 1 October to 31 March each year on the Manawatu River between the point 350 metres upstream of the State Highway 3 Bridge
at Ashhurst and Jackeytown Road.

d. No person shall propel or navigate a Personal Water Craft at a proper speed exceeding 5 knots at any time on the Manawatu River between the point 350 metres upstream of the State Highway 3 Bridge at Ashhurst and Jackeytown Road.

e. No person shall propel or navigate a vessel at a proper speed exceeding 5 knots at any time in the Foxton River Loop between ‘Speir’s Corner’ and the corner adjacent the Water Tower.</flyDescription>
	</Placemark>
	<Placemark>
		<name>Speed restriction lifted subject to Subclause 3.2.5</name>
		<open>1</open>
		<description>Subclause 3.2.5 restrictions:
a. No person shall propel or navigate a vessel at a proper speed exceeding 5 knots during the period one week prior to and one week following the opening of the Duck shooting season (being the first Saturday in May each year). Vessels may continue to operate at a proper speed exceeding 5 knots downstream from the point 200 metres below the Manawatu Marine Boating Club launching ramp while transiting to and from the open sea for the purposes of maintaining safe navigation.

b. No person shall propel or navigate a vessel at a proper speed exceeding 5 knots at any time within 200 metres upstream and 200 metres downstream of the Manawatu Marine Boating Club launching ramp.

c. No person shall propel or navigate a vessel at a proper speed exceeding 5 knots during the period 1 October to 31 March each year on the Manawatu River between the point 350 metres upstream of the State Highway 3 Bridge
at Ashhurst and Jackeytown Road.

d. No person shall propel or navigate a Personal Water Craft at a proper speed exceeding 5 knots at any time on the Manawatu River between the point 350 metres upstream of the State Highway 3 Bridge at Ashhurst and Jackeytown Road.

e. No person shall propel or navigate a vessel at a proper speed exceeding 5 knots at any time in the Foxton River Loop between ‘Speir’s Corner’ and the corner adjacent the Water Tower.</description>
		<styleUrl>#msn_ylw-pushpin11</styleUrl>
		<Polygon>
			<tessellate>1</tessellate>
			<outerBoundaryIs>
				<LinearRing>
					<coordinates>
						175.2522412898219,-40.49706530371673,0 175.2552613251837,-40.50019627475405,0 175.2533413597151,-40.50164892579555,0 175.2524903021335,-40.50569820789762,0 175.2543876516094,-40.50840290858414,0 175.2575389294379,-40.5105040910102,0 175.2613799624515,-40.50601575246198,0 175.260083908019,-40.50512537579701,0 175.2623032963887,-40.50570171093636,0 175.2635409275521,-40.50683175719175,0 175.2613971102589,-40.50602012226615,0 175.2575491190915,-40.51051126095436,0 175.2609441677074,-40.51205232983855,0 175.2657316644113,-40.51393145196119,0 175.270657764736,-40.51476986599455,0 175.2761364548772,-40.51675413091876,0 175.2802360373503,-40.5205039483613,0 175.2896511586,-40.52925638923101,0 175.2945379830073,-40.52540407981257,0 175.2917835916376,-40.52278323985867,0 175.2840634381929,-40.51556750619472,0 175.2803213175343,-40.51260260999677,0 175.2749007676634,-40.51022193411029,0 175.2719978242115,-40.50952349788182,0 175.2678725212323,-40.5085890192327,0 175.2720796285623,-40.50737114143598,0 175.2744524559012,-40.50516583514488,0 175.2753737154669,-40.50278520770462,0 175.2753008732649,-40.50098492243627,0 175.2745512933916,-40.49383062531475,0 175.2749435672849,-40.48848879322618,0 175.2762461715236,-40.48663118660138,0 175.276939132515,-40.48442203274069,0 175.2768653226104,-40.48331600876669,0 175.2762560856617,-40.48192015593691,0 175.2793161673242,-40.48151523896625,0 175.2816899316247,-40.48038084892343,0 175.2764192481002,-40.47641735765465,0 175.2727508486431,-40.47664519102294,0 175.2712219367725,-40.47734031570157,0 175.2695395213166,-40.47826796801998,0 175.2686971119503,-40.47942889578712,0 175.2686936732725,-40.4815777237656,0 175.2699072730229,-40.48416105788429,0 175.2683736563824,-40.48654275988594,0 175.2675321617419,-40.48962195887913,0 175.2675217699358,-40.49334152004963,0 175.2684245376051,-40.50181346420305,0 175.268118048056,-40.50262632008302,0 175.2665887875559,-40.50122958175337,0 175.2624651493097,-40.50000433458948,0 175.2623142107913,-40.49919069799724,0 175.260650951417,-40.49640502194006,0 175.2574721948309,-40.49359394494758,0 175.2522412898219,-40.49706530371673,0 
					</coordinates>
				</LinearRing>
			</outerBoundaryIs>
		</Polygon>
		<flyID>1</flyID><flyDescription>Subclause 3.2.5 restrictions:
a. No person shall propel or navigate a vessel at a proper speed exceeding 5 knots during the period one week prior to and one week following the opening of the Duck shooting season (being the first Saturday in May each year). Vessels may continue to operate at a proper speed exceeding 5 knots downstream from the point 200 metres below the Manawatu Marine Boating Club launching ramp while transiting to and from the open sea for the purposes of maintaining safe navigation.

b. No person shall propel or navigate a vessel at a proper speed exceeding 5 knots at any time within 200 metres upstream and 200 metres downstream of the Manawatu Marine Boating Club launching ramp.

c. No person shall propel or navigate a vessel at a proper speed exceeding 5 knots during the period 1 October to 31 March each year on the Manawatu River between the point 350 metres upstream of the State Highway 3 Bridge
at Ashhurst and Jackeytown Road.

d. No person shall propel or navigate a Personal Water Craft at a proper speed exceeding 5 knots at any time on the Manawatu River between the point 350 metres upstream of the State Highway 3 Bridge at Ashhurst and Jackeytown Road.

e. No person shall propel or navigate a vessel at a proper speed exceeding 5 knots at any time in the Foxton River Loop between ‘Speir’s Corner’ and the corner adjacent the Water Tower.</flyDescription>
	</Placemark>
	<Placemark>
		<name>Speed restriction lifted subject to Subclause 3.2.5</name>
		<open>1</open>
		<description>Subclause 3.2.5 restrictions:
a. No person shall propel or navigate a vessel at a proper speed exceeding 5 knots during the period one week prior to and one week following the opening of the Duck shooting season (being the first Saturday in May each year). Vessels may continue to operate at a proper speed exceeding 5 knots downstream from the point 200 metres below the Manawatu Marine Boating Club launching ramp while transiting to and from the open sea for the purposes of maintaining safe navigation.

b. No person shall propel or navigate a vessel at a proper speed exceeding 5 knots at any time within 200 metres upstream and 200 metres downstream of the Manawatu Marine Boating Club launching ramp.

c. No person shall propel or navigate a vessel at a proper speed exceeding 5 knots during the period 1 October to 31 March each year on the Manawatu River between the point 350 metres upstream of the State Highway 3 Bridge
at Ashhurst and Jackeytown Road.

d. No person shall propel or navigate a Personal Water Craft at a proper speed exceeding 5 knots at any time on the Manawatu River between the point 350 metres upstream of the State Highway 3 Bridge at Ashhurst and Jackeytown Road.

e. No person shall propel or navigate a vessel at a proper speed exceeding 5 knots at any time in the Foxton River Loop between ‘Speir’s Corner’ and the corner adjacent the Water Tower.</description>
		<styleUrl>#msn_ylw-pushpin10</styleUrl>
		<Polygon>
			<tessellate>1</tessellate>
			<outerBoundaryIs>
				<LinearRing>
					<coordinates>
						175.2363763580127,-40.48061981836411,0 175.2347239439244,-40.48394651537006,0 175.2340981553837,-40.48596565628151,0 175.2336542724006,-40.48796539829938,0 175.2335985375204,-40.49033627243353,0 175.2338340249128,-40.49274561483161,0 175.2356492633666,-40.49445904291554,0 175.2367414130333,-40.49581296978116,0 175.2418053436598,-40.49727294447315,0 175.2457725717235,-40.49665637763385,0 175.2475568797331,-40.49551049114132,0 175.2500215961379,-40.49571633361111,0 175.2522412898219,-40.49706530371673,0 175.2574721948309,-40.49359394494758,0 175.2595427953234,-40.49080535194077,0 175.2611702407103,-40.48600813263438,0 175.2628902430917,-40.48103998233604,0 175.2646127877657,-40.47955908293769,0 175.2716120474944,-40.47668749478514,0 175.2747158625479,-40.47258853121573,0 175.274730992025,-40.46438284395178,0 175.2704923422853,-40.46500036112921,0 175.2687707527265,-40.46674487613548,0 175.2687671406409,-40.4684016610586,0 175.2679582458262,-40.47110355445332,0 175.2664637660778,-40.47293319053156,0 175.2608457759961,-40.47493397527151,0 175.2569441922445,-40.47815601247923,0 175.2551108790399,-40.48216460953237,0 175.2529503716791,-40.48860514132583,0 175.2516021728458,-40.49034098968673,0 175.2501130233324,-40.49007615596897,0 175.2457525123814,-40.49041067637339,0 175.2426442542017,-40.49179245545289,0 175.240694672468,-40.49117809459371,0 175.2408257103201,-40.48813355348984,0 175.2420932592009,-40.48368325711466,0 175.246121879272,-40.47767407447649,0 175.2454116949641,-40.47442969048446,0 175.242666442013,-40.47192178709882,0 175.2394194677715,-40.47109204617376,0 175.2386063752567,-40.47672335303424,0 175.2363763580127,-40.48061981836411,0 
					</coordinates>
				</LinearRing>
			</outerBoundaryIs>
		</Polygon>
		<flyID>0</flyID><flyDescription>Subclause 3.2.5 restrictions:
a. No person shall propel or navigate a vessel at a proper speed exceeding 5 knots during the period one week prior to and one week following the opening of the Duck shooting season (being the first Saturday in May each year). Vessels may continue to operate at a proper speed exceeding 5 knots downstream from the point 200 metres below the Manawatu Marine Boating Club launching ramp while transiting to and from the open sea for the purposes of maintaining safe navigation.

b. No person shall propel or navigate a vessel at a proper speed exceeding 5 knots at any time within 200 metres upstream and 200 metres downstream of the Manawatu Marine Boating Club launching ramp.

c. No person shall propel or navigate a vessel at a proper speed exceeding 5 knots during the period 1 October to 31 March each year on the Manawatu River between the point 350 metres upstream of the State Highway 3 Bridge
at Ashhurst and Jackeytown Road.

d. No person shall propel or navigate a Personal Water Craft at a proper speed exceeding 5 knots at any time on the Manawatu River between the point 350 metres upstream of the State Highway 3 Bridge at Ashhurst and Jackeytown Road.

e. No person shall propel or navigate a vessel at a proper speed exceeding 5 knots at any time in the Foxton River Loop between ‘Speir’s Corner’ and the corner adjacent the Water Tower.</flyDescription>
	</Placemark>
	<Placemark>
		<name>Speed shall not exceed 5 knots year round</name>
		<description>Speed shall not exceed 5 knots year round</description>
		<styleUrl>#msn_ylw-pushpin</styleUrl>
		<Polygon>
			<tessellate>1</tessellate>
			<outerBoundaryIs>
				<LinearRing>
					<coordinates>
						175.386121735051,-40.53677617797555,0 175.3880037295671,-40.53701926894553,0 175.3908427004783,-40.5375855819523,0 175.3925690908761,-40.53786619845086,0 175.3953292116305,-40.5375181157402,0 175.3982586089779,-40.53719156472834,0 175.4003577270192,-40.53744232273136,0 175.4038911451667,-40.53866029187534,0 175.4047137282245,-40.53901215315553,0 175.4077229085328,-40.54026899656688,0 175.4098098299296,-40.54075946408787,0 175.4102042526913,-40.54088546594125,0 175.4128739334911,-40.54176064115158,0 175.414039238073,-40.54241220429225,0 175.4142732991115,-40.54250592763035,0 175.4159632877512,-40.54273722506246,0 175.4176878587495,-40.54399309675461,0 175.4186183704863,-40.54449416425175,0 175.4201877519485,-40.54532971303726,0 175.4209710794842,-40.545543494058,0 175.4248751611651,-40.54657325516718,0 175.4278419581164,-40.54739226262055,0 175.4285307279284,-40.54758943668113,0 175.4287370790526,-40.5475785726652,0 175.4289294004242,-40.54752745006388,0 175.4290494142052,-40.54743631202114,0 175.4292058572979,-40.547268602254,0 175.4293545530937,-40.54745826303707,0 175.428989736441,-40.54765525854605,0 175.428874503,-40.5477901585618,0 175.4288346047892,-40.54792645075654,0 175.4288665706708,-40.54809863264231,0 175.4290343038149,-40.54829618878913,0 175.4305930191924,-40.55000713497116,0 175.4317249447117,-40.54968474011059,0 175.4302720476094,-40.54806596449038,0 175.4306206810416,-40.54784850257229,0 175.4307669372242,-40.54763183391241,0 175.4306789060171,-40.54737295020333,0 175.4301751002632,-40.54675990099118,0 175.4297323273815,-40.546204165318,0 175.4294185804497,-40.54599663058309,0 175.4291205212054,-40.54595532997544,0 175.4287731589371,-40.54608093714046,0 175.4283684846645,-40.5465812298195,0 175.4207767451242,-40.54454455869207,0 175.420324095584,-40.54432541928525,0 175.4182256376828,-40.54315488755753,0 175.4165532385013,-40.54195304381744,0 175.416304781809,-40.54186906571896,0 175.4146918327754,-40.54167995490015,0 175.4134099070196,-40.54095603583652,0 175.410304402303,-40.53994707719416,0 175.4081715867934,-40.53943119605472,0 175.4047300951252,-40.53796864201657,0 175.4007538014781,-40.53659327431785,0 175.3982776775911,-40.53628704030867,0 175.3926277680422,-40.53695732657139,0 175.3877149959106,-40.53606042133865,0 175.3858458669818,-40.53668197862637,0 175.386121735051,-40.53677617797555,0 
					</coordinates>
				</LinearRing>
			</outerBoundaryIs>
		</Polygon>
		<flyID>0</flyID><flyDescription>Speed shall not exceed 5 knots year round</flyDescription>
	</Placemark>
	<Placemark>
		<name>Speed shall not exceed 5 knots year round</name>
		<open>1</open>
		<description>Speed shall not exceed 5 knots year round</description>
		<styleUrl>#msn_ylw-pushpin1</styleUrl>
		<Polygon>
			<tessellate>1</tessellate>
			<outerBoundaryIs>
				<LinearRing>
					<coordinates>
						175.4305930191924,-40.55000713497116,0 175.4308843567921,-40.55207271314455,0 175.4309534659847,-40.552226888104,0 175.4310739354243,-40.55233949675064,0 175.4312123101095,-40.55241667096304,0 175.4344545884433,-40.55372601942169,0 175.4348354852527,-40.55427169564952,0 175.4360714597482,-40.55603811820312,0 175.4361871096615,-40.55612612405292,0 175.4363780989652,-40.55619991360067,0 175.4386855092762,-40.5570084735112,0 175.440277599645,-40.55886064588054,0 175.4406303899329,-40.55926321455802,0 175.4410121412813,-40.55983203880766,0 175.442433718559,-40.56192495923109,0 175.4425271865044,-40.56201871972313,0 175.442970384853,-40.56225396257875,0 175.4437817413742,-40.56267668751973,0 175.4451122047022,-40.56495035465112,0 175.4467187758228,-40.56744969172501,0 175.4478342400408,-40.56954960861184,0 175.4480828815786,-40.5712830644741,0 175.4485242581349,-40.57202410275884,0 175.4495589467839,-40.57394058881869,0 175.4501051046069,-40.5752216458061,0 175.4502829818406,-40.57535925381814,0 175.4505596822625,-40.57543398866102,0 175.4508395453262,-40.57542364481076,0 175.4510698620805,-40.5752930618837,0 175.4512027074416,-40.57511213894259,0 175.4512222222048,-40.57494810353413,0 175.450540743658,-40.5734260096883,0 175.4492501002741,-40.57115727956549,0 175.4490050578831,-40.56939229634552,0 175.4479191268694,-40.56731814689175,0 175.4458705863387,-40.56407008792206,0 175.4447019627335,-40.5620738509547,0 175.4433942807989,-40.56137665578182,0 175.4413881200161,-40.55850858635029,0 175.4395309052433,-40.55631940920161,0 175.4369756977229,-40.55543148455958,0 175.4353070636152,-40.55305561842445,0 175.4320304715417,-40.55173457340316,0 175.4317249447117,-40.54968474011059,0 175.4305930191924,-40.55000713497116,0 
					</coordinates>
				</LinearRing>
			</outerBoundaryIs>
		</Polygon>
		<flyID>1</flyID><flyDescription>Speed shall not exceed 5 knots year round</flyDescription>
	</Placemark>
</Document>
</kml>
