<?xml version="1.0" encoding="UTF-8"?>
<kml xmlns="http://www.opengis.net/kml/2.2" xmlns:gx="http://www.google.com/kml/ext/2.2" xmlns:kml="http://www.opengis.net/kml/2.2" xmlns:atom="http://www.w3.org/2005/Atom">
<Document>
<name>R51 C14.kml</name>

<Style id="style0">

					<LineStyle>

						<color>ff0000ff</color>

					</LineStyle>

					<PolyStyle>

						<color>ff0000ff</color>

						<width>0.9</width>

					</PolyStyle>

				</Style>

<Placemark>

				<name>Motorised Vessel And Seaplane Prohibited Activity</name>

				<description>All motorised vessels, including seaplanes, are prohibited from South Mavora Lake</description>

				<styleUrl>#style0</styleUrl>

				<Polygon>

					<tessellate>1</tessellate>

					<outerBoundaryIs>

						<LinearRing>

							<coordinates>

							168.1707023070441,-45.29353602896679,0 168.1714828694294,-45.29452749833006,0 168.1718259187565,-45.29520547598099,0 168.1724218321646,-45.29526390886107,0 168.1723616814981,-45.29559541039986,0 168.1724038152692,-45.29593578542332,0 168.1729385400132,-45.29640600567063,0 168.1723093008068,-45.29675279929094,0 168.1717777026365,-45.29722608634522,0 168.1713151298599,-45.29750181469058,0 168.1710839625709,-45.29808915792218,0 168.1704228670637,-45.30033426222413,0 168.1692288536581,-45.30089988048873,0 168.1690039556644,-45.30113638419083,0 168.1694748962924,-45.30223349075376,0 168.1699530067631,-45.30292091826849,0 168.1698147141671,-45.30338956995138,0 168.1700101437349,-45.30432778700559,0 168.1706174131096,-45.30588853204307,0 168.1702437272772,-45.30693614415358,0 168.1694792236566,-45.30807669145376,0 168.1695430899036,-45.30909978415687,0 168.1702638884093,-45.31070251633294,0 168.171409659913,-45.31223823736304,0 168.1731856390609,-45.3128225717358,0 168.1755903220098,-45.31294041343719,0 168.1764998553879,-45.31344451938628,0 168.1771929509471,-45.31415826986319,0 168.1777920673312,-45.31515495555208,0 168.1785438073733,-45.31562623318415,0 168.1790891092184,-45.31592538862062,0 168.1796432413763,-45.31549562067945,0 168.1802171186231,-45.31507436380172,0 168.1806252158011,-45.31447859530697,0 168.1810023951998,-45.31402146828335,0 168.1808062879495,-45.31350912338016,0 168.1814164776069,-45.3128473947072,0 168.1819427925043,-45.31224840923622,0 168.1816315479605,-45.31193912618497,0 168.1809405113104,-45.31181049806347,0 168.1805137477529,-45.31150016954301,0 168.1803045762111,-45.31049460429269,0 168.1804951934807,-45.30931788491637,0 168.1812486162753,-45.30877054735896,0 168.1804797786998,-45.30830098080028,0 168.1797801285753,-45.30836639457683,0 168.1790172963311,-45.30795755485928,0 168.1793799011593,-45.30707385145598,0 168.1791402048501,-45.30621840803775,0 168.1785972763553,-45.30531737420485,0 168.1791360663916,-45.30423391710312,0 168.1789803941672,-45.30338189313992,0 168.1782462730393,-45.30230097561329,0 168.1768211326194,-45.30147366861142,0 168.1772790712949,-45.30069159439705,0 168.1779246382287,-45.30021962471123,0 168.1784791390239,-45.30006123871025,0 168.1785431890637,-45.29959273279567,0 168.1778807646578,-45.29753013842571,0 168.177862632096,-45.29569253707898,0 168.1782671444748,-45.29470131661624,0 168.1785625089702,-45.29368344305189,0 168.1778613881864,-45.29313736600039,0 168.1768996321385,-45.29334582162099,0 168.1765258827088,-45.29294741547074,0 168.1747862885496,-45.29186392986568,0 168.1742726348169,-45.29078461627373,0 168.173950678899,-45.28983008397466,0 168.1729787164888,-45.28919280318429,0 168.1710183494726,-45.29047955959966,0 168.1705119035618,-45.29172842034776,0 168.1693166253206,-45.29238907655657,0 168.1707023070441,-45.29353602896679,0 
						
</coordinates>

						</LinearRing>

					</outerBoundaryIs>

				</Polygon>

				<flyID>0</flyID>

				<flyDescription>All motorised vessels, including seaplanes, are prohibited from South Mavora Lake</flyDescription>

			</Placemark>
<Placemark>

				<name>Jet Ski's Prohibited</name>

				<description>North Mavora Lake - Hovercraft and jet ski's are prohibited from North Mavora Lake</description>

				<styleUrl>#style0</styleUrl>

				<Polygon>

					<tessellate>1</tessellate>

					<outerBoundaryIs>

						<LinearRing>

							<coordinates>

							168.1476986458006,-45.17600632198001,0 168.1478967100765,-45.17753089228445,0 168.1476430270237,-45.17870235320071,0 168.1479607954192,-45.18125501483926,0 168.1470392988414,-45.18300405616798,0 168.1480125868834,-45.18335184279831,0 168.147772034244,-45.18402206818644,0 168.14847586144,-45.1859368744953,0 168.1495461318586,-45.18882561975976,0 168.1528310284767,-45.19498826382267,0 168.1529271301726,-45.19602903208578,0 168.1564147080726,-45.1991358183179,0 168.1592945961024,-45.19937778453998,0 168.1605418754005,-45.20075982286959,0 168.1601331358131,-45.20178218553317,0 168.1593259136933,-45.20341307795692,0 168.1603462770605,-45.20473439779278,0 168.1592703798021,-45.20544017456359,0 168.1591783997325,-45.20646468608794,0 168.1576903510772,-45.20714862176416,0 168.1558826394931,-45.20721956636114,0 168.1546711872901,-45.20635181569503,0 168.1535955556272,-45.20710892255108,0 168.1547118083824,-45.21013302828302,0 168.1547712617566,-45.2121852768376,0 168.1564760109929,-45.21291668284677,0 168.1579651096153,-45.21404625178457,0 168.1606999486418,-45.21606529657422,0 168.1616515398662,-45.21775992785056,0 168.1615469727142,-45.21903085844046,0 168.1618057633872,-45.22083905028025,0 168.1606397074121,-45.2220172364288,0 168.1599308112702,-45.22349370091335,0 168.1594886787041,-45.22538759540883,0 168.1606249291201,-45.22775184691776,0 168.1604308355753,-45.22910295071884,0 168.1621930904687,-45.2299541607025,0 168.1787542650679,-45.22809431547693,0 168.1774373169301,-45.22494581922121,0 168.1762291564855,-45.22190644594163,0 168.173780888405,-45.21899333475934,0 168.1744179861749,-45.21721981206854,0 168.1727767950919,-45.21438843185071,0 168.1730766322162,-45.21307013670738,0 168.171608612266,-45.2122662758245,0 168.1709688327258,-45.21091707537253,0 168.1700328606253,-45.20877959172082,0 168.1699210867427,-45.20658025272264,0 168.1713543108822,-45.20407210301991,0 168.1712554349692,-45.20188637169041,0 168.1715191528052,-45.19915330116266,0 168.1709824919314,-45.19682076332073,0 168.1695063748607,-45.19670338550334,0 168.1673642745575,-45.19496371002293,0 168.1673094457426,-45.19293514406759,0 168.1679534472463,-45.19196794674324,0 168.167354848448,-45.19093546779148,0 168.1664280982689,-45.18986533680745,0 168.1640968450203,-45.18923764083372,0 168.1636623335875,-45.18836917475078,0 168.1633203897122,-45.18681456206949,0 168.1615240989943,-45.18367409401654,0 168.1602780429927,-45.18349273385628,0 168.1592816473614,-45.18267409379395,0 168.1575496807753,-45.18127605558565,0 168.1560698111213,-45.1810523725033,0 168.1543129221732,-45.18005407299027,0 168.1535296903956,-45.17821971267299,0 168.1537828681426,-45.17673985643645,0 168.153447542064,-45.17556218128087,0 168.1519408498837,-45.1747081870363,0 168.1510407628974,-45.17434945715406,0 168.1499939129693,-45.17462997135933,0 168.1491657653892,-45.17543075222662,0 168.1476986458006,-45.17600632198001,0 
						
</coordinates>

						</LinearRing>

					</outerBoundaryIs>

				</Polygon>

				<flyID>1</flyID>

				<flyDescription>North Mavora Lake - Hovercraft and jet ski's are prohibited from North Mavora Lake</flyDescription>

			</Placemark>
<Placemark>

				<name>Jet Ski's Prohibited</name>

				<description>North Mavora Lake - Hovercraft and jet ski's are prohibited from North Mavora Lake</description>

				<styleUrl>#style0</styleUrl>

				<Polygon>

					<tessellate>1</tessellate>

					<outerBoundaryIs>

						<LinearRing>

							<coordinates>

							168.1621930904687,-45.2299541607025,0 168.1630768033921,-45.23103887140404,0 168.163365573516,-45.23227476122187,0 168.1649310296071,-45.23352499726068,0 168.1654674099738,-45.23491671925095,0 168.1640445574534,-45.23634590092806,0 168.1626520228921,-45.23705112644156,0 168.163011901951,-45.23760024614998,0 168.1652355292393,-45.23915343422501,0 168.1658074605325,-45.24060886711385,0 168.1658827739689,-45.24257556286927,0 168.1657578724307,-45.2455511783806,0 168.1674704266751,-45.2466389193141,0 168.1673449410136,-45.24785788241736,0 168.1662508620194,-45.24912810178457,0 168.1667649396429,-45.25140337820835,0 168.167799005037,-45.25220106759906,0 168.1685306049799,-45.25542360821179,0 168.1669748772881,-45.25876487360263,0 168.1656037963502,-45.2607358740227,0 168.1660627393216,-45.26198773701248,0 168.1660454076777,-45.26328226384568,0 168.1668947678072,-45.26467937438274,0 168.166776896782,-45.2656970493241,0 168.1675265791269,-45.26654228248581,0 168.1673049100131,-45.26770401590995,0 168.1671861997695,-45.26866638018467,0 168.1685235127382,-45.27047331815543,0 168.1681613762121,-45.27178896732756,0 168.167920869792,-45.27311628867314,0 168.1662332043609,-45.27325800710781,0 168.1660261845575,-45.27402740903975,0 168.1667724429661,-45.27599309526092,0 168.1690401738982,-45.27703570924574,0 168.1708845222983,-45.27488694907768,0 168.1715049937488,-45.27283385930888,0 168.1725479976156,-45.27080544796569,0 168.1725957550725,-45.26877248637327,0 168.1732948699522,-45.26658222834115,0 168.1735411857189,-45.26357220335023,0 168.174482264091,-45.26209869427614,0 168.1744634308016,-45.2603081365641,0 168.1749694245815,-45.2591211513592,0 168.1751452011228,-45.25738570592284,0 168.1757696683443,-45.25421579362876,0 168.1754948951042,-45.25178060108516,0 168.175741530699,-45.24925931893455,0 168.1773424491094,-45.24637266044326,0 168.1779563804401,-45.24492055272894,0 168.1771585834874,-45.24106289365124,0 168.1780440377311,-45.23987644291368,0 168.1795235844087,-45.23642418200759,0 168.1795606179545,-45.23273125149131,0 168.1787542650679,-45.22809431547693,0 168.1621930904687,-45.2299541607025,0 
						
</coordinates>

						</LinearRing>

					</outerBoundaryIs>

				</Polygon>

				<flyID>2</flyID>

				<flyDescription>North Mavora Lake - Hovercraft and jet ski's are prohibited from North Mavora Lake</flyDescription>

			</Placemark>

</Document>
</kml>
