<?xml version="1.0" encoding="UTF-8"?>
<kml xmlns="http://www.opengis.net/kml/2.2" xmlns:gx="http://www.google.com/kml/ext/2.2" xmlns:kml="http://www.opengis.net/kml/2.2" xmlns:atom="http://www.w3.org/2005/Atom">
<Document>
<name>R35 C39.kml</name>

<Style id="style0">

					<LineStyle>

						<color>ff7b0080</color>

					</LineStyle>

					<PolyStyle>

						<color>ff7b0080</color>

						<width>0.9</width>

					</PolyStyle>

				</Style>
<Style id="style1">

					<LineStyle>

						<color>ffff5500</color>

					</LineStyle>

					<PolyStyle>

						<color>ffff5500</color>

						<width>0.9</width>

					</PolyStyle>

				</Style>

<Placemark>

				<name>Tory Channel Pilotage District</name>

				<description>Ships arriving at Tory Channel always board their pilot outside the entrance, usually at the charted position 41° 15.21'S 174° 22.21'E or sometimes in a more sheltered position specified by the pilot. The presence of frequent ferry traffic through Tory Channel entrance makes it very important that the ship follows the boarding instructions given by the pilot.</description>

				<styleUrl>#style0</styleUrl>

				<Polygon>

					<tessellate>1</tessellate>

					<outerBoundaryIs>

						<LinearRing>

							<coordinates>

							174.2815596730312,-41.26784016938539,0 174.2943158086724,-41.2713497533031,0 174.3077089484651,-41.27309675018088,0 174.3207363990897,-41.27309965535508,0 174.3382499607455,-41.27058260801182,0 174.3534520025927,-41.26570205054707,0 174.3675021251184,-41.25798994356988,0 174.3699715740934,-41.2557930490896,0 174.3718850530376,-41.25479105558714,0 174.3782341919922,-41.25015629169585,0 174.3879474239294,-41.23703250663324,0 174.3925033493617,-41.22632720714106,0 174.394678123792,-41.21409348748026,0 174.3930910984188,-41.20390121903789,0 174.3909785914212,-41.19587222099948,0 174.3853338177862,-41.18586002363036,0 174.378684598825,-41.17795791036395,0 174.3710643523633,-41.17102125524426,0 174.3665545278459,-41.17118159146161,0 174.3747951641093,-41.17839180823096,0 174.3796291539653,-41.18379395167415,0 174.3827692692326,-41.1889478352782,0 174.3863001595346,-41.19527882787141,0 174.3888735736656,-41.20354852634896,0 174.3899563226112,-41.21278092097807,0 174.38939792817,-41.22035204971544,0 174.3871212473222,-41.2295046566836,0 174.3825591324281,-41.23885565843097,0 174.3738875315336,-41.24937395842762,0 174.3629283439309,-41.25759485709057,0 174.3540706159013,-41.26196725667654,0 174.3384064643076,-41.26786899654449,0 174.3252661912982,-41.26972171424749,0 174.3112874387342,-41.26992371370224,0 174.3024931713821,-41.26950908490003,0 174.2908509420942,-41.26744196753975,0 174.2815705655567,-41.26432813863153,0 174.2815596730312,-41.26784016938539,0 
						
</coordinates>

						</LinearRing>

					</outerBoundaryIs>

				</Polygon>

				<flyID>0</flyID>

				<flyDescription>Ships arriving at Tory Channel always board their pilot outside the entrance, usually at the charted position 41° 15.21'S 174° 22.21'E or sometimes in a more sheltered position specified by the pilot. The presence of frequent ferry traffic through Tory Channel entrance makes it very important that the ship follows the boarding instructions given by the pilot.</flyDescription>

			</Placemark>
<Placemark>

				<name>Indicative Ferry Channel (Main Route)</name>

				<description>This channel will often be used by ferries. Take caution when operating a vessel in this area.</description>

				<styleUrl>#style1</styleUrl>

				<Polygon>

					<tessellate>1</tessellate>

					<outerBoundaryIs>

						<LinearRing>

							<coordinates>

							174.0245596515315,-41.25946882165334,0 174.0162997859904,-41.26933503387678,0 174.0180500830933,-41.26936366153695,0 174.0295792684371,-41.25756573012967,0 174.0345846137214,-41.25290543960384,0 174.036656281972,-41.25205417240696,0 174.0486906759133,-41.24849327312403,0 174.0631510932308,-41.24511343860694,0 174.1157906961387,-41.23323465221795,0 174.1402384614361,-41.23034821586008,0 174.1465149199534,-41.22989464632414,0 174.1491208051662,-41.23092403857433,0 174.1507945353436,-41.23514988687013,0 174.1535531927562,-41.24466557963391,0 174.1547525100694,-41.24680976386605,0 174.1563840571908,-41.24783768675145,0 174.159317229445,-41.2482190925593,0 174.1623838806593,-41.24793081619077,0 174.1751255738199,-41.24591219222155,0 174.2000643911888,-41.24218672818805,0 174.2428901078735,-41.24143926201548,0 174.2557917098581,-41.24107903025745,0 174.2583358153715,-41.239779678341,0 174.2904461777963,-41.21984220093795,0 174.3073883327488,-41.21114952100719,0 174.3099293821494,-41.21042845643108,0 174.3113090571485,-41.21033686400024,0 174.3143905765749,-41.21076432672231,0 174.3181944909199,-41.21248326360727,0 174.3202327024308,-41.2116214187112,0 174.3151997582797,-41.20862129276343,0 174.3126326508942,-41.20769119167827,0 174.3088647527501,-41.20740870558271,0 174.3057297656465,-41.20799168847403,0 174.2882176203868,-41.21689331943833,0 174.2549047018723,-41.23829555574503,0 174.2509754189218,-41.23895208714707,0 174.2007593607426,-41.24018185852766,0 174.1673223641056,-41.24529461458918,0 174.164553707657,-41.24536055926376,0 174.1613473158267,-41.24457687009309,0 174.1587905821793,-41.24260917921367,0 174.1545128317569,-41.22790091559458,0 174.154616083681,-41.22541675547578,0 174.1432094373465,-41.22515705107504,0 174.1384002576642,-41.22647424212411,0 174.1156392424335,-41.22981270074654,0 174.0494402744428,-41.24485379339767,0 174.0337920458517,-41.24919295707459,0 174.0050224769913,-41.26943185408035,0 174.0077926206685,-41.26940041734508,0 174.0245596515315,-41.25946882165334,0 
						
</coordinates>

						</LinearRing>

					</outerBoundaryIs>

				</Polygon>

				<flyID>1</flyID>

				<flyDescription>This channel will often be used by ferries. Take caution when operating a vessel in this area.</flyDescription>

			</Placemark>

</Document>
</kml>
