<?xml version="1.0" encoding="UTF-8"?>
<kml xmlns="http://www.opengis.net/kml/2.2" xmlns:gx="http://www.google.com/kml/ext/2.2" xmlns:kml="http://www.opengis.net/kml/2.2" xmlns:atom="http://www.w3.org/2005/Atom">
<Document>
	<name>R19C41.kml</name>
	<Style id="style0">
		<LineStyle>
			<color>ffff0000</color>
		</LineStyle>
		<PolyStyle>
			<color>ffff0000</color>
			<width>0.9</width>
		</PolyStyle>
	</Style>
	<Style id="style00">
		<LineStyle>
			<color>ffff0000</color>
		</LineStyle>
		<PolyStyle>
			<color>ffff0000</color>
			<width>0.9</width>
		</PolyStyle>
	</Style>
	<Style id="style01">
		<LineStyle>
			<color>ffff0000</color>
		</LineStyle>
		<PolyStyle>
			<color>ffff0000</color>
			<width>0.9</width>
		</PolyStyle>
	</Style>
	<Style id="style02">
		<LineStyle>
			<color>ffff0000</color>
		</LineStyle>
		<PolyStyle>
			<color>ffff0000</color>
			<width>0.9</width>
		</PolyStyle>
	</Style>
	<StyleMap id="style03">
		<Pair>
			<key>normal</key>
			<styleUrl>#style0</styleUrl>
		</Pair>
		<Pair>
			<key>highlight</key>
			<styleUrl>#style00</styleUrl>
		</Pair>
	</StyleMap>
	<Style id="style04">
		<LineStyle>
			<color>ffff0000</color>
		</LineStyle>
		<PolyStyle>
			<color>ffff0000</color>
			<width>0.9</width>
		</PolyStyle>
	</Style>
	<Style id="style1">
		<LineStyle>
			<color>ff0000ff</color>
		</LineStyle>
		<PolyStyle>
			<color>ff0000ff</color>
			<width>0.9</width>
		</PolyStyle>
	</Style>
	<Style id="style05">
		<LineStyle>
			<color>ffff0000</color>
		</LineStyle>
		<PolyStyle>
			<color>ffff0000</color>
			<width>0.9</width>
		</PolyStyle>
	</Style>
	<Style id="style40">
		<LineStyle>
			<color>ffff00aa</color>
		</LineStyle>
		<PolyStyle>
			<color>ffff00aa</color>
			<width>0.9</width>
		</PolyStyle>
	</Style>
	<StyleMap id="style06">
		<Pair>
			<key>normal</key>
			<styleUrl>#style011</styleUrl>
		</Pair>
		<Pair>
			<key>highlight</key>
			<styleUrl>#style010</styleUrl>
		</Pair>
	</StyleMap>
	<Style id="style07">
		<LineStyle>
			<color>ffff0000</color>
		</LineStyle>
		<PolyStyle>
			<color>ffff0000</color>
			<width>0.9</width>
		</PolyStyle>
	</Style>
	<StyleMap id="style08">
		<Pair>
			<key>normal</key>
			<styleUrl>#style014</styleUrl>
		</Pair>
		<Pair>
			<key>highlight</key>
			<styleUrl>#style017</styleUrl>
		</Pair>
	</StyleMap>
	<Style id="style2">
		<LineStyle>
			<color>ff00ffff</color>
		</LineStyle>
		<PolyStyle>
			<color>ff00ffff</color>
			<width>0.9</width>
		</PolyStyle>
	</Style>
	<StyleMap id="style09">
		<Pair>
			<key>normal</key>
			<styleUrl>#style022</styleUrl>
		</Pair>
		<Pair>
			<key>highlight</key>
			<styleUrl>#style012</styleUrl>
		</Pair>
	</StyleMap>
	<Style id="style010">
		<LineStyle>
			<color>ffff0000</color>
		</LineStyle>
		<PolyStyle>
			<color>ffff0000</color>
			<width>0.9</width>
		</PolyStyle>
	</Style>
	<Style id="style011">
		<LineStyle>
			<color>ffff0000</color>
		</LineStyle>
		<PolyStyle>
			<color>ffff0000</color>
			<width>0.9</width>
		</PolyStyle>
	</Style>
	<Style id="style012">
		<LineStyle>
			<color>ffff0000</color>
		</LineStyle>
		<PolyStyle>
			<color>ffff0000</color>
			<width>0.9</width>
		</PolyStyle>
	</Style>
	<StyleMap id="style013">
		<Pair>
			<key>normal</key>
			<styleUrl>#style02</styleUrl>
		</Pair>
		<Pair>
			<key>highlight</key>
			<styleUrl>#style021</styleUrl>
		</Pair>
	</StyleMap>
	<Style id="style014">
		<LineStyle>
			<color>ffff0000</color>
		</LineStyle>
		<PolyStyle>
			<color>ffff0000</color>
			<width>0.9</width>
		</PolyStyle>
	</Style>
	<StyleMap id="style015">
		<Pair>
			<key>normal</key>
			<styleUrl>#style04</styleUrl>
		</Pair>
		<Pair>
			<key>highlight</key>
			<styleUrl>#style07</styleUrl>
		</Pair>
	</StyleMap>
	<Style id="style016">
		<LineStyle>
			<color>ffff0000</color>
		</LineStyle>
		<PolyStyle>
			<color>ffff0000</color>
			<width>0.9</width>
		</PolyStyle>
	</Style>
	<Style id="style017">
		<LineStyle>
			<color>ffff0000</color>
		</LineStyle>
		<PolyStyle>
			<color>ffff0000</color>
			<width>0.9</width>
		</PolyStyle>
	</Style>
	<Style id="style018">
		<LineStyle>
			<color>ffff0000</color>
		</LineStyle>
		<PolyStyle>
			<color>ffff0000</color>
			<width>0.9</width>
		</PolyStyle>
	</Style>
	<StyleMap id="style019">
		<Pair>
			<key>normal</key>
			<styleUrl>#style018</styleUrl>
		</Pair>
		<Pair>
			<key>highlight</key>
			<styleUrl>#style01</styleUrl>
		</Pair>
	</StyleMap>
	<Style id="style020">
		<LineStyle>
			<color>ffff0000</color>
		</LineStyle>
		<PolyStyle>
			<color>ffff0000</color>
			<width>0.9</width>
		</PolyStyle>
	</Style>
	<Style id="style021">
		<LineStyle>
			<color>ffff0000</color>
		</LineStyle>
		<PolyStyle>
			<color>ffff0000</color>
			<width>0.9</width>
		</PolyStyle>
	</Style>
	<Style id="style022">
		<LineStyle>
			<color>ffff0000</color>
		</LineStyle>
		<PolyStyle>
			<color>ffff0000</color>
			<width>0.9</width>
		</PolyStyle>
	</Style>
	<Style id="style3">
		<LineStyle>
			<color>ffffaa00</color>
		</LineStyle>
		<PolyStyle>
			<color>ffffaa00</color>
			<width>0.9</width>
		</PolyStyle>
	</Style>
	<StyleMap id="style023">
		<Pair>
			<key>normal</key>
			<styleUrl>#style05</styleUrl>
		</Pair>
		<Pair>
			<key>highlight</key>
			<styleUrl>#style016</styleUrl>
		</Pair>
	</StyleMap>
	<Placemark>
		<name>Transit Zone</name>
		<open>1</open>
		<description>Within this zone all vessels shall proceed through this zone in the most direct route possible.  It is prohibited to tow and anchor in this zone</description>
		<styleUrl>#style40</styleUrl>
		<Polygon>
			<tessellate>1</tessellate>
			<outerBoundaryIs>
				<LinearRing>
					<coordinates>
						174.9406196767003,-37.29375453965606,0 174.9412215077723,-37.29399324814971,0 174.941993874429,-37.29434393203933,0 174.9426386061574,-37.29507307712503,0 174.9433592391037,-37.2960489229268,0 174.9438691021736,-37.29683990233453,0 174.944324601599,-37.29754149429479,0 174.9447586465093,-37.29815081387677,0 174.945885823089,-37.29751666652392,0 174.9454250460137,-37.29696824732052,0 174.945407003356,-37.29686496304319,0 174.9450640476372,-37.29624154503376,0 174.9445132088501,-37.29537630686902,0 174.9441978007307,-37.29445214781831,0 174.944105225461,-37.29396342702096,0 174.9444306691759,-37.29391321980916,0 174.9442396091423,-37.29267737163994,0 174.9441847347896,-37.29153937014975,0 174.9440742791345,-37.29126650564373,0 174.9440727700211,-37.29039627203879,0 174.941074094928,-37.29181038385987,0 174.941516026685,-37.2921821083765,0 174.9416062772314,-37.29261296416436,0 174.9414646464895,-37.29298518569625,0 174.9410971157138,-37.29288738887174,0 174.9407827446499,-37.29268489737582,0 174.9401584108283,-37.29226782969256,0 174.939677338106,-37.29244575451674,0 174.9391281788964,-37.29282789610169,0 174.9406196767003,-37.29375453965606,0 
					</coordinates>
				</LinearRing>
			</outerBoundaryIs>
		</Polygon>
		<flyID>16</flyID><flyDescription>Within this zone all vessels shall proceed through this zone in the most direct route possible.  It is prohibited to tow and anchor in this zone</flyDescription>
	</Placemark>
	<Placemark>
		<name>5 Knot Zone</name>
		<description>Keep to 5 knots or less (9.25km / fast walking pace) in this area - Meremere</description>
		<styleUrl>#style2</styleUrl>
		<Polygon>
			<tessellate>1</tessellate>
			<outerBoundaryIs>
				<LinearRing>
					<coordinates>
						175.0449301429555,-37.27842036089092,0 175.0444735101563,-37.27869150687293,0 175.0451201604529,-37.27942103375638,0 175.0457539604226,-37.28016119488993,0 175.0461860561407,-37.27986800783936,0 175.0460037222107,-37.27968854310495,0 175.0457063193161,-37.27928504644537,0 175.0449301429555,-37.27842036089092,0 
					</coordinates>
				</LinearRing>
			</outerBoundaryIs>
		</Polygon>
		<flyID>0</flyID><flyDescription>Keep to 5 knots or less (9.25km / fast walking pace) in this area - Meremere</flyDescription>
	</Placemark>
	<Placemark>
		<name>5 Knot Zone</name>
		<description>Keep to 5 knots or less (9.25km / fast walking pace) in this area - Meremere</description>
		<styleUrl>#style2</styleUrl>
		<Polygon>
			<tessellate>1</tessellate>
			<outerBoundaryIs>
				<LinearRing>
					<coordinates>
						175.0458022243675,-37.28125522776435,0 175.0462038589933,-37.2809302667393,0 175.0452844797055,-37.2802945191568,0 175.0449071422509,-37.28060030483298,0 175.0458022243675,-37.28125522776435,0 
					</coordinates>
				</LinearRing>
			</outerBoundaryIs>
		</Polygon>
		<flyID>1</flyID><flyDescription>Keep to 5 knots or less (9.25km / fast walking pace) in this area - Meremere</flyDescription>
	</Placemark>
	<Placemark>
		<name>Rowing and Waka Ama Zone</name>
		<description>This area is reserved for rowers.</description>
		<styleUrl>#style09</styleUrl>
		<Polygon>
			<tessellate>1</tessellate>
			<outerBoundaryIs>
				<LinearRing>
					<coordinates>
						175.0254136921563,-37.27831065778675,0 175.0254583852762,-37.27779188435601,0 175.0254750036955,-37.27610379569201,0 175.0256069569433,-37.27506673973581,0 175.0260219911015,-37.27436343919918,0 175.0268551303351,-37.27401303160367,0 175.0273756745697,-37.27388167777708,0 175.0276320222395,-37.2738611056811,0 175.0279706343793,-37.27381265070048,0 175.0282854793823,-37.27368114121679,0 175.0289021894478,-37.27355972387457,0 175.0296405463033,-37.27349099765297,0 175.0307792981378,-37.27347002038604,0 175.0319343613167,-37.27345320075143,0 175.0325659811027,-37.27349412658094,0 175.0329291337324,-37.27364775616423,0 175.033773880517,-37.27395421853208,0 175.0342271101745,-37.2742770134852,0 175.0346040188963,-37.27456965221556,0 175.0348146211252,-37.27471075438729,0 175.0352809577711,-37.27502803387699,0 175.0355616574557,-37.27526603904511,0 175.0359705625148,-37.27562618148254,0 175.0361447142412,-37.27577995735661,0 175.0367878280001,-37.27615636574246,0 175.0373484708036,-37.27645934905348,0 175.0379133448565,-37.27682319784072,0 175.0385126598072,-37.27730840261701,0 175.0388878675032,-37.27767958735788,0 175.039186105712,-37.2780353486423,0 175.0394328189324,-37.27790334233443,0 175.0395380742382,-37.27781059656839,0 175.0395384180973,-37.27773931745602,0 175.0394517167846,-37.27762582166355,0 175.0392390044806,-37.27739743007206,0 175.0386921729302,-37.27679684315717,0 175.0391801331207,-37.2769299282841,0 175.0397660871415,-37.27711985185634,0 175.0405161669208,-37.27742762859368,0 175.041434660223,-37.27792632924404,0 175.0417574069071,-37.27815487493523,0 175.0420712776208,-37.27842724973881,0 175.0426331806603,-37.27897446196656,0 175.0429501561159,-37.27920670811417,0 175.0433573496496,-37.279477869712,0 175.0438402898066,-37.27986620793831,0 175.0448948295589,-37.28060031519894,0 175.045286400163,-37.28027729187595,0 175.0462204297637,-37.28093415281728,0 175.0458146590077,-37.28125859377665,0 175.0462949082384,-37.28169143805893,0 175.0470192459241,-37.28063041761526,0 175.046202476875,-37.27986489889182,0 175.0457499515202,-37.28017466364585,0 175.0444575060349,-37.27868821577476,0 175.0449304989904,-37.27841100903761,0 175.0443452462493,-37.27788590226363,0 175.0428655899549,-37.27694764802973,0 175.0416434959763,-37.27638809362853,0 175.0406408623401,-37.27576844949755,0 175.0398740352547,-37.27514485190933,0 175.0390743952755,-37.27447062294024,0 175.0381308126182,-37.27363558661978,0 175.0376033157966,-37.27327784661152,0 175.0374054373398,-37.27303744570571,0 175.0371294649171,-37.27282105905461,0 175.036161187249,-37.2723507304435,0 175.0349591053004,-37.27197083105236,0 175.0339860909439,-37.27192395255412,0 175.0323432218579,-37.27182859532182,0 175.0304785171923,-37.27151623658146,0 175.0293633367853,-37.2715056474776,0 175.0283330299159,-37.2717085549352,0 175.0264513285285,-37.27197288990361,0 175.0252651714752,-37.27263289229872,0 175.0246853138901,-37.27315584068319,0 175.0239602466718,-37.27371668369972,0 175.0236100999385,-37.27448774102793,0 175.024305034979,-37.27621106230814,0 175.0243354437779,-37.27676934347719,0 175.0239533815874,-37.27765010754964,0 175.0233593259032,-37.27834572881891,0 175.0254136921563,-37.27831065778675,0 
					</coordinates>
				</LinearRing>
			</outerBoundaryIs>
		</Polygon>
		<flyID>2</flyID><flyDescription>This area is reserved for rowers.</flyDescription>
	</Placemark>
	<Placemark>
		<name>Rowing and Waka Ama Zone</name>
		<description>This area is reserved for rowers.</description>
		<styleUrl>#style06</styleUrl>
		<Polygon>
			<tessellate>1</tessellate>
			<outerBoundaryIs>
				<LinearRing>
					<coordinates>
						175.061331406432,-37.31855680970627,0 175.061295229203,-37.31904293916634,0 175.0611710962873,-37.31922034509055,0 175.060846833534,-37.3196215874735,0 175.0601206252516,-37.32053169122687,0 175.0599674229747,-37.32108786690782,0 175.0597804442712,-37.3213748255779,0 175.0593960709858,-37.32193526893344,0 175.059291283928,-37.32228380324272,0 175.0587030846248,-37.3232675471609,0 175.0582501484768,-37.32396731755765,0 175.0574697652973,-37.32466468315003,0 175.0561738618157,-37.32612998122689,0 175.054749181603,-37.32756158731463,0 175.054460938203,-37.32793223721748,0 175.0540702343001,-37.3280890337229,0 175.0539131675509,-37.32848448031923,0 175.0533278789952,-37.32905523520943,0 175.0528302889098,-37.32925573907654,0 175.0522866307749,-37.32948579583037,0 175.0519871764119,-37.32977635004004,0 175.051490962835,-37.32999864572989,0 175.0552265940606,-37.33215286801271,0 175.0557557825923,-37.33186683525577,0 175.056229115451,-37.33146003989633,0 175.0566510889807,-37.33095393426366,0 175.0572375570363,-37.33049630290675,0 175.0579178609755,-37.33012074247372,0 175.0585129475438,-37.3295932060409,0 175.0589961516298,-37.32926750991723,0 175.0595454103896,-37.32897020619532,0 175.0598514698227,-37.32853192952552,0 175.0601060396442,-37.32796326725744,0 175.0600089941889,-37.32730902207023,0 175.0597186930261,-37.32680495332199,0 175.0597345830848,-37.32648194308889,0 175.0599652458413,-37.32602322531874,0 175.0605521945825,-37.32518009564823,0 175.0610423276797,-37.32467592432189,0 175.0615279016586,-37.32412528816886,0 175.0618291875308,-37.32372112883602,0 175.0620876444426,-37.32349396776255,0 175.062495792565,-37.32306364783714,0 175.0626442224863,-37.32256876247357,0 175.063163952332,-37.32163650471446,0 175.0639085782985,-37.32025811758956,0 175.0640439837068,-37.3194721746162,0 175.061331406432,-37.31855680970627,0 
					</coordinates>
				</LinearRing>
			</outerBoundaryIs>
		</Polygon>
		<flyID>3</flyID><flyDescription>This area is reserved for rowers.</flyDescription>
	</Placemark>
	<Placemark>
		<name>Rowing and Waka Ama Zone</name>
		<description>This area is reserved for rowers.</description>
		<styleUrl>#style023</styleUrl>
		<Polygon>
			<tessellate>1</tessellate>
			<outerBoundaryIs>
				<LinearRing>
					<coordinates>
						175.0611271203845,-37.30690081567625,0 175.0614369487831,-37.30715155874874,0 175.0617292704943,-37.30771351087756,0 175.0619266449598,-37.3084617944593,0 175.0624625375305,-37.30877815982845,0 175.0626621391089,-37.30918632736525,0 175.0632019040325,-37.30992897203415,0 175.0635296301271,-37.31029355513364,0 175.063618044247,-37.3110258853231,0 175.0639868540853,-37.31206260032899,0 175.0638345563498,-37.3125851609944,0 175.0634963457854,-37.31296129521689,0 175.0629610310592,-37.31362519485921,0 175.0628150246363,-37.31400153326999,0 175.0623898607124,-37.31483303445744,0 175.0617303274605,-37.31694448480318,0 175.0616062448745,-37.31817553806067,0 175.061331406432,-37.31855680970627,0 175.0640439837068,-37.3194721746162,0 175.0643003798879,-37.31902035465288,0 175.0643809450419,-37.31847913050897,0 175.0645615386733,-37.31799851190323,0 175.0651573058896,-37.31722482230591,0 175.0658648780343,-37.31669922339501,0 175.0660581802141,-37.31628754582849,0 175.0661148534273,-37.31569775695724,0 175.0659677004643,-37.31485816523411,0 175.0659282900481,-37.31433298501678,0 175.0660600131076,-37.31407549742367,0 175.0665441537729,-37.31314625383275,0 175.0664557459725,-37.31289369368957,0 175.0666217239845,-37.31261494426485,0 175.0668128920951,-37.31150361346083,0 175.0670471226692,-37.31036002510585,0 175.0667456127623,-37.30950300478703,0 175.0665713641391,-37.30859663847208,0 175.0661329190812,-37.30729836586752,0 175.0654723775253,-37.30629993173526,0 175.0642531094296,-37.3051792596322,0 175.0630711442636,-37.30439623512918,0 175.0611271203845,-37.30690081567625,0 
					</coordinates>
				</LinearRing>
			</outerBoundaryIs>
		</Polygon>
		<flyID>4</flyID><flyDescription>This area is reserved for rowers.</flyDescription>
	</Placemark>
	<Placemark>
		<name>Rowing and Waka Ama Zone</name>
		<description>This area is reserved for rowers.</description>
		<styleUrl>#style015</styleUrl>
		<Polygon>
			<tessellate>1</tessellate>
			<outerBoundaryIs>
				<LinearRing>
					<coordinates>
						175.0554097483117,-37.29628024331973,0 175.0557280959444,-37.29674824720631,0 175.05612764971,-37.2972866690831,0 175.0564791984614,-37.29767085965775,0 175.056772061606,-37.29805218898085,0 175.0571175465683,-37.29868618491113,0 175.0573058288455,-37.29898126976223,0 175.0576329531643,-37.29951113002161,0 175.0577642942805,-37.30002181186956,0 175.0578633930031,-37.3004343144904,0 175.0579348327948,-37.30064051806975,0 175.0578945736172,-37.30077291367849,0 175.0577525403093,-37.30079358258728,0 175.0578683114548,-37.30108494032697,0 175.0581013026336,-37.30156448224161,0 175.0585740223248,-37.30239236825186,0 175.0586505874032,-37.30264487270562,0 175.0591291131222,-37.30399513537238,0 175.0592475706999,-37.30453215372781,0 175.0592989589339,-37.3049693345476,0 175.0594745124433,-37.30522810749613,0 175.0597149045362,-37.30543930399561,0 175.0598743466201,-37.30573031669433,0 175.060035742258,-37.30640072989234,0 175.0601673447846,-37.30667059802045,0 175.0602681020301,-37.30683418102775,0 175.0604261320146,-37.30704778946951,0 175.0605462312413,-37.30708412580042,0 175.0606447098598,-37.30703867745541,0 175.0607539847758,-37.30696055452757,0 175.060638959555,-37.3068104545434,0 175.0604781944382,-37.30644153340106,0 175.0604349501803,-37.30613922812004,0 175.0605002860659,-37.30600949124454,0 175.0605798719622,-37.30600402764669,0 175.0607550465992,-37.3060855249003,0 175.060990539849,-37.30627668801668,0 175.0611538667367,-37.30652227543609,0 175.061171875085,-37.30664127033952,0 175.0611202185599,-37.30673857291721,0 175.0610226357564,-37.3067722361963,0 175.0607388391619,-37.30644154408265,0 175.0608376846839,-37.30674820304834,0 175.060920733516,-37.306838934942,0 175.0611271203845,-37.30690081567625,0 175.0630711442636,-37.30439623512918,0 175.0620498470459,-37.30344618754493,0 175.061162172894,-37.30220954551198,0 175.060219481728,-37.30090355665357,0 175.0600473911094,-37.30050295382313,0 175.0600141466832,-37.30003125256089,0 175.0598400930115,-37.29974311392004,0 175.0597783843803,-37.29930895891155,0 175.0597144408079,-37.29911536730231,0 175.0598247666565,-37.29858992745088,0 175.0597016849398,-37.29832870064585,0 175.0597997294277,-37.29797247166722,0 175.0595504385635,-37.29657143599657,0 175.0595990742403,-37.29493194875759,0 175.0596980212582,-37.29443722252097,0 175.0596772918745,-37.29407178827291,0 175.0596106125474,-37.29379427161027,0 175.0596610657908,-37.29353879200805,0 175.0596260854275,-37.29341700158841,0 175.0591909261478,-37.29319097559745,0 175.0584128768171,-37.29285679672029,0 175.0554097483117,-37.29628024331973,0 
					</coordinates>
				</LinearRing>
			</outerBoundaryIs>
		</Polygon>
		<flyID>5</flyID><flyDescription>This area is reserved for rowers.</flyDescription>
	</Placemark>
	<Placemark>
		<name>Rowing and Waka Ama Zone</name>
		<description>This area is reserved for rowers.</description>
		<styleUrl>#style019</styleUrl>
		<Polygon>
			<tessellate>1</tessellate>
			<outerBoundaryIs>
				<LinearRing>
					<coordinates>
						175.0470384546312,-37.28246267192251,0 175.0474886854145,-37.28283022673956,0 175.0480694331855,-37.28335523525629,0 175.0485125496971,-37.28391100475579,0 175.0492953020528,-37.28503294011816,0 175.0497882848491,-37.28583154766798,0 175.0500512776888,-37.28630110078582,0 175.0503083555516,-37.28668444468573,0 175.050674053956,-37.28711324411818,0 175.0518792200329,-37.28827794392792,0 175.0524805255654,-37.28883289800659,0 175.0527256958474,-37.28915883426677,0 175.0528678211573,-37.28953270967674,0 175.0529524358698,-37.29006713007158,0 175.0528376451022,-37.29105095117277,0 175.0528760125442,-37.29163976858654,0 175.0530992118055,-37.29267562309563,0 175.0534056540011,-37.29341847157838,0 175.0538329797949,-37.29417155771231,0 175.0542801388657,-37.29497068976862,0 175.0544693010795,-37.29539053631756,0 175.0546473339525,-37.29562232863395,0 175.055177725073,-37.29606467291691,0 175.0554097483117,-37.29628024331973,0 175.0584128768171,-37.29285679672029,0 175.0579154968752,-37.29238885122256,0 175.0573943788548,-37.29200761708978,0 175.0569271194464,-37.29162199715853,0 175.0563561927304,-37.29080409485529,0 175.0553778912956,-37.28966808369872,0 175.0548161400024,-37.28912320423359,0 175.0544239258383,-37.28877715747935,0 175.0541334831164,-37.28827351851703,0 175.0535184912802,-37.28721807613326,0 175.0528838621674,-37.28633454535383,0 175.0519956237665,-37.28515530664265,0 175.0515509274738,-37.28466632872762,0 175.0509436103627,-37.28428610496199,0 175.05041652439,-37.28384957740688,0 175.0501330482201,-37.28344271294456,0 175.0495574095016,-37.28259503684966,0 175.0488418642616,-37.28195120409809,0 175.0480054138267,-37.28135637664818,0 175.0470372910286,-37.2806468752205,0 175.0462966656571,-37.28170047042784,0 175.0470384546312,-37.28246267192251,0 
					</coordinates>
				</LinearRing>
			</outerBoundaryIs>
		</Polygon>
		<flyID>6</flyID><flyDescription>This area is reserved for rowers.</flyDescription>
	</Placemark>
	<Placemark>
		<name>Rowing and Waka Ama Zone</name>
		<description>This area is reserved for rowers.</description>
		<styleUrl>#style013</styleUrl>
		<Polygon>
			<tessellate>1</tessellate>
			<outerBoundaryIs>
				<LinearRing>
					<coordinates>
						175.0143754654006,-37.28831145445371,0 175.0153638077217,-37.28822695435724,0 175.0159966154306,-37.28806435664824,0 175.0161449133189,-37.28792597968628,0 175.0165132376433,-37.28785446461352,0 175.0170332767645,-37.28786769913435,0 175.0174990424218,-37.287790540403,0 175.0180714978109,-37.28759370769688,0 175.018306766893,-37.28736005248138,0 175.0186330304286,-37.28716894711728,0 175.0188313933654,-37.28694999816549,0 175.019124504643,-37.28662270828104,0 175.0198923883586,-37.28607294157201,0 175.0209882930144,-37.28519897320367,0 175.0216706418005,-37.28463254034494,0 175.0224558844755,-37.28406117541206,0 175.0231749202151,-37.28346813515432,0 175.0236527819916,-37.28294573057762,0 175.0239606215505,-37.28243028714872,0 175.0244697988042,-37.28141752381349,0 175.024865542553,-37.28045161459948,0 175.0251643219175,-37.27957347361296,0 175.0253079307009,-37.27893493061611,0 175.0253792160256,-37.27849134011164,0 175.0254136921563,-37.27831065778675,0 175.0233593259032,-37.27834572881891,0 175.0219106588649,-37.2797615859338,0 175.0200788366612,-37.28123794346217,0 175.0196332265257,-37.28152296145057,0 175.0190760136335,-37.28180062569832,0 175.0187379064996,-37.28205272300929,0 175.0184107120312,-37.28221939488221,0 175.0178431091768,-37.28242411975264,0 175.016167025489,-37.28337920630415,0 175.0152475963201,-37.28380155101977,0 175.0147956868524,-37.284067577001,0 175.0142052183177,-37.28438556397819,0 175.0134925016937,-37.28474386080409,0 175.0129514010069,-37.28503021799588,0 175.0126533070791,-37.28511492971347,0 175.0143754654006,-37.28831145445371,0 
					</coordinates>
				</LinearRing>
			</outerBoundaryIs>
		</Polygon>
		<flyID>7</flyID><flyDescription>This area is reserved for rowers.</flyDescription>
	</Placemark>
	<Placemark>
		<name>Rowing and Waka Ama Zone</name>
		<description>This area is reserved for rowers.</description>
		<styleUrl>#style03</styleUrl>
		<Polygon>
			<tessellate>1</tessellate>
			<outerBoundaryIs>
				<LinearRing>
					<coordinates>
						174.9966762964135,-37.28434693250532,0 174.9973262892283,-37.28432340228098,0 174.9983631420454,-37.28434733048407,0 174.9993926276002,-37.28439766198967,0 175.0007111492415,-37.284415351901,0 175.0012808939491,-37.28449162171829,0 175.0015112167062,-37.28445307949544,0 175.0025202646087,-37.28471757689204,0 175.0029768261623,-37.28474784192514,0 175.0034839755653,-37.28478470742447,0 175.0038557419669,-37.28494761292087,0 175.0039932058335,-37.28520482135263,0 175.003996371849,-37.28570178647378,0 175.0041124895377,-37.28606511013503,0 175.004686647855,-37.28655317504594,0 175.0050568530384,-37.28672435178526,0 175.00590195068,-37.28689474257931,0 175.0062526850565,-37.28698362146474,0 175.0070906799332,-37.28727999005803,0 175.0082222331212,-37.28758750711231,0 175.0094110596705,-37.2878299546518,0 175.0098835941321,-37.28795600473205,0 175.0107030761965,-37.28825847065714,0 175.0115659456426,-37.2884665438001,0 175.0121792355644,-37.28848203870344,0 175.0127683628941,-37.28844107759358,0 175.0136698258335,-37.28838710470333,0 175.0143754654006,-37.28831145445371,0 175.0126533070791,-37.28511492971347,0 175.0118683207543,-37.28518923939308,0 175.0105675443668,-37.28527925837714,0 175.0095123131279,-37.28551703355792,0 175.0085019112627,-37.28572402539614,0 175.0079932056185,-37.28578414887656,0 175.0075401629906,-37.28578324819279,0 175.0072011361502,-37.28571378889093,0 175.0068601565696,-37.28558411223623,0 175.0063920453945,-37.28537178380571,0 175.0057946699265,-37.2850275000804,0 175.0051206875492,-37.2845257532891,0 175.0041158082856,-37.28380373437913,0 175.0032076155561,-37.2830164495393,0 175.0023298281755,-37.28237289868245,0 175.0019560864121,-37.28221242028127,0 175.0009439726259,-37.2818239287887,0 175.0002058765119,-37.28158392723978,0 174.9995841379173,-37.2814710329596,0 174.9982871058842,-37.28136346403622,0 174.9974255270908,-37.2812930585339,0 174.9973046041954,-37.2813511815709,0 174.9970081118063,-37.28140900751376,0 174.9965727406785,-37.28149559586743,0 174.9963934794959,-37.28162492353911,0 174.995721286837,-37.28210325647486,0 174.9950504654945,-37.28234408457756,0 174.9966762964135,-37.28434693250532,0 
					</coordinates>
				</LinearRing>
			</outerBoundaryIs>
		</Polygon>
		<flyID>8</flyID><flyDescription>This area is reserved for rowers.</flyDescription>
	</Placemark>
	<Placemark>
		<name>Rowing and Waka Ama Zone</name>
		<description>This area is reserved for rowers.</description>
		<styleUrl>#style08</styleUrl>
		<Polygon>
			<tessellate>1</tessellate>
			<outerBoundaryIs>
				<LinearRing>
					<coordinates>
						174.9839537603712,-37.28761326615845,0 174.9849487757293,-37.28758496211476,0 174.9861362611198,-37.28743103065146,0 174.9869874835844,-37.28709164722803,0 174.9878922578505,-37.28665087017564,0 174.9880707743371,-37.28664445573375,0 174.9879807276086,-37.28655081305392,0 174.9881315482945,-37.28643474272554,0 174.989104680569,-37.28601540696901,0 174.9908814503766,-37.28505098608697,0 174.992028512963,-37.28452873745042,0 174.9928816100454,-37.28429296745374,0 174.994049251345,-37.28412880095114,0 174.9952814795107,-37.2841473560158,0 174.9966762964135,-37.28434693250532,0 174.995721286837,-37.28210325647486,0 174.9950504654945,-37.28234408457756,0 174.9946167390281,-37.28244159383606,0 174.9938435434308,-37.28250058649669,0 174.993269419416,-37.28241061995613,0 174.9928304502089,-37.28236920588794,0 174.9923930335922,-37.28243789647802,0 174.9916458594347,-37.28261469420938,0 174.9911588586864,-37.28271078340305,0 174.9904573095189,-37.28279609245259,0 174.9897242274514,-37.28296655978038,0 174.9891866412594,-37.28315154977852,0 174.9889151825263,-37.28330536414275,0 174.988789243512,-37.28341602963707,0 174.9885863777798,-37.28382487115993,0 174.9884496496775,-37.28393322784531,0 174.9882970294821,-37.28393936137233,0 174.9881615157466,-37.28385173054551,0 174.9879890729927,-37.28381822296891,0 174.9874631032733,-37.28383174295527,0 174.9869678057531,-37.28386419124899,0 174.9862584655702,-37.28388426827628,0 174.9855812598494,-37.28392996906618,0 174.9845651933765,-37.28414277293865,0 174.9840607615321,-37.28434821029705,0 174.9836926193292,-37.28457065299531,0 174.9824950911882,-37.28513006800389,0 174.9833721949113,-37.28754636251193,0 174.9839537603712,-37.28761326615845,0 
					</coordinates>
				</LinearRing>
			</outerBoundaryIs>
		</Polygon>
		<flyID>9</flyID><flyDescription>This area is reserved for rowers.</flyDescription>
	</Placemark>
	<Placemark>
		<name>Jetski (PWC) Zone</name>
		<description>This area is reserved for jet ski&apos;s (PWC - personal water craft)</description>
		<styleUrl>#style3</styleUrl>
		<Polygon>
			<tessellate>1</tessellate>
			<outerBoundaryIs>
				<LinearRing>
					<coordinates>
						174.9688133631454,-37.2949449232521,0 174.9699442980236,-37.29404629708609,0 174.9705199254682,-37.29376006985152,0 174.9709045118731,-37.2935279459269,0 174.9712782666671,-37.29327304200416,0 174.9718526342159,-37.29314234016002,0 174.9725992781397,-37.29291440674699,0 174.9739688050294,-37.29225614446219,0 174.9749456204881,-37.29172480784087,0 174.9760999316533,-37.2911414473121,0 174.9766045505571,-37.2907959634684,0 174.9771405201544,-37.29054717185591,0 174.9776331485158,-37.29040857348889,0 174.9784473977473,-37.2900491362887,0 174.9792872141723,-37.2894227516081,0 174.980073180613,-37.28881481271446,0 174.9812780613912,-37.28814237153379,0 174.9823012625936,-37.28764791839627,0 174.9828440947564,-37.28747999595679,0 174.9833451960015,-37.28752729978176,0 174.9824992674924,-37.28517972774593,0 174.9822268548752,-37.28521099177254,0 174.9812167258349,-37.28547912887458,0 174.9800259565071,-37.28592974804123,0 174.9786061972458,-37.28653101189492,0 174.9771467817848,-37.2871774672474,0 174.9752092158521,-37.28773521380742,0 174.9740206803947,-37.28817502539258,0 174.9734409228225,-37.28864989768408,0 174.9727875162245,-37.28918363475731,0 174.971996670227,-37.28960766325923,0 174.9708158691104,-37.2900573941388,0 174.9697533392314,-37.29042582372383,0 174.9691514745709,-37.29067720349432,0 174.9680359975393,-37.29135941972607,0 174.9669156448283,-37.29201863588884,0 174.9656992590889,-37.29242689395444,0 174.9688133631454,-37.2949449232521,0 
					</coordinates>
				</LinearRing>
			</outerBoundaryIs>
		</Polygon>
		<flyID>10</flyID><flyDescription>This area is reserved for jet ski's (PWC - personal water craft)</flyDescription>
	</Placemark>
	<Placemark>
		<name>Jetski (PWC) Zone</name>
		<description>This area is reserved for jet ski&apos;s (PWC - personal water craft)</description>
		<styleUrl>#style3</styleUrl>
		<Polygon>
			<tessellate>1</tessellate>
			<outerBoundaryIs>
				<LinearRing>
					<coordinates>
						174.9588227668516,-37.30183841487337,0 174.960336224453,-37.30147314668891,0 174.9615539095844,-37.30098162437545,0 174.9627832504593,-37.30013121732274,0 174.9635169966682,-37.29921953437054,0 174.9642934885648,-37.29834000116161,0 174.964964611355,-37.29761514385429,0 174.9656951495171,-37.2971409164475,0 174.9668893459773,-37.29643828415951,0 174.9678282835446,-37.29584209759307,0 174.9688133631454,-37.2949449232521,0 174.9656992590889,-37.29242689395444,0 174.964717322685,-37.29283236514703,0 174.963765466823,-37.29350402363274,0 174.9632921485329,-37.29410787871007,0 174.9631717694456,-37.294108549664,0 174.9627580304376,-37.29457374077911,0 174.9622216660478,-37.29476889556251,0 174.9614600613955,-37.29560026261859,0 174.9611030363467,-37.29608408170189,0 174.9604917945607,-37.29656319458702,0 174.9613050533392,-37.29808341931182,0 174.9616505547254,-37.29780291208991,0 174.9621989944482,-37.29739591146741,0 174.9626055335471,-37.29716397168109,0 174.962969844917,-37.29699991588134,0 174.9632371809085,-37.29696678293713,0 174.9633958688901,-37.29700543301616,0 174.9634804191524,-37.2971341991638,0 174.963228785043,-37.29741093165085,0 174.9629013290568,-37.29766373339384,0 174.9624805582319,-37.29792868413048,0 174.9618591371436,-37.29828159113399,0 174.9614406057032,-37.2985012885491,0 174.9611266019307,-37.29865904819165,0 174.9610136525918,-37.29870342809014,0 174.9609440708088,-37.298707424313,0 174.9609021949497,-37.29868756825947,0 174.9609304672337,-37.29854841751127,0 174.9610448651916,-37.29836430793771,0 174.9611680844407,-37.29821850511861,0 174.961305545943,-37.298085256587,0 174.9604904951758,-37.29656646124085,0 174.9592378129158,-37.29745546964858,0 174.9576045086342,-37.29823375943137,0 174.9561781839523,-37.29881407358269,0 174.9588227668516,-37.30183841487337,0 
					</coordinates>
				</LinearRing>
			</outerBoundaryIs>
		</Polygon>
		<flyID>11</flyID><flyDescription>This area is reserved for jet ski's (PWC - personal water craft)</flyDescription>
	</Placemark>
	<Placemark>
		<name>Jetski (PWC) Zone</name>
		<description>This area is reserved for jet ski&apos;s (PWC - personal water craft)</description>
		<styleUrl>#style3</styleUrl>
		<Polygon>
			<tessellate>1</tessellate>
			<outerBoundaryIs>
				<LinearRing>
					<coordinates>
						174.9451566598844,-37.29864496720475,0 174.9454052844682,-37.2991232921479,0 174.9455021235571,-37.29962777908402,0 174.9455817519916,-37.30038793576071,0 174.9457811344725,-37.30103107747807,0 174.9465179953577,-37.30166275895266,0 174.9474523746663,-37.30196624616334,0 174.948318502371,-37.30223410397848,0 174.9486585492624,-37.30240904841977,0 174.949057634424,-37.30269701261354,0 174.9495447339491,-37.30295135264336,0 174.9506632428339,-37.30314470179413,0 174.9518537846285,-37.30319367351391,0 174.9528322824757,-37.30316309693987,0 174.953150987019,-37.30305394023208,0 174.9536060816496,-37.3030047168119,0 174.9540323625508,-37.30306486180026,0 174.9544103471279,-37.30319747943703,0 174.9544275517819,-37.30311261770832,0 174.9544024013507,-37.30296680730397,0 174.9545980790081,-37.30285737143194,0 174.9553506939714,-37.30270388232469,0 174.957017554717,-37.30222382290603,0 174.9588227668516,-37.30183841487337,0 174.9561781839523,-37.29881407358269,0 174.9555780233183,-37.29921455675788,0 174.9553928920315,-37.29944011844759,0 174.955163640959,-37.29963929487846,0 174.9544066444885,-37.29989241258198,0 174.9532277767416,-37.30013872997104,0 174.9519951997389,-37.30008311126078,0 174.9507716677612,-37.29980689185896,0 174.949312391773,-37.29917966248241,0 174.9478189390308,-37.29840560468252,0 174.9462549569434,-37.29723813082298,0 174.9448352743241,-37.29825828460823,0 174.9451566598844,-37.29864496720475,0 
					</coordinates>
				</LinearRing>
			</outerBoundaryIs>
		</Polygon>
		<flyID>12</flyID><flyDescription>This area is reserved for jet ski's (PWC - personal water craft)</flyDescription>
	</Placemark>
	<Placemark>
		<name>Towing Zone</name>
		<description>This area is reserved for vessels towing. Within this zone proceed in an anticlockwise direction. Speed within proximity to shore, structures, people in the water and other vessels apply.</description>
		<styleUrl>#style020</styleUrl>
		<Polygon>
			<tessellate>1</tessellate>
			<outerBoundaryIs>
				<LinearRing>
					<coordinates>
						174.9244167864453,-37.28333047508625,0 174.9247120681759,-37.2833640847486,0 174.9265133155736,-37.28373138291336,0 174.9281559475574,-37.28426708658658,0 174.9297094460185,-37.28540497835878,0 174.9324802084951,-37.28772196209764,0 174.9332686752537,-37.28868635307644,0 174.9346610612807,-37.28996709971024,0 174.9359032847866,-37.29068474180647,0 174.9376823419714,-37.29184095877497,0 174.9390179833165,-37.29268647918067,0 174.9404735872087,-37.2920392496257,0 174.940183251603,-37.29158720738823,0 174.9394030904518,-37.29116268993577,0 174.938119371323,-37.29048047201643,0 174.9371316378301,-37.29002896380469,0 174.9358523233357,-37.28888492497671,0 174.9344220685881,-37.28757398550911,0 174.9327694051368,-37.2865310055174,0 174.931959326592,-37.28584885153942,0 174.9314497234459,-37.28549920002222,0 174.9309148713415,-37.28526226602371,0 174.9311074087397,-37.28502256582988,0 174.9316308750588,-37.28514262555304,0 174.9323359504255,-37.28520197825281,0 174.9334932425006,-37.2854097232747,0 174.9343242918026,-37.28561036005024,0 174.9358053249768,-37.28578102057907,0 174.9370817027454,-37.28635387306393,0 174.9384181919269,-37.28713667485057,0 174.9392460286919,-37.28761117144788,0 174.940152956702,-37.28812202531345,0 174.9405631124034,-37.28841338446554,0 174.9408241037554,-37.28917379433042,0 174.940777948952,-37.289980995824,0 174.9411535851921,-37.29096499843146,0 174.9408624229973,-37.2919381000182,0 174.9440811220115,-37.29036839859023,0 174.9437426851185,-37.28968492073604,0 174.942758250876,-37.28861410345709,0 174.9407319113525,-37.2872818771809,0 174.9384519065855,-37.28546547304084,0 174.9363953325027,-37.28476418334595,0 174.9339481974865,-37.28469607233799,0 174.9324077021712,-37.28390618716281,0 174.9310745710411,-37.28341857123512,0 174.9299018055735,-37.28263242074669,0 174.9270394837812,-37.28120892831115,0 174.9238009201445,-37.27932464827843,0 174.9244167864453,-37.28333047508625,0 
					</coordinates>
				</LinearRing>
			</outerBoundaryIs>
		</Polygon>
		<flyID>13</flyID><flyDescription>This area is reserved for vessels towing. Within this zone proceed in an anticlockwise direction. Speed within proximity to shore, structures, people in the water and other vessels apply.</flyDescription>
	</Placemark>
	<Placemark>
		<name>Towing Zone</name>
		<description>This area is reserved for vessels towing. Within this zone proceed in an anticlockwise direction. Speed within proximity to shore, structures, people in the water and other vessels apply.</description>
		<styleUrl>#style020</styleUrl>
		<Polygon>
			<tessellate>1</tessellate>
			<outerBoundaryIs>
				<LinearRing>
					<coordinates>
						174.8909233017781,-37.27681024889204,0 174.8920529533099,-37.276646042522,0 174.8933788934198,-37.27664611589,0 174.8943965278036,-37.27664609957825,0 174.8959363052733,-37.27666822987658,0 174.8977105993712,-37.27718694552623,0 174.8989755448246,-37.27801869753722,0 174.9000335174921,-37.27903181081999,0 174.9015466626651,-37.28008386919949,0 174.9038514903779,-37.2811159405862,0 174.9057126175179,-37.28184029803856,0 174.9065898630959,-37.28211747821781,0 174.9084886478101,-37.28263672951804,0 174.9092864404119,-37.28177077071735,0 174.9088920943065,-37.28161558250663,0 174.9082677960338,-37.2814284019758,0 174.9073502630689,-37.28131730905402,0 174.9063354756001,-37.28107373553808,0 174.9047070741488,-37.28029402506397,0 174.902814435576,-37.27950588603389,0 174.9015199899166,-37.27888289572459,0 174.9009529964692,-37.27850966536678,0 174.9006461003356,-37.27828617119295,0 174.9007477691943,-37.2781041737524,0 174.901693649759,-37.2783481878751,0 174.9034002963318,-37.27841324269537,0 174.9049736266865,-37.27858667714804,0 174.9055865324496,-37.27862660347036,0 174.9063135069027,-37.27888950501423,0 174.9082413694441,-37.2792697173461,0 174.9101613240396,-37.2795003865359,0 174.9127154749877,-37.27950046465661,0 174.9147381481014,-37.27952210701479,0 174.9162453305006,-37.27965036543015,0 174.917916828359,-37.27942190434388,0 174.920143479832,-37.27961940993129,0 174.9215236985964,-37.2798564857935,0 174.9224923687525,-37.28042164359617,0 174.922970684907,-37.28096803122343,0 174.9231751534702,-37.28130431573582,0 174.92375361154,-37.28173539068015,0 174.923821321696,-37.28203961667514,0 174.9235960444833,-37.28228226014036,0 174.9228662708287,-37.28231224062974,0 174.9225002636287,-37.28232936645294,0 174.9216085929059,-37.28250747507504,0 174.9203441059178,-37.28303042757447,0 174.9193840458898,-37.28345426175711,0 174.9176153124939,-37.28379763655796,0 174.9165794241114,-37.28388727769558,0 174.9147787481213,-37.28368190003341,0 174.9136625855712,-37.28346160302601,0 174.9130436497686,-37.28321134537197,0 174.9127448014863,-37.28298367458754,0 174.9120424947111,-37.28269727217324,0 174.9109444399769,-37.28246106102159,0 174.9104462580584,-37.28226370622902,0 174.9100010360564,-37.28199606289606,0 174.9092998960366,-37.28177930013159,0 174.9084942974081,-37.28263887482355,0 174.9094425471344,-37.28303705059954,0 174.9106149119384,-37.28341320649108,0 174.9116573674854,-37.28361608983855,0 174.9120253738552,-37.28377241603867,0 174.9121870428165,-37.28390918724724,0 174.9122248042784,-37.28412832040151,0 174.9121485470423,-37.28437721744661,0 174.9119948947011,-37.28462069534075,0 174.9119889895805,-37.28481126155666,0 174.9120270470044,-37.28522775592208,0 174.9121553599356,-37.28537746249202,0 174.9121164487215,-37.28512660679855,0 174.9120878367122,-37.28483805062153,0 174.9122532944895,-37.28435816339681,0 174.9124298560836,-37.284049544938,0 174.9126166466666,-37.28401374221883,0 174.9128892263537,-37.28409630516835,0 174.9135374054201,-37.28440210469412,0 174.9142787733005,-37.28463856676523,0 174.9151485588518,-37.28480677453738,0 174.9163477953654,-37.28494175666534,0 174.9170643100224,-37.28474482595269,0 174.9181078437102,-37.28471398002668,0 174.9198904089791,-37.28418443580728,0 174.9216447652775,-37.28343571086988,0 174.9232372668844,-37.28322109137506,0 174.9244233220254,-37.28332337962723,0 174.9238009201445,-37.27932464827843,0 174.9210700544601,-37.27785484025868,0 174.918128720577,-37.27733808274796,0 174.9164035443308,-37.27758586451036,0 174.9144656463824,-37.27779282245934,0 174.9102553332236,-37.27697464287282,0 174.9077565123124,-37.2764935184335,0 174.9075327921496,-37.27651918596339,0 174.9077148683865,-37.27701047629724,0 174.9081136303681,-37.27703642282813,0 174.9087420331485,-37.27712153565204,0 174.909614133301,-37.27725883386723,0 174.9100225778766,-37.27740026525628,0 174.9100556127421,-37.27750305337654,0 174.9098766732088,-37.27759288979751,0 174.9092249846252,-37.27766285687147,0 174.9083909339952,-37.27763476420802,0 174.9075780400784,-37.27751931232962,0 174.9069466409211,-37.27738954899797,0 174.9066840078722,-37.27730829438029,0 174.9066445377963,-37.27723201401981,0 174.9068181882163,-37.27714895499004,0 174.907154752654,-37.27704060907308,0 174.9074849948145,-37.27701644021868,0 174.9077057523124,-37.27700884779485,0 174.9075215168793,-37.27652011429691,0 174.905732936723,-37.27692848266354,0 174.9039705561957,-37.27670296130233,0 174.9017302937106,-37.27579033771916,0 174.8986640624265,-37.27477870694815,0 174.8962674766559,-37.27433560185998,0 174.8946499863384,-37.2743069853445,0 174.8930430685748,-37.27414461953141,0 174.8918663266698,-37.27328282744424,0 174.8909233017781,-37.27681024889204,0 
					</coordinates>
				</LinearRing>
			</outerBoundaryIs>
		</Polygon>
		<flyID>14</flyID><flyDescription>This area is reserved for vessels towing. Within this zone proceed in an anticlockwise direction. Speed within proximity to shore, structures, people in the water and other vessels apply.</flyDescription>
	</Placemark>
	<Placemark>
		<name>Towing Zone</name>
		<description>This area is reserved for vessels towing. Within this zone proceed in an anticlockwise direction. Speed within proximity to shore, structures, people in the water and other vessels apply.</description>
		<styleUrl>#style020</styleUrl>
		<Polygon>
			<tessellate>1</tessellate>
			<outerBoundaryIs>
				<LinearRing>
					<coordinates>
						174.8640439492012,-37.26960596823945,0 174.8675311939462,-37.27012252605876,0 174.8680064186985,-37.26916190127279,0 174.8672912163528,-37.26895770074173,0 174.8657126570651,-37.26862980587136,0 174.8642721781856,-37.26839170298628,0 174.8627114051032,-37.26818841530738,0 174.8622750415879,-37.26804306146441,0 174.8613819887183,-37.26784094862342,0 174.8610633518643,-37.26784079495435,0 174.8610044705528,-37.26774827922888,0 174.8616835977567,-37.26760014546483,0 174.8628785659474,-37.26733459155912,0 174.8640536405417,-37.26716288228072,0 174.8646511968799,-37.26718512716649,0 174.8653981220533,-37.26716618340565,0 174.866541681952,-37.26714828372159,0 174.8674880447009,-37.26727300921787,0 174.8691704195325,-37.26780358391932,0 174.8704926204508,-37.26833316204816,0 174.8708979113006,-37.26854367215979,0 174.8715221166831,-37.26895167819142,0 174.8719505599476,-37.26787940867467,0 174.8716146696049,-37.26761944608239,0 174.8708914702318,-37.26718038128503,0 174.8703071190732,-37.26695895740812,0 174.8691993827304,-37.26664102486549,0 174.8680122482998,-37.26621902176461,0 174.8674753518163,-37.266003969792,0 174.8672878828735,-37.2658427620907,0 174.8681849946651,-37.26581997207571,0 174.8699093592311,-37.26562607775274,0 174.8715177643939,-37.26559608302843,0 174.8733444940845,-37.26546771192206,0 174.8756865985884,-37.26520050287424,0 174.8772765466746,-37.26506967531518,0 174.8791019114383,-37.26520419903164,0 174.8811134773705,-37.26546902857899,0 174.882289050124,-37.26545830801769,0 174.883697670167,-37.26593099858633,0 174.8847218667,-37.26677884272959,0 174.8861120417706,-37.26813759737372,0 174.8871939034017,-37.26917274540291,0 174.8879709203802,-37.27012701390291,0 174.8885683256146,-37.27119305254293,0 174.888973014284,-37.27199768932893,0 174.8896529363449,-37.27293246253467,0 174.8906349094541,-37.27405625185127,0 174.8912468302921,-37.2747028438456,0 174.8909054577786,-37.27481140878975,0 174.8901691058679,-37.27500879369239,0 174.8893879740809,-37.27509593105609,0 174.8881154044322,-37.2748426187825,0 174.8874417362073,-37.27469768516301,0 174.8860953239416,-37.27432650585968,0 174.884279090284,-37.27346745281811,0 174.8811277544861,-37.27208532949469,0 174.8786871276003,-37.27099618796919,0 174.8766318284611,-37.27025739165906,0 174.8754121720016,-37.26980132841096,0 174.8747800768414,-37.26955469520487,0 174.8743092782603,-37.26916623937483,0 174.8736774077561,-37.26876983832251,0 174.8724802189527,-37.26824777084084,0 174.8719643351032,-37.26788074982384,0 174.8715226697323,-37.26895424991599,0 174.872088725177,-37.26947218025593,0 174.87296140019,-37.26995350623981,0 174.8738904655601,-37.27037573098382,0 174.8742844198332,-37.27061640881991,0 174.8744036314719,-37.27078031780717,0 174.8740555312565,-37.27083085068424,0 174.8732870804217,-37.27070861699921,0 174.8724631491778,-37.27054323962484,0 174.8714692334952,-37.27025209282699,0 174.8696822282394,-37.26965696312658,0 174.8686246340088,-37.26933683318404,0 174.8684297078348,-37.2692779023404,0 174.8680138294286,-37.26916214761326,0 174.8675311939462,-37.27012252605876,0 174.8708904296686,-37.2709107616768,0 174.874013638756,-37.27167789142137,0 174.876386991791,-37.27212611132253,0 174.8798686146354,-37.27347244009642,0 174.8816731328362,-37.2741444866648,0 174.8834485221818,-37.27468190356199,0 174.8870473452556,-37.27595284083458,0 174.889343857307,-37.27659116276192,0 174.8909233017781,-37.27681024889204,0 174.8918663266698,-37.27328282744424,0 174.8907667753782,-37.27182894985057,0 174.8894966639138,-37.2693026752127,0 174.8876402154315,-37.26723076622164,0 174.8858959236365,-37.26550044848551,0 174.8845948018303,-37.26440502103635,0 174.8830673376546,-37.26403499811577,0 174.8815271012925,-37.26425629139355,0 174.8802409093375,-37.26422936397707,0 174.8803256204973,-37.26386440082396,0 174.8791943866856,-37.26371037265619,0 174.8791202408169,-37.2640169601892,0 174.8782478607147,-37.26392234145977,0 174.8770775636188,-37.26370870417443,0 174.8766061085527,-37.26310720641382,0 174.8758035816241,-37.26289516220854,0 174.8753368394965,-37.26348927673122,0 174.8748996675707,-37.26332372112821,0 174.8737803092163,-37.2633388438317,0 174.8707366440055,-37.26388710754927,0 174.8679977657367,-37.26427434853513,0 174.866642799817,-37.26435970006701,0 174.8657416406775,-37.26449368784752,0 174.8642401552111,-37.26460804560552,0 174.8630540386637,-37.26506383397176,0 174.8610815678291,-37.26548296845145,0 174.858332819021,-37.26641514041624,0 174.8618003373887,-37.26908889744078,0 174.8640439492012,-37.26960596823945,0 
					</coordinates>
				</LinearRing>
			</outerBoundaryIs>
		</Polygon>
		<flyID>15</flyID><flyDescription>This area is reserved for vessels towing. Within this zone proceed in an anticlockwise direction. Speed within proximity to shore, structures, people in the water and other vessels apply.</flyDescription>
	</Placemark>
	<Placemark>
		<name>Towing Zone</name>
		<description>This area is reserved for vessels towing. Within this zone proceed in an anticlockwise direction. Speed within proximity to shore, structures, people in the water and other vessels apply.</description>
		<styleUrl>#style020</styleUrl>
		<Polygon>
			<tessellate>1</tessellate>
			<outerBoundaryIs>
				<LinearRing>
					<coordinates>
						174.8490533952037,-37.2784786699702,0 174.8496035734117,-37.2772454072528,0 174.8499714480579,-37.27583073145934,0 174.8507600236066,-37.27461852646064,0 174.8520135218665,-37.27342773801352,0 174.8535697893226,-37.27167700191673,0 174.8553534867378,-37.27055164357109,0 174.8584097242418,-37.26950178913575,0 174.8618567936708,-37.26910988528917,0 174.8583251012541,-37.26638493055916,0 174.8558119081124,-37.26774056343001,0 174.8545150468638,-37.26824062299921,0 174.851803909622,-37.26934383363079,0 174.8501149450586,-37.27041417087894,0 174.848653839499,-37.27117536195345,0 174.8473114911389,-37.27228465202671,0 174.8466440029569,-37.27339061887944,0 174.8463488213209,-37.27435676891014,0 174.8461537539747,-37.2754632352131,0 174.8459364131374,-37.27606845133273,0 174.8444272621759,-37.27776307261684,0 174.8437603212327,-37.27876062743324,0 174.8475951125914,-37.28036497717742,0 174.8490533952037,-37.2784786699702,0 
					</coordinates>
				</LinearRing>
			</outerBoundaryIs>
		</Polygon>
		<flyID>16</flyID><flyDescription>This area is reserved for vessels towing. Within this zone proceed in an anticlockwise direction. Speed within proximity to shore, structures, people in the water and other vessels apply.</flyDescription>
	</Placemark>
	<Placemark>
		<name>5 Knot Zone</name>
		<description>Keep to 5 knots or less (9.25km / fast walking pace) in this area - Port Waikato</description>
		<styleUrl>#style2</styleUrl>
		<Polygon>
			<tessellate>1</tessellate>
			<outerBoundaryIs>
				<LinearRing>
					<coordinates>
						174.7609954264938,-37.36351251703613,0 174.7611657254799,-37.36287538846236,0 174.7613471095149,-37.36275357895637,0 174.7615895581264,-37.36269342914427,0 174.7615252801111,-37.36314767945179,0 174.7615919151734,-37.3634739802832,0 174.761795553868,-37.36349968109605,0 174.7620409865662,-37.36326589680269,0 174.7620475164395,-37.36299576591473,0 174.7619297400625,-37.36250963014477,0 174.7620976137811,-37.3620609103149,0 174.7626329570934,-37.36112913876935,0 174.762929818611,-37.36024814974115,0 174.7623295674527,-37.36013592797272,0 174.762145530573,-37.35977931968879,0 174.7621887534111,-37.35947458263985,0 174.7624753170964,-37.3593199141265,0 174.7630868582104,-37.35922042612827,0 174.7633345077279,-37.35893804650572,0 174.7637812368259,-37.35868547505059,0 174.7642694886765,-37.35880964748695,0 174.7647619534325,-37.35898971362744,0 174.7654121266228,-37.35868114487278,0 174.7658367794781,-37.35815916234816,0 174.7664885424803,-37.35694011996615,0 174.76698710468,-37.35650897538768,0 174.7678856917815,-37.35577586568996,0 174.768337343135,-37.35530971349789,0 174.7687055530728,-37.35392692991844,0 174.7686532941956,-37.35309222982924,0 174.7680540512899,-37.3519047219902,0 174.767923620866,-37.35130600473555,0 174.7681429717286,-37.3504873050368,0 174.7687580737548,-37.34954648548434,0 174.7691965760375,-37.3486428073245,0 174.7695361478459,-37.34789853419527,0 174.7699457615696,-37.34799143145569,0 174.7708785107983,-37.34804388943805,0 174.7714699361143,-37.34786391964816,0 174.7723603622496,-37.34715485148053,0 174.7731709559899,-37.34667406874085,0 174.7742459133063,-37.34608282903136,0 174.7747605679508,-37.34562829200333,0 174.7743051126917,-37.34581450150699,0 174.773508182726,-37.34615572622148,0 174.773258532269,-37.34616907571908,0 174.7735934937635,-37.34579566255025,0 174.7709847033755,-37.34547657103114,0 174.7703129842836,-37.34616020624777,0 174.7697297380843,-37.34603362829704,0 174.7684671728887,-37.3462316955765,0 174.767752126483,-37.34673934624472,0 174.7672828176679,-37.34738999534525,0 174.7669898515439,-37.34821998890957,0 174.7662453292419,-37.3493985791192,0 174.7656686324267,-37.35062387154186,0 174.7656065023584,-37.35174434085309,0 174.7659536014522,-37.35274282253955,0 174.7663993552074,-37.35350224312807,0 174.766363263093,-37.35380112858969,0 174.7660707477805,-37.35463615655679,0 174.7656769950058,-37.35489760585278,0 174.7649386068871,-37.35558022540987,0 174.7643065560976,-37.35624520253374,0 174.7639619777379,-37.35686867850585,0 174.7636313857585,-37.35686862798097,0 174.7628201197249,-37.35702262748107,0 174.7619291177363,-37.35749103221098,0 174.7616588971651,-37.3575752154182,0 174.7608288335474,-37.35785707372349,0 174.7600211275012,-37.35863374043156,0 174.7598068724305,-37.35947535834124,0 174.7598475394052,-37.36023064219977,0 174.7602028977321,-37.36091725936176,0 174.7600281613195,-37.36118953109146,0 174.759500002155,-37.36161472000147,0 174.7590170268655,-37.36223174271534,0 174.7588325900054,-37.36268217046753,0 174.7609954264938,-37.36351251703613,0 
					</coordinates>
				</LinearRing>
			</outerBoundaryIs>
		</Polygon>
		<flyID>17</flyID><flyDescription>Keep to 5 knots or less (9.25km / fast walking pace) in this area - Port Waikato</flyDescription>
	</Placemark>
	<Placemark>
		<name>5 Knot Zone</name>
		<description>Keep to 5 knots or less (9.25km / fast walking pace) in this area - Port Waikato</description>
		<styleUrl>#style2</styleUrl>
		<Polygon>
			<tessellate>1</tessellate>
			<outerBoundaryIs>
				<LinearRing>
					<coordinates>
						174.7525117069523,-37.3720291792276,0 174.7524709855504,-37.37135810609257,0 174.7521972419814,-37.37035878822755,0 174.7521712999031,-37.36990673036861,0 174.7524766581838,-37.36934792994639,0 174.7529333126408,-37.36892287044924,0 174.753699757944,-37.36876066937652,0 174.7544590867639,-37.36884364965552,0 174.7554745191661,-37.36889422340656,0 174.7561026884059,-37.36865740527202,0 174.7565564177304,-37.36813671392995,0 174.7568602697074,-37.36714016211989,0 174.7572385166228,-37.36607256925684,0 174.7578252588347,-37.36543241147273,0 174.7585135162898,-37.36497758789151,0 174.758890825658,-37.36491706819327,0 174.7591938394979,-37.36504169182602,0 174.7594449043199,-37.36507891086156,0 174.7600545402336,-37.36479558317219,0 174.7600785512578,-37.36446478784491,0 174.7602105952709,-37.36426158071537,0 174.7606463302215,-37.36384823360736,0 174.7609954264938,-37.36351251703613,0 174.7588325900054,-37.36268217046753,0 174.758398687836,-37.36303953457887,0 174.7581517090408,-37.36312320446515,0 174.7571610692237,-37.36344310410141,0 174.7562013587419,-37.36415125271154,0 174.7555962014921,-37.36471971729014,0 174.7549740562398,-37.36569779430995,0 174.7545360992702,-37.36698745195749,0 174.7539871145645,-37.36695453580325,0 174.7524800582932,-37.36707624278795,0 174.7511565345681,-37.367670979648,0 174.75020553809,-37.36880329956185,0 174.7498796684401,-37.36959351999172,0 174.7498238948239,-37.37032785152326,0 174.7499979741139,-37.37102109166133,0 174.750184767798,-37.37180833937676,0 174.7525117069523,-37.3720291792276,0 
					</coordinates>
				</LinearRing>
			</outerBoundaryIs>
		</Polygon>
		<flyID>18</flyID><flyDescription>Keep to 5 knots or less (9.25km / fast walking pace) in this area - Port Waikato</flyDescription>
	</Placemark>
	<Placemark>
		<name>5 Knot Zone</name>
		<description>Keep to 5 knots or less (9.25km / fast walking pace) in this area - Port Waikato</description>
		<styleUrl>#style2</styleUrl>
		<Polygon>
			<tessellate>1</tessellate>
			<outerBoundaryIs>
				<LinearRing>
					<coordinates>
						174.7457456927248,-37.38222851047345,0 174.7454659289994,-37.38210723099705,0 174.7454127033407,-37.3817149833368,0 174.7456360083336,-37.38133417787791,0 174.7461645656439,-37.38105108292667,0 174.7466124332427,-37.38084791405137,0 174.7468185643061,-37.38054447823728,0 174.7469233851593,-37.3799681536372,0 174.7467103258051,-37.37908623311578,0 174.7465048976894,-37.37826148534442,0 174.7466188751281,-37.37773451503104,0 174.7470320523428,-37.37729954914695,0 174.7477735026621,-37.37683764249784,0 174.7484557976918,-37.37624175713582,0 174.7487306057024,-37.37579825861297,0 174.748941478182,-37.37567598573386,0 174.7494731710191,-37.37581083056251,0 174.7498614464095,-37.37561278117664,0 174.7500728478664,-37.37534831065656,0 174.7501306449506,-37.37492787888203,0 174.7501542622233,-37.37445475722917,0 174.750295391292,-37.37419650949907,0 174.7508313316395,-37.37380415223266,0 174.7517490689058,-37.37322775429399,0 174.752298796194,-37.37268149837698,0 174.7525117069523,-37.3720291792276,0 174.750184767798,-37.37180833937676,0 174.7499766679761,-37.37197088022701,0 174.7488979055007,-37.37268534715887,0 174.7481850069295,-37.37334741654833,0 174.7479211295373,-37.37398018654905,0 174.7470091649322,-37.37459676225564,0 174.7464154487721,-37.37527676025026,0 174.7454742323784,-37.37585479410299,0 174.7446121037753,-37.37676001382121,0 174.7442132466842,-37.37776477039603,0 174.7443013102723,-37.37890109442827,0 174.7445590416381,-37.37965683406259,0 174.7440425186155,-37.37998703591472,0 174.7435585625346,-37.38051209045183,0 174.7431156078316,-37.38152096773485,0 174.7457456927248,-37.38222851047345,0 
					</coordinates>
				</LinearRing>
			</outerBoundaryIs>
		</Polygon>
		<flyID>19</flyID><flyDescription>Keep to 5 knots or less (9.25km / fast walking pace) in this area - Port Waikato</flyDescription>
	</Placemark>
	<Placemark>
		<name>5 Knot Zone</name>
		<description>Keep to 5 knots or less (9.25km / fast walking pace) in this area - Port Waikato</description>
		<styleUrl>#style2</styleUrl>
		<Polygon>
			<tessellate>1</tessellate>
			<outerBoundaryIs>
				<LinearRing>
					<coordinates>
						174.7329714970378,-37.38614189832901,0 174.7335274222425,-37.38619697830765,0 174.734482228792,-37.38606829158557,0 174.7356666271029,-37.38564171195041,0 174.7368292506995,-37.38527999839749,0 174.7375574062038,-37.38524774682362,0 174.7379184263754,-37.38541548812138,0 174.7385850723565,-37.38579730143086,0 174.7392605017639,-37.38596435331312,0 174.7398568499825,-37.385979833704,0 174.740802906107,-37.385781904128,0 174.7417047347061,-37.38528400854857,0 174.7425959307113,-37.38441393652362,0 174.7435136389469,-37.38356051634508,0 174.7438852724758,-37.38332389952699,0 174.7444429309027,-37.38309577020762,0 174.7449935477891,-37.38290582087297,0 174.7454564709587,-37.38260903440359,0 174.7457456927248,-37.38222851047345,0 174.7431156078316,-37.38152096773485,0 174.7415765579641,-37.38251863647454,0 174.7404099960627,-37.38373027857796,0 174.7397340634813,-37.38413359491309,0 174.7392610077214,-37.38384889854127,0 174.7377709856438,-37.3833739876832,0 174.7357815890031,-37.38355977076491,0 174.7337352090613,-37.38437397619279,0 174.7313474406468,-37.38444728980544,0 174.7324051063498,-37.38593724460765,0 174.7329714970378,-37.38614189832901,0 
					</coordinates>
				</LinearRing>
			</outerBoundaryIs>
		</Polygon>
		<flyID>20</flyID><flyDescription>Keep to 5 knots or less (9.25km / fast walking pace) in this area - Port Waikato</flyDescription>
	</Placemark>
	<Placemark>
		<name>Transit Zone</name>
		<description>Within this zone all vessels shall proceed through this zone in the most direct route possible.  It is prohibited to tow and anchor in this zone</description>
		<styleUrl>#style020</styleUrl>
		<Polygon>
			<tessellate>1</tessellate>
			<outerBoundaryIs>
				<LinearRing>
					<coordinates>
						174.7602194031293,-37.36093143167257,0 174.7598821598841,-37.36029029140392,0 174.7598230210681,-37.35915887197695,0 174.7602716478905,-37.3583348108465,0 174.7610286979877,-37.35777576747409,0 174.7619855728406,-37.35745000941193,0 174.7628414927223,-37.35696134995433,0 174.7639727671257,-37.35683513426962,0 174.7642968449832,-37.35628436796198,0 174.7651130233475,-37.35532515855901,0 174.7660791393439,-37.35459380422705,0 174.7664122561527,-37.35353165582441,0 174.765981255916,-37.35295520573594,0 174.7655521437105,-37.35175047281958,0 174.7656826976666,-37.35048304655918,0 174.7662694603446,-37.34928198231764,0 174.7668848761236,-37.34830861239332,0 174.7671499331236,-37.34753176710408,0 174.7675916118536,-37.34681964886045,0 174.768422804413,-37.34621215960868,0 174.7695050534509,-37.3460492069368,0 174.7703392221618,-37.34611438867557,0 174.770931543151,-37.34547387098299,0 174.7431518802738,-37.34201489909144,0 174.7428290914456,-37.34332272668169,0 174.7425733056058,-37.34379203386752,0 174.7420546260387,-37.34469510562244,0 174.742517189135,-37.34599067360319,0 174.7433768371232,-37.34636566648346,0 174.7444085906661,-37.34716670627152,0 174.7461310885613,-37.34917276879687,0 174.747238391239,-37.35111151980639,0 174.7478360490548,-37.35294877389639,0 174.7478415229504,-37.35461426876278,0 174.7476758487315,-37.35577327163353,0 174.7479312734207,-37.35641357598129,0 174.7482577168126,-37.35777429114728,0 174.7482930947988,-37.359752808642,0 174.7480525326807,-37.36093568416645,0 174.7602194031293,-37.36093143167257,0 
					</coordinates>
				</LinearRing>
			</outerBoundaryIs>
		</Polygon>
		<flyID>21</flyID><flyDescription>Within this zone all vessels shall proceed through this zone in the most direct route possible.  It is prohibited to tow and anchor in this zone</flyDescription>
	</Placemark>
	<Placemark>
		<name>Transit Zone</name>
		<description>Within this zone all vessels shall proceed through this zone in the most direct route possible.  It is prohibited to tow and anchor in this zone</description>
		<styleUrl>#style020</styleUrl>
		<Polygon>
			<tessellate>1</tessellate>
			<outerBoundaryIs>
				<LinearRing>
					<coordinates>
						174.7466591357848,-37.37492975545083,0 174.7471500020816,-37.37441905401308,0 174.7478500509276,-37.37400757518088,0 174.7481369196852,-37.37338557521639,0 174.7487733863787,-37.372769069638,0 174.7497613244338,-37.37213226784296,0 174.7501858027345,-37.37174260061423,0 174.7498713235143,-37.370811057858,0 174.7497728574616,-37.36996435164352,0 174.7500881331168,-37.3688968611504,0 174.7511083233224,-37.36768027236718,0 174.7521497828169,-37.36713789457095,0 174.7533084430549,-37.36694040870011,0 174.7544924902283,-37.36701612239175,0 174.754735051758,-37.3662324288983,0 174.755185253434,-37.36521705294529,0 174.7560381548627,-37.36422162284283,0 174.7572510283095,-37.36337621932024,0 174.758414708217,-37.36301970525737,0 174.7588327574216,-37.36267413133473,0 174.758948498521,-37.36229095177701,0 174.7593876392462,-37.36169497970393,0 174.7599646934829,-37.36120956394055,0 174.7602194031293,-37.36093143167257,0 174.7480525326807,-37.36093568416645,0 174.7474822416849,-37.36231010988526,0 174.7467726709604,-37.36353387731338,0 174.7471547112134,-37.36385537433272,0 174.7474349782407,-37.36427221356309,0 174.7476937367988,-37.36508140993394,0 174.7476074717689,-37.36588551892869,0 174.7472256810911,-37.36652738038801,0 174.7473409178452,-37.36672140255326,0 174.7472824970006,-37.367353280358,0 174.7467625982063,-37.36830707311892,0 174.7461662817249,-37.36899297038155,0 174.7455118506767,-37.37014733532881,0 174.7445492646212,-37.370949426248,0 174.7428887530483,-37.37175484968265,0 174.7466591357848,-37.37492975545083,0 
					</coordinates>
				</LinearRing>
			</outerBoundaryIs>
		</Polygon>
		<flyID>22</flyID><flyDescription>Within this zone all vessels shall proceed through this zone in the most direct route possible.  It is prohibited to tow and anchor in this zone</flyDescription>
	</Placemark>
	<Placemark>
		<name>Transit Zone</name>
		<description>Within this zone all vessels shall proceed through this zone in the most direct route possible.  It is prohibited to tow and anchor in this zone</description>
		<styleUrl>#style020</styleUrl>
		<Polygon>
			<tessellate>1</tessellate>
			<outerBoundaryIs>
				<LinearRing>
					<coordinates>
						174.7337263900688,-37.38434149303706,0 174.7352822156017,-37.38374155709332,0 174.7367509321036,-37.38339758071702,0 174.7379590145813,-37.38339921621714,0 174.7387958665586,-37.38366105819074,0 174.7397666110858,-37.38411515273052,0 174.7403426949173,-37.38373121485876,0 174.7411906482035,-37.38280789415597,0 174.74199516331,-37.38207010199007,0 174.7430740564928,-37.38154614413066,0 174.743376678976,-37.3807074678793,0 174.7438157639629,-37.3801271121812,0 174.7444991378679,-37.37966347141022,0 174.7442948853426,-37.37909244079783,0 174.7441391814514,-37.37795087069089,0 174.7445109845905,-37.37686695168713,0 174.7453066789838,-37.37601881767854,0 174.7464214083801,-37.37529766523463,0 174.7466591357848,-37.37492975545083,0 174.7428887530483,-37.37175484968265,0 174.7428263385881,-37.37281420424158,0 174.7421737729867,-37.37379157129785,0 174.7411236254567,-37.37449102469495,0 174.7399046292401,-37.3749484531721,0 174.7394443168486,-37.37553985114575,0 174.7384984823242,-37.37635439763064,0 174.7358701194461,-37.37783944191805,0 174.7335324080351,-37.37904254047086,0 174.7313069729974,-37.38061726212557,0 174.7291718658774,-37.3815179710023,0 174.7313532114235,-37.38442209694265,0 174.7337263900688,-37.38434149303706,0 
					</coordinates>
				</LinearRing>
			</outerBoundaryIs>
		</Polygon>
		<flyID>23</flyID><flyDescription>Within this zone all vessels shall proceed through this zone in the most direct route possible.  It is prohibited to tow and anchor in this zone</flyDescription>
	</Placemark>
	<Placemark>
		<name>5 Knot Zone</name>
		<description>Keep to 5 knots or less (9.25km / fast walking pace) in this area - Port Waikato</description>
		<styleUrl>#style2</styleUrl>
		<Polygon>
			<tessellate>1</tessellate>
			<outerBoundaryIs>
				<LinearRing>
					<coordinates>
						174.7424544803926,-37.34598529773723,0 174.7422835570849,-37.34533046662965,0 174.7420140375546,-37.34467069905276,0 174.742415990654,-37.3440292252871,0 174.7428715515168,-37.3431406214841,0 174.7431142721063,-37.3420436536862,0 174.740804171298,-37.3417354656499,0 174.7407785311552,-37.34229257957918,0 174.7405387294355,-37.34289996099859,0 174.7399608117869,-37.34382256578619,0 174.7393342055207,-37.34459281013469,0 174.7390340871264,-37.3448417652189,0 174.7388483611493,-37.34487150341928,0 174.7383202451944,-37.34489177749537,0 174.7375322761499,-37.34499248925746,0 174.7368143163974,-37.34504874305689,0 174.7372400287351,-37.34506391099374,0 174.7381698270803,-37.34494045681902,0 174.7385964121724,-37.34492425853548,0 174.7389949282694,-37.34498803174667,0 174.7393909120419,-37.34511451117744,0 174.7395190700626,-37.34525863806145,0 174.7394068079127,-37.34542979454992,0 174.7391231487408,-37.34554950365612,0 174.7394460191833,-37.34548836633877,0 174.7398244687635,-37.34540285854439,0 174.7399324334775,-37.34549813778693,0 174.7401201194858,-37.34605985426594,0 174.7401188217016,-37.34659411904229,0 174.740008747706,-37.34670610212605,0 174.7398870119851,-37.34663180199544,0 174.7396723800884,-37.3463386415991,0 174.7396028546396,-37.34638294950909,0 174.739539987351,-37.34648283982021,0 174.7394885211172,-37.34668814581384,0 174.7392335874196,-37.34687124655294,0 174.7390149973809,-37.34700420969241,0 174.7390235560946,-37.3471236575938,0 174.7392413497009,-37.34734390282336,0 174.7395135548053,-37.34742125538904,0 174.7402346922511,-37.34742654633994,0 174.7408382807944,-37.34750133329817,0 174.7414991872306,-37.34767526846123,0 174.7421667148439,-37.34808851736744,0 174.7424544803926,-37.34598529773723,0 
					</coordinates>
				</LinearRing>
			</outerBoundaryIs>
		</Polygon>
		<flyID>24</flyID><flyDescription>Keep to 5 knots or less (9.25km / fast walking pace) in this area - Port Waikato</flyDescription>
	</Placemark>
	<Placemark>
		<name>5 Knot Zone</name>
		<description>Keep to 5 knots or less (9.25km / fast walking pace) in this area - Port Waikato</description>
		<styleUrl>#style2</styleUrl>
		<Polygon>
			<tessellate>1</tessellate>
			<outerBoundaryIs>
				<LinearRing>
					<coordinates>
						174.747247810761,-37.36277670095859,0 174.7478079680363,-37.36161289998432,0 174.7481061937897,-37.36061387482509,0 174.748314525949,-37.35940887081902,0 174.7482361817916,-37.35808641226859,0 174.7480104190759,-37.35679265648002,0 174.7476704464411,-37.35587110578532,0 174.747696969134,-37.35547989417108,0 174.7478231851848,-37.35467680599875,0 174.7478427064093,-37.35335267912082,0 174.7476722440447,-37.35235249632941,0 174.747131006971,-37.35093840800867,0 174.7461140434818,-37.3492209224268,0 174.7450681680807,-37.34794124257656,0 174.7438745520524,-37.34683274006591,0 174.7432242449234,-37.3463837187981,0 174.7424544803926,-37.34598529773723,0 174.7421667148439,-37.34808851736744,0 174.742771388326,-37.34860159592957,0 174.7437709863714,-37.34969987452242,0 174.7445762035386,-37.35085915251808,0 174.745194358286,-37.3521292183777,0 174.7455006521244,-37.35316594220981,0 174.745537850925,-37.35409170420852,0 174.7453339971316,-37.35569646814853,0 174.7453538121182,-37.35623958056531,0 174.7455806801847,-37.3567282625564,0 174.7458731402411,-37.35773720597324,0 174.7459947720522,-37.35927677726042,0 174.7458033185869,-37.3604661498487,0 174.745121270793,-37.36207722163257,0 174.7445520916917,-37.36281654620792,0 174.747247810761,-37.36277670095859,0 
					</coordinates>
				</LinearRing>
			</outerBoundaryIs>
		</Polygon>
		<flyID>25</flyID><flyDescription>Keep to 5 knots or less (9.25km / fast walking pace) in this area - Port Waikato</flyDescription>
	</Placemark>
	<Placemark>
		<name>5 Knot Zone</name>
		<description>Keep to 5 knots or less (9.25km / fast walking pace) in this area - Port Waikato</description>
		<styleUrl>#style2</styleUrl>
		<Polygon>
			<tessellate>1</tessellate>
			<outerBoundaryIs>
				<LinearRing>
					<coordinates>
						174.7398789018046,-37.37498898855309,0 174.7404239061772,-37.37478491601021,0 174.7415597147076,-37.37426949970488,0 174.7422292174298,-37.37375545789253,0 174.7427199284805,-37.37304916465769,0 174.742897574674,-37.37224517672591,0 174.7428761802457,-37.37173828619843,0 174.7436304922384,-37.37136187719803,0 174.7444999969177,-37.37094517861276,0 174.7452678673398,-37.37038301970759,0 174.7458598260187,-37.36969458159061,0 174.746146014835,-37.36910440140429,0 174.7463112804546,-37.368730456111,0 174.7465118674529,-37.36860714441603,0 174.7469006237996,-37.36820154942988,0 174.7471982789267,-37.36755188491824,0 174.7472908228543,-37.36698290023409,0 174.7472377734837,-37.36647955239875,0 174.7474422252123,-37.36617178796995,0 174.7476959631718,-37.36554676713895,0 174.7476513230785,-37.36484151142778,0 174.7473142450563,-37.36410730004885,0 174.7467812932082,-37.36348273430863,0 174.747247810761,-37.36277670095859,0 174.7445520916917,-37.36281654620792,0 174.7441326703984,-37.36354447566759,0 174.7441070492208,-37.36399308114289,0 174.744439455992,-37.36438029310543,0 174.7451300357193,-37.36482041286095,0 174.7453373615865,-37.36522387804819,0 174.74525559168,-37.36552102505451,0 174.7447820890079,-37.36585505049331,0 174.7441981836605,-37.36647136906674,0 174.7445440932179,-37.36641865064164,0 174.7448322208379,-37.36658523289871,0 174.7449294133232,-37.36686506603906,0 174.7448886996307,-37.36713464184043,0 174.7444176812206,-37.36764299298714,0 174.7439861615359,-37.36830852548722,0 174.7435120104999,-37.36913220100193,0 174.7428404545105,-37.36957139659894,0 174.7414439117216,-37.37033065110919,0 174.7407078159662,-37.37089695434616,0 174.740535974,-37.37154328578459,0 174.740551061376,-37.37243369927379,0 174.7401867348362,-37.37275257984501,0 174.7394443341403,-37.37311434980197,0 174.7384883384949,-37.37344934196847,0 174.7398789018046,-37.37498898855309,0 
					</coordinates>
				</LinearRing>
			</outerBoundaryIs>
		</Polygon>
		<flyID>26</flyID><flyDescription>Keep to 5 knots or less (9.25km / fast walking pace) in this area - Port Waikato</flyDescription>
	</Placemark>
	<Placemark>
		<name>5 Knot Zone</name>
		<description>Keep to 5 knots or less (9.25km / fast walking pace) in this area - Port Waikato</description>
		<styleUrl>#style2</styleUrl>
		<Polygon>
			<tessellate>1</tessellate>
			<outerBoundaryIs>
				<LinearRing>
					<coordinates>
						174.7310544957034,-37.38074322963188,0 174.7315376171008,-37.38044844346031,0 174.7324204767424,-37.3798739526327,0 174.7334860989521,-37.37908439414235,0 174.7342157242535,-37.37865465159851,0 174.7349639953224,-37.37830864753776,0 174.7360666599215,-37.3777827998617,0 174.7371056418701,-37.37717589668666,0 174.7382194156661,-37.37648898097716,0 174.7388155469894,-37.37611341699724,0 174.7394332369796,-37.37554624687954,0 174.7398789018046,-37.37498898855309,0 174.7384883384949,-37.37344934196847,0 174.7381431253025,-37.37346586325148,0 174.7377588039608,-37.37361346597764,0 174.737699484084,-37.37383953193992,0 174.7377714062382,-37.37411581650131,0 174.737522624404,-37.37453404478178,0 174.7367580513031,-37.37506821662603,0 174.7352649484068,-37.37594697850366,0 174.7333391807377,-37.3768947276135,0 174.7324161008619,-37.37737061851345,0 174.7310659049622,-37.37839716059056,0 174.7294207771986,-37.37934766283575,0 174.7280207037309,-37.37979902399373,0 174.7291496860602,-37.3814933472234,0 174.7310544957034,-37.38074322963188,0 
					</coordinates>
				</LinearRing>
			</outerBoundaryIs>
		</Polygon>
		<flyID>27</flyID><flyDescription>Keep to 5 knots or less (9.25km / fast walking pace) in this area - Port Waikato</flyDescription>
	</Placemark>
	<Placemark>
		<name>5 Knot Zone</name>
		<description>Keep to 5 knots or less (9.25km / fast walking pace) in this area - Port Waikato</description>
		<styleUrl>#style2</styleUrl>
		<Polygon>
			<tessellate>1</tessellate>
			<outerBoundaryIs>
				<LinearRing>
					<coordinates>
						174.8040718752287,-37.32427133849173,0 174.8043380430476,-37.32424191367999,0 174.8046696886265,-37.32407495911641,0 174.8055552613415,-37.32367910582643,0 174.8062241596884,-37.32324674460082,0 174.8070212384352,-37.32272085150084,0 174.8074353303445,-37.32258238807679,0 174.8079651068699,-37.32231101180879,0 174.8087112393832,-37.32218500952285,0 174.8094919964314,-37.32233306141691,0 174.8099606117372,-37.32241666538924,0 174.8104767742423,-37.32234506680148,0 174.8111829205856,-37.32207532632913,0 174.8122230945822,-37.32153345279158,0 174.8131514205669,-37.32096070749994,0 174.8136988650352,-37.32065771801418,0 174.8142876735425,-37.32036297126552,0 174.8137649051102,-37.31812278686259,0 174.8134615391343,-37.31838211453189,0 174.8124180231945,-37.31901705493083,0 174.8117813131574,-37.31932810820061,0 174.8106235083112,-37.31965485795032,0 174.8102019404539,-37.31994788097116,0 174.8090915002496,-37.32007343388543,0 174.8079769526418,-37.32038895755221,0 174.806685220924,-37.32046598623396,0 174.8062427956183,-37.32066334936676,0 174.805440560144,-37.32074816681642,0 174.8042490199481,-37.32061758744978,0 174.8028204070071,-37.32043097146769,0 174.8037460431241,-37.32441743708936,0 174.8040718752287,-37.32427133849173,0 
					</coordinates>
				</LinearRing>
			</outerBoundaryIs>
		</Polygon>
		<flyID>29</flyID><flyDescription>Keep to 5 knots or less (9.25km / fast walking pace) in this area - Port Waikato</flyDescription>
	</Placemark>
	<Placemark>
		<name>Swimming Zone</name>
		<description>This area is designated for swimming only.  Vessels (powered and non-powered are prohibited in this area)</description>
		<styleUrl>#style020</styleUrl>
		<Polygon>
			<outerBoundaryIs>
				<LinearRing>
					<coordinates>
						174.94616177216,-37.2973394169788,0 174.945989855676,-37.2974411254158,0 174.945877544264,-37.2975147878738,0 174.945869703867,-37.2975049180271,0 174.945424928128,-37.2969450089687,0 174.945374756032,-37.2968047925359,0 174.944881851535,-37.2959939171619,0 174.944525358427,-37.2953663452979,0 174.944512248241,-37.2953432658448,0 174.944189688569,-37.2943850694178,0 174.944102746158,-37.2939666574606,0 174.944429183515,-37.2939189284761,0 174.944464120099,-37.2941094990626,0 174.94445673998,-37.294300050021,0 174.944562670424,-37.2945967142909,0 174.944884675685,-37.2953821884611,0 174.945379799551,-37.2962364700415,0 174.945689247109,-37.2966995928545,0 174.946103244076,-37.2972445891134,0 174.94616177216,-37.2973394169788,0 
					</coordinates>
				</LinearRing>
			</outerBoundaryIs>
		</Polygon>
		<flyID>30</flyID><flyDescription>This area is designated for swimming only.  Vessels (powered and non-powered are prohibited in this area)</flyDescription>
	</Placemark>
	<Placemark>
		<name>Towing Access Lane</name>
		<description>In this area you may tow at speed from the shore.  The lane is marked by orange posts with horizontal black bands.  Proceed in an anti-clockwise direction.</description>
		<styleUrl>#style020</styleUrl>
		<Polygon>
			<tessellate>1</tessellate>
			<outerBoundaryIs>
				<LinearRing>
					<coordinates>
						174.8430125581324,-37.27975211883803,0 174.8433087025559,-37.27986440936153,0 174.8435369558924,-37.27951364302694,0 174.8432311577445,-37.2794019868682,0 174.8430125581324,-37.27975211883803,0 
					</coordinates>
				</LinearRing>
			</outerBoundaryIs>
		</Polygon>
		<flyID>31</flyID><flyDescription>In this area you may tow at speed from the shore.  The lane is marked by orange posts with horizontal black bands.  Proceed in an anti-clockwise direction.</flyDescription>
	</Placemark>
	<Placemark>
		<name>Prohibited Power Driven Vessels</name>
		<description>The use of power driven vessels are prohibited in this area, as the area has been set aside for passive activities.  This area could also contain hazards or extreme shallowing</description>
		<styleUrl>#style1</styleUrl>
		<Polygon>
			<tessellate>1</tessellate>
			<outerBoundaryIs>
				<LinearRing>
					<coordinates>
						174.8435939780958,-37.27944562578472,0 174.843914326438,-37.27893867029588,0 174.8436340746506,-37.27882228934862,0 174.8432822708305,-37.27933242962982,0 174.8435939780958,-37.27944562578472,0 
					</coordinates>
				</LinearRing>
			</outerBoundaryIs>
		</Polygon>
		<flyID>32</flyID><flyDescription>The use of power driven vessels are prohibited in this area, as the area has been set aside for passive activities.  This area could also contain hazards or extreme shallowing</flyDescription>
	</Placemark>
</Document>
</kml>
