<?xml version="1.0" encoding="UTF-8"?>
<kml xmlns="http://www.opengis.net/kml/2.2" xmlns:gx="http://www.google.com/kml/ext/2.2" xmlns:kml="http://www.opengis.net/kml/2.2" xmlns:atom="http://www.w3.org/2005/Atom">
<Document>
	<name>R35 C40.kml</name>
	<Style id="sn_ylw-pushpin1">
		<LineStyle>
			<color>ff0000ff</color>
		</LineStyle>
		<PolyStyle>
			<color>ff0000ff</color>
		</PolyStyle>
	</Style>
	<Style id="sn_ylw-pushpin2">
		<LineStyle>
			<color>ff0000ff</color>
		</LineStyle>
		<PolyStyle>
			<color>ff0000ff</color>
		</PolyStyle>
	</Style>
	<Style id="sn_ylw-pushpin0">
		<LineStyle>
			<color>ff0000ff</color>
		</LineStyle>
		<PolyStyle>
			<color>ff0000ff</color>
		</PolyStyle>
	</Style>
	<Style id="sn_ylw-pushpin6">
		<LineStyle>
			<color>ff0000ff</color>
		</LineStyle>
		<PolyStyle>
			<color>ff0000ff</color>
		</PolyStyle>
	</Style>
	<Style id="sn_ylw-pushpin">
		<LineStyle>
			<color>ff0000ff</color>
		</LineStyle>
		<PolyStyle>
			<color>ff0000ff</color>
		</PolyStyle>
	</Style>
	<StyleMap id="sn_ylw-pushpin5">
		<Pair>
			<key>normal</key>
			<styleUrl>#sn_ylw-pushpin4</styleUrl>
		</Pair>
		<Pair>
			<key>highlight</key>
			<styleUrl>#sn_ylw-pushpin6</styleUrl>
		</Pair>
	</StyleMap>
	<Style id="sn_ylw-pushpin4">
		<LineStyle>
			<color>ff0000ff</color>
		</LineStyle>
		<PolyStyle>
			<color>ff0000ff</color>
		</PolyStyle>
	</Style>
	<StyleMap id="sn_ylw-pushpin3">
		<Pair>
			<key>normal</key>
			<styleUrl>#sn_ylw-pushpin1</styleUrl>
		</Pair>
		<Pair>
			<key>highlight</key>
			<styleUrl>#sn_ylw-pushpin</styleUrl>
		</Pair>
	</StyleMap>
	<StyleMap id="sn_ylw-pushpin7">
		<Pair>
			<key>normal</key>
			<styleUrl>#sn_ylw-pushpin2</styleUrl>
		</Pair>
		<Pair>
			<key>highlight</key>
			<styleUrl>#sn_ylw-pushpin0</styleUrl>
		</Pair>
	</StyleMap>
	<Placemark>
		<name>Cook Strait Cable Protection Zone</name>
		<description>- DANGER HIGH VOLTAGE CABLES 350,000 volts.
		- FISHING in the Cable Protection Zone is illegal.
		- ANCHORING in the Cable Protection Zone is illegal.
		- Refer to Marine Charts for details.
		- For further information call 0800 843 4743</description>
		<styleUrl>#sn_ylw-pushpin3</styleUrl>
		<Polygon>
			<tessellate>1</tessellate>
			<outerBoundaryIs>
				<LinearRing>
					<coordinates>
						174.2434960042037,-41.36824156029809,0 174.5851332368536,-41.33992953070565,0 174.5496054784832,-41.2784081746991,0 174.2389355319166,-41.30670567965659,0 174.240737825079,-41.30769271632725,0 174.242263128003,-41.30775940986445,0 174.2442388391263,-41.30813334728527,0 174.2446677037282,-41.30847285720583,0 174.2444313207052,-41.30864038698211,0 174.2413717015635,-41.30927391964595,0 174.2417667662349,-41.30987748643791,0 174.2426013826289,-41.31012262707476,0 174.2426000907909,-41.31063907637047,0 174.2425343690827,-41.31116330968503,0 174.2420826790781,-41.31135634074208,0 174.2403848988136,-41.3114991985229,0 174.2383641913543,-41.31288031899562,0 174.2387655695289,-41.31557605574992,0 174.2387013233611,-41.31647673553319,0 174.2383578287481,-41.31769682052012,0 174.2366063106234,-41.31970845690913,0 174.2434960042037,-41.36824156029809,0 
					</coordinates>
				</LinearRing>
			</outerBoundaryIs>
		</Polygon>
		<flyID>0</flyID><flyDescription>
		- DANGER HIGH VOLTAGE CABLES 350,000 volts.
		- FISHING in the Cable Protection Zone is illegal.
		- ANCHORING in the Cable Protection Zone is illegal.
		- Refer to Marine Charts for details.
		- For further information call 0800 843 4743
		</flyDescription>
	</Placemark>
	<Placemark>
		<name>Cook Strait Cable Protection Zone</name>
		<open>1</open>
		<description>- DANGER HIGH VOLTAGE CABLES 350,000 volts.
		- FISHING in the Cable Protection Zone is illegal.
		- ANCHORING in the Cable Protection Zone is illegal.
		- Refer to Marine Charts for details.
		- For further information call 0800 843 4743</description>
		<styleUrl>#sn_ylw-pushpin7</styleUrl>
		<Polygon>
			<tessellate>1</tessellate>
			<outerBoundaryIs>
				<LinearRing>
					<coordinates>
						174.2434960042037,-41.36824156029809,0 174.2366063106234,-41.31970845690913,0 174.2350591576933,-41.31876277249118,0 174.2314614166699,-41.31818298247453,0 174.2308232497518,-41.31790673207383,0 174.228305224403,-41.31637433337222,0 174.2266990100576,-41.31549275325251,0 174.2250762260089,-41.31593991133342,0 174.2237441867149,-41.31707821468082,0 174.2213729343295,-41.31652602641378,0 174.2204339178642,-41.31692872805824,0 174.2179682982984,-41.31917386980226,0 174.2181634660226,-41.32142565201633,0 174.2154889048566,-41.32514568595592,0 174.2148469844493,-41.32541830619999,0 174.2137452308843,-41.32548199871977,0 174.2130307755815,-41.32520645153033,0 174.2120001859123,-41.32413999173352,0 174.2090411442142,-41.32268213373802,0 174.2098281911457,-41.31834969183922,0 174.2089472264149,-41.3160263934525,0 174.208860112768,-41.3136338274192,0 174.205900149097,-41.31199667421183,0 174.2026403208667,-41.31073396534426,0 174.2005380457068,-41.31085816347242,0 174.1999952556568,-41.3128430434652,0 174.197474591611,-41.31441900781005,0 174.1962135984838,-41.31605793701028,0 174.1948796444336,-41.31693497610266,0 174.1909757311516,-41.31598003011257,0 174.1901143825532,-41.31697266471176,0 174.1919244931107,-41.31914731567961,0 174.1908948483555,-41.32028859766846,0 174.1922187193627,-41.32175768305078,0 174.1929416840098,-41.32201551524386,0 174.1931302229294,-41.32482405616955,0 174.1960525764627,-41.32530288735282,0 174.1962451282473,-41.32557763780082,0 174.1954206489065,-41.32798401539238,0 174.1972854757657,-41.32961774218143,0 174.1979272540009,-41.33060254783555,0 174.1975587849591,-41.33155427756348,0 174.1945613437655,-41.33449151168435,0 174.193507379899,-41.33676036453934,0 174.191827708114,-41.33766105170744,0 174.1854158120615,-41.33737446695693,0 174.1791310235854,-41.33302249501705,0 174.1781345926179,-41.33686344701847,0 174.1768381527608,-41.33661832967903,0 174.2434960042037,-41.36824156029809,0 
					</coordinates>
				</LinearRing>
			</outerBoundaryIs>
		</Polygon>
		<flyID>0</flyID><flyDescription>
		- DANGER HIGH VOLTAGE CABLES 350,000 volts.
		- FISHING in the Cable Protection Zone is illegal.
		- ANCHORING in the Cable Protection Zone is illegal.
		- Refer to Marine Charts for details.
		- For further information call 0800 843 4743
		</flyDescription>
	</Placemark>
	<Placemark>
		<name>Cook Strait Cable Protection Zone</name>
		<description>- DANGER HIGH VOLTAGE CABLES 350,000 volts.
		- FISHING in the Cable Protection Zone is illegal.
		- ANCHORING in the Cable Protection Zone is illegal.
		- Refer to Marine Charts for details.
		- For further information call 0800 843 4743</description>
		<styleUrl>#sn_ylw-pushpin5</styleUrl>
		<Polygon>
			<tessellate>1</tessellate>
			<outerBoundaryIs>
				<LinearRing>
					<coordinates>
						174.5851332368536,-41.33992953070565,0 174.6340659567302,-41.31803672018673,0 174.6337948249757,-41.31775114066458,0 174.6333579419634,-41.31656710696234,0 174.631594525434,-41.3155638161267,0 174.6311255450226,-41.31478360397194,0 174.6308544158369,-41.3055913824641,0 174.6293127600367,-41.30390320708737,0 174.6287230178543,-41.3031252676373,0 174.629397589038,-41.30168658126277,0 174.6314298560914,-41.29986904646737,0 174.6319435747616,-41.29863275015998,0 174.6313125472705,-41.29708397265225,0 174.630413059587,-41.29605954601847,0 174.6278494760202,-41.29453637539999,0 174.626616826767,-41.294674546145,0 174.6251173855007,-41.29532249166018,0 174.6220612518174,-41.29586238838504,0 174.6208901493685,-41.29653783475124,0 174.6200077625156,-41.29672410681071,0 174.6188536278084,-41.2965441915911,0 174.6179410495808,-41.29579774236017,0 174.6179193523693,-41.29519519023717,0 174.5496054784832,-41.2784081746991,0 174.5851332368536,-41.33992953070565,0 
					</coordinates>
				</LinearRing>
			</outerBoundaryIs>
		</Polygon>
		<flyID>0</flyID><flyDescription>
		- DANGER HIGH VOLTAGE CABLES 350,000 volts.
		- FISHING in the Cable Protection Zone is illegal.
		- ANCHORING in the Cable Protection Zone is illegal.
		- Refer to Marine Charts for details.
		- For further information call 0800 843 4743
		</flyDescription>
	</Placemark>
</Document>
</kml>
