<?xml version="1.0" encoding="UTF-8"?>
<kml xmlns="http://www.opengis.net/kml/2.2" xmlns:gx="http://www.google.com/kml/ext/2.2" xmlns:kml="http://www.opengis.net/kml/2.2" xmlns:atom="http://www.w3.org/2005/Atom">
<Document>
<name>R35 C34.kml</name>

<Style id="style0">

					<LineStyle>

						<color>ffff0000</color>

					</LineStyle>

					<PolyStyle>

						<color>ffff0000</color>

						<width>0.9</width>

					</PolyStyle>

				</Style>
<Style id="style1">

					<LineStyle>

						<color>ff00ffff</color>

					</LineStyle>

					<PolyStyle>

						<color>ff00ffff</color>

						<width>0.9</width>

					</PolyStyle>

				</Style>
<Style id="style2">

					<LineStyle>

						<color>ffe65c00</color>

					</LineStyle>

					<PolyStyle>

						<color>ffe65c00</color>

						<width>0.9</width>

					</PolyStyle>

				</Style>
<Style id="style3">

					<LineStyle>

						<color>ff00ff00</color>

					</LineStyle>

					<PolyStyle>

						<color>ff00ff00</color>

						<width>0.9</width>

					</PolyStyle>

				</Style>
<Style id="style4">

					<LineStyle>

						<color>ff00a838</color>

					</LineStyle>

					<PolyStyle>

						<color>ff00a838</color>

						<width>0.9</width>

					</PolyStyle>

				</Style>
<Style id="style5">

					<LineStyle>

						<color>ffff5500</color>

					</LineStyle>

					<PolyStyle>

						<color>ffff5500</color>

						<width>0.9</width>

					</PolyStyle>

				</Style>
<Style id="style6">

					<LineStyle>

						<color>ff0000e6</color>

					</LineStyle>

					<PolyStyle>

						<color>ff0000e6</color>

						<width>0.9</width>

					</PolyStyle>

				</Style>
<Style id="style7">

					<LineStyle>

						<color>ffff00aa</color>

					</LineStyle>

					<PolyStyle>

						<color>ffff00aa</color>

						<width>0.9</width>

					</PolyStyle>

				</Style>
<Style id="style8">

					<LineStyle>

						<color>ff8400a8</color>

					</LineStyle>

					<PolyStyle>

						<color>ff8400a8</color>

						<width>0.9</width>

					</PolyStyle>

				</Style>

<Placemark>

				<name>Reserved For Swimmers And Body Boarders</name>

				<description>This area is reserved for swimmers and body boarders.</description>

				<styleUrl>#style0</styleUrl>

				<Polygon>

					<tessellate>1</tessellate>

					<outerBoundaryIs>

						<LinearRing>

							<coordinates>

							173.2511185385606,-41.27917992081658,0 173.2519711442504,-41.27869741135981,0 173.2526073589516,-41.27825151520429,0 173.2533118055521,-41.27787966149052,0 173.2540781795402,-41.27754012586981,0 173.2548521903372,-41.27699390574647,0 173.2554908888494,-41.27664392297656,0 173.2557734102675,-41.27625845665912,0 173.2558578417074,-41.27583004311467,0 173.2559067780176,-41.27556023060027,0 173.2511149865749,-41.27553779951066,0 173.2511185385606,-41.27917992081658,0 
						
</coordinates>

						</LinearRing>

					</outerBoundaryIs>

				</Polygon>

				<flyID>0</flyID>

				<flyDescription>This area is reserved for swimmers and body boarders.</flyDescription>

			</Placemark>
<Placemark>

				<name>Reserved For Swimmers And Body Boarders</name>

				<description>This area is reserved for swimmers and body boarders.</description>

				<styleUrl>#style0</styleUrl>

				<Polygon>

					<tessellate>1</tessellate>

					<outerBoundaryIs>

						<LinearRing>

							<coordinates>

							173.2415101658569,-41.2789233694926,0 173.2421255006219,-41.27906712206018,0 173.242691975055,-41.2791776179618,0 173.2431098726545,-41.27908302660378,0 173.246643669419,-41.2791037307846,0 173.2505325777498,-41.27915661370664,0 173.2504561207404,-41.27553915986773,0 173.250281610071,-41.27553448272811,0 173.243233263973,-41.2754988725271,0 173.2403195257,-41.27548672283211,0 173.2403431672892,-41.27878056802254,0 173.2415101658569,-41.2789233694926,0 
						
</coordinates>

						</LinearRing>

					</outerBoundaryIs>

				</Polygon>

				<flyID>1</flyID>

				<flyDescription>This area is reserved for swimmers and body boarders.</flyDescription>

			</Placemark>
<Placemark>

				<name>Personal Water Craft (Jet Ski)/Water Ski Area</name>

				<description>Personal water craft area to be shared with water skiiers. This area is for priority use by vessels towing people or an object (waterskiing). Towing boats must carry an observer over 10 years old, stay as far as practicable to starboard (the right hand side) when inside the area, and make circuits in an anti-clockwise direction. Do not park boats on the landing beach inside the area. Towing boats may exceed 5 knots inside the reserved area, and when more than 200m from shore or a divers blue and white flag and 50m from any other water user when outside it. If any boat is waterskiing in the area or nearby, other water users must keep out of the reserved area.</description>

				<styleUrl>#style0</styleUrl>

				<Polygon>

					<tessellate>1</tessellate>

					<outerBoundaryIs>

						<LinearRing>

							<coordinates>

							173.1226184849345,-41.27022540477345,0 173.1261154851414,-41.27313117203852,0 173.1320136816275,-41.27644182464238,0 173.1360790252165,-41.27777500518211,0 173.1380521699458,-41.27875558073395,0 173.1403702927381,-41.27978367999887,0 173.141201302463,-41.27901606112601,0 173.1398252452704,-41.27888195076561,0 173.1380436290384,-41.27808547627272,0 173.1384424193234,-41.277444865372,0 173.1377373841124,-41.27708088784617,0 173.1359942003642,-41.27718281556918,0 173.1344746566214,-41.27609565916702,0 173.1341983252192,-41.27540161877015,0 173.1324026046047,-41.27552054520447,0 173.1310777401379,-41.27461559954289,0 173.1313355479736,-41.27366041185437,0 173.1301370104958,-41.2724190998997,0 173.1280859097297,-41.27177022960839,0 173.1264770576362,-41.27226444610592,0 173.1259663646471,-41.27145181918307,0 173.1251647584218,-41.27051614088335,0 173.1210133113968,-41.26889191417101,0 173.1202277421203,-41.26985962816782,0 173.1226184849345,-41.27022540477345,0 
						
</coordinates>

						</LinearRing>

					</outerBoundaryIs>

				</Polygon>

				<flyID>2</flyID>

				<flyDescription>Personal water craft area to be shared with water skiiers. This area is for priority use by vessels towing people or an object (waterskiing). Towing boats must carry an observer over 10 years old, stay as far as practicable to starboard (the right hand side) when inside the area, and make circuits in an anti-clockwise direction. Do not park boats on the landing beach inside the area. Towing boats may exceed 5 knots inside the reserved area, and when more than 200m from shore or a divers blue and white flag and 50m from any other water user when outside it. If any boat is waterskiing in the area or nearby, other water users must keep out of the reserved area.</flyDescription>

			</Placemark>
<Placemark>

				<name>5 Knot Zone</name>

				<description>Keep to 5 knots or less (9.25km / fast walking pace) in this area.</description>

				<styleUrl>#style1</styleUrl>

				<Polygon>

					<tessellate>1</tessellate>

					<outerBoundaryIs>

						<LinearRing>

							<coordinates>

							173.2767308799052,-41.24999538783908,0 173.2802029939721,-41.24819839707745,0 173.2824541666156,-41.24644368079725,0 173.2828835768046,-41.24612722114625,0 173.2848487282636,-41.2448026706238,0 173.2856342135532,-41.24538090146117,0 173.2815055608072,-41.24863517922815,0 173.2760085912738,-41.25148585012254,0 173.2776546157953,-41.25339138787216,0 173.2758619072969,-41.25423285904588,0 173.2764787135972,-41.25496014762687,0 173.2765196040384,-41.25494036234294,0 173.2769170843199,-41.25537728835916,0 173.2777881409082,-41.25496290397069,0 173.2791879133936,-41.25535018698411,0 173.2800435815178,-41.25555642497945,0 173.2805023319833,-41.25575195418325,0 173.2806563852336,-41.25587242786192,0 173.282311808129,-41.25592196549761,0 173.2823101249401,-41.25563011913373,0 173.2825038596473,-41.2556374355796,0 173.2824999316108,-41.25517743568891,0 173.2818862188983,-41.2549885458882,0 173.2809936665838,-41.25476640229879,0 173.2805307414757,-41.25460253868418,0 173.2801095687275,-41.25448634177896,0 173.28053908427,-41.25416541734909,0 173.2807705844316,-41.25413492789409,0 173.2842110284522,-41.25420016262357,0 173.284303274402,-41.25428595194634,0 173.2842969516703,-41.25502282188656,0 173.2842202929459,-41.25714299092094,0 173.2841502597364,-41.25887284424679,0 173.2841142566551,-41.26001574887202,0 173.2840752897033,-41.26135447511589,0 173.284042828933,-41.26173256331108,0 173.283737267581,-41.26200540573687,0 173.2832480553562,-41.26244288653094,0 173.2824688307431,-41.26264191238687,0 173.28196722686,-41.26280260590568,0 173.2814946128041,-41.2632243898764,0 173.2809028807785,-41.26411726453983,0 173.280208091016,-41.26522216041704,0 173.2801904400968,-41.26554817396476,0 173.2801857385285,-41.26609473724139,0 173.2800645329903,-41.266178114596,0 173.279584497912,-41.26632593908817,0 173.2791169936438,-41.26663795306158,0 173.2786139046274,-41.26699780802051,0 173.278201625679,-41.26722948681282,0 173.2781612665817,-41.26734417218636,0 173.2781397991774,-41.26748566418615,0 173.2783169876683,-41.26771395151337,0 173.2784310926504,-41.26803313874984,0 173.2784434779742,-41.26831340387968,0 173.2791384930134,-41.27026910255669,0 173.2792084947254,-41.27055490624149,0 173.2793777845936,-41.27055478460942,0 173.2792277477209,-41.27007994315658,0 173.2787400500515,-41.26853587822797,0 173.2784977090995,-41.26780056773897,0 173.2783302891803,-41.26740889086646,0 173.2784389640466,-41.26733452016372,0 173.2786693421249,-41.26714033225031,0 173.2791817023547,-41.26674844161533,0 173.2796470760138,-41.26652882487679,0 173.2801624936048,-41.26635459175812,0 173.2803886653304,-41.26633426113691,0 173.2808277155459,-41.26727288326361,0 173.2814795118262,-41.26812989226183,0 173.2823344536541,-41.26929398143449,0 173.2829323554435,-41.26978009227173,0 173.2834985694838,-41.27002836071556,0 173.2841265567856,-41.27005822590955,0 173.2847972687316,-41.26996943916539,0 173.2858473396753,-41.26964108995029,0 173.2866235338221,-41.26944744983088,0 173.2869971669757,-41.26954199352651,0 173.2870019134103,-41.26933470898462,0 173.2866512508582,-41.26919382954931,0 173.2857947142969,-41.26927875558146,0 173.285363637146,-41.26947488176132,0 173.2843181088284,-41.26972079947377,0 173.2836206037264,-41.26961286468989,0 173.2826818165922,-41.26877669155957,0 173.2813828418023,-41.26708996043688,0 173.2811116934681,-41.2660374454555,0 173.2809704587102,-41.26554846029256,0 173.2817439006185,-41.26538962801318,0 173.2817440391106,-41.26453828208838,0 173.2826399819647,-41.26442101026064,0 173.2840385538325,-41.26409410172013,0 173.2842831544762,-41.264258476003,0 173.2843154729604,-41.26474484210603,0 173.2857465589474,-41.2644686459691,0 173.2866941655963,-41.2639534248319,0 173.2874546765586,-41.26345137147661,0 173.2878380047384,-41.26369196990528,0 173.2883668843556,-41.26376384049737,0 173.2898453322936,-41.26339191421574,0 173.2916279802732,-41.26267658116781,0 173.2931748621,-41.26165100236997,0 173.2947644686419,-41.26005798233351,0 173.296904659448,-41.25755360794922,0 173.2986485520347,-41.25612682835008,0 173.3005289043201,-41.25506950779675,0 173.3033911085659,-41.25377897926185,0 173.306995987624,-41.2523523407985,0 173.3105514091848,-41.25085496005454,0 173.2914600380005,-41.23896289218698,0 173.2881962587859,-41.24139672798278,0 173.284651403378,-41.24401600844045,0 173.2825851859416,-41.24566232698025,0 173.2818417803142,-41.24606860687869,0 173.2806641455028,-41.24670966680723,0 173.2797230169329,-41.24748018859165,0 173.2794239760867,-41.24748005382134,0 173.2790333747268,-41.24770518220532,0 173.2782731402614,-41.24834685858302,0 173.2773654710181,-41.24920073136529,0 173.2765469130068,-41.24958329349919,0 173.2758541214349,-41.2500251473655,0 173.2748477495341,-41.2504795213567,0 173.2737860495274,-41.25088664183848,0 173.2727289965013,-41.25144426299386,0 173.272061386788,-41.25186377696507,0 173.2711577260942,-41.25237373989268,0 173.2704342747071,-41.25292038954432,0 173.2700347410076,-41.25313667165326,0 173.2691610045936,-41.25338051281928,0 173.268754639412,-41.25362571971973,0 173.2685869132121,-41.25386388631523,0 173.2689120086924,-41.25404970555681,0 173.2767308799052,-41.24999538783908,0 
						
</coordinates>

						</LinearRing>

					</outerBoundaryIs>

				</Polygon>

				<flyID>3</flyID>

				<flyDescription>Keep to 5 knots or less (9.25km / fast walking pace) in this area.</flyDescription>

			</Placemark>
<Placemark>

				<name>5 Knot Zone</name>

				<description>Keep to 5 knots or less (9.25km / fast walking pace) in this area.</description>

				<styleUrl>#style1</styleUrl>

				<Polygon>

					<tessellate>1</tessellate>

					<outerBoundaryIs>

						<LinearRing>

							<coordinates>

							173.3105514091848,-41.25085496005454,0 173.3125616730455,-41.24959683645715,0 173.314033795957,-41.24782342914863,0 173.3148350155427,-41.24570726493657,0 173.3163278087078,-41.24247891553267,0 173.3168764374688,-41.24080502001429,0 173.316517359078,-41.23909025257677,0 173.3159016043118,-41.23704278267536,0 173.3158357781066,-41.23590821719844,0 173.3162623904069,-41.23595537637795,0 173.3168889486881,-41.23492832992452,0 173.3181210017428,-41.23295874856165,0 173.3187835055477,-41.23125100360894,0 173.3191367733448,-41.22900982274766,0 173.3191800831356,-41.22793965869823,0 173.3195206447023,-41.22679732233129,0 173.3201906062609,-41.22591994557776,0 173.3211363474981,-41.22493859352794,0 173.3223911435046,-41.22338111130142,0 173.3231512197302,-41.22295289567371,0 173.3235228616092,-41.22300341836755,0 173.324395975133,-41.2229410388002,0 173.325979401239,-41.22243796574396,0 173.32642310976,-41.2220759704527,0 173.3263599323217,-41.22178101476804,0 173.3266622827723,-41.22169280265214,0 173.3269382834757,-41.22118977263561,0 173.3276475640893,-41.2208912934117,0 173.3283157589037,-41.22065457572878,0 173.3287000456934,-41.22015028523727,0 173.3283751107765,-41.2194827442229,0 173.3291090141321,-41.21896426288559,0 173.3292094512849,-41.21874219023876,0 173.3294148277794,-41.21845163028807,0 173.3293600492385,-41.2182213101599,0 173.3296222876653,-41.21804153181218,0 173.3295935664273,-41.21759542496771,0 173.329570260118,-41.21725989870423,0 173.3290669835621,-41.21706910325299,0 173.3288892565756,-41.21653668745765,0 173.323657011556,-41.20374881082677,0 173.3229597083349,-41.20374322576351,0 173.3226695971364,-41.20420507347619,0 173.3207856677553,-41.20556836572697,0 173.3198105176616,-41.20705157234837,0 173.3183305260454,-41.20834383433584,0 173.3168357860741,-41.21030578176986,0 173.3145208239286,-41.21386096571172,0 173.3121385373167,-41.21708909602413,0 173.3085347833749,-41.22163676089519,0 173.304700705629,-41.22640379544989,0 173.3021027735786,-41.22933281306369,0 173.3007415761414,-41.23061191181144,0 173.2964074925704,-41.23462849607588,0 173.2949218363666,-41.23605098535661,0 173.2914600380005,-41.23896289218698,0 173.3105514091848,-41.25085496005454,0 
						
</coordinates>

						</LinearRing>

					</outerBoundaryIs>

				</Polygon>

				<flyID>4</flyID>

				<flyDescription>Keep to 5 knots or less (9.25km / fast walking pace) in this area.</flyDescription>

			</Placemark>
<Placemark>

				<name>Area Reserved For Skiing/Jet Skis</name>

				<description>This area is reserved for water skiing and the use of jet skis.</description>

				<styleUrl>#style0</styleUrl>

				<Polygon>

					<tessellate>1</tessellate>

					<outerBoundaryIs>

						<LinearRing>

							<coordinates>

							173.2088484964623,-41.30777212132513,0 173.2095349267322,-41.307369793989,0 173.2103807454178,-41.30687806377778,0 173.2108172847094,-41.30683847718262,0 173.2123950041514,-41.30658494533557,0 173.2140115078466,-41.30612272250816,0 173.2130910018484,-41.30438485656799,0 173.2109094742023,-41.30497964088605,0 173.2107727097497,-41.30489962328165,0 173.2103458569188,-41.30492639891165,0 173.2097431612422,-41.30487273748302,0 173.2093417790629,-41.30491300839625,0 173.2083950340137,-41.30573181981578,0 173.20792827513,-41.30594173906898,0 173.2072982931792,-41.30606670965104,0 173.2072055321352,-41.30630955632783,0 173.2088484964623,-41.30777212132513,0 
						
</coordinates>

						</LinearRing>

					</outerBoundaryIs>

				</Polygon>

				<flyID>5</flyID>

				<flyDescription>This area is reserved for water skiing and the use of jet skis.</flyDescription>

			</Placemark>
<Placemark>

				<name>Access Lane For Non-motorised Small Craft</name>

				<description>This area is for non-motorised small craft.</description>

				<styleUrl>#style5</styleUrl>

				<Polygon>

					<tessellate>1</tessellate>

					<outerBoundaryIs>

						<LinearRing>

							<coordinates>

							173.2505318267079,-41.27902921872475,0 173.2505587449986,-41.27917345473441,0 173.2511188173165,-41.27918261998818,0 173.251110389561,-41.27890790860137,0 173.2511045469021,-41.27848994833097,0 173.2511125899288,-41.2755350055969,0 173.2504628322918,-41.27553508832267,0 173.2505318267079,-41.27902921872475,0 
						
</coordinates>

						</LinearRing>

					</outerBoundaryIs>

				</Polygon>

				<flyID>6</flyID>

				<flyDescription>This area is for non-motorised small craft.</flyDescription>

			</Placemark>
<Placemark>

				<name>Kite Boarding Area</name>

				<description>This area is for kite boarding.</description>

				<styleUrl>#style7</styleUrl>

				<Polygon>

					<tessellate>1</tessellate>

					<outerBoundaryIs>

						<LinearRing>

							<coordinates>

							173.2324016784958,-41.28269532524492,0 173.2326994041392,-41.28244441640861,0 173.2331455131461,-41.28216304901511,0 173.2335684118049,-41.28183641823387,0 173.2340713766777,-41.28143455793245,0 173.2344013332779,-41.28106472936472,0 173.2346193450409,-41.28086713966817,0 173.234778294891,-41.28068449761858,0 173.2349137233457,-41.28049435135105,0 173.2350125664475,-41.28042921615322,0 173.2350825333748,-41.2803682904321,0 173.2351459094099,-41.28043424749079,0 173.2350289272757,-41.28051420264693,0 173.2351278428764,-41.28058793209218,0 173.235201150034,-41.2806461860817,0 173.2352997378483,-41.28055405400654,0 173.2353036465481,-41.28045478126087,0 173.2352288921107,-41.28037358554077,0 173.2352492068424,-41.28025288847892,0 173.23509566352,-41.2803036732094,0 173.2351706158411,-41.28020124273748,0 173.2358334063574,-41.27967104422186,0 173.2364453805764,-41.27913137988787,0 173.2369304139332,-41.27882986212381,0 173.2372678158969,-41.27864464853536,0 173.2376161082732,-41.27855302872529,0 173.2379639439088,-41.27857882225758,0 173.2380848104701,-41.27861475234614,0 173.2382011019746,-41.27859936568548,0 173.2383135062268,-41.27865041509427,0 173.2383610008004,-41.278605677139,0 173.2383065366936,-41.27855389715318,0 173.2381777530344,-41.27854870394782,0 173.2380494393073,-41.27852776320852,0 173.2380131172532,-41.27845402716238,0 173.2381048169993,-41.27844338292546,0 173.2382089199815,-41.27844868996549,0 173.2381863717094,-41.27837911021172,0 173.2381336009972,-41.27838449079285,0 173.2380560499724,-41.27835226259004,0 173.2379009137366,-41.27822136537442,0 173.2376837975688,-41.27818516126256,0 173.2381125319004,-41.27816677028863,0 173.2386184832333,-41.27833064102143,0 173.2398733783544,-41.27874357775645,0 173.2403368730799,-41.27877424330363,0 173.2403032106927,-41.27548094078441,0 173.2367423937624,-41.27499133168255,0 173.2350869445052,-41.27472717461803,0 173.2324941070915,-41.2743581218442,0 173.2321516027271,-41.28318219728269,0 173.2324016784958,-41.28269532524492,0 
						
</coordinates>

						</LinearRing>

					</outerBoundaryIs>

				</Polygon>

				<flyID>7</flyID>

				<flyDescription>This area is for kite boarding.</flyDescription>

			</Placemark>
<Placemark>

				<name>Water Ski/Wake Boarding/Biscuiting</name>

				<description>Use only for specified recreational activity</description>

				<styleUrl>#style0</styleUrl>

				<Polygon>

					<tessellate>1</tessellate>

					<outerBoundaryIs>

						<LinearRing>

							<coordinates>

							173.2712564736924,-41.25637361306348,0 173.2776467349724,-41.25340170530004,0 173.2760071305919,-41.25148142507646,0 173.272336639992,-41.2533852297334,0 173.2704719695265,-41.25543190839673,0 173.2712564736924,-41.25637361306348,0 
						
</coordinates>

						</LinearRing>

					</outerBoundaryIs>

				</Polygon>

				<flyID>8</flyID>

				<flyDescription>Use only for specified recreational activity</flyDescription>

			</Placemark>
<Placemark>

				<name>Rowing, Waka</name>

				<description>Use only for specified recreational activity</description>

				<styleUrl>#style2</styleUrl>

				<Polygon>

					<tessellate>1</tessellate>

					<outerBoundaryIs>

						<LinearRing>

							<coordinates>

							173.2712359771879,-41.25636707880484,0 173.2709126248199,-41.25597758820482,0 173.2639776356219,-41.26225996678608,0 173.264432570293,-41.26255051591404,0 173.2712359771879,-41.25636707880484,0 
						
</coordinates>

						</LinearRing>

					</outerBoundaryIs>

				</Polygon>

				<flyID>9</flyID>

				<flyDescription>Use only for specified recreational activity</flyDescription>

			</Placemark>
<Placemark>

				<name>Transit Lane (100m Wide)</name>

				<description>Keep to starboard side of lane and travel at appropriate speed</description>

				<styleUrl>#style4</styleUrl>

				<Polygon>

					<tessellate>1</tessellate>

					<outerBoundaryIs>

						<LinearRing>

							<coordinates>

							173.256879314882,-41.26306678378165,0 173.2579195107481,-41.26377806813514,0 173.2585231595269,-41.26406941885275,0 173.2589253579622,-41.26422723214515,0 173.2596593943955,-41.26446386530733,0 173.2605530868867,-41.26457234449822,0 173.2615752455441,-41.26458582866595,0 173.2621482605807,-41.26450490547673,0 173.2631206245531,-41.26431200932143,0 173.2636344197759,-41.26413476677828,0 173.2644137542729,-41.26381077529507,0 173.2650724415931,-41.26337461529555,0 173.2654303560407,-41.26304197133012,0 173.2720338628464,-41.25707184408148,0 173.2764811813859,-41.25496626809115,0 173.275857410815,-41.25422343841766,0 173.2712383946908,-41.25637397799568,0 173.2659799404611,-41.26114690778193,0 173.2640321346496,-41.26289188181896,0 173.2634316289624,-41.26320341539991,0 173.262575215044,-41.2634930735259,0 173.2614131636841,-41.26368791730547,0 173.2607075811688,-41.26367715015583,0 173.2598539481299,-41.26355833990363,0 173.2588453864139,-41.26316896163287,0 173.258186689152,-41.26275392480048,0 173.2548918553952,-41.26038658465625,0 173.254062281679,-41.26104091788702,0 173.256879314882,-41.26306678378165,0 
						
</coordinates>

						</LinearRing>

					</outerBoundaryIs>

				</Polygon>

				<flyID>10</flyID>

				<flyDescription>Keep to starboard side of lane and travel at appropriate speed</flyDescription>

			</Placemark>
<Placemark>

				<name>No Wake Zone</name>

				<description>Max speed of 3 knots within the Marina</description>

				<styleUrl>#style2</styleUrl>

				<Polygon>

					<tessellate>1</tessellate>

					<outerBoundaryIs>

						<LinearRing>

							<coordinates>

							173.2805484571467,-41.25669591278728,0 173.2805813403631,-41.25725382230823,0 173.2804995624628,-41.25816018149906,0 173.2805042303144,-41.25925848813435,0 173.2804181410169,-41.2600085091715,0 173.280359265361,-41.26073110820175,0 173.280308553488,-41.26187471513543,0 173.2803019589128,-41.26299123725583,0 173.2801514338959,-41.26309914433112,0 173.2798562789299,-41.26311510597557,0 173.2792310303151,-41.2631302596775,0 173.2789845342484,-41.26319417656268,0 173.2788642557978,-41.26332756152129,0 173.2786549082814,-41.2638088241638,0 173.2787280651714,-41.26392076868679,0 173.2788105287066,-41.26467079498483,0 173.278873758183,-41.26524022998429,0 173.2791245216385,-41.26533209480953,0 173.2793635407025,-41.26532380754247,0 173.2798778236331,-41.26529887037218,0 173.2800436490734,-41.26516406042151,0 173.2806757655567,-41.26404942599072,0 173.281186304733,-41.26329293310419,0 173.2818271408955,-41.26276615938426,0 173.2821244955818,-41.26248990132159,0 173.2822720085305,-41.26224262033453,0 173.2823230169452,-41.26040174125029,0 173.2824076384793,-41.26033416247956,0 173.2826787598299,-41.26030689033527,0 173.2828036816584,-41.2585746317638,0 173.2827377493929,-41.25808531274038,0 173.2824720739065,-41.25796637731501,0 173.2825901368887,-41.25592420656062,0 173.280587680435,-41.25587166367394,0 173.2805484571467,-41.25669591278728,0 
						
</coordinates>

						</LinearRing>

					</outerBoundaryIs>

				</Polygon>

				<flyID>11</flyID>

				<flyDescription>Max speed of 3 knots within the Marina</flyDescription>

			</Placemark>
<Placemark>

				<name>Exclusion Zone 50m From Occupied Berths</name>

				<description>Maintain distance of 50m from wharf or vessels at wharf</description>

				<styleUrl>#style6</styleUrl>

				<Polygon>

					<tessellate>1</tessellate>

					<outerBoundaryIs>

						<LinearRing>

							<coordinates>

							173.2680470997656,-41.2626894648612,0 173.2679031690894,-41.26283104879349,0 173.2685521356848,-41.26324740130131,0 173.2692829403993,-41.26258735227107,0 173.269244257351,-41.26253283094963,0 173.2695517813833,-41.26223651310832,0 173.2694755322231,-41.2621666595267,0 173.2695557667628,-41.26209282967413,0 173.2694196815708,-41.26189131932855,0 173.2713250020387,-41.26004911505233,0 173.2718722404618,-41.26151633239996,0 173.2721258523134,-41.2614572041344,0 173.2722083371488,-41.26166885182989,0 173.2723192017004,-41.26166392941395,0 173.2722451516562,-41.26142533034061,0 173.2722992006483,-41.26141485813629,0 173.2723834253263,-41.26172262337634,0 173.272469500181,-41.26179953868699,0 173.2727189939318,-41.26186343571142,0 173.2728278891144,-41.26165427670472,0 173.2730132690521,-41.26170108793679,0 173.2731052438408,-41.26168674167332,0 173.2732226102138,-41.26142685924632,0 173.2734418493098,-41.26149162321779,0 173.2746786902997,-41.25894412774333,0 173.2774378181678,-41.25862124233738,0 173.2775456536708,-41.25878528225216,0 173.2775017689639,-41.25888751027822,0 173.2775630847422,-41.25894409384775,0 173.2775224603875,-41.25910397541858,0 173.2776067549089,-41.25920571934125,0 173.2776440746992,-41.25957571333693,0 173.2778483651064,-41.25992648544199,0 173.2780961859332,-41.26004609006543,0 173.2782741351143,-41.2600647055404,0 173.2784558816904,-41.26011402150723,0 173.2785740526422,-41.260229167246,0 173.2786625063746,-41.2601506739862,0 173.2787033776445,-41.26003985013234,0 173.2786679198001,-41.25984939447712,0 173.2787349151516,-41.25983643051151,0 173.2788472200955,-41.25981040195099,0 173.2788791875615,-41.25952873131806,0 173.2791137778998,-41.25909482672613,0 173.2792307057166,-41.2588718543596,0 173.2792229389488,-41.25871525799826,0 173.279300560038,-41.25870140845638,0 173.2793775605264,-41.25862458297553,0 173.2793294788716,-41.2580780276156,0 173.2790344764659,-41.25800416153059,0 173.2791379986748,-41.25781443174967,0 173.279017844368,-41.25774954608518,0 173.2791473564114,-41.25753870550334,0 173.2786523114542,-41.25741174265642,0 173.2786905723703,-41.2573270088062,0 173.2779225115526,-41.25712912393192,0 173.2777764745699,-41.25717644501713,0 173.2767800056109,-41.25688531901329,0 173.2768634335196,-41.25671357652479,0 173.2758053921677,-41.25644098840384,0 173.2760707128634,-41.25590161213761,0 173.2769736785637,-41.25544837726797,0 173.2765212237083,-41.25495032174182,0 173.2753981354638,-41.25553442870776,0 173.2747763523259,-41.25681794088008,0 173.2772825391236,-41.25751090607295,0 173.277264274582,-41.25756829735598,0 173.2784479061042,-41.25790503980569,0 173.27406805418,-41.25838358654372,0 173.2726612879875,-41.26130846921425,0 173.2716771631961,-41.25865257874295,0 173.2676652003443,-41.26246260576323,0 173.2680470997656,-41.2626894648612,0 
						
</coordinates>

						</LinearRing>

					</outerBoundaryIs>

				</Polygon>

				<flyID>12</flyID>

				<flyDescription>Maintain distance of 50m from wharf or vessels at wharf</flyDescription>

			</Placemark>
<Placemark>

				<name>Rowing, Waka, Swing Moorings And Anchorage</name>

				<description>Use only for specified recreational activity</description>

				<styleUrl>#style8</styleUrl>

				<Polygon>

					<tessellate>1</tessellate>

					<outerBoundaryIs>

						<LinearRing>

							<coordinates>

							173.2629115869191,-41.25627758499728,0 173.2626216090056,-41.25675474722154,0 173.2624174571682,-41.25714629866332,0 173.2622020218629,-41.2576888740976,0 173.2621129044539,-41.25835115954735,0 173.2621942920129,-41.25887402518189,0 173.26213964629,-41.25912251474568,0 173.2620421701321,-41.25940855430694,0 173.2620013390708,-41.25958629170027,0 173.2621492376568,-41.25971698624167,0 173.2622817047429,-41.25958632275685,0 173.262178448644,-41.25941979800742,0 173.262302392797,-41.25929540498225,0 173.2625304198918,-41.25935222272313,0 173.2626752050604,-41.25953125637453,0 173.2625493385863,-41.25973859506097,0 173.262261389199,-41.25982422181433,0 173.2619161032764,-41.2600755005418,0 173.2617801708107,-41.26045686978524,0 173.2612748758016,-41.26094691562015,0 173.260980430089,-41.26105657987093,0 173.2607542228164,-41.2609923105359,0 173.260679714692,-41.26088117433499,0 173.2605734710581,-41.26086129424333,0 173.2604550618663,-41.26094680804381,0 173.2604201450692,-41.26108197228123,0 173.2605573593515,-41.26108199119705,0 173.2606584031672,-41.26117635864298,0 173.2606477011742,-41.2613400272943,0 173.2603481237038,-41.26167804997141,0 173.2599218495362,-41.26187749247138,0 173.2596355569251,-41.26198293134135,0 173.2596635663207,-41.26219644261417,0 173.2598387680208,-41.26244768241704,0 173.260034570564,-41.2625070641543,0 173.2606729654276,-41.26291361859916,0 173.2614243294935,-41.26292059095243,0 173.263967362498,-41.26226643807695,0 173.2709162311637,-41.25596557649575,0 173.2704498946368,-41.25545622965917,0 173.2723273141416,-41.25338823458453,0 173.2743043142594,-41.25236522626271,0 173.2815028984348,-41.24863106732987,0 173.2856357351102,-41.245384823091,0 173.2848537627776,-41.24479817121975,0 173.283004771757,-41.24603823912223,0 173.2802135939135,-41.24819457694172,0 173.2768263687418,-41.24996084302114,0 173.2689214480408,-41.25405913642628,0 173.2686089319927,-41.25387949306555,0 173.268081774252,-41.25404635838368,0 173.2677329758652,-41.25414731270806,0 173.267402963606,-41.25415978208295,0 173.2669624134695,-41.2541773203691,0 173.266784747009,-41.25434184504665,0 173.2666547780977,-41.25464731522804,0 173.2663902220949,-41.25476075674267,0 173.2656717496902,-41.25485871403782,0 173.2647997552528,-41.25503764309077,0 173.26402521168,-41.25542316485207,0 173.2634311762328,-41.25585243099818,0 173.2629115869191,-41.25627758499728,0 
						
</coordinates>

						</LinearRing>

					</outerBoundaryIs>

				</Polygon>

				<flyID>13</flyID>

				<flyDescription>Use only for specified recreational activity</flyDescription>

			</Placemark>
<Placemark>

				<name>5 Knot Zone</name>

				<description>Keep to 5 knots or less (9.25km / fast walking pace) in this area</description>

				<styleUrl>#style1</styleUrl>

				<Polygon>

					<tessellate>1</tessellate>

					<outerBoundaryIs>

						<LinearRing>

							<coordinates>

							173.2558284015683,-41.2754468941911,0 173.2559444537344,-41.27536504617699,0 173.2565936733939,-41.275031694027,0 173.2572408455306,-41.27450918194693,0 173.2577459801021,-41.27399143787783,0 173.2580881435464,-41.2734520486781,0 173.258430941075,-41.27316949360204,0 173.2589016553776,-41.27282744827068,0 173.2594195814313,-41.27247452858202,0 173.2598965206865,-41.27198650313686,0 173.2603219191998,-41.27146241999116,0 173.2608839053654,-41.27104327644079,0 173.261339415644,-41.27087717134558,0 173.2617109444939,-41.27056681325183,0 173.2619675511783,-41.27022934671442,0 173.2622693064656,-41.26988780819389,0 173.2627628192313,-41.26951655490062,0 173.2632467840939,-41.26919382090515,0 173.2635128446683,-41.26879837933952,0 173.2640147072169,-41.26836324066433,0 173.2643982937518,-41.26800579714491,0 173.2647581197134,-41.26752994295624,0 173.2651444106117,-41.26711221970233,0 173.2654865461127,-41.26682138947252,0 173.2658506197944,-41.26643291480104,0 173.2662140998515,-41.26619739242955,0 173.2665186256586,-41.26594252989814,0 173.2669044244693,-41.26554742300742,0 173.267233323783,-41.26500341242668,0 173.2674864958192,-41.26458233459172,0 173.2677538485607,-41.26433106424694,0 173.2679755139442,-41.26425024415956,0 173.2682180309454,-41.26435346608576,0 173.2686359465028,-41.26411762019,0 173.2687632757299,-41.26386237614835,0 173.2688650530274,-41.26360590504037,0 173.2692404128034,-41.26337166752501,0 173.2687749052516,-41.26303214442903,0 173.2685584966884,-41.2632438076979,0 173.2679079458872,-41.2628179509178,0 173.2680511508751,-41.26268810757892,0 173.2676476867414,-41.26245157607928,0 173.2716821474499,-41.25864132061777,0 173.2726744439843,-41.26130485144682,0 173.274074119083,-41.25838186215321,0 173.2784128924686,-41.25790922383632,0 173.2772761916749,-41.25759891046557,0 173.2772913749811,-41.2575191165234,0 173.2747768871116,-41.25681313882726,0 173.2753960769571,-41.25552986296464,0 173.2759320022218,-41.25523397847248,0 173.2720781670328,-41.25702652737712,0 173.265836747093,-41.26267711429567,0 173.2649107417524,-41.26352351083018,0 173.2643068055805,-41.2638820828321,0 173.2631560317618,-41.26431127030146,0 173.2650449696367,-41.26614114038272,0 173.2619731151558,-41.266192241322,0 173.25815093067,-41.26496569476562,0 173.2560553186295,-41.26349166971439,0 173.2566870002502,-41.26393213720532,0 173.257153205878,-41.26442418916938,0 173.2573488314536,-41.26503651143273,0 173.2575943267607,-41.26536889156912,0 173.2578322189919,-41.26547790358767,0 173.2580997738992,-41.26550211666078,0 173.2583980249248,-41.2656099511016,0 173.258650833321,-41.26593820990955,0 173.2587188323147,-41.26616598571828,0 173.2587362959946,-41.26679656756197,0 173.2582964614782,-41.2670696440563,0 173.2580103725966,-41.2672955913368,0 173.2581039787468,-41.26764172952737,0 173.2581713232406,-41.26803258636556,0 173.258251638033,-41.26830876435351,0 173.2587388470435,-41.26870651140466,0 173.2589378895511,-41.26897749287654,0 173.2589713623352,-41.2692357424127,0 173.2587528687926,-41.26939476573758,0 173.2578083946634,-41.26917093672457,0 173.2569044871507,-41.26894371355811,0 173.2566977365235,-41.26886178902813,0 173.2566713002844,-41.26844597977792,0 173.2567143579918,-41.26793162335962,0 173.2566218259501,-41.26766781184863,0 173.2567396268822,-41.26739960534048,0 173.256784895228,-41.26718166892878,0 173.2567536303605,-41.26658514968034,0 173.2570737988691,-41.26616117694045,0 173.2571337466137,-41.26579876861635,0 173.2571366165221,-41.26526377378049,0 173.2572150406679,-41.26496330591086,0 173.2570152955831,-41.26430693404466,0 173.2563754955719,-41.26395793250418,0 173.2559597620619,-41.2635752122617,0 173.2553033465953,-41.26392519231283,0 173.2548392037137,-41.26470728591528,0 173.2547740981931,-41.26579250973511,0 173.2544695854739,-41.26635417277119,0 173.2543405939465,-41.26716012227355,0 173.2544633967172,-41.26816323424745,0 173.2543513323637,-41.26861042750794,0 173.2544470833543,-41.26937927643478,0 173.2549895622685,-41.27013587835281,0 173.2560079460124,-41.27064475393909,0 173.2567849930034,-41.27074699572709,0 173.2578143142628,-41.27108349397445,0 173.2569436826034,-41.27171771762819,0 173.2563286577885,-41.2722970884972,0 173.2557770722446,-41.27294592292332,0 173.2550893903976,-41.27362631441796,0 173.2543933915474,-41.27405637024536,0 173.2537916645575,-41.27468209653573,0 173.2558284015683,-41.2754468941911,0 
						
</coordinates>

						</LinearRing>

					</outerBoundaryIs>

				</Polygon>

				<flyID>14</flyID>

				<flyDescription>Keep to 5 knots or less (9.25km / fast walking pace) in this area</flyDescription>

			</Placemark>
<Placemark>

				<name>5 Knot Zone</name>

				<description>Keep to 5 knots or less (9.25km / fast walking pace) in this area</description>

				<styleUrl>#style1</styleUrl>

				<Polygon>

					<tessellate>1</tessellate>

					<outerBoundaryIs>

						<LinearRing>

							<coordinates>

							173.2587720701384,-41.26312681663842,0 173.2593381846659,-41.26336356765788,0 173.2598948956358,-41.26357358778661,0 173.2606416981357,-41.26367023963319,0 173.2615304157879,-41.26367706547174,0 173.2623992813419,-41.26353600702542,0 173.2632765205594,-41.26327193262991,0 173.2639237666247,-41.26294889578723,0 173.2644232888538,-41.26255975215545,0 173.2639751327455,-41.26226560319404,0 173.2624067940775,-41.26268346482425,0 173.2613811999191,-41.26293352967569,0 173.2606786520219,-41.26291199811312,0 173.260298187211,-41.26267506511647,0 173.2602435388737,-41.26271137736581,0 173.2599626007915,-41.26261637602296,0 173.2597432394561,-41.26256469583132,0 173.2595818414659,-41.26264547443084,0 173.2593825073998,-41.26225546181104,0 173.258783698255,-41.26192312772736,0 173.2578927590624,-41.26253763478003,0 173.2587720701384,-41.26312681663842,0 
						
</coordinates>

						</LinearRing>

					</outerBoundaryIs>

				</Polygon>

				<flyID>15</flyID>

				<flyDescription>Keep to 5 knots or less (9.25km / fast walking pace) in this area</flyDescription>

			</Placemark>
<Placemark>

				<name>Total Exclusion Zone</name>

				<description>Keep clear while large vessels (>3000grt) are in transit</description>

				<styleUrl>#style6</styleUrl>

				<Polygon>

					<tessellate>1</tessellate>

					<outerBoundaryIs>

						<LinearRing>

							<coordinates>

							173.2528538856133,-41.26124502679638,0 173.2581514134884,-41.26496028855579,0 173.2619473150287,-41.26618396304383,0 173.2650417828415,-41.26613952648982,0 173.2631487830862,-41.26430286417573,0 173.2618581621647,-41.26455686365193,0 173.2610835600253,-41.26457981809181,0 173.2599923711388,-41.26451424662408,0 173.2592024343599,-41.26432309746001,0 173.257925853728,-41.26377384177339,0 173.2570280857412,-41.26316523582801,0 173.2540590158229,-41.26104380048074,0 173.2548992118655,-41.26039622206746,0 173.2537531623148,-41.25932796368456,0 173.2516738026999,-41.26003860412284,0 173.2528538856133,-41.26124502679638,0 
						
</coordinates>

						</LinearRing>

					</outerBoundaryIs>

				</Polygon>

				<flyID>16</flyID>

				<flyDescription>Keep clear while large vessels (>3000grt) are in transit</flyDescription>

			</Placemark>
<Placemark>

				<name>Personal Water Craft (Jet Ski)/Water Ski Area</name>

				<description>Personal water craft area to be shared with water skiiers. This area is for priority use by vessels towing people or an object (waterskiing). Towing boats must carry an observer over 10 years old, stay as far as practicable to starboard (the right hand side) when inside the area, and make circuits in an anti-clockwise direction. Do not park boats on the landing beach inside the area. Towing boats may exceed 5 knots inside the reserved area, and when more than 200m from shore or a divers blue and white flag and 50m from any other water user when outside it. If any boat is waterskiing in the area or nearby, other water users must keep out of the reserved area.</description>

				<styleUrl>#style0</styleUrl>

				<Polygon>

					<tessellate>1</tessellate>

					<outerBoundaryIs>

						<LinearRing>

							<coordinates>

							173.1494275693299,-41.28469940907364,0 173.1498480855486,-41.28481247416848,0 173.1504980163876,-41.28495661847015,0 173.151681261723,-41.28536039175656,0 173.1526454693875,-41.28568149208786,0 173.1539340618226,-41.28578813621913,0 173.1574120063248,-41.28511900689753,0 173.1585804346866,-41.28517216265119,0 173.1587051798171,-41.28472212691438,0 173.1589788665192,-41.28353374835068,0 173.1536783885481,-41.28385060970388,0 173.1513785836472,-41.2838117390967,0 173.1497545921104,-41.28279679056269,0 173.1487642568349,-41.28469935313202,0 173.1494275693299,-41.28469940907364,0 
						
</coordinates>

						</LinearRing>

					</outerBoundaryIs>

				</Polygon>

				<flyID>17</flyID>

				<flyDescription>Personal water craft area to be shared with water skiiers. This area is for priority use by vessels towing people or an object (waterskiing). Towing boats must carry an observer over 10 years old, stay as far as practicable to starboard (the right hand side) when inside the area, and make circuits in an anti-clockwise direction. Do not park boats on the landing beach inside the area. Towing boats may exceed 5 knots inside the reserved area, and when more than 200m from shore or a divers blue and white flag and 50m from any other water user when outside it. If any boat is waterskiing in the area or nearby, other water users must keep out of the reserved area.</flyDescription>

			</Placemark>
<Placemark>

				<name>Water Skiing Area</name>

				<description>This area is for priority use by vessels towing people or an object (‘waterskiing’). Towing boats must carry an observer over 10 years old, stay as far as practicable to starboard (the right hand side) when inside the area, and make circuits in an anti-clockwise direction. Do not park boats on the landing beach inside the area. Towing boats may exceed 5 knots inside the reserved area, and when more than 200m from shore or a diver’s blue and white flag and 50m from any other water user when outside it. If any boat is waterskiing in the area or nearby, other water users must keep out of the reserved area.</description>

				<styleUrl>#style0</styleUrl>

				<Polygon>

					<tessellate>1</tessellate>

					<outerBoundaryIs>

						<LinearRing>

							<coordinates>

							173.1045545143612,-41.26616661744102,0 173.105201568047,-41.27013122654606,0 173.1070260136801,-41.27152875813493,0 173.1086111110188,-41.27172292754216,0 173.1098286296835,-41.27161441279655,0 173.1106657483439,-41.27133013040032,0 173.1072729088827,-41.26986648130825,0 173.1063216393183,-41.2659189032492,0 173.1094147532949,-41.26602506205801,0 173.113346490366,-41.26707452527104,0 173.1164384105674,-41.26752102210238,0 173.1179613764137,-41.26827050896167,0 173.1186519776589,-41.26915031090758,0 173.1192206305855,-41.26875440155832,0 173.1183911901697,-41.26761067676139,0 173.1174705304709,-41.26699531534438,0 173.1127078926079,-41.26616500649742,0 173.1101979802605,-41.26529602978673,0 173.1093254972368,-41.26512444517496,0 173.1058861314901,-41.26496926055512,0 173.10574482934,-41.26446982978423,0 173.1051323409886,-41.2638596131992,0 173.1044364788401,-41.2635077285896,0 173.1028994646824,-41.26494929528712,0 173.1045545143612,-41.26616661744102,0 
						
</coordinates>

						</LinearRing>

					</outerBoundaryIs>

				</Polygon>

				<flyID>18</flyID>

				<flyDescription>This area is for priority use by vessels towing people or an object (‘waterskiing’). Towing boats must carry an observer over 10 years old, stay as far as practicable to starboard (the right hand side) when inside the area, and make circuits in an anti-clockwise direction. Do not park boats on the landing beach inside the area. Towing boats may exceed 5 knots inside the reserved area, and when more than 200m from shore or a diver’s blue and white flag and 50m from any other water user when outside it. If any boat is waterskiing in the area or nearby, other water users must keep out of the reserved area.</flyDescription>

			</Placemark>
<Placemark>

				<name>Water Skiing Area</name>

				<description>This area is for priority use by vessels towing people or an object (‘waterskiing’). Towing boats must carry an observer over 10 years old, stay as far as practicable to starboard (the right hand side) when inside the area, and make circuits in an anti-clockwise direction. Do not park boats on the landing beach at the eastern end of  the area. Towing boats may exceed 5 knots inside the reserved area, and when more than 200m from shore or a diver’s blue and white flag and 50m from any other water user when outside it. If any boat is waterskiing in the area or nearby, other water users must keep out of the reserved area. This popular area only provides sufficient water for waterskiing 2 or 3 hours either side of high tide, but is sheltered from most breezes. WARNING: Local knowledge of the position and depth of sand bars and oyster banks is essential.</description>

				<styleUrl>#style2</styleUrl>

				<Polygon>

					<tessellate>1</tessellate>

					<outerBoundaryIs>

						<LinearRing>

							<coordinates>

							173.1666938006445,-41.28579055936088,0 173.1706314013382,-41.28477711413399,0 173.1794507942768,-41.28711836834641,0 173.1884308544364,-41.29110694557892,0 173.1912659664397,-41.28804639405564,0 173.190551854841,-41.28813892735509,0 173.189243263191,-41.28774835497373,0 173.1882059860099,-41.2876205393203,0 173.1871811626395,-41.28740987236768,0 173.1856291986495,-41.2870951115285,0 173.1846802094893,-41.28631576254109,0 173.183717762888,-41.28500448062452,0 173.1835835514718,-41.28473836025836,0 173.1830534719501,-41.28376175567566,0 173.1823581117725,-41.28304507697097,0 173.1819190528808,-41.28224814271697,0 173.1813910532376,-41.2817476518982,0 173.1800691515663,-41.28087994072965,0 173.1793486850932,-41.28060385380496,0 173.1784403463682,-41.28058379710785,0 173.1774501250535,-41.28068304344665,0 173.1760934356383,-41.2807617941687,0 173.175335295222,-41.28087923415912,0 173.1732300788371,-41.28130085070776,0 173.1722566098236,-41.28133843776111,0 173.1709916768885,-41.28109114519923,0 173.1692628644591,-41.28099453554333,0 173.1681049055547,-41.28091673862706,0 173.1662994736377,-41.28044102446471,0 173.164748835302,-41.28033941638792,0 173.1630058413812,-41.28089599606633,0 173.1622774037691,-41.28148601366366,0 173.1613031198359,-41.28271992942813,0 173.160357202877,-41.28333640086765,0 173.1589884154872,-41.2835108154739,0 173.158568771879,-41.28520655432948,0 173.1666938006445,-41.28579055936088,0 
						
</coordinates>

						</LinearRing>

					</outerBoundaryIs>

				</Polygon>

				<flyID>19</flyID>

				<flyDescription>This area is for priority use by vessels towing people or an object (‘waterskiing’). Towing boats must carry an observer over 10 years old, stay as far as practicable to starboard (the right hand side) when inside the area, and make circuits in an anti-clockwise direction. Do not park boats on the landing beach at the eastern end of  the area. Towing boats may exceed 5 knots inside the reserved area, and when more than 200m from shore or a diver’s blue and white flag and 50m from any other water user when outside it. If any boat is waterskiing in the area or nearby, other water users must keep out of the reserved area. This popular area only provides sufficient water for waterskiing 2 or 3 hours either side of high tide, but is sheltered from most breezes. WARNING: Local knowledge of the position and depth of sand bars and oyster banks is essential.</flyDescription>

			</Placemark>
<Placemark>

				<name>Transit Lane (15 Knots Speed Limit)</name>

				<description>Keep to starboard side of lane and travel at appropriate speed, not exceeding 15 Knots.</description>

				<styleUrl>#style3</styleUrl>

				<Polygon>

					<tessellate>1</tessellate>

					<outerBoundaryIs>

						<LinearRing>

							<coordinates>

							173.1032492626266,-41.25848807985342,0 173.1054032179914,-41.25484552656976,0 173.1125984448952,-41.24985726929946,0 173.1121457201402,-41.24951158433677,0 173.1050025669332,-41.25444970894385,0 173.1026339673489,-41.2583848906757,0 173.1034347335493,-41.26423286122092,0 173.1039954742294,-41.2637827785266,0 173.1032492626266,-41.25848807985342,0 
						
</coordinates>

						</LinearRing>

					</outerBoundaryIs>

				</Polygon>

				<flyID>20</flyID>

				<flyDescription>Keep to starboard side of lane and travel at appropriate speed, not exceeding 15 Knots.</flyDescription>

			</Placemark>

</Document>
</kml>
