<?xml version="1.0" encoding="UTF-8"?>
<kml xmlns="http://www.opengis.net/kml/2.2" xmlns:gx="http://www.google.com/kml/ext/2.2" xmlns:kml="http://www.opengis.net/kml/2.2" xmlns:atom="http://www.w3.org/2005/Atom">
<Document>
<name>R20 C47.kml</name>

<Style id="style0">

					<LineStyle>

						<color>ffff0000</color>

					</LineStyle>

					<PolyStyle>

						<color>ffff0000</color>

						<width>0.9</width>

					</PolyStyle>

				</Style>

<Placemark>

				<name>Personal Water Craft Area</name>

				<description>This area is reserved for personal watercraft.</description>

				<styleUrl>#style0</styleUrl>

				<Polygon>

					<tessellate>1</tessellate>

					<outerBoundaryIs>

						<LinearRing>

							<coordinates>

							176.2732468386783,-37.68706947127446,0 176.270287645714,-37.68582132329542,0 176.2685156500468,-37.68838191976266,0 176.2714238144349,-37.68962666293532,0 176.2732468386783,-37.68706947127446,0 
						
</coordinates>

						</LinearRing>

					</outerBoundaryIs>

				</Polygon>

				<flyID>0</flyID>

				<flyDescription>This area is reserved for personal watercraft.</flyDescription>

			</Placemark>

</Document>
</kml>
