<?xml version="1.0" encoding="UTF-8"?>
<kml xmlns="http://www.opengis.net/kml/2.2" xmlns:gx="http://www.google.com/kml/ext/2.2" xmlns:kml="http://www.opengis.net/kml/2.2" xmlns:atom="http://www.w3.org/2005/Atom">
<Document>
<name>R48 C18.kml</name>

<Style id="style0">

					<LineStyle>

						<color>ff5fb0a9</color>

					</LineStyle>

					<PolyStyle>

						<color>ff5fb0a9</color>

						<width>0.9</width>

					</PolyStyle>

				</Style>
<Style id="style1">

					<LineStyle>

						<color>ffff0000</color>

					</LineStyle>

					<PolyStyle>

						<color>ffff0000</color>

						<width>0.9</width>

					</PolyStyle>

				</Style>
<Style id="style2">

					<LineStyle>

						<color>ff00ffff</color>

					</LineStyle>

					<PolyStyle>

						<color>ff00ffff</color>

						<width>0.9</width>

					</PolyStyle>

				</Style>

<Placemark>

				<name>5 Knot Zone - Time Restricted</name>

				<description>The 5 Knot Speed limit is removed from 10am to 4pm and 10am-6pm during daylight savings.</description>

				<styleUrl>#style0</styleUrl>

				<Polygon>

					<tessellate>1</tessellate>

					<outerBoundaryIs>

						<LinearRing>

							<coordinates>

							169.2858296676608,-44.71362923971502,0 169.2861479360234,-44.71440066822608,0 169.2851756072451,-44.7152949669528,0 169.2832330887059,-44.71638508723641,0 169.2797084080217,-44.71688398418692,0 169.2787229169526,-44.71746906501556,0 169.2779064962596,-44.71904502695798,0 169.2774844923518,-44.72036979642141,0 169.2782776827416,-44.72177814983978,0 169.278766952383,-44.7236367673275,0 169.2772030443156,-44.72533887786594,0 169.2766083558917,-44.72594095187908,0 169.2742447284841,-44.72711501872085,0 169.2713974720985,-44.72817053984254,0 169.2694431030872,-44.72911103259973,0 169.2690852814196,-44.73024678521596,0 169.2692059200688,-44.73140122068372,0 169.2708331794984,-44.73253119328565,0 169.2741933650873,-44.73288137119782,0 169.2761925011386,-44.73269309313348,0 169.2783293580602,-44.73152911980973,0 169.2800482011552,-44.73098662840773,0 169.2814997746002,-44.73152247322382,0 169.2818650599259,-44.73007235377888,0 169.2805195154783,-44.73030607844208,0 169.2783565641087,-44.73030740056682,0 169.2762064566303,-44.73140942098623,0 169.2738795814367,-44.7319517900112,0 169.2714297624721,-44.73185854273518,0 169.2702183759148,-44.7311214713291,0 169.2700496923644,-44.73048011880053,0 169.2705015652419,-44.72962742829768,0 169.2724830837719,-44.72894724595393,0 169.2751728982362,-44.72799370045956,0 169.2773063128365,-44.7270238193715,0 169.2787654698643,-44.72581001200378,0 169.2796359824592,-44.72503451130132,0 169.2799192558209,-44.72380243012902,0 169.2791061740373,-44.72116703759008,0 169.2789055738612,-44.71986941475406,0 169.2793006510035,-44.71896260146242,0 169.2798818919273,-44.71869716376077,0 169.2829574930785,-44.71765146409891,0 169.2858694152488,-44.71630296027431,0 169.2869049314975,-44.71487413245537,0 169.2872625560085,-44.71377356194328,0 169.2863454211976,-44.71285241650809,0 169.2858296676608,-44.71362923971502,0 
						
</coordinates>

						</LinearRing>

					</outerBoundaryIs>

				</Polygon>

				<flyID>0</flyID>

				<flyDescription>The 5 Knot Speed limit is removed from 10am to 4pm and 10am-6pm during daylight savings.</flyDescription>

			</Placemark>
<Placemark>

				<name>5 Knot Zone - Time Restricted</name>

				<description>The 5 Knot Speed limit is removed from 10am to 4pm and 10am-6pm during daylight savings.</description>

				<styleUrl>#style0</styleUrl>

				<Polygon>

					<tessellate>1</tessellate>

					<outerBoundaryIs>

						<LinearRing>

							<coordinates>

							169.2530101757733,-44.70391027962329,0 169.2587126480625,-44.70568336340529,0 169.2603096048696,-44.70643892859698,0 169.263953288029,-44.70686355268091,0 169.2661581803596,-44.70743871815898,0 169.2672927208357,-44.70816633328846,0 169.2677184335564,-44.70897192336278,0 169.267653477071,-44.70968009082243,0 169.2664030284465,-44.71025284470431,0 169.2625523465094,-44.7109274291759,0 169.2597170560718,-44.71265810193155,0 169.2600711977632,-44.7140258924715,0 169.2610648556121,-44.71644812173079,0 169.2616740741889,-44.71731806886157,0 169.2630224355306,-44.71781075865844,0 169.2643532060635,-44.71787422873493,0 169.2659831111486,-44.71751624905381,0 169.2675587293104,-44.71660207323377,0 169.2682133965132,-44.71605452655854,0 169.2689876964068,-44.71358785650219,0 169.2693483151199,-44.7127143936215,0 169.2708892579959,-44.71181924912872,0 169.2721730110675,-44.71181912169938,0 169.273246011301,-44.71224707944042,0 169.2746115531491,-44.71363817087195,0 169.2757629857755,-44.71413048115059,0 169.2774426619876,-44.71466368707109,0 169.2796499816,-44.71403444542801,0 169.2822862012159,-44.71360872332895,0 169.2850657608265,-44.71333718956338,0 169.2858296676608,-44.71362923971502,0 169.2863454211976,-44.71285241650809,0 169.284854553326,-44.71227940456499,0 169.2827207229416,-44.71259846763364,0 169.2794739504081,-44.71309271391988,0 169.2782772072035,-44.71355440194899,0 169.2770501656933,-44.71360299640367,0 169.2750704817979,-44.71215166027633,0 169.2730379048732,-44.71092310065106,0 169.271539692683,-44.71078939167208,0 169.2693790655486,-44.71140884790941,0 169.2681039821953,-44.71251904123817,0 169.2672648083862,-44.71260815328319,0 169.2666506450443,-44.71322979802831,0 169.2663186968033,-44.71431648223361,0 169.2658316282795,-44.71627502986769,0 169.2650617244103,-44.71680382890605,0 169.2638401638516,-44.71702187914127,0 169.2623334338071,-44.71621525508189,0 169.2615448217589,-44.71487567224651,0 169.2609759737841,-44.71284380681431,0 169.262538367323,-44.71202058322557,0 169.26418702333,-44.7120815366961,0 169.2658225638579,-44.71192501548867,0 169.267564360376,-44.71136584155834,0 169.2686342720298,-44.71047910788824,0 169.2690756726037,-44.70938799267768,0 169.2685839856776,-44.70820407318518,0 169.2676254759553,-44.70719969470417,0 169.2656749888471,-44.70636014416267,0 169.2629513487725,-44.70580311044414,0 169.2598340830627,-44.70515307476101,0 169.2576168971513,-44.70437014355946,0 169.2547471719342,-44.70340465705451,0 169.2530101757733,-44.70391027962329,0 
						
</coordinates>

						</LinearRing>

					</outerBoundaryIs>

				</Polygon>

				<flyID>1</flyID>

				<flyDescription>The 5 Knot Speed limit is removed from 10am to 4pm and 10am-6pm during daylight savings.</flyDescription>

			</Placemark>
<Placemark>

				<name>5 Knot Zone - Time Restricted</name>

				<description>The 5 Knot Speed limit is removed from 10am to 4pm and 10am-6pm during daylight savings.</description>

				<styleUrl>#style0</styleUrl>

				<Polygon>

					<tessellate>1</tessellate>

					<outerBoundaryIs>

						<LinearRing>

							<coordinates>

							169.1993709834697,-44.68599214433297,0 169.2006964758099,-44.68739681774763,0 169.2034492495716,-44.68819161724227,0 169.2065358846084,-44.68929706451777,0 169.2082841162857,-44.69031149368709,0 169.2088544361978,-44.6910937692271,0 169.2107370677574,-44.69279824196735,0 169.2120173951564,-44.69367779763157,0 169.2144500577898,-44.6949809841994,0 169.2171342303969,-44.69542676516567,0 169.2193526681095,-44.69557770577559,0 169.2244041288581,-44.69458844128538,0 169.226664295539,-44.69425381654321,0 169.228448053378,-44.69445321440784,0 169.2308859151399,-44.69481141139033,0 169.2326904666416,-44.69535174850009,0 169.235661904906,-44.69630964162426,0 169.2418820359921,-44.69823234425114,0 169.2442722886719,-44.70054127873822,0 169.2460383420493,-44.70184628554647,0 169.2487816713879,-44.70278276072892,0 169.2530101757733,-44.70391027962329,0 169.2547471719342,-44.70340465705451,0 169.2520003220259,-44.70264907076281,0 169.2501233848122,-44.70225638469609,0 169.2475527380962,-44.70173873776513,0 169.2454336059095,-44.70057598008862,0 169.2442696028341,-44.69919932094128,0 169.2428284389473,-44.69802931100095,0 169.2410991014974,-44.69731933058513,0 169.2362116671259,-44.69578051001105,0 169.2326430345311,-44.69474132437178,0 169.229548551313,-44.6939026155794,0 169.2272109385034,-44.69347053978178,0 169.2247412688446,-44.69377348430859,0 169.2214644361509,-44.69451024123166,0 169.2192270366381,-44.69488087540075,0 169.2167369947023,-44.69454978513509,0 169.2151470981623,-44.69411826347159,0 169.2118734073715,-44.69299498011452,0 169.2098344595801,-44.68980448482459,0 169.2081493924699,-44.68922459227799,0 169.2063182957069,-44.68803358129226,0 169.2041194468712,-44.68769606051484,0 169.2026355802526,-44.68701293897538,0 169.2007295528807,-44.68613589352185,0 169.2003046886721,-44.68554671714703,0 169.2005700078486,-44.6842658100095,0 169.1993709834697,-44.68599214433297,0 
						
</coordinates>

						</LinearRing>

					</outerBoundaryIs>

				</Polygon>

				<flyID>2</flyID>

				<flyDescription>The 5 Knot Speed limit is removed from 10am to 4pm and 10am-6pm during daylight savings.</flyDescription>

			</Placemark>
<Placemark>

				<name>5 Knot Zone - Time Restricted</name>

				<description>The 5 Knot Speed limit is removed from 10am to 4pm and 10am-6pm during daylight savings.</description>

				<styleUrl>#style0</styleUrl>

				<Polygon>

					<tessellate>1</tessellate>

					<outerBoundaryIs>

						<LinearRing>

							<coordinates>

							169.1651189009672,-44.66859470633457,0 169.1669204472599,-44.66885097458875,0 169.1692852662043,-44.66939114251011,0 169.1711160221227,-44.67008465202758,0 169.1729026510353,-44.67050783590528,0 169.1758999549413,-44.67095246139335,0 169.1784564850263,-44.67122972220111,0 169.1814891638477,-44.6715145858127,0 169.183418221742,-44.67192142963383,0 169.1847986547458,-44.67238403972558,0 169.1865086906196,-44.673460749939,0 169.1870901239928,-44.67422243626707,0 169.1871979902018,-44.67503507094575,0 169.1867221700499,-44.67541303883309,0 169.186988725736,-44.67606465490525,0 169.1873565320126,-44.67682597539412,0 169.1876631401286,-44.67792050631028,0 169.1878640973512,-44.67833771639533,0 169.1876250036274,-44.67899811251874,0 169.1871691643822,-44.67930022708778,0 169.1865929243162,-44.67950588680917,0 169.1872423826389,-44.68026369419108,0 169.188558576426,-44.68099085344014,0 169.1918555320661,-44.68141904702168,0 169.1933591265401,-44.68113459154982,0 169.1945535279701,-44.68109906546079,0 169.1966884235895,-44.68165205357987,0 169.1991499857265,-44.68320594211325,0 169.1993155665101,-44.68447946243145,0 169.1993709834697,-44.68599214433297,0 169.2005700078486,-44.6842658100095,0 169.200626137407,-44.68305698296387,0 169.1971599033127,-44.68074494982365,0 169.1928228090773,-44.68014646728081,0 169.1917984275086,-44.6806329821466,0 169.1897730302216,-44.68048146031403,0 169.1884506913048,-44.67998861495619,0 169.1883366435027,-44.67921825623456,0 169.1889836341869,-44.67843492954512,0 169.1889300690727,-44.67694491249701,0 169.1885477510536,-44.67583602712593,0 169.1884607759677,-44.67419006581998,0 169.185861874832,-44.67212617266231,0 169.1834651276986,-44.67104287327663,0 169.1818830853912,-44.67065815687069,0 169.1784175168535,-44.67022824865705,0 169.1767467640593,-44.67058408169173,0 169.1701470383595,-44.66897871840912,0 169.1675184752479,-44.66818029818826,0 169.1655203306832,-44.66795096893449,0 169.1632118043375,-44.66757475773567,0 169.1632346182507,-44.66805254675607,0 169.1632783970586,-44.66884453830347,0 169.1651189009672,-44.66859470633457,0 
						
</coordinates>

						</LinearRing>

					</outerBoundaryIs>

				</Polygon>

				<flyID>3</flyID>

				<flyDescription>The 5 Knot Speed limit is removed from 10am to 4pm and 10am-6pm during daylight savings.</flyDescription>

			</Placemark>
<Placemark>

				<name>5 Knot Zone</name>

				<description>Keep to 5 knots or less (9.25km / fast walking pace) in this area</description>

				<styleUrl>#style2</styleUrl>

				<Polygon>

					<tessellate>1</tessellate>

					<outerBoundaryIs>

						<LinearRing>

							<coordinates>

							169.2453837922703,-44.64534816450296,0 169.2454017726329,-44.64454059892483,0 169.2448511685525,-44.64303368340566,0 169.2446197052312,-44.64171463682355,0 169.2450578714124,-44.6406955474289,0 169.2464427933867,-44.6392616458703,0 169.2474027708323,-44.6383352051454,0 169.2487524934669,-44.63698155659776,0 169.2495189398987,-44.63600790071988,0 169.2499587302834,-44.63569185853216,0 169.2506377984496,-44.6355690575719,0 169.251015944087,-44.6351605938967,0 169.2526981477862,-44.63507360291283,0 169.2537539410722,-44.63363319411273,0 169.2546401550085,-44.63211238129426,0 169.2549455291449,-44.63148548302733,0 169.2551916559787,-44.63037163855616,0 169.2548457725407,-44.62869121078279,0 169.254204717094,-44.62572513364395,0 169.2535535474778,-44.624067263027,0 169.2529035126985,-44.62290723930926,0 169.2517892175355,-44.62240630157652,0 169.2511309028049,-44.62156338367765,0 169.2505972699684,-44.62053562112386,0 169.2502207154943,-44.61905871714484,0 169.2509345757837,-44.61570403917113,0 169.2511308869288,-44.61121957717867,0 169.2500106415854,-44.61104654930438,0 169.2500536906668,-44.61423251438126,0 169.2500713392894,-44.61586530817657,0 169.2496535328093,-44.6177559822251,0 169.2496390391642,-44.61937280387696,0 169.2497621217199,-44.62040053338554,0 169.2501450016974,-44.62141612931761,0 169.2507920121593,-44.62228434831141,0 169.2514915497744,-44.62297831916298,0 169.2524292256391,-44.62349180772026,0 169.2528356176773,-44.6241559544964,0 169.253595410401,-44.62576130541613,0 169.2539092848893,-44.62725359780565,0 169.2541370057815,-44.62826770606781,0 169.2545641531454,-44.6290223911131,0 169.2546812790168,-44.62998052524366,0 169.2544229514944,-44.63133924128816,0 169.2539794569341,-44.63237171409962,0 169.2532129740713,-44.63368067352822,0 169.2525381534542,-44.63439797379116,0 169.2514538962599,-44.63459944570599,0 169.25101633308,-44.63458155249123,0 169.2496590405958,-44.6353604484956,0 169.2487874678477,-44.63578756123248,0 169.2479351970649,-44.63695104119277,0 169.2473891036341,-44.63758825866424,0 169.2461102011797,-44.63869582312564,0 169.2451814987709,-44.63964413866007,0 169.244130145121,-44.64105474970007,0 169.2439765369709,-44.64155475985282,0 169.2439957710167,-44.64225757359512,0 169.2445319177245,-44.64378625449754,0 169.2448066750563,-44.64457668967924,0 169.2448762015988,-44.64549214750225,0 169.2446625678134,-44.64569037148592,0 169.2447568161996,-44.64631946077851,0 169.2453837922703,-44.64534816450296,0 
						
</coordinates>

						</LinearRing>

					</outerBoundaryIs>

				</Polygon>

				<flyID>4</flyID>

				<flyDescription>Keep to 5 knots or less (9.25km / fast walking pace) in this area</flyDescription>

			</Placemark>
<Placemark>

				<name>5 Knot Zone</name>

				<description>Keep to 5 knots or less (9.25km / fast walking pace) in this area</description>

				<styleUrl>#style2</styleUrl>

				<Polygon>

					<tessellate>1</tessellate>

					<outerBoundaryIs>

						<LinearRing>

							<coordinates>

							169.2382251429233,-44.66846527649934,0 169.2402598724389,-44.66768983231757,0 169.2421505979416,-44.66651409682153,0 169.2433639005512,-44.66576577175238,0 169.244685795796,-44.66523033108131,0 169.2454966023474,-44.66424490262479,0 169.2457802162167,-44.66196119470511,0 169.245710408402,-44.6612744950589,0 169.2455736075946,-44.65991540482857,0 169.2455468474564,-44.65854435069861,0 169.2455864987199,-44.65745135271445,0 169.2461658125421,-44.65677369607386,0 169.246421308787,-44.65586451816071,0 169.2464817926154,-44.65506643763492,0 169.2463974825972,-44.65433582589368,0 169.2464510117141,-44.65336389289391,0 169.2468227378834,-44.65277990559116,0 169.2468209182709,-44.65164207821391,0 169.2465839818728,-44.65063998437483,0 169.2455168619844,-44.64939957367741,0 169.2453792744416,-44.6487342579088,0 169.2452832564808,-44.64744453329796,0 169.2453837922703,-44.64534816450296,0 169.2447568161996,-44.64631946077851,0 169.2447878314174,-44.64765800055048,0 169.244736864661,-44.64849353769888,0 169.2447861271003,-44.6489780168433,0 169.2456547162841,-44.65031431483158,0 169.2462897266465,-44.65140233860439,0 169.2461928015278,-44.65232463760685,0 169.2459045877731,-44.6530216476765,0 169.2457901562438,-44.65354741147036,0 169.2458277769517,-44.65425766982562,0 169.2460115112604,-44.65479280108302,0 169.2460424695622,-44.65523166794476,0 169.2459378759281,-44.65593677779332,0 169.2454002084193,-44.65675599860025,0 169.2449832835389,-44.65760643041989,0 169.2448987383204,-44.65833886967435,0 169.2448484479729,-44.65868539097725,0 169.245203939761,-44.66005339060069,0 169.2451895311411,-44.66112890328299,0 169.2451642874272,-44.66267192032225,0 169.2449002449993,-44.66389746227348,0 169.2446495194577,-44.66439721626698,0 169.2436755935439,-44.66503846929649,0 169.2430934111083,-44.66549084835326,0 169.2421248218159,-44.66590116127138,0 169.2409141409064,-44.66643982549208,0 169.2392943425071,-44.66745806217575,0 169.2379766662944,-44.66797400086212,0 169.2382251429233,-44.66846527649934,0 
						
</coordinates>

						</LinearRing>

					</outerBoundaryIs>

				</Polygon>

				<flyID>5</flyID>

				<flyDescription>Keep to 5 knots or less (9.25km / fast walking pace) in this area</flyDescription>

			</Placemark>
<Placemark>

				<name>5 Knot Zone</name>

				<description>Keep to 5 knots or less (9.25km / fast walking pace) in this area</description>

				<styleUrl>#style2</styleUrl>

				<Polygon>

					<tessellate>1</tessellate>

					<outerBoundaryIs>

						<LinearRing>

							<coordinates>

							169.2095244181409,-44.66663225958788,0 169.2111663434357,-44.66637686123887,0 169.2119214085453,-44.66643442248198,0 169.2130021911042,-44.66582627776521,0 169.2137478084385,-44.66528072505972,0 169.2139895146743,-44.664235416739,0 169.213945209757,-44.66366454050481,0 169.2134166256193,-44.66317686180849,0 169.2135784876777,-44.66270658551734,0 169.2141496823322,-44.6626372858139,0 169.2149610566356,-44.66335426353621,0 169.2158581998796,-44.6642294018796,0 169.2161251798097,-44.66445691629715,0 169.2163484292303,-44.66513687629119,0 169.2161318465122,-44.66591298674958,0 169.2155779126432,-44.6664562190701,0 169.2142109246444,-44.66695486114891,0 169.2137792104016,-44.66725454958042,0 169.2133570975875,-44.66786067734076,0 169.2133134645304,-44.6682895925047,0 169.2135976711403,-44.66884605842492,0 169.2147206882175,-44.66928954644593,0 169.2156915066352,-44.66958262992618,0 169.2175244977137,-44.66966435144752,0 169.2184173825827,-44.66976051534471,0 169.2196612008334,-44.67037896661267,0 169.2208314311114,-44.67077611013497,0 169.2220537960414,-44.67074139948198,0 169.2231598608258,-44.67043324090383,0 169.2240082887174,-44.67008721072867,0 169.2242728876312,-44.66959125120921,0 169.2245451380886,-44.66929951956097,0 169.2247825918452,-44.66870586946483,0 169.2253266444128,-44.668177210426,0 169.2259808573063,-44.66798018394238,0 169.2270500382611,-44.66794256363578,0 169.2278144253705,-44.66816070492028,0 169.2285139647699,-44.66903443966226,0 169.2289994362134,-44.6694124913458,0 169.2295091555664,-44.66973018993681,0 169.2301359934927,-44.67021760046536,0 169.231200590937,-44.6705571927028,0 169.2329154955097,-44.67079779020921,0 169.2341996063543,-44.67031495103585,0 169.2360257289494,-44.66956820332304,0 169.2382251429233,-44.66846527649934,0 169.2379766662944,-44.66797400086212,0 169.2369398852542,-44.66852515266803,0 169.2362000360413,-44.66880183543619,0 169.235150661245,-44.66923803388529,0 169.2344188768711,-44.6696130914663,0 169.2341316527574,-44.66972750165387,0 169.2329997350533,-44.67002859729045,0 169.2325107382796,-44.67014069453384,0 169.2314499547832,-44.6700635895131,0 169.230314817972,-44.66960138562162,0 169.2296350010157,-44.66880534012096,0 169.2280924212551,-44.66769223948851,0 169.2267847450664,-44.66750003021248,0 169.2251376553064,-44.66763367804324,0 169.2245282544762,-44.66801003708191,0 169.2237889991692,-44.66889831093793,0 169.2228575956202,-44.67003680165625,0 169.2217376726106,-44.67024121533853,0 169.2210844668134,-44.67014438596362,0 169.2203824450949,-44.6696123676436,0 169.2187793176158,-44.66910117590563,0 169.2164663271927,-44.66888455755569,0 169.2143983063158,-44.66870078425534,0 169.2139418077248,-44.66838793433207,0 169.2138649359925,-44.66802561635048,0 169.214226600648,-44.66746218883974,0 169.2156864876064,-44.66700311801253,0 169.216320591517,-44.66640419061959,0 169.2167297727268,-44.66608018399383,0 169.2168638840733,-44.66531844439447,0 169.2169008393586,-44.66467382650819,0 169.2166632089127,-44.66405619666102,0 169.2161602004918,-44.66380506919815,0 169.2156475212773,-44.66341512220595,0 169.214557921332,-44.66223234161556,0 169.2140151370448,-44.66201377683863,0 169.2132428250945,-44.66205516191452,0 169.2126696336026,-44.66269195902022,0 169.2124300669337,-44.66306594555574,0 169.2126177757199,-44.66351382617147,0 169.2130000447762,-44.66396563402974,0 169.2134002991613,-44.66427376412756,0 169.2134177606023,-44.6645874723577,0 169.213113265976,-44.66490043206029,0 169.2128599094614,-44.66527556603295,0 169.2123063572998,-44.66563668733367,0 169.2116276132687,-44.66591356812509,0 169.2107415257012,-44.66586318505821,0 169.2095446030984,-44.66590802373329,0 169.2084218483895,-44.66626343956992,0 169.2095244181409,-44.66663225958788,0 
						
</coordinates>

						</LinearRing>

					</outerBoundaryIs>

				</Polygon>

				<flyID>6</flyID>

				<flyDescription>Keep to 5 knots or less (9.25km / fast walking pace) in this area</flyDescription>

			</Placemark>
<Placemark>

				<name>5 Knot Zone</name>

				<description>Keep to 5 knots or less (9.25km / fast walking pace) in this area</description>

				<styleUrl>#style2</styleUrl>

				<Polygon>

					<tessellate>1</tessellate>

					<outerBoundaryIs>

						<LinearRing>

							<coordinates>

							169.19276712017,-44.68011833093403,0 169.1970783890521,-44.68065369595039,0 169.1955804014112,-44.67882890783407,0 169.1954859880306,-44.67791085776928,0 169.1962261223679,-44.6758868659746,0 169.1967532918754,-44.67527311305786,0 169.1981568322114,-44.67490290376156,0 169.1987521342056,-44.67461515618705,0 169.1997699896893,-44.67492659891785,0 169.2008044289797,-44.67558589932655,0 169.2015494656655,-44.67559997322374,0 169.2025992162541,-44.67578868596852,0 169.2032150976632,-44.67569490029522,0 169.2042700374448,-44.67481595400886,0 169.2050676223797,-44.67407072123615,0 169.2056650561247,-44.67285949946385,0 169.2054933474109,-44.67186280276342,0 169.2048386824878,-44.67129540031024,0 169.203801592052,-44.67106334412441,0 169.2017736425983,-44.67111094815445,0 169.1998651148382,-44.67083946955367,0 169.1989772548786,-44.6704929929226,0 169.1984476439357,-44.66987815300418,0 169.1983215514756,-44.66881706736366,0 169.1988222720878,-44.66800344477201,0 169.2004671583144,-44.66726585039562,0 169.2019056761657,-44.66713758125756,0 169.2035546029493,-44.66775993768533,0 169.2052865690443,-44.66784938529528,0 169.2073117396263,-44.66767469603778,0 169.2095244181409,-44.66663225958788,0 169.2084218483895,-44.66626343956992,0 169.2079162364384,-44.66660215142871,0 169.2067297976279,-44.66708811613214,0 169.2058133083176,-44.66739506374412,0 169.2046582742871,-44.66735452344093,0 169.204308320605,-44.66732587069573,0 169.2017675251477,-44.66678740760528,0 169.2009419506551,-44.66664780943055,0 169.1997736297269,-44.66685075815882,0 169.1983078169562,-44.66756455870562,0 169.1977423078144,-44.66816802509491,0 169.1975282485607,-44.66898575517666,0 169.1977502695029,-44.67000913795667,0 169.1981374057791,-44.67083716683356,0 169.198960841262,-44.67132510293347,0 169.2003960994339,-44.67181234567484,0 169.2013560305603,-44.67175197959348,0 169.2030457555761,-44.67144215109671,0 169.2036058605313,-44.67148229794827,0 169.2044812643567,-44.67180849821142,0 169.2047336533897,-44.67224614508745,0 169.2047525041828,-44.6729636394068,0 169.2042753587764,-44.67369174984255,0 169.2034012168307,-44.67445442769744,0 169.2033562807088,-44.67469709078618,0 169.2014085613204,-44.67499020557223,0 169.2007167166024,-44.67478027844854,0 169.1998863126233,-44.67407684032094,0 169.199346949815,-44.67393713589883,0 169.1981657522628,-44.67404936097528,0 169.1965962382326,-44.67478498357588,0 169.1959919724321,-44.67510713857425,0 169.1949505930245,-44.67604850535161,0 169.1945377396671,-44.67709630619761,0 169.1940692113549,-44.6785812773175,0 169.1936831840168,-44.67970307888096,0 169.19276712017,-44.68011833093403,0 
						
</coordinates>

						</LinearRing>

					</outerBoundaryIs>

				</Polygon>

				<flyID>7</flyID>

				<flyDescription>Keep to 5 knots or less (9.25km / fast walking pace) in this area</flyDescription>

			</Placemark>
<Placemark>

				<name>5 Knot Zone</name>

				<description>Keep to 5 knots or less (9.25km / fast walking pace) in this area</description>

				<styleUrl>#style2</styleUrl>

				<Polygon>

					<tessellate>1</tessellate>

					<outerBoundaryIs>

						<LinearRing>

							<coordinates>

							168.8838276264424,-44.51292349448733,0 168.8858001466593,-44.5142498592741,0 168.8901699787969,-44.51620452625626,0 168.8903695822456,-44.51952358547943,0 168.8893286175368,-44.52203754569798,0 168.8881326444499,-44.52693294307084,0 168.8900384851625,-44.53019570456556,0 168.8944592929644,-44.54038759097365,0 168.8985009823453,-44.54966926167925,0 168.9027191286253,-44.55451762813395,0 168.9007871597369,-44.56237611417239,0 168.9019306795542,-44.57053402627318,0 168.9053351853365,-44.57336106598623,0 168.9071804707079,-44.58087436062731,0 168.9115815592127,-44.58837345746484,0 168.9200101555736,-44.59345471226092,0 168.9265933599851,-44.59838482759387,0 168.9337523032742,-44.60016062177183,0 168.9372636542745,-44.60215371897897,0 168.941869861041,-44.60451685535902,0 168.9489584830081,-44.60607885264905,0 168.9541159588112,-44.60487777022345,0 168.960321555662,-44.60486231779834,0 168.9697252553778,-44.60910357417407,0 168.9760970874801,-44.61382084951033,0 168.9775231641845,-44.62034314978956,0 168.9774249821907,-44.63100300407233,0 168.9801522011568,-44.63497754204109,0 168.9868398046961,-44.63693891247945,0 168.9947702822278,-44.63733833291123,0 169.0003793016285,-44.63867557408369,0 169.0096730531983,-44.63854718568499,0 169.0133971175627,-44.63436925797995,0 169.0193197080883,-44.62889219612447,0 169.02806487773,-44.62965138255267,0 169.0072672126471,-44.61786452681022,0 169.0082702341073,-44.6200318858148,0 169.0073284812536,-44.62383930332636,0 169.005066296508,-44.62697328244867,0 169.002457851281,-44.62846629464254,0 168.9980726002219,-44.63073402723062,0 168.9910281367679,-44.63315816490116,0 168.989432302783,-44.63314601772179,0 168.9843804525453,-44.63264832876373,0 168.9837185649378,-44.62951165778261,0 168.9849240672656,-44.62671772299741,0 168.9865005095618,-44.6197803302427,0 168.9787424194425,-44.60491124803214,0 168.9733147213362,-44.60085911610059,0 168.9667250317927,-44.59977129498995,0 168.9554994368144,-44.59981879959423,0 168.9483010208231,-44.59761858410816,0 168.9375268215803,-44.59287632767943,0 168.9299870056605,-44.58846924023128,0 168.9161184623034,-44.57796950326706,0 168.9149753469612,-44.57386296968479,0 168.9135867880437,-44.56714451895562,0 168.9113990283699,-44.55996281833574,0 168.9106424822014,-44.55065350028787,0 168.9080824256028,-44.54363398081657,0 168.9033923449372,-44.53665810185673,0 168.9029105740798,-44.52940313010338,0 168.9029868076727,-44.52195021519978,0 168.9021983298733,-44.52039307727666,0 168.9003446220572,-44.51595076003655,0 168.8948395396615,-44.50673480184784,0 168.8925879116038,-44.50486735854023,0 168.8838276264424,-44.51292349448733,0 
						
</coordinates>

						</LinearRing>

					</outerBoundaryIs>

				</Polygon>

				<flyID>8</flyID>

				<flyDescription>Keep to 5 knots or less (9.25km / fast walking pace) in this area</flyDescription>

			</Placemark>
<Placemark>

				<name>5 Knot Zone</name>

				<description>Keep to 5 knots or less (9.25km / fast walking pace) in this area</description>

				<styleUrl>#style2</styleUrl>

				<Polygon>

					<tessellate>1</tessellate>

					<outerBoundaryIs>

						<LinearRing>

							<coordinates>

							168.7937932808359,-44.48317529032671,0 168.7967668234161,-44.48142115912092,0 168.8004441409832,-44.48162911026939,0 168.8060063935386,-44.48039238508756,0 168.8130527572053,-44.47954554186941,0 168.8163338070476,-44.48076170761272,0 168.8193483408116,-44.48395994515075,0 168.8212732250156,-44.48739837791762,0 168.826709731961,-44.48998142672526,0 168.8315645969747,-44.49111064236964,0 168.8378275616639,-44.49237242794705,0 168.8465183975237,-44.49078070891715,0 168.8532123481498,-44.49104860446375,0 168.8607221917929,-44.4930636626278,0 168.8704669506815,-44.49666526927503,0 168.8772763507615,-44.5022669187089,0 168.8794975259495,-44.50269490295881,0 168.8808093584778,-44.5090400992008,0 168.8838276264424,-44.51292349448733,0 168.8925879116038,-44.50486735854023,0 168.8830877871959,-44.49731729134817,0 168.8733922667563,-44.49057703855749,0 168.8635052056396,-44.48422832439632,0 168.8458849945852,-44.48357461894173,0 168.8386883996765,-44.48538290316633,0 168.8311298569984,-44.4883008112498,0 168.8257651685913,-44.4857009505426,0 168.822073878046,-44.48136909486369,0 168.8145764494065,-44.47433437408778,0 168.8115306588041,-44.46975716538614,0 168.8098438755949,-44.46383783202628,0 168.8111170280373,-44.45970679636166,0 168.8136978666291,-44.45503361082723,0 168.8154429893608,-44.4486999737405,0 168.8146701311456,-44.4472059684013,0 168.8142612655083,-44.44348141776123,0 168.8101035157903,-44.44339932106173,0 168.8106834118396,-44.44712557738035,0 168.8136362459684,-44.44890036321876,0 168.8132899007939,-44.45150772477861,0 168.8113478539869,-44.45579907671868,0 168.8068343315762,-44.4600398215288,0 168.8064806145701,-44.46626144458985,0 168.8079242254109,-44.47130897039058,0 168.8118916122859,-44.47585542815079,0 168.8104496143865,-44.47685006618889,0 168.8042913886162,-44.47647102047533,0 168.7955809124717,-44.47880131889755,0 168.7926012723729,-44.48209046908655,0 168.7902233325213,-44.48353826866181,0 168.7869434816638,-44.48776607450908,0 168.7860649100517,-44.48999356346678,0 168.7828487438001,-44.49582430859675,0 168.7873773119427,-44.49760287503469,0 168.7937932808359,-44.48317529032671,0 
						
</coordinates>

						</LinearRing>

					</outerBoundaryIs>

				</Polygon>

				<flyID>9</flyID>

				<flyDescription>Keep to 5 knots or less (9.25km / fast walking pace) in this area</flyDescription>

			</Placemark>
<Placemark>

				<name>5 Knot Zone</name>

				<description>Keep to 5 knots or less (9.25km / fast walking pace) in this area</description>

				<styleUrl>#style2</styleUrl>

				<Polygon>

					<tessellate>1</tessellate>

					<outerBoundaryIs>

						<LinearRing>

							<coordinates>

							169.1532152511983,-44.66426019265508,0 169.154900889855,-44.66413820923035,0 169.1559907755423,-44.66416531821108,0 169.1576042160824,-44.66457145016487,0 169.1584360148372,-44.66551203050549,0 169.159072707136,-44.66651743843063,0 169.1599177038629,-44.66765523339733,0 169.1612997314616,-44.66838460439891,0 169.1621212756243,-44.66858481697047,0 169.163330589113,-44.66886937321908,0 169.163318300011,-44.66861464503194,0 169.1632321416859,-44.66804354283897,0 169.1631591339278,-44.66760209560674,0 169.1616358906231,-44.6675880755768,0 169.1607731335799,-44.66672357441362,0 169.1593771939579,-44.66517753804768,0 169.158164738365,-44.66409842325268,0 169.1564841905793,-44.66342172810936,0 169.1545106334106,-44.66321972338573,0 169.1527244581887,-44.66295476795452,0 169.1519064501931,-44.66218478029615,0 169.15147163986,-44.66432910310128,0 169.1532152511983,-44.66426019265508,0 
						
</coordinates>

						</LinearRing>

					</outerBoundaryIs>

				</Polygon>

				<flyID>10</flyID>

				<flyDescription>Keep to 5 knots or less (9.25km / fast walking pace) in this area</flyDescription>

			</Placemark>
<Placemark>

				<name>Swimming Zone</name>

				<description>This area is designated for swimming only.  Vessels (powered and non-powered are prohibited in this area)</description>

				<styleUrl>#style1</styleUrl>

				<Polygon>

					<tessellate>1</tessellate>

					<outerBoundaryIs>

						<LinearRing>

							<coordinates>

							169.1872203276061,-44.6792751353884,0 169.1876382582514,-44.67897632514271,0 169.1878423415594,-44.67835570923085,0 169.1876421141534,-44.67789011043874,0 169.1870948881536,-44.67841063297512,0 169.1864178342337,-44.67929304695777,0 169.1866336926103,-44.67950156573641,0 169.1872203276061,-44.6792751353884,0 
						
</coordinates>

						</LinearRing>

					</outerBoundaryIs>

				</Polygon>

				<flyID>11</flyID>

				<flyDescription>This area is designated for swimming only.  Vessels (powered and non-powered are prohibited in this area)</flyDescription>

			</Placemark>

</Document>
</kml>
