<?xml version="1.0" encoding="UTF-8"?>
<kml xmlns="http://www.opengis.net/kml/2.2" xmlns:gx="http://www.google.com/kml/ext/2.2" xmlns:kml="http://www.opengis.net/kml/2.2" xmlns:atom="http://www.w3.org/2005/Atom">
<Document>
	<name>R16 C41.kml</name>
	<Style id="PolyStyle00322021">
		<LabelStyle>
			<color>00000000</color>
			<scale>0</scale>
		</LabelStyle>
		<LineStyle>
			<color>ffff0000</color>
		</LineStyle>
		<PolyStyle>
			<color>ffff0000</color>
		</PolyStyle>
	</Style>
	<Style id="PolyStyle00311">
		<LabelStyle>
			<color>00000000</color>
			<scale>0</scale>
		</LabelStyle>
		<LineStyle>
			<color>ffff0000</color>
		</LineStyle>
		<PolyStyle>
			<color>ffff0000</color>
		</PolyStyle>
	</Style>
	<Style id="PolyStyle00322027">
		<LabelStyle>
			<color>00000000</color>
			<scale>0</scale>
		</LabelStyle>
		<LineStyle>
			<color>ffff0000</color>
		</LineStyle>
		<PolyStyle>
			<color>ffff0000</color>
		</PolyStyle>
	</Style>
	<Style id="PolyStyle001">
		<LabelStyle>
			<color>00000000</color>
			<scale>0</scale>
		</LabelStyle>
		<LineStyle>
			<color>ffff0000</color>
		</LineStyle>
		<PolyStyle>
			<color>ffff0000</color>
		</PolyStyle>
	</Style>
	<Style id="PolyStyle00322033">
		<LabelStyle>
			<color>00000000</color>
			<scale>0</scale>
		</LabelStyle>
		<LineStyle>
			<color>ffff0000</color>
		</LineStyle>
		<PolyStyle>
			<color>ffff0000</color>
		</PolyStyle>
	</Style>
	<Style id="PolyStyle00322016">
		<LabelStyle>
			<color>00000000</color>
			<scale>0</scale>
		</LabelStyle>
		<LineStyle>
			<color>ffff0000</color>
		</LineStyle>
		<PolyStyle>
			<color>ffff0000</color>
		</PolyStyle>
	</Style>
	<Style id="sn_ylw-pushpin1">
		<LineStyle>
			<color>ff0000ff</color>
		</LineStyle>
		<PolyStyle>
			<color>ff0000ff</color>
		</PolyStyle>
	</Style>
	<Style id="sn_ylw-pushpin2">
		<LineStyle>
			<color>ff0000ff</color>
		</LineStyle>
		<PolyStyle>
			<color>ff0000ff</color>
		</PolyStyle>
	</Style>
	<Style id="PolyStyle00322024">
		<LabelStyle>
			<color>00000000</color>
			<scale>0</scale>
		</LabelStyle>
		<LineStyle>
			<color>ffff0000</color>
		</LineStyle>
		<PolyStyle>
			<color>ffff0000</color>
		</PolyStyle>
	</Style>
	<Style id="sn_ylw-pushpin3">
		<LineStyle>
			<color>ffff0000</color>
		</LineStyle>
		<PolyStyle>
			<color>ffff0000</color>
		</PolyStyle>
	</Style>
	<Style id="PolyStyle00322026">
		<LabelStyle>
			<color>00000000</color>
			<scale>0</scale>
		</LabelStyle>
		<LineStyle>
			<color>ffff0000</color>
		</LineStyle>
		<PolyStyle>
			<color>ffff0000</color>
		</PolyStyle>
	</Style>
	<Style id="PolyStyle00322010">
		<LabelStyle>
			<color>00000000</color>
			<scale>0</scale>
		</LabelStyle>
		<LineStyle>
			<color>ffff0000</color>
		</LineStyle>
		<PolyStyle>
			<color>ffff0000</color>
		</PolyStyle>
	</Style>
	<Style id="PolyStyle00322018">
		<LabelStyle>
			<color>00000000</color>
			<scale>0</scale>
		</LabelStyle>
		<LineStyle>
			<color>ffff0000</color>
		</LineStyle>
		<PolyStyle>
			<color>ffff0000</color>
		</PolyStyle>
	</Style>
	<Style id="PolyStyle003220">
		<LabelStyle>
			<color>00000000</color>
			<scale>0</scale>
		</LabelStyle>
		<LineStyle>
			<color>ffff0000</color>
		</LineStyle>
		<PolyStyle>
			<color>ffff0000</color>
		</PolyStyle>
	</Style>
	<Style id="PolyStyle00322036">
		<LabelStyle>
			<color>00000000</color>
			<scale>0</scale>
		</LabelStyle>
		<LineStyle>
			<color>ffff0000</color>
		</LineStyle>
		<PolyStyle>
			<color>ffff0000</color>
		</PolyStyle>
	</Style>
	<Style id="PolyStyle00322030">
		<LabelStyle>
			<color>00000000</color>
			<scale>0</scale>
		</LabelStyle>
		<LineStyle>
			<color>ffff0000</color>
		</LineStyle>
		<PolyStyle>
			<color>ffff0000</color>
		</PolyStyle>
	</Style>
	<Style id="PolyStyle00100">
		<LabelStyle>
			<color>00000000</color>
			<scale>0</scale>
		</LabelStyle>
		<LineStyle>
			<color>ffff0000</color>
		</LineStyle>
		<PolyStyle>
			<color>ffff0000</color>
		</PolyStyle>
	</Style>
	<Style id="PolyStyle00322017">
		<LabelStyle>
			<color>00000000</color>
			<scale>0</scale>
		</LabelStyle>
		<LineStyle>
			<color>ffff0000</color>
		</LineStyle>
		<PolyStyle>
			<color>ffff0000</color>
		</PolyStyle>
	</Style>
	<Style id="PolyStyle0032205">
		<LabelStyle>
			<color>00000000</color>
			<scale>0</scale>
		</LabelStyle>
		<LineStyle>
			<color>ffff0000</color>
		</LineStyle>
		<PolyStyle>
			<color>ffff0000</color>
		</PolyStyle>
	</Style>
	<Style id="PolyStyle00322020">
		<LabelStyle>
			<color>00000000</color>
			<scale>0</scale>
		</LabelStyle>
		<LineStyle>
			<color>ffff0000</color>
		</LineStyle>
		<PolyStyle>
			<color>ffff0000</color>
		</PolyStyle>
	</Style>
	<Style id="sn_ylw-pushpin000">
		<LineStyle>
			<color>ffff0000</color>
		</LineStyle>
		<PolyStyle>
			<color>ffff0000</color>
		</PolyStyle>
	</Style>
	<Style id="PolyStyle00140">
		<LabelStyle>
			<color>00000000</color>
			<scale>0</scale>
		</LabelStyle>
		<LineStyle>
			<color>ffff0000</color>
		</LineStyle>
		<PolyStyle>
			<color>ffff0000</color>
		</PolyStyle>
	</Style>
	<Style id="failed40">
		<LineStyle>
			<color>ffff0000</color>
		</LineStyle>
		<PolyStyle>
			<color>ffff0000</color>
		</PolyStyle>
	</Style>
	<Style id="PolyStyle00322031">
		<LabelStyle>
			<color>00000000</color>
			<scale>0</scale>
		</LabelStyle>
		<LineStyle>
			<color>ffff0000</color>
		</LineStyle>
		<PolyStyle>
			<color>ffff0000</color>
		</PolyStyle>
	</Style>
	<Style id="PolyStyle00322029">
		<LabelStyle>
			<color>00000000</color>
			<scale>0</scale>
		</LabelStyle>
		<LineStyle>
			<color>ffff0000</color>
		</LineStyle>
		<PolyStyle>
			<color>ffff0000</color>
		</PolyStyle>
	</Style>
	<Style id="PolyStyle00322011">
		<LabelStyle>
			<color>00000000</color>
			<scale>0</scale>
		</LabelStyle>
		<LineStyle>
			<color>ffff0000</color>
		</LineStyle>
		<PolyStyle>
			<color>ffff0000</color>
		</PolyStyle>
	</Style>
	<Style id="sn_ylw-pushpin4">
		<LineStyle>
			<color>ff0000ff</color>
		</LineStyle>
		<PolyStyle>
			<color>ff0000ff</color>
		</PolyStyle>
	</Style>
	<Style id="PolyStyle0032207">
		<LabelStyle>
			<color>00000000</color>
			<scale>0</scale>
		</LabelStyle>
		<LineStyle>
			<color>ffff0000</color>
		</LineStyle>
		<PolyStyle>
			<color>ffff0000</color>
		</PolyStyle>
	</Style>
	<Style id="PolyStyle0032200">
		<LabelStyle>
			<color>00000000</color>
			<scale>0</scale>
		</LabelStyle>
		<LineStyle>
			<color>ffff0000</color>
		</LineStyle>
		<PolyStyle>
			<color>ffff0000</color>
		</PolyStyle>
	</Style>
	<Style id="PolyStyle00322013">
		<LabelStyle>
			<color>00000000</color>
			<scale>0</scale>
		</LabelStyle>
		<LineStyle>
			<color>ffff0000</color>
		</LineStyle>
		<PolyStyle>
			<color>ffff0000</color>
		</PolyStyle>
	</Style>
	<Style id="sn_ylw-pushpin10">
		<LineStyle>
			<color>ffff0000</color>
		</LineStyle>
		<PolyStyle>
			<color>ffff0000</color>
		</PolyStyle>
	</Style>
	<Style id="sn_ylw-pushpin5">
		<LineStyle>
			<color>ff0000ff</color>
		</LineStyle>
		<PolyStyle>
			<color>ff0000ff</color>
		</PolyStyle>
	</Style>
	<Style id="PolyStyle0032208">
		<LabelStyle>
			<color>00000000</color>
			<scale>0</scale>
		</LabelStyle>
		<LineStyle>
			<color>ffff0000</color>
		</LineStyle>
		<PolyStyle>
			<color>ffff0000</color>
		</PolyStyle>
	</Style>
	<Style id="PolyStyle0032201">
		<LabelStyle>
			<color>00000000</color>
			<scale>0</scale>
		</LabelStyle>
		<LineStyle>
			<color>ffff0000</color>
		</LineStyle>
		<PolyStyle>
			<color>ffff0000</color>
		</PolyStyle>
	</Style>
	<Style id="PolyStyle00200">
		<LabelStyle>
			<color>00000000</color>
			<scale>0</scale>
		</LabelStyle>
		<LineStyle>
			<color>ffff0000</color>
		</LineStyle>
		<PolyStyle>
			<color>ffff0000</color>
		</PolyStyle>
	</Style>
	<Style id="failed10">
		<LineStyle>
			<color>ffff0000</color>
		</LineStyle>
		<PolyStyle>
			<color>ffff0000</color>
		</PolyStyle>
	</Style>
	<Style id="PolyStyle00322032">
		<LabelStyle>
			<color>00000000</color>
			<scale>0</scale>
		</LabelStyle>
		<LineStyle>
			<color>ffff0000</color>
		</LineStyle>
		<PolyStyle>
			<color>ffff0000</color>
		</PolyStyle>
	</Style>
	<Style id="PolyStyle001111">
		<LabelStyle>
			<color>00000000</color>
			<scale>0</scale>
		</LabelStyle>
		<LineStyle>
			<color>ffff0000</color>
		</LineStyle>
		<PolyStyle>
			<color>ffff0000</color>
		</PolyStyle>
	</Style>
	<Style id="PolyStyle00322025">
		<LabelStyle>
			<color>00000000</color>
			<scale>0</scale>
		</LabelStyle>
		<LineStyle>
			<color>ffff0000</color>
		</LineStyle>
		<PolyStyle>
			<color>ffff0000</color>
		</PolyStyle>
	</Style>
	<Style id="PolyStyle00322028">
		<LabelStyle>
			<color>00000000</color>
			<scale>0</scale>
		</LabelStyle>
		<LineStyle>
			<color>ffff0000</color>
		</LineStyle>
		<PolyStyle>
			<color>ffff0000</color>
		</PolyStyle>
	</Style>
	<Style id="PolyStyle00322014">
		<LabelStyle>
			<color>00000000</color>
			<scale>0</scale>
		</LabelStyle>
		<LineStyle>
			<color>ffff0000</color>
		</LineStyle>
		<PolyStyle>
			<color>ffff0000</color>
		</PolyStyle>
	</Style>
	<Placemark>
		<name>Cable Protection Area</name>
		<open>1</open>
		<description>No Fishing - No anchoring
- DANGER HIGH VOLTAGE CABLES  (10000 volts).
- FISHING in this Cable Protection Area is illegal.
- ANCHORING in this Cable Protection Area is illegal.
- Refer to Marine Charts for details.
- Ph: 0800782627 for more details.</description>
		<styleUrl>#sn_ylw-pushpin4</styleUrl>
		<Polygon>
			<tessellate>1</tessellate>
			<outerBoundaryIs>
				<LinearRing>
					<coordinates>
						174.8337786626917,-36.67969688261233,0 174.9999153158207,-36.62666488699794,0 175.0001401397376,-36.5186833895465,0 175.0004250529442,-36.25360003313704,0 174.9216187542544,-36.11172681129728,0 174.945034962499,-36.40007618180581,0 174.9451738339475,-36.60659201316969,0 174.8019396638179,-36.65192575256623,0 174.8337786626917,-36.67969688261233,0 
					</coordinates>
				</LinearRing>
			</outerBoundaryIs>
		</Polygon>
		<flyID>0</flyID><flyDescription>No Fishing - No anchoring
- DANGER HIGH VOLTAGE CABLES  (10000 volts).
- FISHING in this Cable Protection Area is illegal.
- ANCHORING in this Cable Protection Area is illegal.
- Refer to Marine Charts for details.
- Ph: 0800782627 for more details.</flyDescription>
	</Placemark>
	<Placemark>
		<name>Cable Protection Area</name>
		<open>1</open>
		<description>No Fishing - No anchoring
- DANGER HIGH VOLTAGE CABLES  (10000 volts).
- FISHING in this Cable Protection Area is illegal.
- ANCHORING in this Cable Protection Area is illegal.
- Refer to Marine Charts for details.
- Ph: 0800782627 for more details.</description>
		<styleUrl>#sn_ylw-pushpin5</styleUrl>
		<Polygon>
			<tessellate>1</tessellate>
			<outerBoundaryIs>
				<LinearRing>
					<coordinates>
						174.80081816999,-36.78117970291932,0 174.8337786626917,-36.67969688261233,0 174.8019396638179,-36.65192575256623,0 174.7777647966011,-36.77846247865819,0 174.7787331784892,-36.78026420215845,0 174.776717878905,-36.78563918524467,0 174.7781953679539,-36.78902081829116,0 174.7878357690577,-36.79378373527921,0 174.80081816999,-36.78117970291932,0 
					</coordinates>
				</LinearRing>
			</outerBoundaryIs>
		</Polygon>
		<flyID>1</flyID><flyDescription>No Fishing - No anchoring
- DANGER HIGH VOLTAGE CABLES  (10000 volts).
- FISHING in this Cable Protection Area is illegal.
- ANCHORING in this Cable Protection Area is illegal.
- Refer to Marine Charts for details.
- Ph: 0800782627 for more details.</flyDescription>
	</Placemark>
	<Placemark>
		<name>Prohibited Anchorage Area - Hauraki Gulf</name>
		<open>1</open>
		<description>Prohibited Anchorage Area - Hauraki Gulf-Areas reserved as prohibited anchorage areas</description>
		<styleUrl>#PolyStyle00322032</styleUrl>
		<Polygon>
			<tessellate>1</tessellate>
			<outerBoundaryIs>
				<LinearRing>
					<coordinates>
						174.8554133303437,-36.73583693111247,0 174.8550969525328,-36.73647312548425,0 174.8552826422811,-36.73762096218438,0 174.8562526314772,-36.73842212101399,0 174.8575780667472,-36.73860578205515,0 174.8587888238367,-36.73815065115387,0 174.8594117170559,-36.7373819815627,0 174.8594933662,-36.73653522626707,0 174.85905159145,-36.73573007116295,0 174.8583244194246,-36.7352050612231,0 174.8570452232226,-36.73502987271497,0 174.8561420144403,-36.73526980961751,0 174.8554133553512,-36.73583690204323,0 174.8554133303437,-36.73583693111247,0 
					</coordinates>
				</LinearRing>
			</outerBoundaryIs>
		</Polygon>
		<flyID>2</flyID><flyDescription>Prohibited Anchorage Area - Hauraki Gulf-Areas reserved as prohibited anchorage areas</flyDescription>
	</Placemark>
	<Placemark>
		<name>Prohibited Anchorage Area - Hauraki Gulf</name>
		<open>1</open>
		<description>Prohibited Anchorage Area - Hauraki Gulf-Areas reserved as prohibited anchorage areas</description>
		<styleUrl>#PolyStyle00322036</styleUrl>
		<Polygon>
			<tessellate>1</tessellate>
			<outerBoundaryIs>
				<LinearRing>
					<coordinates>
						174.8668186107895,-36.72569107986654,0 174.8665374677176,-36.72602440112469,0 174.8662817938811,-36.72694269667944,0 174.866619744886,-36.72780878811656,0 174.8672636586562,-36.72834761326716,0 174.8682933576191,-36.72864595283649,0 174.86942677443,-36.72849898366875,0 174.870331011186,-36.72792396115787,0 174.870700536581,-36.72729415133875,0 174.8706751365017,-36.72637063352994,0 174.8701885213169,-36.72564335993025,0 174.8693694725441,-36.7251862031226,0 174.8683467906103,-36.72504731002366,0 174.8674725080056,-36.72526686034831,0 174.8671403297781,-36.72544147389692,0 174.8668186979439,-36.72569098576965,0 174.8668186107895,-36.72569107986654,0 
					</coordinates>
				</LinearRing>
			</outerBoundaryIs>
		</Polygon>
		<flyID>3</flyID><flyDescription>Prohibited Anchorage Area - Hauraki Gulf-Areas reserved as prohibited anchorage areas</flyDescription>
	</Placemark>
	<Placemark>
		<name>Prohibited Anchorage Area - Hauraki Gulf</name>
		<open>1</open>
		<description>Prohibited Anchorage Area - Hauraki Gulf-Areas reserved as prohibited anchorage areas</description>
		<styleUrl>#PolyStyle0032201</styleUrl>
		<Polygon>
			<tessellate>1</tessellate>
			<outerBoundaryIs>
				<LinearRing>
					<coordinates>
						174.8753355737449,-36.71708849647526,0 174.8749528449454,-36.71763162845203,0 174.8748726657152,-36.71862585307024,0 174.8755363598365,-36.71955953486453,0 174.8767980288086,-36.72002332447124,0 174.8779004559844,-36.7198999102584,0 174.8788366102285,-36.71933374797821,0 174.8792846438858,-36.71841276130505,0 174.8791014523715,-36.7175054862342,0 174.8779999429183,-36.71660327704,0 174.8766469203245,-36.71646858891146,0 174.8757929696469,-36.71674843085482,0 174.8753355602901,-36.71708794358884,0 174.8753355737449,-36.71708849647526,0 
					</coordinates>
				</LinearRing>
			</outerBoundaryIs>
		</Polygon>
		<flyID>4</flyID><flyDescription>Prohibited Anchorage Area - Hauraki Gulf-Areas reserved as prohibited anchorage areas</flyDescription>
	</Placemark>
	<Placemark>
		<name>Prohibited Anchorage Area - Hauraki Gulf</name>
		<open>1</open>
		<description>Prohibited Anchorage Area - Hauraki Gulf-Areas reserved as prohibited anchorage areas</description>
		<styleUrl>#PolyStyle00322017</styleUrl>
		<Polygon>
			<tessellate>1</tessellate>
			<outerBoundaryIs>
				<LinearRing>
					<coordinates>
						174.887475213306,-36.70728029375594,0 174.8872471310335,-36.70772351479022,0 174.8872248777779,-36.70861883631978,0 174.8877741731929,-36.70943097949844,0 174.8886187955621,-36.70987534649217,0 174.8895652483675,-36.70999039704633,0 174.8907308674793,-36.70963917849368,0 174.8913685865142,-36.70905835653969,0 174.8916468747193,-36.70818196485194,0 174.8913860843342,-36.70735204467672,0 174.8907130634386,-36.7067328521967,0 174.889644542146,-36.70639076330203,0 174.8885623469008,-36.70651984446816,0 174.88791135867,-36.7068540746382,0 174.887476405186,-36.70728029409253,0 174.887475213306,-36.70728029375594,0 
					</coordinates>
				</LinearRing>
			</outerBoundaryIs>
		</Polygon>
		<flyID>5</flyID><flyDescription>Prohibited Anchorage Area - Hauraki Gulf-Areas reserved as prohibited anchorage areas</flyDescription>
	</Placemark>
	<Placemark>
		<name>Prohibited Anchorage Area - Hauraki Gulf</name>
		<open>1</open>
		<description>Prohibited Anchorage Area - Hauraki Gulf-Areas reserved as prohibited anchorage areas</description>
		<styleUrl>#PolyStyle00322027</styleUrl>
		<Polygon>
			<tessellate>1</tessellate>
			<outerBoundaryIs>
				<LinearRing>
					<coordinates>
						174.8980317221758,-36.69871985381172,0 174.8976694231277,-36.69941900292965,0 174.8977474352129,-36.70039038093026,0 174.8987340402728,-36.70133809986586,0 174.8997843179797,-36.70157463655701,0 174.9010136928501,-36.70130586697811,0 174.9018672535692,-36.70055246395489,0 174.9020699041927,-36.69956595571536,0 174.9015828056208,-36.69864426314148,0 174.9005045801374,-36.6980538433628,0 174.8995186342635,-36.69798896854146,0 174.8987104311968,-36.69822039283105,0 174.8980318927912,-36.69871971824249,0 174.8980317221758,-36.69871985381172,0 
					</coordinates>
				</LinearRing>
			</outerBoundaryIs>
		</Polygon>
		<flyID>6</flyID><flyDescription>Prohibited Anchorage Area - Hauraki Gulf-Areas reserved as prohibited anchorage areas</flyDescription>
	</Placemark>
	<Placemark>
		<name>Prohibited Anchorage Area - Hauraki Gulf</name>
		<open>1</open>
		<description>Prohibited Anchorage Area - Hauraki Gulf-Areas reserved as prohibited anchorage areas</description>
		<styleUrl>#PolyStyle00322027</styleUrl>
		<Polygon>
			<tessellate>1</tessellate>
			<outerBoundaryIs>
				<LinearRing>
					<coordinates>
						174.8668186107895,-36.72569107986654,0 174.8665374677176,-36.72602440112469,0 174.8662817938811,-36.72694269667944,0 174.866619744886,-36.72780878811656,0 174.8672636586562,-36.72834761326716,0 174.8682933576191,-36.72864595283649,0 174.86942677443,-36.72849898366875,0 174.870331011186,-36.72792396115787,0 174.870700536581,-36.72729415133875,0 174.8706751365017,-36.72637063352994,0 174.8701885213169,-36.72564335993025,0 174.8693694725441,-36.7251862031226,0 174.8683467906103,-36.72504731002366,0 174.8674725080056,-36.72526686034831,0 174.8671403297781,-36.72544147389692,0 174.8668186979439,-36.72569098576965,0 174.8668186107895,-36.72569107986654,0 
					</coordinates>
				</LinearRing>
			</outerBoundaryIs>
		</Polygon>
		<flyID>7</flyID><flyDescription>Prohibited Anchorage Area - Hauraki Gulf-Areas reserved as prohibited anchorage areas</flyDescription>
	</Placemark>
	<Placemark>
		<name>Prohibited Anchorage Area - Hauraki Gulf</name>
		<open>1</open>
		<description>Prohibited Anchorage Area - Hauraki Gulf-Areas reserved as prohibited anchorage areas</description>
		<styleUrl>#PolyStyle00322021</styleUrl>
		<Polygon>
			<tessellate>1</tessellate>
			<outerBoundaryIs>
				<LinearRing>
					<coordinates>
						174.8435718650247,-36.72463644994812,0 174.8438699342422,-36.72393175687245,0 174.8437966830357,-36.72317495974131,0 174.8429526071758,-36.72224163124685,0 174.8416258694399,-36.72192054251202,0 174.840286970945,-36.72228131465858,0 174.8394503059329,-36.72336194821343,0 174.8397318527969,-36.72464293279749,0 174.8409632651673,-36.72542872979442,0 174.8422681202399,-36.72544725239845,0 174.8432031858206,-36.7250125021725,0 174.8435718549177,-36.72463574995525,0 174.8435718650247,-36.72463644994812,0 
					</coordinates>
				</LinearRing>
			</outerBoundaryIs>
		</Polygon>
		<flyID>8</flyID><flyDescription>Prohibited Anchorage Area - Hauraki Gulf-Areas reserved as prohibited anchorage areas</flyDescription>
	</Placemark>
	<Placemark>
		<name>Prohibited Anchorage Area - Hauraki Gulf</name>
		<open>1</open>
		<description>Prohibited Anchorage Area - Hauraki Gulf-Areas reserved as prohibited anchorage areas</description>
		<styleUrl>#PolyStyle00322018</styleUrl>
		<Polygon>
			<tessellate>1</tessellate>
			<outerBoundaryIs>
				<LinearRing>
					<coordinates>
						174.8501946518428,-36.71482287448472,0 174.8502553477184,-36.71361177440457,0 174.8492775754046,-36.71262307777384,0 174.8473808308942,-36.71245942896442,0 174.846250244345,-36.71316166319674,0 174.8458812190779,-36.71432522044573,0 174.8463421951529,-36.71528215506734,0 174.8475253552327,-36.71591869583925,0 174.8489427145502,-36.71584173557195,0 174.8498659177067,-36.71528867651456,0 174.8501964269867,-36.71482287141118,0 174.8501946518428,-36.71482287448472,0 
					</coordinates>
				</LinearRing>
			</outerBoundaryIs>
		</Polygon>
		<flyID>9</flyID><flyDescription>Prohibited Anchorage Area - Hauraki Gulf-Areas reserved as prohibited anchorage areas</flyDescription>
	</Placemark>
	<Placemark>
		<name>Prohibited Anchorage Area - Hauraki Gulf</name>
		<open>1</open>
		<description>Prohibited Anchorage Area - Hauraki Gulf-Areas reserved as prohibited anchorage areas</description>
		<styleUrl>#PolyStyle0032207</styleUrl>
		<Polygon>
			<tessellate>1</tessellate>
			<outerBoundaryIs>
				<LinearRing>
					<coordinates>
						174.8569410785556,-36.70713485564404,0 174.8570670257238,-36.70611051410089,0 174.856467937335,-36.70518121680041,0 174.8551551654999,-36.70465105124614,0 174.8538450849873,-36.70484631278517,0 174.8529384076398,-36.70554387984582,0 174.8526304767177,-36.706493471252,0 174.8529732583642,-36.70740615789527,0 174.8538024264871,-36.70802848757942,0 174.8549858760312,-36.70824949958181,0 174.856093514166,-36.70795760058724,0 174.8566829878764,-36.70750399008468,0 174.8569394067531,-36.70713634352667,0 174.8569410785556,-36.70713485564404,0 
					</coordinates>
				</LinearRing>
			</outerBoundaryIs>
		</Polygon>
		<flyID>10</flyID><flyDescription>Prohibited Anchorage Area - Hauraki Gulf-Areas reserved as prohibited anchorage areas</flyDescription>
	</Placemark>
	<Placemark>
		<name>Prohibited Anchorage Area - Hauraki Gulf</name>
		<open>1</open>
		<description>Prohibited Anchorage Area - Hauraki Gulf-Areas reserved as prohibited anchorage areas</description>
		<styleUrl>#PolyStyle00322025</styleUrl>
		<Polygon>
			<tessellate>1</tessellate>
			<outerBoundaryIs>
				<LinearRing>
					<coordinates>
						174.8639933987944,-36.69887859991204,0 174.8641439512203,-36.69843997421921,0 174.8639906186932,-36.69744474960952,0 174.8631578014553,-36.6966439889711,0 174.8616897715902,-36.6963782124361,0 174.8605255419571,-36.69676683714186,0 174.8598385437879,-36.69752206665736,0 174.8597253157773,-36.69848474967535,0 174.8603796678256,-36.69946991267435,0 174.8617152105437,-36.69997023107169,0 174.863067226118,-36.69972671901763,0 174.8637659596156,-36.69920732115988,0 174.86399244696,-36.69888062178571,0 174.8639933987944,-36.69887859991204,0 
					</coordinates>
				</LinearRing>
			</outerBoundaryIs>
		</Polygon>
		<flyID>11</flyID><flyDescription>Prohibited Anchorage Area - Hauraki Gulf-Areas reserved as prohibited anchorage areas</flyDescription>
	</Placemark>
	<Placemark>
		<name>Prohibited Anchorage Area - Hauraki Gulf</name>
		<open>1</open>
		<description>Prohibited Anchorage Area - Hauraki Gulf-Areas reserved as prohibited anchorage areas</description>
		<styleUrl>#PolyStyle00322020</styleUrl>
		<Polygon>
			<tessellate>1</tessellate>
			<outerBoundaryIs>
				<LinearRing>
					<coordinates>
						174.8701942471664,-36.69064621829968,0 174.8705525135624,-36.69010154789149,0 174.8706550418148,-36.68946292134158,0 174.870316598707,-36.68858084399295,0 174.8694270193934,-36.68794365791334,0 174.8681408097285,-36.68774594775847,0 174.8671205828512,-36.68807802533028,0 174.8664389054956,-36.68867781786078,0 174.8661840997803,-36.68939486463448,0 174.8663238851833,-36.6901929828542,0 174.8669101538112,-36.69089296518942,0 174.8677830601499,-36.69127779348072,0 174.8688373789188,-36.69133048659056,0 174.8695778786711,-36.6910944609408,0 174.8701942263675,-36.6906468747714,0 174.8701942471664,-36.69064621829968,0 
					</coordinates>
				</LinearRing>
			</outerBoundaryIs>
		</Polygon>
		<flyID>12</flyID><flyDescription>Prohibited Anchorage Area - Hauraki Gulf-Areas reserved as prohibited anchorage areas</flyDescription>
	</Placemark>
	<Placemark>
		<name>Prohibited Anchorage Area - Hauraki Gulf</name>
		<open>1</open>
		<description>Prohibited Anchorage Area - Hauraki Gulf-Areas reserved as prohibited anchorage areas</description>
		<styleUrl>#PolyStyle00322013</styleUrl>
		<Polygon>
			<tessellate>1</tessellate>
			<outerBoundaryIs>
				<LinearRing>
					<coordinates>
						174.8788900475696,-36.68102443126086,0 174.8791276026974,-36.68022518795763,0 174.8785242713865,-36.67902297622818,0 174.8769373575927,-36.67840667432314,0 174.8755000120971,-36.67880279473172,0 174.8746569060392,-36.67987138402499,0 174.874725320559,-36.68107579046903,0 174.8760506700382,-36.68198338071037,0 174.8774844366357,-36.68206005480366,0 174.8784720424832,-36.68154209627708,0 174.8788891551471,-36.68102558382603,0 174.8788900475696,-36.68102443126086,0 
					</coordinates>
				</LinearRing>
			</outerBoundaryIs>
		</Polygon>
		<flyID>13</flyID><flyDescription>Prohibited Anchorage Area - Hauraki Gulf-Areas reserved as prohibited anchorage areas</flyDescription>
	</Placemark>
	<Placemark>
		<name>Prohibited Anchorage Area - Hauraki Gulf</name>
		<open>1</open>
		<description>Prohibited Anchorage Area - Hauraki Gulf-Areas reserved as prohibited anchorage areas</description>
		<styleUrl>#PolyStyle00322028</styleUrl>
		<Polygon>
			<tessellate>1</tessellate>
			<outerBoundaryIs>
				<LinearRing>
					<coordinates>
						174.8507409846259,-36.73324050834899,0 174.860929165621,-36.72265345538938,0 174.8695131548476,-36.71372854331026,0 174.879455581973,-36.70338466019069,0 174.8880969400927,-36.69439058696688,0 174.9079156727733,-36.67306319889707,0 174.8956813601672,-36.67305487281827,0 174.886261588453,-36.68410701314964,0 174.8782115266022,-36.69354826784308,0 174.8712398189351,-36.70172290125389,0 174.8641405986104,-36.71004332029165,0 174.8574668881336,-36.71786364817822,0 174.8495174713042,-36.72713819747374,0 174.8507409846259,-36.73324050834899,0 
					</coordinates>
				</LinearRing>
			</outerBoundaryIs>
		</Polygon>
		<flyID>14</flyID><flyDescription>Prohibited Anchorage Area - Hauraki Gulf-Areas reserved as prohibited anchorage areas</flyDescription>
	</Placemark>
	<Placemark>
		<name>Prohibited Anchorage Area - Hauraki Gulf</name>
		<open>1</open>
		<description>Prohibited Anchorage Area - Hauraki Gulf-Areas reserved as prohibited anchorage areas</description>
		<styleUrl>#PolyStyle00322026</styleUrl>
		<Polygon>
			<tessellate>1</tessellate>
			<outerBoundaryIs>
				<LinearRing>
					<coordinates>
						174.8333764176975,-36.74575628415042,0 174.8081567184753,-36.7747242579912,0 174.8100625441473,-36.77742050287444,0 174.8139470369021,-36.77249051916005,0 174.8195208537271,-36.76652549107691,0 174.8507373174369,-36.7332450585063,0 174.8495174521827,-36.72713818186603,0 174.8333764176975,-36.74575628415042,0 
					</coordinates>
				</LinearRing>
			</outerBoundaryIs>
		</Polygon>
		<flyID>15</flyID><flyDescription>Prohibited Anchorage Area - Hauraki Gulf-Areas reserved as prohibited anchorage areas</flyDescription>
	</Placemark>
	<Placemark>
		<name>Access Lane</name>
		<open>1</open>
		<description>Motuihe Island - Ocean Beach-Access lanes reserved for the purpose of allowing power driven vessels and power driven vessels towing water-skiers, wake boards or sea biscuits to navigate from a beach or launching area</description>
		<styleUrl>#failed10</styleUrl>
		<Polygon>
			<tessellate>1</tessellate>
			<outerBoundaryIs>
				<LinearRing>
					<coordinates>
						174.9453647088407,-36.80649428490155,0 174.9471716142809,-36.80697805728286,0 174.9513480237323,-36.80421653387876,0 174.9493871150055,-36.80371862031306,0 174.9453647088407,-36.80649428490155,0 
					</coordinates>
				</LinearRing>
			</outerBoundaryIs>
		</Polygon>
		<flyID>16</flyID><flyDescription>Motuihe Island - Ocean Beach-Access lanes reserved for the purpose of allowing power driven vessels and power driven vessels towing water-skiers, wake boards or sea biscuits to navigate from a beach or launching area</flyDescription>
	</Placemark>
	<Placemark>
		<name>Access Lane</name>
		<open>1</open>
		<description>Motuihe Island - Wharf Bay-Access lanes reserved for the purpose of allowing power driven vessels and power driven vessels towing water-skiers, wake boards or sea biscuits to navigate from a beach or launching area</description>
		<styleUrl>#failed40</styleUrl>
		<Polygon>
			<tessellate>1</tessellate>
			<outerBoundaryIs>
				<LinearRing>
					<coordinates>
						174.9377177140907,-36.80998812826308,0 174.9402072335276,-36.8060722127386,0 174.9401426969518,-36.8060005410705,0 174.9399839305194,-36.80584351435503,0 174.9399427644073,-36.80569192068335,0 174.9398570136417,-36.80558007953078,0 174.9396814415213,-36.80551761269478,0 174.9396798693078,-36.80538584159841,0 174.9395350402102,-36.80531050918514,0 174.939473564371,-36.80520647593147,0 174.9393836487275,-36.80513695838275,0 174.9391857551032,-36.80493539395911,0 174.936663406424,-36.80885980609585,0 174.9377177140907,-36.80998812826308,0 
					</coordinates>
				</LinearRing>
			</outerBoundaryIs>
		</Polygon>
		<flyID>17</flyID><flyDescription>Motuihe Island - Wharf Bay-Access lanes reserved for the purpose of allowing power driven vessels and power driven vessels towing water-skiers, wake boards or sea biscuits to navigate from a beach or launching area</flyDescription>
	</Placemark>
	<Placemark>
		<name>Explosives Safety Zone - Auckland outer harbour</name>
		<open>1</open>
		<description>Explosives Safety Zone - Auckland outer harbour-Areas reserved as explosives safety zones</description>
		<styleUrl>#PolyStyle001111</styleUrl>
		<Polygon>
			<tessellate>1</tessellate>
			<outerBoundaryIs>
				<LinearRing>
					<coordinates>
						174.9043824668684,-36.805995679181,0 174.9017365092125,-36.80658819384412,0 174.8987968208972,-36.80795069267315,0 174.8963819153501,-36.80977436055917,0 174.8945484232012,-36.81180297277385,0 174.8932720554613,-36.81574459344294,0 174.8934748657915,-36.81894344495596,0 174.8950931723278,-36.82222186947476,0 174.8978923807253,-36.82488076928763,0 174.9002730887993,-36.82619309501518,0 174.903120696893,-36.82711337245293,0 174.9062415415436,-36.82752953380255,0 174.9101776289116,-36.82719273012243,0 174.9136614255364,-36.82596549290057,0 174.9163939810944,-36.82424137714031,0 174.9187003000561,-36.82162285932126,0 174.919767814111,-36.81915564231597,0 174.9201233842589,-36.81579252287382,0 174.9192311174829,-36.8126677407673,0 174.9170901174334,-36.80969318015188,0 174.9134013492355,-36.80728847696972,0 174.9103094816152,-36.80629388540058,0 174.9071084281848,-36.80588361243495,0 174.9043824668684,-36.805995679181,0 
					</coordinates>
				</LinearRing>
			</outerBoundaryIs>
		</Polygon>
		<flyID>18</flyID><flyDescription>Explosives Safety Zone - Auckland outer harbour-Areas reserved as explosives safety zones</flyDescription>
	</Placemark>
	<Placemark>
		<name>Prohibited Anchorage Area - Waiheke Island</name>
		<open>1</open>
		<description>Prohibited Anchorage Area - Waiheke Island-Areas reserved as prohibited anchorage areas</description>
		<styleUrl>#PolyStyle00311</styleUrl>
		<Polygon>
			<tessellate>1</tessellate>
			<outerBoundaryIs>
				<LinearRing>
					<coordinates>
						174.9822835565177,-36.78300233133651,0 174.9824175580598,-36.78309069165678,0 174.9879977490947,-36.78174170271444,0 174.992790813666,-36.78060546419475,0 174.9924092585603,-36.78040932441094,0 174.9921574214122,-36.78032916761341,0 174.9918110762153,-36.78005160393514,0 174.9918950380544,-36.77977990211659,0 174.9857851116056,-36.78014288338864,0 174.982084900756,-36.78297547940483,0 174.9822835565177,-36.78300233133651,0 
					</coordinates>
				</LinearRing>
			</outerBoundaryIs>
		</Polygon>
		<flyID>19</flyID><flyDescription>Prohibited Anchorage Area - Waiheke Island-Areas reserved as prohibited anchorage areas</flyDescription>
	</Placemark>
	<Placemark>
		<name>Motuihe Channel Fast Passenger Ferry Lane</name>
		<open>1</open>
		<description>Motuihe Channel Fast Passenger Ferry Lane-Area reserved as the Motuihe Channel Fast Passenger Ferry Lane</description>
		<styleUrl>#sn_ylw-pushpin000</styleUrl>
		<Polygon>
			<tessellate>1</tessellate>
			<outerBoundaryIs>
				<LinearRing>
					<coordinates>
						174.9161565915566,-36.7971639459703,0 174.9161275492538,-36.80066483490793,0 174.9269269817797,-36.79232765420009,0 174.9288516461117,-36.78393316244684,0 174.9161565915566,-36.7971639459703,0 
					</coordinates>
				</LinearRing>
			</outerBoundaryIs>
		</Polygon>
		<flyID>20</flyID><flyDescription>Motuihe Channel Fast Passenger Ferry Lane-Area reserved as the Motuihe Channel Fast Passenger Ferry Lane</flyDescription>
	</Placemark>
	<Placemark>
		<name>Reserved Area</name>
		<open>1</open>
		<description>Lake Pupuke-Areas reserved for non-mechanically powered vessels only</description>
		<styleUrl>#PolyStyle00140</styleUrl>
		<Polygon>
			<tessellate>1</tessellate>
			<outerBoundaryIs>
				<LinearRing>
					<coordinates>
						174.7653666882981,-36.77551726540527,0 174.7649814567531,-36.77539761536934,0 174.7642783913047,-36.77534930250632,0 174.763352689812,-36.77548086504898,0 174.7628321903616,-36.77576922242434,0 174.7628498210054,-36.7759721200989,0 174.762464502886,-36.77615350590931,0 174.7618164836691,-36.77617066454086,0 174.7610725341735,-36.77635890852893,0 174.7606325612045,-36.77651024137414,0 174.7598624180195,-36.77685453817422,0 174.7595047703524,-36.77733328475071,0 174.7595006155462,-36.7777087631368,0 174.7592594255131,-36.77806634738728,0 174.7596901689654,-36.77828526163465,0 174.7595026769162,-36.77870507188609,0 174.7597777869055,-36.77928079075788,0 174.7594681305446,-36.77980548839076,0 174.7593763419098,-36.78031034880925,0 174.7591275137867,-36.78042467835029,0 174.759310039549,-36.78058822000868,0 174.7594026318328,-36.78110244122665,0 174.7595215400431,-36.78141989002759,0 174.7594126630637,-36.78153483358962,0 174.7598489125876,-36.78189532065314,0 174.760087329837,-36.78194202665095,0 174.7600357228276,-36.78215077542444,0 174.7602681802618,-36.78245463770234,0 174.7606445561024,-36.78267470608018,0 174.7604319342518,-36.7828203260668,0 174.7604693762946,-36.78316352985009,0 174.7608744174452,-36.78378842141412,0 174.7612065134393,-36.78380060243505,0 174.76111782669,-36.78402356391213,0 174.7616284805273,-36.78415830046944,0 174.7619237047045,-36.78460164240895,0 174.7625207936233,-36.78453341083609,0 174.762338222516,-36.78471492148864,0 174.7626955856242,-36.7846835797118,0 174.7629313877914,-36.78475444189986,0 174.7630724679588,-36.78499438496836,0 174.7633092050452,-36.78528617215761,0 174.7639427447762,-36.78560196750718,0 174.7648341541285,-36.78593077003765,0 174.765478922813,-36.78567184096223,0 174.7658024150263,-36.78578364655311,0 174.7663873527871,-36.78593369626532,0 174.7671638328482,-36.78553719417403,0 174.7675924218841,-36.78519147594567,0 174.7676580329083,-36.7850639897449,0 174.7677957095489,-36.78466248817607,0 174.7676811842966,-36.78457413160759,0 174.76805626377,-36.78433821704573,0 174.7681065955355,-36.78446123629473,0 174.7685012335735,-36.78437366196818,0 174.7688420115025,-36.78388141987026,0 174.7690245325348,-36.78347774905015,0 174.7694109962722,-36.78356140054447,0 174.7695904106546,-36.78334372705378,0 174.7709622641106,-36.78291907192963,0 174.7727482904198,-36.78182334537748,0 174.7726491008012,-36.78118192578943,0 174.7727859166778,-36.78031053866965,0 174.7725108990097,-36.78023582729314,0 174.772430332091,-36.77993469667835,0 174.7727091959936,-36.77941279140233,0 174.7729065949959,-36.7790761444848,0 174.7732538266477,-36.7790749130848,0 174.7731398064861,-36.77866004092758,0 174.7734726764902,-36.77835828802935,0 174.7740259625809,-36.77785808993217,0 174.7739439811166,-36.77705186083406,0 174.7732547109974,-36.77655664503759,0 174.7726084114158,-36.77605839077876,0 174.7720684435851,-36.77598595005166,0 174.7721511922671,-36.77584455138758,0 174.7718175904007,-36.77574992174704,0 174.7705701561551,-36.77613418350126,0 174.770502548729,-36.77659884252136,0 174.7701297446042,-36.77682644222873,0 174.7697852775537,-36.77711776326216,0 174.7694741665397,-36.77778523386575,0 174.768567860316,-36.77726647495073,0 174.7679635004722,-36.77693082705699,0 174.767442938178,-36.77661267853244,0 174.7668871623853,-36.77613219135018,0 174.7660551243756,-36.77575896850437,0 174.7653666882981,-36.77551726540527,0 
					</coordinates>
				</LinearRing>
			</outerBoundaryIs>
		</Polygon>
		<flyID>21</flyID><flyDescription>Lake Pupuke-Areas reserved for non-mechanically powered vessels only</flyDescription>
	</Placemark>
	<Placemark>
		<name>Access Lane</name>
		<open>1</open>
		<description>Orewa Beach-Access lanes reserved for the purpose of allowing power driven vessels and power driven vessels towing water-skiers, wake boards or sea biscuits to navigate from a beach or launching area</description>
		<styleUrl>#PolyStyle00100</styleUrl>
		<Polygon>
			<tessellate>1</tessellate>
			<outerBoundaryIs>
				<LinearRing>
					<coordinates>
						174.6960830177539,-36.58448178495416,0 174.6964084758656,-36.58506981446229,0 174.6985733278665,-36.58461261734929,0 174.6978163304409,-36.58351491205043,0 174.6958367571828,-36.5839474447051,0 174.6960830177539,-36.58448178495416,0 
					</coordinates>
				</LinearRing>
			</outerBoundaryIs>
		</Polygon>
		<flyID>22</flyID><flyDescription>Orewa Beach-Access lanes reserved for the purpose of allowing power driven vessels and power driven vessels towing water-skiers, wake boards or sea biscuits to navigate from a beach or launching area</flyDescription>
	</Placemark>
	<Placemark>
		<name>Access Lane</name>
		<open>1</open>
		<description>Stanmore Bay-Access lanes reserved for the purpose of allowing power driven vessels and power driven vessels towing water-skiers, wake boards or sea biscuits to navigate from a beach or launching area</description>
		<styleUrl>#sn_ylw-pushpin3</styleUrl>
		<Polygon>
			<tessellate>1</tessellate>
			<outerBoundaryIs>
				<LinearRing>
					<coordinates>
						174.7368307880001,-36.62371174532527,0 174.7374660319107,-36.62391809829003,0 174.7376523820542,-36.62171180385273,0 174.7370192414862,-36.62149420127667,0 174.7368307880001,-36.62371174532527,0 
					</coordinates>
				</LinearRing>
			</outerBoundaryIs>
		</Polygon>
		<flyID>23</flyID><flyDescription>Stanmore Bay-Access lanes reserved for the purpose of allowing power driven vessels and power driven vessels towing water-skiers, wake boards or sea biscuits to navigate from a beach or launching area</flyDescription>
	</Placemark>
	<Placemark>
		<name>Access Lane</name>
		<description>Browns Bay-Access lanes reserved for the purpose of allowing power driven vessels and power driven vessels towing water-skiers, wake boards or sea biscuits to navigate from a beach or launching area</description>
		<styleUrl>#sn_ylw-pushpin10</styleUrl>
		<Polygon>
			<tessellate>1</tessellate>
			<outerBoundaryIs>
				<LinearRing>
					<coordinates>
						174.752735267929,-36.71364531460635,0 174.7528703457622,-36.7130095942177,0 174.7500451365829,-36.71259064536334,0 174.7498962306279,-36.71324591083971,0 174.752735267929,-36.71364531460635,0 
					</coordinates>
				</LinearRing>
			</outerBoundaryIs>
		</Polygon>
		<flyID>24</flyID><flyDescription>Browns Bay-Access lanes reserved for the purpose of allowing power driven vessels and power driven vessels towing water-skiers, wake boards or sea biscuits to navigate from a beach or launching area</flyDescription>
	</Placemark>
	<Placemark>
		<name>Access Lane</name>
		<description>Matakatia Bay-Access lanes reserved for the purpose of allowing power driven vessels and power driven vessels towing water-skiers, wake boards or sea biscuits to navigate from a beach or launching area</description>
		<styleUrl>#PolyStyle001</styleUrl>
		<Polygon>
			<tessellate>1</tessellate>
			<outerBoundaryIs>
				<LinearRing>
					<coordinates>
						174.7740595665405,-36.62563253769859,0 174.7747052690462,-36.62547022269524,0 174.7748239816947,-36.62378761065961,0 174.7741564414159,-36.62394167998449,0 174.7740595665405,-36.62563253769859,0 
					</coordinates>
				</LinearRing>
			</outerBoundaryIs>
		</Polygon>
		<flyID>25</flyID><flyDescription>Matakatia Bay-Access lanes reserved for the purpose of allowing power driven vessels and power driven vessels towing water-skiers, wake boards or sea biscuits to navigate from a beach or launching area</flyDescription>
	</Placemark>
	<Placemark>
		<name>Access Lane</name>
		<description>Manly Beach-Access lanes reserved for the purpose of allowing power driven vessels and power driven vessels towing water-skiers, wake boards or sea biscuits to navigate from a beach or launching area</description>
		<styleUrl>#PolyStyle00200</styleUrl>
		<Polygon>
			<tessellate>1</tessellate>
			<outerBoundaryIs>
				<LinearRing>
					<coordinates>
						174.7561473247972,-36.6279556061641,0 174.756628481214,-36.62799163246577,0 174.7571605132893,-36.62800178238221,0 174.7573071452344,-36.62622901721395,0 174.7562834128088,-36.6262579823912,0 174.7561473247972,-36.6279556061641,0 
					</coordinates>
				</LinearRing>
			</outerBoundaryIs>
		</Polygon>
		<flyID>26</flyID><flyDescription>Manly Beach-Access lanes reserved for the purpose of allowing power driven vessels and power driven vessels towing water-skiers, wake boards or sea biscuits to navigate from a beach or launching area</flyDescription>
	</Placemark>
</Document>
</kml>
