<?xml version="1.0" encoding="UTF-8"?>
<kml xmlns="http://www.opengis.net/kml/2.2" xmlns:gx="http://www.google.com/kml/ext/2.2" xmlns:kml="http://www.opengis.net/kml/2.2" xmlns:atom="http://www.w3.org/2005/Atom">
<Document>
<name>R22 C50.kml</name>

<Style id="style0">

					<LineStyle>

						<color>ff0000ff</color>

					</LineStyle>

					<PolyStyle>

						<color>ff0000ff</color>

						<width>0.9</width>

					</PolyStyle>

				</Style>
<Style id="style1">

					<LineStyle>

						<color>ffffaa55</color>

					</LineStyle>

					<PolyStyle>

						<color>ffffaa55</color>

						<width>0.9</width>

					</PolyStyle>

				</Style>
<Style id="style2">

					<LineStyle>

						<color>ffff0000</color>

					</LineStyle>

					<PolyStyle>

						<color>ffff0000</color>

						<width>0.9</width>

					</PolyStyle>

				</Style>

<Placemark>

				<name>Mooring Zone</name>

				<description>These zones are designated for moored vessels.  Keep to 5 knots or less within 50 metres of the mooring zone.  Avoid transiting through this area.</description>

				<styleUrl>#style2</styleUrl>

				<Polygon>

					<tessellate>1</tessellate>

					<outerBoundaryIs>

						<LinearRing>

							<coordinates>

							177.1407105140662,-38.01182026204145,0 177.1399454007939,-38.01315040625664,0 177.1389559669171,-38.01507066668592,0 177.1376101361948,-38.01803237667049,0 177.1377288316356,-38.01825062291797,0 177.1379926522586,-38.0183441654179,0 177.1382564972028,-38.0182506438378,0 177.1392460347491,-38.01648400348655,0 177.1395758743662,-38.01571500363267,0 177.1406048384833,-38.01428095016056,0 177.1419634842708,-38.01307552738157,0 177.1425042800038,-38.0128884860375,0 177.1430978393732,-38.01243124896467,0 177.1431638016231,-38.01195321347024,0 177.1429929610524,-38.01138213743928,0 177.1426664957872,-38.01088195536679,0 177.1422406407758,-38.00889090534359,0 177.1415057798643,-38.00869541309928,0 177.1407105140662,-38.01182026204145,0 
						
</coordinates>

						</LinearRing>

					</outerBoundaryIs>

				</Polygon>

				<flyID>0</flyID>

				<flyDescription>These zones are designated for moored vessels.  Keep to 5 knots or less within 50 metres of the mooring zone.  Avoid transiting through this area.</flyDescription>

			</Placemark>
<Placemark>

				<name>Mooring Zone</name>

				<description>These zones are designated for moored vessels.  Keep to 5 knots or less within 50 metres of the mooring zone.  Avoid transiting through this area - Ohiwa Harbour</description>

				<styleUrl>#style2</styleUrl>

				<Polygon>

					<tessellate>1</tessellate>

					<outerBoundaryIs>

						<LinearRing>

							<coordinates>

							177.1134547542268,-37.98615596286783,0 177.1124527203385,-37.98531436931032,0 177.1113525245133,-37.98470590749039,0 177.1103661200776,-37.98412721243037,0 177.1097366191605,-37.98394255307531,0 177.1090237645109,-37.98378186656519,0 177.1084722234574,-37.98507899834574,0 177.1134547542268,-37.98615596286783,0 
						
</coordinates>

						</LinearRing>

					</outerBoundaryIs>

				</Polygon>

				<flyID>1</flyID>

				<flyDescription>These zones are designated for moored vessels.  Keep to 5 knots or less within 50 metres of the mooring zone.  Avoid transiting through this area - Ohiwa Harbour</flyDescription>

			</Placemark>
<Placemark>

				<name>Mooring Zone</name>

				<description>These zones are designated for moored vessels.  Keep to 5 knots or less within 50 metres of the mooring zone.  Avoid transiting through this area - Ohiwa Harbour</description>

				<styleUrl>#style1</styleUrl>

				<Polygon>

					<tessellate>1</tessellate>

					<outerBoundaryIs>

						<LinearRing>

							<coordinates>

							177.1006771826993,-37.98539213370815,0 177.1010643378716,-37.98576825669358,0 177.1028905745424,-37.98468106449804,0 177.1044431884151,-37.9845998372808,0 177.1063107738302,-37.98465830767776,0 177.1069704804818,-37.98475930624042,0 177.1084524657567,-37.98508491077934,0 177.1090146828123,-37.98377917968457,0 177.1088179491649,-37.98374185638201,0 177.1086079664053,-37.98412080481602,0 177.1080337866664,-37.98405618541114,0 177.1080817290686,-37.98358142904485,0 177.1066755171175,-37.98319947023505,0 177.1049262446227,-37.9831892160279,0 177.1046101150895,-37.98318317085619,0 177.1024479058268,-37.98345547555841,0 177.1012425994378,-37.98385080911197,0 177.1009182487871,-37.9842386895004,0 177.1006771826993,-37.98539213370815,0 
						
</coordinates>

						</LinearRing>

					</outerBoundaryIs>

				</Polygon>

				<flyID>2</flyID>

				<flyDescription>These zones are designated for moored vessels.  Keep to 5 knots or less within 50 metres of the mooring zone.  Avoid transiting through this area - Ohiwa Harbour</flyDescription>

			</Placemark>
<Placemark>

				<name>PWC Exclusion Area</name>

				<description>On Lakes Rotomahana and Okataina no person shall operate personal water craft or hovercraft, or land aircraft or helicopters, or tow people or devices from vessles for recreational purposes other than equipment used for fishing.</description>

				<styleUrl>#style0</styleUrl>

				<Polygon>

					<tessellate>1</tessellate>

					<outerBoundaryIs>

						<LinearRing>

							<coordinates>

							177.0893254774439,-37.99710581557897,0 177.0899097920278,-37.99748127082894,0 177.0893290685689,-37.99842357180544,0 177.0895287096797,-37.99954607712954,0 177.08936987881,-38.00020055913009,0 177.0891132440423,-38.00215158584278,0 177.0885688410775,-38.00354868352411,0 177.0874325577628,-38.00436585271783,0 177.0863691813153,-38.00569908579946,0 177.0851257978375,-38.00708818319686,0 177.0840919211515,-38.00715788081698,0 177.0835640672595,-38.00751988045966,0 177.0838654494997,-38.0078669149967,0 177.0844375528839,-38.00777774616431,0 177.0849172769051,-38.00797444745822,0 177.0856351220527,-38.00791560023718,0 177.0861812617103,-38.00757929818237,0 177.0866529924339,-38.00671357883963,0 177.0872682062552,-38.00644745162899,0 177.0885581953653,-38.00689293831147,0 177.0889808660818,-38.00810320756904,0 177.0893646598226,-38.00860256118397,0 177.0890317331384,-38.01007950760696,0 177.087928987485,-38.01157772178873,0 177.0871678885121,-38.01172216187538,0 177.08585149742,-38.01256794983538,0 177.0851168403823,-38.0131680172708,0 177.084645418336,-38.01358775154655,0 177.0840891685892,-38.01398512713536,0 177.0838346859608,-38.01487421167943,0 177.0842455275796,-38.01516895094232,0 177.0842881491489,-38.01562713629993,0 177.0837601396663,-38.01603785767475,0 177.0839888558778,-38.01644499919305,0 177.0845700482269,-38.01664719050751,0 177.0850979259331,-38.01680799368623,0 177.0858287119509,-38.01721147132245,0 177.0863648557103,-38.01692489270782,0 177.0867325138937,-38.01684389067667,0 177.0872919928436,-38.01684244992233,0 177.0877662779478,-38.01697388654199,0 177.0877418679561,-38.01641930329827,0 177.0876491020477,-38.01546605768126,0 177.088146315038,-38.01483188200022,0 177.0885778907445,-38.01480038386601,0 177.0888111505342,-38.01452469056719,0 177.0890276668006,-38.01368798243906,0 177.0898454387,-38.01304289964904,0 177.0912310797328,-38.01176957553039,0 177.0917841090251,-38.01136148902913,0 177.0925891050439,-38.01121850740002,0 177.0931233300808,-38.01139249553265,0 177.0937346476257,-38.01168131286924,0 177.09376910118,-38.01229194530588,0 177.0944146344432,-38.01273564132933,0 177.0949651765738,-38.01333745618467,0 177.0947324886933,-38.01394158801588,0 177.0948887070344,-38.01456155092121,0 177.0947925660118,-38.01508277419541,0 177.0950396387207,-38.01556217336984,0 177.0952078585568,-38.01594738031862,0 177.0953336181767,-38.0166541043297,0 177.0957600476752,-38.01700993710166,0 177.0961205107468,-38.01686985628626,0 177.0964269855508,-38.01632775477952,0 177.0968201343887,-38.01601154662109,0 177.0966961711559,-38.01554908783016,0 177.0967733529207,-38.01500605032029,0 177.0971998959038,-38.01437988882709,0 177.0967311414157,-38.01415936951707,0 177.0964107474939,-38.01368028542542,0 177.0969236605042,-38.01326494227409,0 177.0970280742268,-38.01268625470915,0 177.0967883749865,-38.01192971725067,0 177.0970298959254,-38.01112345872902,0 177.0965849229035,-38.01059075557599,0 177.0963930820581,-38.00957550951361,0 177.0961787326261,-38.00895616468708,0 177.095857605675,-38.0090172771861,0 177.0952671815394,-38.00862412118336,0 177.0945964617872,-38.00772682550428,0 177.0936770166908,-38.00749945676167,0 177.0932611776858,-38.00701336817754,0 177.093194950238,-38.00651241476985,0 177.093467208312,-38.00588491267004,0 177.0928140807689,-38.0052704844187,0 177.0924486885644,-38.00463991247209,0 177.0923381646373,-38.00404926485764,0 177.0926274066685,-38.00290099502445,0 177.0931988848057,-38.00245825943073,0 177.0941974896597,-38.00174959492686,0 177.0950354773712,-38.00113337554235,0 177.0953664978603,-38.00068161484407,0 177.0959164032005,-38.00095049680099,0 177.0960099596145,-38.00126776036842,0 177.0962479639796,-38.00164166905445,0 177.0969940189675,-38.00186166231725,0 177.0975798618592,-38.00285628916504,0 177.0981648537814,-38.00320291373707,0 177.0993867663048,-38.00328565292382,0 177.1003243255246,-38.00306056502858,0 177.1010372454556,-38.00213150946294,0 177.100911106124,-38.00138103953083,0 177.1020665872757,-38.00011468897694,0 177.1084389373863,-37.98509829620532,0 177.1069316008717,-37.98475623924577,0 177.1062932689358,-37.98466814908759,0 177.104553785885,-37.98459822651003,0 177.1028867805538,-37.984690383434,0 177.1010565703699,-37.98578208673705,0 177.1006591470048,-37.98540460794632,0 177.1008991781526,-37.98424769773899,0 177.1012273891498,-37.98384154232215,0 177.102327662459,-37.98349894141197,0 177.1032945978801,-37.98332691018364,0 177.104632079981,-37.98317855442823,0 177.1066694704514,-37.98319814264433,0 177.1056574693611,-37.98294855666624,0 177.103797061437,-37.98259976792301,0 177.1014731017512,-37.98196956826817,0 177.1002409810187,-37.98187177940704,0 177.0992383422707,-37.98157588530434,0 177.0976274168989,-37.98157626658978,0 177.095141984209,-37.98157676395332,0 177.0943702518208,-37.98177463290949,0 177.0930852943983,-37.98177482079586,0 177.0893254774439,-37.99710581557897,0 
						
</coordinates>

						</LinearRing>

					</outerBoundaryIs>

				</Polygon>

				<flyID>3</flyID>

				<flyDescription>On Lakes Rotomahana and Okataina no person shall operate personal water craft or hovercraft, or land aircraft or helicopters, or tow people or devices from vessles for recreational purposes other than equipment used for fishing.</flyDescription>

			</Placemark>
<Placemark>

				<name>PWC Exclusion Area</name>

				<description>On Lakes Rotomahana and Okataina no person shall operate personal water craft or hovercraft, or land aircraft or helicopters, or tow people or devices from vessles for recreational purposes other than equipment used for fishing.</description>

				<styleUrl>#style0</styleUrl>

				<Polygon>

					<tessellate>1</tessellate>

					<outerBoundaryIs>

						<LinearRing>

							<coordinates>

							177.1081067529655,-37.98357347205008,0 177.108032682851,-37.98403985011629,0 177.108612508216,-37.98411825653859,0 177.1088130144072,-37.98374051338926,0 177.1081067529655,-37.98357347205008,0 
						
</coordinates>

						</LinearRing>

					</outerBoundaryIs>

				</Polygon>

				<flyID>4</flyID>

				<flyDescription>On Lakes Rotomahana and Okataina no person shall operate personal water craft or hovercraft, or land aircraft or helicopters, or tow people or devices from vessles for recreational purposes other than equipment used for fishing.</flyDescription>

			</Placemark>
<Placemark>

				<name>PWC Exclusion Area</name>

				<description>On Lakes Rotomahana and Okataina no person shall operate personal water craft or hovercraft, or land aircraft or helicopters, or tow people or devices from vessles for recreational purposes other than equipment used for fishing.</description>

				<styleUrl>#style0</styleUrl>

				<Polygon>

					<tessellate>1</tessellate>

					<outerBoundaryIs>

						<LinearRing>

							<coordinates>

							177.1019635618953,-38.00023467294585,0 177.1020922958835,-38.0005812393396,0 177.1024798425955,-38.00121146968102,0 177.102454215312,-38.0016905487521,0 177.1034157197375,-38.00217261022986,0 177.1047088762526,-38.00243925842415,0 177.1057662426565,-38.0027657585514,0 177.1062885010321,-38.00263721555959,0 177.1071847881247,-38.00249956550686,0 177.1079791646122,-38.00218897689954,0 177.1087201966568,-38.00217426554518,0 177.1094287906644,-38.00210308747305,0 177.109632841873,-38.00233189073445,0 177.1092654117412,-38.002643236576,0 177.1094368551505,-38.00314478271542,0 177.1094456660705,-38.00421571512341,0 177.1101213128291,-38.00503646176733,0 177.1110133487142,-38.0058935581726,0 177.1110118002821,-38.0062849003652,0 177.1110025323726,-38.00699994099933,0 177.1119308735322,-38.00847766926577,0 177.1118372417885,-38.00927077030941,0 177.11166409232,-38.0098490375721,0 177.1125607555683,-38.0102713945935,0 177.1129053495659,-38.01066777872822,0 177.1129197216195,-38.01105999804511,0 177.1122637244296,-38.01143961109967,0 177.1115695290814,-38.01195591025574,0 177.1109274910774,-38.01209790677932,0 177.1104698804168,-38.01249139492605,0 177.1100893437028,-38.01303743005389,0 177.1089102682034,-38.01297727628042,0 177.1082387635482,-38.0126056284052,0 177.1077455459233,-38.01255711091777,0 177.1074056411069,-38.01205232763832,0 177.1070062490688,-38.01246574781953,0 177.1069343541768,-38.0129546441901,0 177.1073018326836,-38.01331053895452,0 177.1071168450477,-38.0136609865288,0 177.1057194071684,-38.01446944576836,0 177.10344214401,-38.01559315911756,0 177.1024716312035,-38.01624075593783,0 177.1023294136262,-38.01704203069305,0 177.1025792522962,-38.01729456875464,0 177.1019799758815,-38.01826302599196,0 177.1005379566591,-38.01915207521913,0 177.1003882920565,-38.01964860484111,0 177.1007438264957,-38.02008527987911,0 177.1012440139503,-38.02022918437569,0 177.1025090030717,-38.01988261193809,0 177.1032497376782,-38.02031458055802,0 177.1040745269753,-38.02016924963318,0 177.1043112646038,-38.02073614175615,0 177.1044437257947,-38.02129117675429,0 177.103471885444,-38.0226062536384,0 177.1023206343159,-38.02349948524718,0 177.1021003613354,-38.02455433955277,0 177.1023109652992,-38.02528834548671,0 177.103314776673,-38.0260656166499,0 177.1040487107567,-38.02684948858467,0 177.1048813091989,-38.02726351256087,0 177.1052348027278,-38.02703189227794,0 177.1039369930358,-38.02615808211038,0 177.1027347111654,-38.02525686691244,0 177.1024580100955,-38.02455350958643,0 177.1029159737801,-38.02358253358091,0 177.10375953357,-38.02288381465852,0 177.1046857718416,-38.02204447360568,0 177.1055412738395,-38.02180269404268,0 177.1059862198137,-38.02162071487238,0 177.1063055095808,-38.02168469015108,0 177.1063542790367,-38.0219613362237,0 177.1069934925302,-38.02226687085936,0 177.1079008772664,-38.02256754265923,0 177.1092091568998,-38.02291390960281,0 177.1106263532462,-38.02252039582165,0 177.1113101088727,-38.02182306289897,0 177.1123594788364,-38.02101695615686,0 177.1130781732427,-38.02099073063432,0 177.1139063436857,-38.02107015279297,0 177.1146400480721,-38.02063485590568,0 177.1153331123635,-38.02037384268059,0 177.1161775691857,-38.02008853754793,0 177.1165170599733,-38.01972094050549,0 177.1171780148933,-38.01902605197942,0 177.1178677825654,-38.01873117832841,0 177.1186324832436,-38.01804289355426,0 177.1191251419621,-38.01767202106642,0 177.1197516711279,-38.01801839476799,0 177.1202036295443,-38.0185488541787,0 177.1275285041547,-37.99638823656089,0 177.1245565634751,-37.99584368082748,0 177.125219697592,-37.99738408334936,0 177.1253821050579,-37.99805594427674,0 177.1255403597658,-37.99886955860739,0 177.1254933179863,-38.00106648274104,0 177.1252840360263,-38.00134493710998,0 177.1250758584396,-38.0021856781251,0 177.124994594066,-38.00254447702314,0 177.1247532677518,-38.00333451271652,0 177.1245940574781,-38.00346412804809,0 177.1238177901816,-38.0038027406037,0 177.1229135594093,-38.00426300461074,0 177.1222401882852,-38.00477162240471,0 177.1217482661785,-38.00501591345623,0 177.121037950521,-38.00504907803122,0 177.1206506595942,-38.00497385613678,0 177.1203800856536,-38.00482180327774,0 177.1200853589082,-38.00427084316289,0 177.120131315635,-38.0040446980835,0 177.1200637118028,-38.00360746818594,0 177.1201315760126,-38.00306169209964,0 177.1200033927103,-38.00289253339702,0 177.1197838322226,-38.00249539677823,0 177.119744635043,-38.00177750320476,0 177.1195213328346,-38.00145612552451,0 177.1187024518839,-38.00070632112006,0 177.1184861207444,-38.00062348964138,0 177.1184167756933,-38.00068662149049,0 177.1184165561867,-38.00087219068126,0 177.1185678317188,-38.00104215968996,0 177.1185841979314,-38.0013113791311,0 177.1186648964184,-38.00148046076943,0 177.118401749677,-38.0018014564189,0 177.1183549835189,-38.00196810373767,0 177.1181634997409,-38.00226387480016,0 177.1175338277446,-38.00279579166113,0 177.1172911753142,-38.00310840706653,0 177.1170979480036,-38.00365973153787,0 177.1170241446447,-38.00442412837874,0 177.1168151900545,-38.00495377139573,0 177.1165031070468,-38.00546252757066,0 177.1162846625294,-38.00585466743009,0 177.1160292774564,-38.00605928267541,0 177.1155139436997,-38.00623682835198,0 177.1153012564311,-38.00635754459481,0 177.1152154574799,-38.00662773994443,0 177.1150121717514,-38.00708892492363,0 177.1148562962356,-38.00718627302484,0 177.1146280607614,-38.00707641261257,0 177.1144712980574,-38.00705643132007,0 177.1143556258361,-38.00697074555855,0 177.1140242320847,-38.006810975557,0 177.1136748396059,-38.00653945473105,0 177.1133147144866,-38.00650651390809,0 177.1130187166285,-38.00660284431383,0 177.1126909181367,-38.006595496799,0 177.1125096585272,-38.00664316404684,0 177.1123371118153,-38.0065195321791,0 177.1123199965456,-38.00626141852404,0 177.1123230342867,-38.00595147111564,0 177.1121440451089,-38.00566351130336,0 177.1121884625149,-38.00550246395358,0 177.1123297700432,-38.00515536568924,0 177.112466106789,-38.00477315071414,0 177.1123863513997,-38.00450971014577,0 177.1124494955987,-38.00418220997222,0 177.1127184145872,-38.00371642823021,0 177.1133211947884,-38.003019371767,0 177.1137659228868,-38.00286113481444,0 177.1144112787714,-38.00280907057805,0 177.1146135061577,-38.00288701807486,0 177.1148492507924,-38.00284432859908,0 177.1156080374147,-38.00235035373355,0 177.1163367284548,-38.00154050682274,0 177.1166271112211,-38.00092497886745,0 177.1169685064758,-37.999771044502,0 177.1169459486662,-37.99918758944477,0 177.1166099569751,-37.99828086157071,0 177.1161514431903,-37.99772637959691,0 177.1155549276828,-37.99752540686753,0 177.1149440944336,-37.99750706583221,0 177.1144745198605,-37.99732232719643,0 177.1141165054839,-37.99692628105279,0 177.1142693419014,-37.99642405244686,0 177.1148143453065,-37.99607935781127,0 177.1153727329209,-37.9960793625884,0 177.1158320068618,-37.99618043336809,0 177.1164659191047,-37.99670388018925,0 177.1168114508656,-37.99670753617694,0 177.117347466449,-37.99690793311304,0 177.1177904465374,-37.99721838571511,0 177.1178247831884,-37.99748088859482,0 177.1179687481697,-37.99768476990316,0 177.1184346518985,-37.99783452694451,0 177.1186659849458,-37.99801340925234,0 177.1188331544692,-37.99774364472234,0 177.1191814668065,-37.99748434457414,0 177.1191712631692,-37.99735536434964,0 177.1187887110938,-37.99726613147853,0 177.1186689380947,-37.99705615154453,0 177.1190623924807,-37.99660900433868,0 177.1194713532242,-37.99636134367207,0 177.1197968758514,-37.99638886772551,0 177.1201154407281,-37.99664510834276,0 177.1204244591461,-37.99680724962492,0 177.1211001943504,-37.9970235816123,0 177.1215624523624,-37.99731665652848,0 177.1219744919846,-37.99745894683869,0 177.1223015679489,-37.99774066044655,0 177.1219665130339,-37.99781044342819,0 177.1210953432525,-37.9973454942871,0 177.120653165812,-37.99723084915878,0 177.120682544667,-37.9974921493158,0 177.1212238934558,-37.99788362304519,0 177.1216571205773,-37.99795380372723,0 177.1217284400824,-37.9982566930997,0 177.1220486602072,-37.99857323613266,0 177.1221903615909,-37.99882867307429,0 177.1225516931716,-37.99907836417973,0 177.1230711976151,-37.99905177706855,0 177.1233015110029,-37.99893564120041,0 177.1233511668786,-37.99857018432441,0 177.1233726742239,-37.99783610790662,0 177.1229533633835,-37.99752970422901,0 177.1229984169287,-37.99714860187358,0 177.122981201588,-37.99643699069421,0 177.122663873812,-37.99621645056949,0 177.1223952466819,-37.99621648453461,0 177.1221065336643,-37.99606852593799,0 177.121763178272,-37.99606856501654,0 177.1214584588102,-37.99598477433459,0 177.1224119212875,-37.99539748469106,0 177.1144844587848,-37.99597284960365,0 177.1054910410429,-37.99894598427839,0 177.1022127247691,-37.99993965435914,0 177.1019635618953,-38.00023467294585,0 
						
</coordinates>

						</LinearRing>

					</outerBoundaryIs>

				</Polygon>

				<flyID>5</flyID>

				<flyDescription>On Lakes Rotomahana and Okataina no person shall operate personal water craft or hovercraft, or land aircraft or helicopters, or tow people or devices from vessles for recreational purposes other than equipment used for fishing.</flyDescription>

			</Placemark>
<Placemark>

				<name>PWC Exclusion Area</name>

				<description>On Lakes Rotomahana and Okataina no person shall operate personal water craft or hovercraft, or land aircraft or helicopters, or tow people or devices from vessles for recreational purposes other than equipment used for fishing.</description>

				<styleUrl>#style0</styleUrl>

				<Polygon>

					<tessellate>1</tessellate>

					<outerBoundaryIs>

						<LinearRing>

							<coordinates>

							177.0683490243906,-38.00293938606393,0 177.0681883439383,-38.00253877685358,0 177.0678423404779,-38.00189824456446,0 177.0677282405868,-38.00067009562207,0 177.058505567302,-37.99990654271107,0 177.0583675358522,-38.0002750039322,0 177.0579533502288,-38.00059873084282,0 177.0572380711204,-38.00097834324616,0 177.0570936377858,-38.00146935587677,0 177.0574585426159,-38.00195905724319,0 177.0579196730108,-38.00230330931618,0 177.0585017987558,-38.00251175907715,0 177.0593372619974,-38.0026171877085,0 177.0600734989701,-38.00236863806996,0 177.0607607478012,-38.00229216190252,0 177.0613076956004,-38.00228374245028,0 177.0618380546183,-38.00262250695293,0 177.0620519185827,-38.00311918202777,0 177.0623655771969,-38.00353745509687,0 177.0623810607452,-38.00389285342897,0 177.0623576203387,-38.00422266542213,0 177.0625255013064,-38.0047531511042,0 177.062129172719,-38.00525091458868,0 177.0621935691738,-38.00544953681023,0 177.0619072262842,-38.00569993904696,0 177.0615863342906,-38.00690053840887,0 177.0611258278954,-38.00900531623697,0 177.0610982231995,-38.01034925032306,0 177.0615076258221,-38.01062973383718,0 177.0613596402526,-38.01099394929331,0 177.0614270085769,-38.01139077473849,0 177.0613744432633,-38.01194347982763,0 177.0614405907892,-38.01225709563329,0 177.0618896005549,-38.01180325735652,0 177.0624298592056,-38.0111230295231,0 177.062711629596,-38.01068930021521,0 177.0630719961397,-38.01071114423867,0 177.0633436796086,-38.01096362844733,0 177.0636076895407,-38.01161866956061,0 177.063678468897,-38.01181274845774,0 177.0638949651881,-38.01194723837292,0 177.0640906521483,-38.01196122643592,0 177.0641004326693,-38.01172111367553,0 177.0637909987588,-38.01136270072814,0 177.0638052664935,-38.01104614895621,0 177.0639987824768,-38.01101245741735,0 177.0644020997964,-38.01134625670134,0 177.0646652351238,-38.01170505412588,0 177.0650167672102,-38.01192896685708,0 177.0657623684882,-38.01197655464016,0 177.066358928003,-38.01146148390714,0 177.0663683049069,-38.01121377119566,0 177.0665895476089,-38.01070814948739,0 177.0665171172232,-38.01042827364084,0 177.0665946824186,-38.01007979217559,0 177.0664862444222,-38.00983494749055,0 177.0666001764139,-38.00955909957423,0 177.0666951913401,-38.00927790707525,0 177.0667230906256,-38.00909361858955,0 177.0671120758216,-38.0089432705802,0 177.0674214382534,-38.00877574298679,0 177.0675487898525,-38.00861025725237,0 177.068067744324,-38.00858094069479,0 177.0683828326696,-38.00841389132776,0 177.0686674100825,-38.00843101211292,0 177.069066438521,-38.00858458595386,0 177.0695480792664,-38.00858417383662,0 177.0698619217942,-38.00875254194749,0 177.0701601004218,-38.00927417629119,0 177.0704228464849,-38.00942767279776,0 177.0706925804965,-38.00974302424982,0 177.0710622982199,-38.00981186282178,0 177.0713495701248,-38.00988762043932,0 177.071813171279,-38.01033856355134,0 177.0720819349193,-38.01031855331361,0 177.072338570651,-38.01000201336925,0 177.0723196279609,-38.0096433740508,0 177.0721439656806,-38.00942822652517,0 177.0719022768747,-38.00938879650784,0 177.071691852173,-38.00925487963794,0 177.0716454169365,-38.00901841501965,0 177.0713180507141,-38.00883532416116,0 177.0711876222512,-38.00826507621009,0 177.0711093294109,-38.00777869596563,0 177.0711252003789,-38.00730465506251,0 177.070877234572,-38.00697641408527,0 177.0708694968785,-38.00670388999315,0 177.0708551611401,-38.00660962334902,0 177.0706770105594,-38.00650720557983,0 177.0705045615586,-38.00663939195511,0 177.0702732349436,-38.0069752842964,0 177.0700543345083,-38.0067520087676,0 177.0698202742959,-38.00654681292023,0 177.069626709384,-38.0063811646528,0 177.0694684747906,-38.00621100041028,0 177.0694591332717,-38.00595070729143,0 177.0694025155969,-38.00557875643172,0 177.0692191359334,-38.00537088155296,0 177.0690841496667,-38.00512672778834,0 177.0691113154985,-38.00498045731175,0 177.0690370797717,-38.00483069686607,0 177.0688365337651,-38.00474550764844,0 177.0685741016247,-38.00465926773914,0 177.0682391319164,-38.00435526171489,0 177.0679613026098,-38.00423087238957,0 177.0678285538756,-38.00387924362932,0 177.0678913447236,-38.00345641490539,0 177.068212110328,-38.00323269728791,0 177.0683490243906,-38.00293938606393,0 
						
</coordinates>

						</LinearRing>

					</outerBoundaryIs>

				</Polygon>

				<flyID>6</flyID>

				<flyDescription>On Lakes Rotomahana and Okataina no person shall operate personal water craft or hovercraft, or land aircraft or helicopters, or tow people or devices from vessles for recreational purposes other than equipment used for fishing.</flyDescription>

			</Placemark>
<Placemark>

				<name>PWC Exclusion Area</name>

				<description>On Lakes Rotomahana and Okataina no person shall operate personal water craft or hovercraft, or land aircraft or helicopters, or tow people or devices from vessles for recreational purposes other than equipment used for fishing.</description>

				<styleUrl>#style0</styleUrl>

				<Polygon>

					<tessellate>1</tessellate>

					<outerBoundaryIs>

						<LinearRing>

							<coordinates>

							177.0677282405868,-38.00067009562207,0 177.067652514604,-37.99962568829397,0 177.0674025670001,-37.99899048164362,0 177.067883903238,-37.99861583031864,0 177.0683925863748,-37.99874142636814,0 177.0689116961678,-37.99817086626722,0 177.0689038263096,-37.99777153532305,0 177.0688221570616,-37.99694296634654,0 177.0691622641476,-37.99672763301913,0 177.0699285178986,-37.9967657458986,0 177.0705917544957,-37.99744731399768,0 177.0712623383104,-37.99799696141314,0 177.0722204614413,-37.99835089351676,0 177.0729669428328,-37.99858930709875,0 177.073599513746,-37.99861148110276,0 177.0740345258096,-37.99845901782557,0 177.0744150664226,-37.99845913043517,0 177.0744123180643,-37.99912749535829,0 177.0749885304115,-37.99954299033922,0 177.0749689963701,-37.99989495314645,0 177.0757139357292,-38.0002643477681,0 177.0763551141034,-38.00009751154868,0 177.0768181280049,-37.99959883016461,0 177.077787957567,-37.99918253044931,0 177.0782772401695,-37.999473607996,0 177.0786595528473,-38.00068445807634,0 177.0789482429082,-38.00096251837745,0 177.0795968860903,-38.00118101670044,0 177.0797573065415,-38.00145592049676,0 177.0801624332473,-38.00184877936009,0 177.0807869996055,-38.00179907822851,0 177.0809317393658,-38.00114188014342,0 177.0809710927028,-38.00047386731492,0 177.0804732206055,-37.99983568991177,0 177.0807965266425,-37.99955801756517,0 177.0816235256648,-37.99926543688903,0 177.0828408322758,-37.99845555505976,0 177.0837278615679,-37.99847303853706,0 177.0849623981744,-37.9982535332046,0 177.0859546440016,-37.99821979922316,0 177.0870367951372,-37.9984402837767,0 177.0879879770144,-37.99809557519625,0 177.0885575865292,-37.99723341132583,0 177.0893254774439,-37.99710581557897,0 177.0652515920315,-37.98846399483903,0 177.0646121093618,-37.98907494584252,0 177.064453118116,-37.98992280547257,0 177.0644180565969,-37.99082394517267,0 177.0639485017962,-37.99146872959398,0 177.0632823262499,-37.99210967934766,0 177.0629482017833,-37.99290924333732,0 177.0626442142029,-37.99362315562745,0 177.0616656571883,-37.99410695776348,0 177.0605350629153,-37.99436837630545,0 177.0596333490576,-37.99400321290603,0 177.0588969050814,-37.99388716616302,0 177.0580736664965,-37.99397508454972,0 177.0575689882708,-37.9943906725185,0 177.0573088878037,-37.99424055463272,0 177.0575951747777,-37.99397452702915,0 177.0581645480956,-37.99362596942659,0 177.0587040941706,-37.99359534113462,0 177.0587708386507,-37.99335130790732,0 177.0587493326721,-37.99318355896215,0 177.0585367201199,-37.99306876628865,0 177.0582203054367,-37.99316583194306,0 177.0579681740271,-37.99323824083338,0 177.0574672579668,-37.99287814992987,0 177.057211016319,-37.99287811718038,0 177.0567385489796,-37.99303988094549,0 177.0560251926313,-37.99311261121207,0 177.0555601560518,-37.99325717198006,0 177.0552783986762,-37.99354242318887,0 177.0553033292625,-37.99389182299012,0 177.0552946383439,-37.9940806655233,0 177.0549862566374,-37.99425030137761,0 177.0547301590853,-37.99453031026623,0 177.0548072706446,-37.99479174541979,0 177.0552317241669,-37.99517604995148,0 177.0555942702959,-37.99537369096093,0 177.0558483128931,-37.99526625021126,0 177.0561184486805,-37.99524829744544,0 177.0562744185058,-37.99537376972312,0 177.0566210256904,-37.9949394448466,0 177.0569048493167,-37.99503095996462,0 177.0564541521288,-37.99569182982228,0 177.0565063491721,-37.99639527730315,0 177.0566143143236,-37.99698294159313,0 177.0568629272469,-37.99716359798385,0 177.0571921156361,-37.99716219104693,0 177.0574228941766,-37.99726168159173,0 177.0574388471939,-37.99752004879516,0 177.0575999008653,-37.99780183919727,0 177.0581194331455,-37.99793727452975,0 177.0586355175541,-37.99831459414757,0 177.0589924217976,-37.99863339155506,0 177.0589516528077,-37.99915518728911,0 177.0587987286654,-37.99955611691316,0 177.058505567302,-37.99990654271107,0 177.0677282405868,-38.00067009562207,0 
						
</coordinates>

						</LinearRing>

					</outerBoundaryIs>

				</Polygon>

				<flyID>7</flyID>

				<flyDescription>On Lakes Rotomahana and Okataina no person shall operate personal water craft or hovercraft, or land aircraft or helicopters, or tow people or devices from vessles for recreational purposes other than equipment used for fishing.</flyDescription>

			</Placemark>
<Placemark>

				<name>PWC Exclusion Area</name>

				<description>On Lakes Rotomahana and Okataina no person shall operate personal water craft or hovercraft, or land aircraft or helicopters, or tow people or devices from vessles for recreational purposes other than equipment used for fishing.</description>

				<styleUrl>#style0</styleUrl>

				<Polygon>

					<tessellate>1</tessellate>

					<outerBoundaryIs>

						<LinearRing>

							<coordinates>

							177.069612336002,-37.98174684248853,0 177.0693611713463,-37.98136442258844,0 177.0692922162593,-37.9809651910231,0 177.0690634821953,-37.98040588879977,0 177.0690877915841,-37.98002301449424,0 177.0688317679025,-37.9797093525007,0 177.0684358565599,-37.97985235522826,0 177.0682008770742,-37.98016887560527,0 177.0678436302659,-37.98045336787283,0 177.0677805008574,-37.98079524139687,0 177.0673809505088,-37.98125854603338,0 177.0668689888935,-37.98154456817125,0 177.0660139948907,-37.98141412639565,0 177.0654480651683,-37.98140679882755,0 177.0650811097448,-37.98164154879751,0 177.064857052345,-37.9823326393563,0 177.0638832613051,-37.98379011583153,0 177.0635017195133,-37.98394737452355,0 177.062958867796,-37.98472321626071,0 177.0629457470548,-37.98552208123265,0 177.0632375169865,-37.98589717895405,0 177.0638924617122,-37.98614515105595,0 177.0644488962585,-37.98653937373764,0 177.0648436498811,-37.98689907086997,0 177.0648795604492,-37.98727007653674,0 177.0654627345133,-37.9875612515561,0 177.0654887557499,-37.98800753586561,0 177.0652515920315,-37.98846399483903,0 177.069612336002,-37.98174684248853,0 
						
</coordinates>

						</LinearRing>

					</outerBoundaryIs>

				</Polygon>

				<flyID>8</flyID>

				<flyDescription>On Lakes Rotomahana and Okataina no person shall operate personal water craft or hovercraft, or land aircraft or helicopters, or tow people or devices from vessles for recreational purposes other than equipment used for fishing.</flyDescription>

			</Placemark>
<Placemark>

				<name>PWC Exclusion Area</name>

				<description>On Lakes Rotomahana and Okataina no person shall operate personal water craft or hovercraft, or land aircraft or helicopters, or tow people or devices from vessles for recreational purposes other than equipment used for fishing.</description>

				<styleUrl>#style0</styleUrl>

				<Polygon>

					<tessellate>1</tessellate>

					<outerBoundaryIs>

						<LinearRing>

							<coordinates>

							177.0893254774439,-37.99710581557897,0 177.0930852943983,-37.98177482079586,0 177.0920539589719,-37.98255435517231,0 177.0908240892236,-37.98250631382435,0 177.0901660523406,-37.98269866316726,0 177.0892023004402,-37.98293753975519,0 177.088579343837,-37.98236153434166,0 177.0877315254906,-37.98157756521611,0 177.0872585465998,-37.98062213229107,0 177.0867200541468,-37.97990051693228,0 177.0861359245893,-37.97979618447885,0 177.0846235379305,-37.97905671546025,0 177.0832523275431,-37.97889616248359,0 177.0814742136593,-37.97926943301692,0 177.0808494127507,-37.97943261704402,0 177.0805537005298,-37.97995452858939,0 177.0805225239268,-37.98057085428813,0 177.0801633282176,-37.98097870286278,0 177.0801757084327,-37.98137843296199,0 177.0796949538505,-37.98147798470276,0 177.0790834886326,-37.98140222095423,0 177.0784990591029,-37.98077605949176,0 177.0779388579078,-37.98080244938085,0 177.0770211239967,-37.9808804724795,0 177.0757978631767,-37.98054010916485,0 177.0748802111644,-37.98002227996174,0 177.0746278761259,-37.97966558645132,0 177.0746368157977,-37.97894031560652,0 177.0749412193951,-37.97823933028078,0 177.0747232781546,-37.97794400241459,0 177.0744200674595,-37.97812156842823,0 177.0744082622351,-37.97848212708731,0 177.0740396440695,-37.97878788616046,0 177.0738730047314,-37.97920404962024,0 177.0740593740343,-37.97973146655961,0 177.0740391813363,-37.98000801598182,0 177.0738222920535,-37.98037049289491,0 177.0738127747999,-37.98075665300887,0 177.0733730254628,-37.98129721505916,0 177.0725563850795,-37.98160170237028,0 177.0719015947628,-37.98170667763688,0 177.0716203214303,-37.98175258628658,0 177.0714012275828,-37.98165087318637,0 177.0713500982211,-37.98404487852426,0 177.0717517323168,-37.98404234689164,0 177.0720427367837,-37.98406946360481,0 177.0723793493051,-37.98414291374934,0 177.0726308389388,-37.98430301760189,0 177.0733367432215,-37.98448862862068,0 177.0739385334716,-37.98479269124002,0 177.0746407794499,-37.98486070246494,0 177.0750792988476,-37.98517931350878,0 177.0756778480147,-37.98547192348397,0 177.0758153080803,-37.98564485941848,0 177.0763959726189,-37.98582405963113,0 177.0770341547648,-37.98589574468902,0 177.0777489305726,-37.98608746797061,0 177.0785700406267,-37.98661293109418,0 177.0794954596657,-37.98731217356535,0 177.0807070461275,-37.98787880022125,0 177.0816045958345,-37.98854432534176,0 177.0822952568398,-37.98879462363498,0 177.0828950370047,-37.98933634502091,0 177.0832158243543,-37.98960033954757,0 177.0835530782246,-37.98970004037994,0 177.0837695018968,-37.98982202016196,0 177.0839346312988,-37.99024076086229,0 177.084183412371,-37.99057156282847,0 177.0845491054961,-37.99090317432729,0 177.0847184763723,-37.99130725039206,0 177.0845711378211,-37.99170367000941,0 177.0841536953192,-37.99218595450758,0 177.0838941507089,-37.99236359844055,0 177.0834620247688,-37.99259976557944,0 177.0832956052858,-37.99274645994166,0 177.0832179719971,-37.99309335257138,0 177.0831132210828,-37.99323391703766,0 177.0829588490625,-37.99322234244139,0 177.0829282844355,-37.99312877259899,0 177.0831108131668,-37.99261221315214,0 177.0831438035403,-37.99236394646156,0 177.082973573351,-37.99195567295219,0 177.0826590173411,-37.99126132917894,0 177.082492635008,-37.99075767732942,0 177.0821373973909,-37.99029361582604,0 177.081722152998,-37.99003424823825,0 177.0812615325477,-37.98989341352624,0 177.0807013329154,-37.98989365447306,0 177.0801705328059,-37.98990647029673,0 177.0794681069991,-37.99011876862152,0 177.0790103768759,-37.99057290918895,0 177.0783812373769,-37.99099154493307,0 177.0781442272723,-37.9911389566505,0 177.0779123471233,-37.99108582889114,0 177.0778166447454,-37.99077688608084,0 177.0778847874661,-37.99052483782379,0 177.0780535740854,-37.99018761318646,0 177.078068018916,-37.98986974951917,0 177.0780147901582,-37.98964155396279,0 177.0777280146187,-37.98915699956354,0 177.0771368415043,-37.988725443826,0 177.0767271718688,-37.98847433041129,0 177.076454122797,-37.98845216388814,0 177.076132613323,-37.98859276624047,0 177.0755891256947,-37.98890073082196,0 177.0750426045057,-37.98912517802872,0 177.0747086725991,-37.98928667132243,0 177.0742131295155,-37.98958451188113,0 177.0738276588793,-37.98981128423241,0 177.0737434693504,-37.98987230730055,0 177.0734557849803,-37.98985086674313,0 177.0732618508201,-37.98964430269176,0 177.073251037867,-37.98934090358261,0 177.0733806702359,-37.98912742110269,0 177.0731062914676,-37.98871084596605,0 177.0730636340876,-37.9885921866931,0 177.0730315689492,-37.98808019797574,0 177.0727294532126,-37.98762616910097,0 177.0726555648301,-37.98712871669624,0 177.0725502858763,-37.9868929752761,0 177.0722874740527,-37.98674368175711,0 177.0720693766592,-37.98669688007933,0 177.0716537401254,-37.98647018113871,0 177.0716123155159,-37.9862379592039,0 177.0714148895862,-37.98608622089691,0 177.0708952918008,-37.98592932420901,0 177.0706280391985,-37.98594502674418,0 177.0704373553311,-37.98606254679996,0 177.0702542320621,-37.9860147178471,0 177.0699912364251,-37.98586265968314,0 177.069496394392,-37.98591819413912,0 177.069193961737,-37.98604521210449,0 177.0690330415971,-37.98623318982469,0 177.0690386887178,-37.98667371464907,0 177.0690498532708,-37.98690221124299,0 177.0692864341049,-37.98712683223029,0 177.0691617368578,-37.98736052914699,0 177.0687918106516,-37.98739915256358,0 177.0685710634742,-37.987218470785,0 177.0682768809552,-37.98684602478704,0 177.0679499564334,-37.98660032600379,0 177.0676508143926,-37.9860928809947,0 177.0675386846317,-37.98565904733803,0 177.0677081660245,-37.98524577689927,0 177.0681603753215,-37.98495797615301,0 177.0688993905822,-37.98456800330035,0 177.0698738832961,-37.98434685093524,0 177.0703379721297,-37.98405673349505,0 177.0707941441308,-37.98394699178552,0 177.0711514916967,-37.98395360104375,0 177.0713445227918,-37.98403954559291,0 177.0713974513309,-37.98165087482806,0 177.0708467839777,-37.98170168603917,0 177.0705289347621,-37.98170918184461,0 177.0700915949783,-37.98203187437995,0 177.069612336002,-37.98174684248853,0 177.065273605209,-37.98847142844562,0 177.0893254774439,-37.99710581557897,0 
						
</coordinates>

						</LinearRing>

					</outerBoundaryIs>

				</Polygon>

				<flyID>9</flyID>

				<flyDescription>On Lakes Rotomahana and Okataina no person shall operate personal water craft or hovercraft, or land aircraft or helicopters, or tow people or devices from vessles for recreational purposes other than equipment used for fishing.</flyDescription>

			</Placemark>
<Placemark>

				<name>PWC Exclusion Area</name>

				<description>On Lakes Rotomahana and Okataina no person shall operate personal water craft or hovercraft, or land aircraft or helicopters, or tow people or devices from vessles for recreational purposes other than equipment used for fishing.</description>

				<styleUrl>#style0</styleUrl>

				<Polygon>

					<tessellate>1</tessellate>

					<outerBoundaryIs>

						<LinearRing>

							<coordinates>

							177.1202036295443,-38.0185488541787,0 177.1205919830921,-38.01898973815385,0 177.1206422910263,-38.01938316886783,0 177.1208711531815,-38.01975084786004,0 177.1214890412139,-38.02093833370273,0 177.1223164734758,-38.02152748069087,0 177.1228393383271,-38.02188650925913,0 177.1234368075783,-38.02244355101337,0 177.1242589501098,-38.02329931013338,0 177.1248109932736,-38.02368164059675,0 177.1256362142267,-38.0247998141374,0 177.1258685404226,-38.02638662120683,0 177.1268378709625,-38.027332081722,0 177.1269565348474,-38.02756627338845,0 177.127140587589,-38.02825813435693,0 177.1271525804489,-38.02908705270412,0 177.126977928145,-38.02944876286898,0 177.1270051669528,-38.02991177733099,0 177.126740781222,-38.03024483699461,0 177.1259258302609,-38.03125108305781,0 177.1257335907899,-38.03176707809161,0 177.1257966864515,-38.03239140708521,0 177.1259822497607,-38.03258349436887,0 177.1264288190678,-38.03275526049517,0 177.1267100291361,-38.03268566420337,0 177.127276650139,-38.03216606154609,0 177.127904671428,-38.03209642012934,0 177.1285767188599,-38.03211923666098,0 177.1288202796938,-38.03204622055107,0 177.1292707249249,-38.03160999915522,0 177.1296251721084,-38.03166754761866,0 177.1306789809725,-38.03253594403422,0 177.1309076122973,-38.03305082131791,0 177.1309531749661,-38.03340927122315,0 177.1307596666161,-38.03377467619376,0 177.1308776180681,-38.03422781223423,0 177.1309637378708,-38.03472427477338,0 177.1312511140978,-38.03536910654947,0 177.1314013070353,-38.03559034415726,0 177.1315553422454,-38.03637914668143,0 177.1317982815054,-38.03683215761284,0 177.1318147350865,-38.03713333490752,0 177.1320757806779,-38.03753027342429,0 177.1321829934282,-38.0379589559481,0 177.1324263307428,-38.03837835495948,0 177.1328229490665,-38.03854838737391,0 177.1336534637347,-38.03874720661188,0 177.1340690055626,-38.03872243431309,0 177.1338172999032,-38.03735754197525,0 177.134060271056,-38.03699234192025,0 177.1339649274583,-38.03656459812372,0 177.1342373738013,-38.03617745672032,0 177.13426866234,-38.03598471116143,0 177.134821207445,-38.03566866991318,0 177.1353593268065,-38.03560276883387,0 177.1355702442076,-38.03570801172238,0 177.1357917034296,-38.03598154074264,0 177.1381174749556,-38.02077549520532,0 177.1383960794937,-38.02005183002497,0 177.1385306153468,-38.01971013204997,0 177.135307836008,-38.01933945775657,0 177.1351095957502,-38.0194618593119,0 177.1348402686254,-38.01959512723597,0 177.1346348663111,-38.01982180144818,0 177.1344152678401,-38.02039847390856,0 177.1344318447603,-38.02077092645092,0 177.1345498530455,-38.02100628148705,0 177.1347448897027,-38.02121780440907,0 177.1350147364597,-38.02146279861294,0 177.1349913657099,-38.02155575434775,0 177.1348010129657,-38.02170304933824,0 177.1345683091289,-38.02177610817403,0 177.1340917495416,-38.02176747397187,0 177.1335265190857,-38.02155046609116,0 177.1333407446647,-38.02127634623432,0 177.1329355767179,-38.02101861943406,0 177.1327049534798,-38.02071386578441,0 177.1325090303527,-38.02022662234917,0 177.1322555814643,-38.02004488516926,0 177.1322257904786,-38.01960241923222,0 177.1320311923404,-38.01946456536722,0 177.1317614169656,-38.01945584469291,0 177.1312891125401,-38.01959406566385,0 177.1311912363253,-38.01953894420161,0 177.1311892044485,-38.01945562194972,0 177.131862756384,-38.01892345752451,0 177.1323727953557,-38.01839826915963,0 177.1325391576276,-38.01785571760536,0 177.1325978414552,-38.01769565955639,0 177.1328921586905,-38.01749182562381,0 177.133312539166,-38.01747397690334,0 177.1337125383034,-38.01760378936246,0 177.1340328746812,-38.01766434241294,0 177.1343278363179,-38.01775141665439,0 177.1345430913515,-38.01775731060174,0 177.1348582951794,-38.01790300120392,0 177.1349539346272,-38.01810104896008,0 177.1351112461514,-38.01831246629311,0 177.1353159198554,-38.01841829140457,0 177.1354696110001,-38.01851098268482,0 177.1355012705161,-38.01863351981424,0 177.1353851766223,-38.01901170343091,0 177.1353072062757,-38.01932896951801,0 177.1385309753911,-38.01970487678173,0 177.1389473410738,-38.01909676687666,0 177.1397478861743,-38.01784339071628,0 177.140767292832,-38.01523452850139,0 177.139931115344,-38.015170709343,0 177.1395702342245,-38.01571223537233,0 177.1392811383913,-38.01644761374766,0 177.1382601063156,-38.01824345008917,0 177.1379670862249,-38.01836100587798,0 177.1377226938881,-38.0182561617666,0 177.1376193584903,-38.01801310831174,0 177.1385644166998,-38.01596759251137,0 177.1392622649812,-38.0145274919459,0 177.140100159915,-38.01292444508704,0 177.1406484483487,-38.01180355354097,0 177.1415139852057,-38.00868067865564,0 177.144707897887,-37.99971966245282,0 177.1385561734556,-37.99852943411926,0 177.1275285041547,-37.99638823656089,0 177.1202036295443,-38.0185488541787,0 
						
</coordinates>

						</LinearRing>

					</outerBoundaryIs>

				</Polygon>

				<flyID>10</flyID>

				<flyDescription>On Lakes Rotomahana and Okataina no person shall operate personal water craft or hovercraft, or land aircraft or helicopters, or tow people or devices from vessles for recreational purposes other than equipment used for fishing.</flyDescription>

			</Placemark>
<Placemark>

				<name>PWC Exclusion Area</name>

				<description>On Lakes Rotomahana and Okataina no person shall operate personal water craft or hovercraft, or land aircraft or helicopters, or tow people or devices from vessles for recreational purposes other than equipment used for fishing.</description>

				<styleUrl>#style0</styleUrl>

				<Polygon>

					<tessellate>1</tessellate>

					<outerBoundaryIs>

						<LinearRing>

							<coordinates>

							177.1416645031524,-38.03949740890769,0 177.1430574307791,-38.04017655221693,0 177.1447922857943,-38.04095610147029,0 177.1451398927777,-38.04120827025898,0 177.1452614447654,-38.0418472915021,0 177.1456210624897,-38.0422328662924,0 177.1455604347461,-38.04257977612495,0 177.1456307598305,-38.04291748131473,0 177.1460835247835,-38.04286379934421,0 177.1463280004315,-38.04275627554395,0 177.146829336617,-38.04282544586633,0 177.1471825116615,-38.04258834465644,0 177.1475399011952,-38.04260819537008,0 177.147778895941,-38.04269937343475,0 177.1480689296116,-38.04277814158992,0 177.1486079418605,-38.04271501197342,0 177.148902308136,-38.0428875541652,0 177.1491060324455,-38.04305790342215,0 177.1494493943161,-38.04330181552427,0 177.1495104945194,-38.04348207003771,0 177.1494375897882,-38.04399746956756,0 177.1495932420148,-38.04408591181984,0 177.1502484338564,-38.04394948176976,0 177.1508181349391,-38.0430932463287,0 177.1511231314887,-38.04275506165561,0 177.1516041582059,-38.04248909842167,0 177.1519471244419,-38.04185969685058,0 177.1523245649679,-38.04186027754967,0 177.1528178781025,-38.04219951175043,0 177.1532405614586,-38.04211364081537,0 177.1533886142492,-38.042230818616,0 177.1537724577299,-38.04238349482407,0 177.1540805594961,-38.04261473620507,0 177.154438870816,-38.04278821318772,0 177.1545473644202,-38.04265307952551,0 177.1544251976946,-38.04217730867364,0 177.1541490358771,-38.0414598564609,0 177.1541957517578,-38.04108891036772,0 177.1546044848346,-38.04052158286781,0 177.1549687146155,-38.04032552524205,0 177.1552548411541,-38.04052200281399,0 177.1555060605966,-38.04102714801455,0 177.1561617533452,-38.04124435717603,0 177.1566350998886,-38.04112470974901,0 177.15727795873,-38.04098629560274,0 177.1575849376741,-38.04071476524477,0 177.157779580102,-38.04025309152862,0 177.1577931288256,-38.03972182917207,0 177.1579162067775,-38.03959089890125,0 177.1581862908847,-38.0395720229998,0 177.1587156401985,-38.0398697139836,0 177.1587245362082,-38.0401796054549,0 177.1586237314688,-38.04045146126679,0 177.1587245207649,-38.0407523271227,0 177.1591305056312,-38.04058984313117,0 177.1592974018881,-38.04074718250138,0 177.1594594234515,-38.04078078659482,0 177.1597288347119,-38.04055305106572,0 177.1596964310199,-38.04030248135369,0 177.1599111282318,-38.04004211803864,0 177.1601623963511,-38.04004203419571,0 177.1604820223795,-38.04017269350511,0 177.1605266066779,-38.04000928095508,0 177.1601200729879,-38.03984352276821,0 177.1595339610254,-38.03947215967888,0 177.1595718196251,-38.03931724174949,0 177.1598351131413,-38.03900213000828,0 177.1597535653565,-38.03891339014407,0 177.1594753944441,-38.03889566046458,0 177.1589198146036,-38.03884224413315,0 177.1579883562203,-38.03875671530003,0 177.1574185517598,-38.03888304574611,0 177.1568752139417,-38.03954127844618,0 177.1565446513287,-38.03962627746898,0 177.15614461201,-38.03942173828438,0 177.1554088838273,-38.03849908261226,0 177.1553528605183,-38.03807509824538,0 177.1556290757467,-38.03728114616617,0 177.1555505821409,-38.03668809853223,0 177.1548504156607,-38.03625358006731,0 177.1541099048372,-38.03592955146586,0 177.153567358969,-38.03582097689966,0 177.1530689692232,-38.03550681719577,0 177.1525606630252,-38.0356212454837,0 177.1520798144948,-38.03531295250403,0 177.1519106763213,-38.03498262662959,0 177.1521443565476,-38.03459056580337,0 177.1518435109938,-38.03407576043188,0 177.1513502168542,-38.03383070496596,0 177.1504430000026,-38.03367632634837,0 177.1497712729297,-38.03335061024774,0 177.1495670183103,-38.03305636822319,0 177.1499330844088,-38.0327350790758,0 177.1499258222096,-38.03252472217463,0 177.1502560725488,-38.03247891724307,0 177.1506145109377,-38.03255003097407,0 177.1509959337797,-38.0324397420548,0 177.1510189849119,-38.03202658569852,0 177.1507061361688,-38.03179141040105,0 177.1500570921861,-38.03180899440284,0 177.1493689674234,-38.03152127368294,0 177.1416645031524,-38.03949740890769,0 
						
</coordinates>

						</LinearRing>

					</outerBoundaryIs>

				</Polygon>

				<flyID>11</flyID>

				<flyDescription>On Lakes Rotomahana and Okataina no person shall operate personal water craft or hovercraft, or land aircraft or helicopters, or tow people or devices from vessles for recreational purposes other than equipment used for fishing.</flyDescription>

			</Placemark>
<Placemark>

				<name>PWC Exclusion Area</name>

				<description>On Lakes Rotomahana and Okataina no person shall operate personal water craft or hovercraft, or land aircraft or helicopters, or tow people or devices from vessles for recreational purposes other than equipment used for fishing.</description>

				<styleUrl>#style0</styleUrl>

				<Polygon>

					<tessellate>1</tessellate>

					<outerBoundaryIs>

						<LinearRing>

							<coordinates>

							177.1357917034296,-38.03598154074264,0 177.135799948216,-38.03625041195094,0 177.1366202666196,-38.03750990649433,0 177.1369160390048,-38.03791016344646,0 177.1368788874043,-38.03805774943123,0 177.1371731024987,-38.03835310741695,0 177.1376241969024,-38.03862771003955,0 177.1385261021161,-38.03872348705191,0 177.1397152580026,-38.0387470986231,0 177.1404656338355,-38.03911859775008,0 177.1416645031524,-38.03949740890769,0 177.1493689674234,-38.03152127368294,0 177.1488204072773,-38.03152401285098,0 177.1481329624866,-38.03173146066581,0 177.1475556645064,-38.03198222088572,0 177.1468268430332,-38.03217097148224,0 177.1461099015097,-38.0319860957128,0 177.1449658679422,-38.03118629707554,0 177.1446529569774,-38.0307704481048,0 177.1444393471585,-38.0313776560436,0 177.1446634710165,-38.03151174040899,0 177.1448016445679,-38.03162978201801,0 177.1448728397673,-38.03179054797196,0 177.1450557221578,-38.03197194958093,0 177.1452780263066,-38.03199057970694,0 177.1457738870241,-38.03229535380305,0 177.1461047012057,-38.03242404263455,0 177.1462476808151,-38.03256590115433,0 177.1464030497808,-38.03276982677816,0 177.1465652171112,-38.03282698828198,0 177.1466749698635,-38.03270981100618,0 177.1467746763839,-38.03269159932835,0 177.1468668130184,-38.03275489629881,0 177.1467988943445,-38.03291593658096,0 177.1465522515381,-38.03313521030866,0 177.1462769930727,-38.03325731915273,0 177.1459602568402,-38.03355490042877,0 177.1457115694059,-38.03392143405262,0 177.1453660370485,-38.03425645805533,0 177.1448159027061,-38.03460762035159,0 177.1446657838797,-38.03471586406295,0 177.1444234570479,-38.03470705279751,0 177.1441573198439,-38.03459897035409,0 177.1439144206512,-38.03441641478761,0 177.1437198455293,-38.03404506464361,0 177.1435631755004,-38.03391398386209,0 177.1435669836117,-38.03360779278746,0 177.1432350296351,-38.0332775408929,0 177.1429123855475,-38.03303821194419,0 177.1423739886224,-38.03306091505476,0 177.142100711858,-38.03290516476522,0 177.1418767493311,-38.03261958171484,0 177.1417844010196,-38.03233439774269,0 177.1416320570817,-38.03217720714731,0 177.1413738496788,-38.03203473287093,0 177.1413653075793,-38.03189686040735,0 177.1414723351913,-38.03172728888189,0 177.1414106943606,-38.0314425864299,0 177.1415014258472,-38.03125720735616,0 177.1414297916983,-38.03092054250445,0 177.1414840198655,-38.03076878589029,0 177.1416377284747,-38.03053280007168,0 177.1418761138473,-38.03042782623272,0 177.1422103469908,-38.03053557973211,0 177.1427674946883,-38.03059649063813,0 177.1429867944693,-38.03065560471648,0 177.1432813675766,-38.03066890345883,0 177.1435781508222,-38.03081578916264,0 177.143896813113,-38.0310285815088,0 177.1439187184169,-38.03117800981544,0 177.144133766565,-38.03128362392523,0 177.1444359905619,-38.03137457985859,0 177.1446505871333,-38.03076580281314,0 177.1444332899088,-38.03006970364126,0 177.1441096839052,-38.02984760111553,0 177.1434145287289,-38.02997730942014,0 177.1430688483842,-38.03004400928344,0 177.1427362945703,-38.02978559273732,0 177.1423065663005,-38.02918340804273,0 177.1425856517081,-38.0286062847799,0 177.1428418282935,-38.02777300377026,0 177.1414267854836,-38.0266519986783,0 177.1413239480988,-38.02627787515753,0 177.1411720369491,-38.02563792520868,0 177.1406598633453,-38.02493292107711,0 177.1404001882165,-38.02450712526571,0 177.1402494508288,-38.02413901756988,0 177.140283923208,-38.02376852016993,0 177.1396094718079,-38.02320388005472,0 177.1393893788759,-38.02276061239439,0 177.1394037835493,-38.02209098227954,0 177.1392646727657,-38.02196673093744,0 177.1390962275793,-38.02208242674303,0 177.138874651058,-38.02237655969917,0 177.1387017100357,-38.02236061865954,0 177.1384858915403,-38.02239532284704,0 177.1384353566521,-38.0225608591247,0 177.1380979820809,-38.02291902695922,0 177.1381581061293,-38.02311917885704,0 177.1385716987971,-38.0231906496653,0 177.138818434832,-38.0231010944423,0 177.1390152420314,-38.02306496746082,0 177.1391371440011,-38.02316381602031,0 177.1389809102431,-38.02330543565957,0 177.1384323999339,-38.02339271290133,0 177.1380870117557,-38.02337540336062,0 177.1379903729908,-38.0232704248333,0 177.1380217064898,-38.02281346628781,0 177.1381302817633,-38.02264338092155,0 177.1384123507824,-38.02208422044958,0 177.138296513032,-38.02157009640725,0 177.1381174749556,-38.02077549520532,0 177.1357917034296,-38.03598154074264,0 
						
</coordinates>

						</LinearRing>

					</outerBoundaryIs>

				</Polygon>

				<flyID>12</flyID>

				<flyDescription>On Lakes Rotomahana and Okataina no person shall operate personal water craft or hovercraft, or land aircraft or helicopters, or tow people or devices from vessles for recreational purposes other than equipment used for fishing.</flyDescription>

			</Placemark>
<Placemark>

				<name>Personal Water Craft Area</name>

				<description>This area is reserved for personal watercraft.</description>

				<styleUrl>#style2</styleUrl>

				<Polygon>

					<tessellate>1</tessellate>

					<outerBoundaryIs>

						<LinearRing>

							<coordinates>

							177.05828417824,-37.97063556553024,0 177.0584934612686,-37.97081495258089,0 177.0587581009587,-37.97128332705763,0 177.0603589340416,-37.96717581383962,0 177.0593572188291,-37.9669486592721,0 177.0579679406036,-37.97049923115274,0 177.05828417824,-37.97063556553024,0 
						
</coordinates>

						</LinearRing>

					</outerBoundaryIs>

				</Polygon>

				<flyID>13</flyID>

				<flyDescription>This area is reserved for personal watercraft.</flyDescription>

			</Placemark>
<Placemark>

				<name>Water Ski Area</name>

				<description>This area is a designated water skiing area. No person in charge of a vessel may use it to tow any person unless at least one additional person is on board who is responsible for immediately notifying the person in charge of every mishap that occurs to the person who is being towed.</description>

				<styleUrl>#style2</styleUrl>

				<Polygon>

					<tessellate>1</tessellate>

					<outerBoundaryIs>

						<LinearRing>

							<coordinates>

							177.1251850425654,-37.99097677517293,0 177.1255303873271,-37.98919323405853,0 177.1248390856072,-37.98896429561436,0 177.1238712193735,-37.98875861449156,0 177.1222331790971,-37.98854646017334,0 177.1213046179191,-37.98857867536218,0 177.1205986923949,-37.98862140135334,0 177.1200016237137,-37.98858932224245,0 177.1197904944685,-37.99036072948656,0 177.1251850425654,-37.99097677517293,0 
						
</coordinates>

						</LinearRing>

					</outerBoundaryIs>

				</Polygon>

				<flyID>14</flyID>

				<flyDescription>This area is a designated water skiing area. No person in charge of a vessel may use it to tow any person unless at least one additional person is on board who is responsible for immediately notifying the person in charge of every mishap that occurs to the person who is being towed.</flyDescription>

			</Placemark>
<Placemark>

				<name>PWC Exclusion Area</name>

				<description>On Lakes Rotomahana and Okataina no person shall operate personal water craft or hovercraft, or land aircraft or helicopters, or tow people or devices from vessles for recreational purposes other than equipment used for fishing.</description>

				<styleUrl>#style0</styleUrl>

				<Polygon>

					<tessellate>1</tessellate>

					<outerBoundaryIs>

						<LinearRing>

							<coordinates>

							177.1407542573561,-38.01525774816672,0 177.1410364325561,-38.01499330701871,0 177.1413108001709,-38.01473149632111,0 177.1418912858853,-38.01442020955106,0 177.1423994855537,-38.01446901315112,0 177.1427095151879,-38.0144862265673,0 177.1439786374689,-38.01527845216852,0 177.1442891332114,-38.01526681583228,0 177.1446498847061,-38.01501686312297,0 177.1451025505541,-38.01453859099424,0 177.1454042860813,-38.01407461613817,0 177.1453699212847,-38.01367176615765,0 177.144985201454,-38.0132743084318,0 177.1446675508462,-38.01276509869157,0 177.1438845752602,-38.0120242039258,0 177.1435059537098,-38.01113877119665,0 177.1429658101818,-38.0107350309365,0 177.1427879382174,-38.00975917891559,0 177.1427705630294,-38.00885923944109,0 177.1426160829133,-38.00838338054513,0 177.1432009274238,-38.00720580156579,0 177.1433908909732,-38.00703685576701,0 177.1439346379868,-38.00653948431188,0 177.1448316069489,-38.00595335138402,0 177.1453615258856,-38.00540047407655,0 177.1460489405232,-38.00476546333594,0 177.1466349788766,-38.00467412220871,0 177.1467095888227,-38.00157076140644,0 177.1460693387067,-38.00142291016635,0 177.1451588423446,-38.00127538336226,0 177.1447546386746,-38.00126525408802,0 177.1441943054723,-38.00114980669914,0 177.1415220302685,-38.00868774377857,0 177.1422297999133,-38.00888331626153,0 177.1426985591302,-38.01092086574597,0 177.1429620996976,-38.01133107102972,0 177.1431990982256,-38.01195186097912,0 177.1430585500566,-38.01244038972754,0 177.1424866921335,-38.01287103817409,0 177.1420154427856,-38.01306923716869,0 177.1406498823982,-38.01421212413432,0 177.1399608423563,-38.01514196368133,0 177.1407542573561,-38.01525774816672,0 
						
</coordinates>

						</LinearRing>

					</outerBoundaryIs>

				</Polygon>

				<flyID>15</flyID>

				<flyDescription>On Lakes Rotomahana and Okataina no person shall operate personal water craft or hovercraft, or land aircraft or helicopters, or tow people or devices from vessles for recreational purposes other than equipment used for fishing.</flyDescription>

			</Placemark>
<Placemark>

				<name>PWC Exclusion Area</name>

				<description>On Lakes Rotomahana and Okataina no person shall operate personal water craft or hovercraft, or land aircraft or helicopters, or tow people or devices from vessles for recreational purposes other than equipment used for fishing.</description>

				<styleUrl>#style0</styleUrl>

				<Polygon>

					<tessellate>1</tessellate>

					<outerBoundaryIs>

						<LinearRing>

							<coordinates>

							177.1466348696981,-38.00467464252697,0 177.147580444193,-38.00466714055341,0 177.1479140959274,-38.00477740204431,0 177.1482369891396,-38.00480285285031,0 177.1485172555642,-38.00459019260636,0 177.1491518672051,-38.00443819226894,0 177.1500774912183,-38.00432795579727,0 177.1509277714572,-38.00431100240679,0 177.1512829527506,-38.0044212563469,0 177.1514443998312,-38.00458239582955,0 177.1511769931985,-38.00503157632036,0 177.1508209536395,-38.00487469718418,0 177.1502922760237,-38.00496525247867,0 177.1500624123858,-38.00517655583637,0 177.1498355736154,-38.00521785265207,0 177.1494417715988,-38.00579235323164,0 177.1490203617251,-38.00561726286879,0 177.1484533651504,-38.00560517444288,0 177.1484150490707,-38.00573195776384,0 177.1487076524277,-38.00599729382998,0 177.1487610185275,-38.00619645400351,0 177.148546425249,-38.00632925245362,0 177.1481793382896,-38.00621446678994,0 177.1479029018992,-38.00624481678866,0 177.1479246313779,-38.00643227816235,0 177.1476717666724,-38.00657716847396,0 177.1471890386217,-38.00655300495446,0 177.1470406610087,-38.00680989022666,0 177.1473329467256,-38.00787583132811,0 177.1477477196862,-38.00844465912918,0 177.1484027743958,-38.00868413043765,0 177.1489351865413,-38.00882085332222,0 177.1494843437207,-38.00891166073031,0 177.1497454613763,-38.0089453674056,0 177.1499899219607,-38.00875235840015,0 177.150060658482,-38.0083546481446,0 177.1516505238949,-38.00730945189093,0 177.1524879748295,-38.00733517528838,0 177.1531199552917,-38.00750342891445,0 177.1537369159763,-38.00793255558001,0 177.1541454496729,-38.00838592281469,0 177.1537123462801,-38.00979155514041,0 177.1537722307646,-38.01012080811605,0 177.1541412974907,-38.01035990010419,0 177.1542314277998,-38.01066596120248,0 177.1545458552629,-38.01065549089471,0 177.1554568646536,-38.01051812553306,0 177.1560326012475,-38.00970037972284,0 177.1567515085554,-38.00953371242755,0 177.1574129234645,-38.00958866891634,0 177.1582191522146,-38.00990793716362,0 177.1587173111585,-38.00995025492323,0 177.1591489407593,-38.01018898109427,0 177.1597365932411,-38.00979119811436,0 177.1603264628134,-38.00913123773351,0 177.1611647117104,-38.00796698876676,0 177.1619603845604,-38.00697739612768,0 177.1620621487462,-38.0061711631473,0 177.1623098279642,-38.0056059790856,0 177.1626031551484,-38.00539802644615,0 177.1627249632378,-38.00488772727974,0 177.1633002248735,-38.00456639094941,0 177.1631401791506,-38.00415689393668,0 177.1620754986742,-38.00327889319313,0 177.1610516448953,-38.00178987901309,0 177.1605858592965,-38.00015173389024,0 177.1605617409109,-37.99868900770738,0 177.1608024987641,-37.99772350224852,0 177.1614948805514,-37.9969785296129,0 177.1616863416342,-37.99623622938781,0 177.1627092377431,-37.99545215888198,0 177.1627650387995,-37.99525593514503,0 177.1625975652218,-37.99469544576997,0 177.1619461476039,-37.99399044914447,0 177.1617136123293,-37.99358705854543,0 177.1619141330391,-37.99251768099664,0 177.1614601566794,-37.9918483597047,0 177.1610115945332,-37.99024274002469,0 177.1606504097211,-37.98996603093583,0 177.1597908348037,-37.98989734594399,0 177.1589970553977,-37.98974952993992,0 177.1577829357571,-37.98973825242933,0 177.1562964864824,-37.98989754767626,0 177.1560222943987,-37.99005679167575,0 177.1561378013463,-37.99077334016726,0 177.1558924958384,-37.99136478727701,0 177.1551193699339,-37.99193584301365,0 177.1542892453143,-37.99210473772083,0 177.1539065748931,-37.99240730577771,0 177.1534551449381,-37.99143309727906,0 177.1525526510098,-37.99224386796001,0 177.1512594805679,-37.99346690928976,0 177.1490527694911,-37.99558836358639,0 177.1469841471222,-37.99756985428996,0 177.1455692993277,-37.99892926156227,0 177.1447323541805,-37.99973078334016,0 177.1446745905581,-37.99999238194867,0 177.1455406787164,-37.99935548113324,0 177.1463201265792,-37.99890055942103,0 177.1466232364201,-37.9987640858711,0 177.1478252771989,-37.99856460337543,0 177.1495596979476,-37.99857472181289,0 177.1508691724749,-37.99833288747578,0 177.1517643104819,-37.99830266214239,0 177.1522502350821,-37.99818173885485,0 177.1533058528881,-37.99813862197443,0 177.1540980134635,-37.99811117701936,0 177.1545008235673,-37.99831774326178,0 177.1545900858792,-37.99852431548306,0 177.1543918855056,-37.99868051192069,0 177.1542128609368,-37.99868555480843,0 177.1537525099478,-37.99860495002576,0 177.1534008595931,-37.99876618524292,0 177.1531067495531,-37.99883672719647,0 177.1528382160112,-37.99902315179671,0 177.1524098339478,-37.99902315576784,0 177.1516745484931,-37.99895765991305,0 177.1511396522002,-37.99896773605968,0 177.1503781847575,-37.99883812993741,0 177.1499376265305,-37.99872084287388,0 177.1496179357715,-37.99871076079017,0 177.1494708741488,-37.99885183439632,0 177.1494900507597,-37.99904329588158,0 177.1496620740367,-37.99930669440337,0 177.1496364949196,-37.99946288477078,0 177.1495092163321,-37.99957737119304,0 177.149025535189,-37.99958434888371,0 177.1488784705189,-37.99977580550987,0 177.1489040406245,-37.99992695876055,0 177.1486930332487,-38.00017383678966,0 177.1485076105102,-38.00016375517247,0 177.1478106969934,-37.99963469947021,0 177.1476060903511,-37.9996447689981,0 177.1472991668687,-37.99988660342434,0 177.1472224197297,-38.00020906261878,0 177.1475583371364,-38.00083163874049,0 177.1475263472686,-38.00120951964126,0 177.1474240373033,-38.00132036155778,0 177.1472386088983,-38.00135562417331,0 177.1470595633989,-38.00155715482867,0 177.146730355493,-38.00158853748039,0 177.1467333715698,-38.00168623996268,0 177.1466348696981,-38.00467464252697,0 
						
</coordinates>

						</LinearRing>

					</outerBoundaryIs>

				</Polygon>

				<flyID>16</flyID>

				<flyDescription>On Lakes Rotomahana and Okataina no person shall operate personal water craft or hovercraft, or land aircraft or helicopters, or tow people or devices from vessles for recreational purposes other than equipment used for fishing.</flyDescription>

			</Placemark>

</Document>
</kml>
