<?xml version="1.0" encoding="UTF-8"?>
<kml xmlns="http://www.opengis.net/kml/2.2" xmlns:gx="http://www.google.com/kml/ext/2.2" xmlns:kml="http://www.opengis.net/kml/2.2" xmlns:atom="http://www.w3.org/2005/Atom">
<Document>
	<name>R16 C38.kml</name>
	<Style id="sn_ylw-pushpin">
		<LineStyle>
			<color>ff0000ff</color>
		</LineStyle>
		<PolyStyle>
			<color>ff0000ff</color>
		</PolyStyle>
	</Style>
	<Placemark>
		<name>Cable Protection Area</name>
		<description>
		- DANGER HIGH VOLTAGE CABLES  (10000 volts).
		- FISHING in this Cable Protection Area is illegal.
		- ANCHORING in this Cable Protection Area is illegal.
		- Refer to Marine Charts for details.
		- Ph: 0800782627 for more details.
		</description>
		<styleUrl>#sn_ylw-pushpin</styleUrl>
		<Polygon>
			<tessellate>1</tessellate>
			<outerBoundaryIs>
				<LinearRing>
					<coordinates>
						174.064337891995,-36.71894060890691,0 174.1716720380778,-36.87484288471737,0 174.4299007652083,-36.85481498864923,0 174.4242312876122,-36.82690888017888,0 174.3974334893951,-36.78259524958646,0 174.064337891995,-36.71894060890691,0 
					</coordinates>
				</LinearRing>
			</outerBoundaryIs>
		</Polygon>
		<flyID>0</flyID>
		<flyDescription>
		- DANGER HIGH VOLTAGE CABLES  (10000 volts).
		- FISHING in this Cable Protection Area is illegal.
		- ANCHORING in this Cable Protection Area is illegal.
		- Refer to Marine Charts for details.
		- Ph: 0800782627 for more details.
		</flyDescription>
	</Placemark>
</Document>
</kml>
