<?xml version="1.0" encoding="UTF-8"?>
<kml xmlns="http://www.opengis.net/kml/2.2" xmlns:gx="http://www.google.com/kml/ext/2.2" xmlns:kml="http://www.opengis.net/kml/2.2" xmlns:atom="http://www.w3.org/2005/Atom">
<Document>
<name>R21C43.kml</name>

<Style id="style0">

					<LineStyle>

						<color>ff0000ff</color>

					</LineStyle>

					<PolyStyle>

						<color>ff0000ff</color>

						<width>0.9</width>

					</PolyStyle>

				</Style>
<Style id="style1">

					<LineStyle>

						<color>ff00ffff</color>

					</LineStyle>

					<PolyStyle>

						<color>ff00ffff</color>

						<width>0.9</width>

					</PolyStyle>

				</Style>

<Placemark>

				<name>Prohibited Power Driven Vessel</name>

				<description>The use of power driven vessels are prohibited in this area, as the area has been set aside for passive activities.  This area could also contain hazards or extreme shallowing</description>

				<styleUrl>#style0</styleUrl>

				<Polygon>

					<tessellate>1</tessellate>

					<outerBoundaryIs>

						<LinearRing>

							<coordinates>

							175.2848113511008,-37.95718990831228,0 175.2853937813753,-37.95798231743027,0 175.2858899941159,-37.95834899108154,0 175.2864592020685,-37.95897896004213,0 175.2876458229848,-37.95912312644711,0 175.2889743120528,-37.95930394555508,0 175.289343883941,-37.95915860303132,0 175.2899358851097,-37.95886400816565,0 175.2905337449263,-37.95893760177815,0 175.2910091346793,-37.95921099082026,0 175.291566972345,-37.95933667571616,0 175.2921174974223,-37.95924468741657,0 175.2926555429143,-37.95968740712491,0 175.293380029514,-37.96020576023405,0 175.2939234178537,-37.96070426604198,0 175.2944294877072,-37.96052848228386,0 175.2947289412129,-37.96023445381799,0 175.2951090916421,-37.95985351065428,0 175.2954677639883,-37.95928784466342,0 175.2953020839366,-37.95879872039892,0 175.2947811667553,-37.95803446110831,0 175.2943308686205,-37.95713903015567,0 175.2938571473085,-37.95586250191292,0 175.2938830806219,-37.95550478852928,0 175.2934108554098,-37.954438185496,0 175.2933091411984,-37.95359787237695,0 175.2848113511008,-37.95718990831228,0 
						
</coordinates>

						</LinearRing>

					</outerBoundaryIs>

				</Polygon>

				<flyID>0</flyID>

				<flyDescription>The use of power driven vessels are prohibited in this area, as the area has been set aside for passive activities.  This area could also contain hazards or extreme shallowing</flyDescription>

			</Placemark>
<Placemark>

				<name>Prohibited Power Driven Vessel</name>

				<description>The use of power driven vessels are prohibited in this area, as the area has been set aside for passive activities.  This area could also contain hazards or extreme shallowing</description>

				<styleUrl>#style0</styleUrl>

				<Polygon>

					<tessellate>1</tessellate>

					<outerBoundaryIs>

						<LinearRing>

							<coordinates>

							175.2833606718351,-37.94775839734098,0 175.2838520919347,-37.94830494680234,0 175.2844098126266,-37.94870893116308,0 175.2849280005667,-37.94885647857194,0 175.2852907334325,-37.94957238160306,0 175.2852366490612,-37.95008745998271,0 175.2846549911106,-37.95047314312963,0 175.2842968454367,-37.95100303372046,0 175.2841885646103,-37.95147634784355,0 175.2837269893241,-37.95163430796769,0 175.2833091176148,-37.95216595425047,0 175.2828087352296,-37.95226442892394,0 175.2822572165592,-37.95254236040175,0 175.2819716616335,-37.95309815608862,0 175.2820475537766,-37.95345157831989,0 175.2823745075142,-37.95363814363692,0 175.2828541473931,-37.95359161259962,0 175.2833142010835,-37.95342797026435,0 175.2845647717656,-37.95330659064681,0 175.2850691268322,-37.95335393158758,0 175.2850889679556,-37.95370479522365,0 175.2849054471121,-37.95409419216666,0 175.2848308191788,-37.95527430392573,0 175.2846601131212,-37.95619629345281,0 175.2846097472842,-37.95673482222637,0 175.2848113511008,-37.95718990831228,0 175.2933091411984,-37.95359787237695,0 175.2924474166002,-37.95272286404795,0 175.2923838508989,-37.95239000880734,0 175.2926147458736,-37.95195275638099,0 175.293152088475,-37.9516064144994,0 175.2934450048441,-37.95118056230706,0 175.2932317501511,-37.95058373237811,0 175.2921646789862,-37.94997181848382,0 175.2905518506873,-37.94956016615711,0 175.2891713940251,-37.94966568484885,0 175.2880115935155,-37.94934708077997,0 175.2866923761237,-37.94882887547577,0 175.2858172935447,-37.94738198949283,0 175.284169814802,-37.94666507995799,0 175.2837656089317,-37.94671539037843,0 175.2835594117741,-37.94652290486039,0 175.2832072433046,-37.94662355618217,0 175.2830917012867,-37.94684764958113,0 175.2831428875694,-37.94728403152657,0 175.2833805630908,-37.94750843095723,0 175.2833606718351,-37.94775839734098,0 
						
</coordinates>

						</LinearRing>

					</outerBoundaryIs>

				</Polygon>

				<flyID>1</flyID>

				<flyDescription>The use of power driven vessels are prohibited in this area, as the area has been set aside for passive activities.  This area could also contain hazards or extreme shallowing</flyDescription>

			</Placemark>
<Placemark>

				<name>Prohibited Power Driven Vessel</name>

				<description>The use of power driven vessels are prohibited in this area, as the area has been set aside for passive activities.  This area could also contain hazards or extreme shallowing</description>

				<styleUrl>#style0</styleUrl>

				<Polygon>

					<tessellate>1</tessellate>

					<outerBoundaryIs>

						<LinearRing>

							<coordinates>

							175.2701585093332,-37.79843814771449,0 175.2705268064394,-37.79896665032385,0 175.2708020717359,-37.79915351011375,0 175.2713874917354,-37.79933041131993,0 175.2724523835711,-37.79959221442078,0 175.2730236477288,-37.79966320708937,0 175.2733506919474,-37.79977316597785,0 175.2739127946236,-37.80006892485152,0 175.274042130286,-37.80029025612657,0 175.2742243450622,-37.80072569432246,0 175.2761915707922,-37.7969994185711,0 175.2754570624621,-37.79706740237035,0 175.2752627168744,-37.79714578330128,0 175.2749518557415,-37.79716406808521,0 175.2744468475236,-37.79698196287308,0 175.2743908202916,-37.79672458944705,0 175.2751175620751,-37.79642546079466,0 175.2752779879631,-37.7962404167081,0 175.2753073876507,-37.7960461692097,0 175.2752085237756,-37.79575760837913,0 175.275045095714,-37.79570617534714,0 175.2748677809654,-37.79580313826676,0 175.2745752391329,-37.7959285032256,0 175.2745265639212,-37.7958843046512,0 175.2747952680542,-37.79552308029808,0 175.2751379164142,-37.79534668928996,0 175.2754411837236,-37.79500523408494,0 175.2757681553779,-37.7945230825483,0 175.2757484346691,-37.79426177715476,0 175.2758595013562,-37.79388358706343,0 175.2755605211587,-37.79352317461973,0 175.2752978386595,-37.79346300950883,0 175.274963987121,-37.79343907293389,0 175.2746694943632,-37.79351112118093,0 175.2740364539302,-37.79357836809673,0 175.2736150356838,-37.79365257352254,0 175.2731555007678,-37.79350382288826,0 175.272501061172,-37.79312226540355,0 175.2721908730904,-37.79304390765233,0 175.2717397914778,-37.79302570562136,0 175.2711818731643,-37.79322626138024,0 175.2707589703968,-37.79364822028023,0 175.2706669509838,-37.79390960726462,0 175.2705747740653,-37.79424416449217,0 175.2703966138149,-37.79446566995691,0 175.2702003381254,-37.79458514710868,0 175.269886542642,-37.79491916664538,0 175.2695223786521,-37.79546186899833,0 175.2695254010544,-37.79572661522555,0 175.2696458716367,-37.79598729435175,0 175.2698120920185,-37.79622414288189,0 175.2700655828294,-37.79658265654866,0 175.2698039544849,-37.79716188561393,0 175.2697496333175,-37.79739423983503,0 175.2701585093332,-37.79843814771449,0 
						
</coordinates>

						</LinearRing>

					</outerBoundaryIs>

				</Polygon>

				<flyID>2</flyID>

				<flyDescription>The use of power driven vessels are prohibited in this area, as the area has been set aside for passive activities.  This area could also contain hazards or extreme shallowing</flyDescription>

			</Placemark>
<Placemark>

				<name>Prohibited Power Driven Vessel</name>

				<description>The use of power driven vessels are prohibited in this area, as the area has been set aside for passive activities.  This area could also contain hazards or extreme shallowing</description>

				<styleUrl>#style0</styleUrl>

				<Polygon>

					<tessellate>1</tessellate>

					<outerBoundaryIs>

						<LinearRing>

							<coordinates>

							175.2742243450622,-37.80072569432246,0 175.2745624409906,-37.801486149607,0 175.2747025087953,-37.80165950671955,0 175.2750125718919,-37.80170995394541,0 175.2751918001316,-37.8017200103001,0 175.27531760883,-37.80182011807281,0 175.2756439773174,-37.80191928186398,0 175.2761166768127,-37.80229735264685,0 175.2769886369524,-37.80302374279314,0 175.2776829826998,-37.80337406741732,0 175.2784155468235,-37.80356343187609,0 175.2789799553436,-37.80351474918557,0 175.2792822702292,-37.80340548480273,0 175.279398028834,-37.80320357692779,0 175.2790152684317,-37.80283890529734,0 175.2787408776602,-37.80238519797555,0 175.2786974196708,-37.80180880388099,0 175.2789463860739,-37.80136000457755,0 175.2791528724476,-37.8008520840281,0 175.2789984513994,-37.80059941767556,0 175.2786628258704,-37.80039260390893,0 175.2788555294321,-37.80013085471303,0 175.2788630746103,-37.79998219435738,0 175.2790725377022,-37.79984442145472,0 175.2790668115167,-37.79969238992273,0 175.2788775770607,-37.7995851284182,0 175.2788506843876,-37.79946585027884,0 175.2786171025632,-37.7993226317902,0 175.278569589551,-37.79923671881243,0 175.278817543648,-37.79916547858343,0 175.2788949906185,-37.79863764400427,0 175.2788889717463,-37.7981317823897,0 175.2784659240153,-37.79789299941956,0 175.2781904212016,-37.79797208064992,0 175.2780661604423,-37.79795932030859,0 175.2775821215741,-37.79774801559466,0 175.2768425275348,-37.79733222997633,0 175.2761915707922,-37.7969994185711,0 175.2742243450622,-37.80072569432246,0 
						
</coordinates>

						</LinearRing>

					</outerBoundaryIs>

				</Polygon>

				<flyID>3</flyID>

				<flyDescription>The use of power driven vessels are prohibited in this area, as the area has been set aside for passive activities.  This area could also contain hazards or extreme shallowing</flyDescription>

			</Placemark>
<Placemark>

				<name>5 Knot Zone</name>

				<description>Keep to 5 knots or less (9.25km / fast walking pace) in this area</description>

				<styleUrl>#style1</styleUrl>

				<Polygon>

					<tessellate>1</tessellate>

					<outerBoundaryIs>

						<LinearRing>

							<coordinates>

							175.2644135712134,-37.7576790273499,0 175.2646432137065,-37.75748707454724,0 175.265030431697,-37.7572670641614,0 175.2657955371012,-37.7567389801287,0 175.2663132025874,-37.75632425400748,0 175.266734416234,-37.7555849455972,0 175.2666342853496,-37.75484389238544,0 175.2655714287334,-37.75478271405807,0 175.2654236009942,-37.75515015425136,0 175.2651392107013,-37.75552265112085,0 175.2649899178777,-37.75586085026649,0 175.2646916894484,-37.75634753107534,0 175.2643469360703,-37.75674840964935,0 175.2642463601675,-37.75705295272722,0 175.2637930591355,-37.75731797985348,0 175.2644135712134,-37.7576790273499,0 
						
</coordinates>

						</LinearRing>

					</outerBoundaryIs>

				</Polygon>

				<flyID>4</flyID>

				<flyDescription>Keep to 5 knots or less (9.25km / fast walking pace) in this area</flyDescription>

			</Placemark>
<Placemark>

				<name>5 Knot Zone</name>

				<description>Keep to 5 knots or less (9.25km / fast walking pace) in this area</description>

				<styleUrl>#style1</styleUrl>

				<Polygon>

					<tessellate>1</tessellate>

					<outerBoundaryIs>

						<LinearRing>

							<coordinates>

							175.34536560459,-37.83891383471314,0 175.3455036635201,-37.83897692960586,0 175.3457601613942,-37.83907950910744,0 175.3459209501167,-37.83913999165407,0 175.3462739847451,-37.83921848527858,0 175.3466003523986,-37.83937734013072,0 175.3468604893171,-37.83966701540117,0 175.3470097689393,-37.83992906717899,0 175.3470388808009,-37.84009940518515,0 175.3473135229818,-37.84029077046976,0 175.3473465894267,-37.84068722758363,0 175.3473524284637,-37.84122617815393,0 175.3475044949008,-37.84137173393471,0 175.3475075828404,-37.84161100781228,0 175.3475730460765,-37.8417418801028,0 175.3479396048092,-37.84164852791395,0 175.3478537201863,-37.84149649487571,0 175.3477869346103,-37.84146225263365,0 175.3477279240791,-37.84138074788434,0 175.3477166781175,-37.84131874361187,0 175.3477772654929,-37.84085649503059,0 175.3479739437513,-37.84054428928679,0 175.3478290285531,-37.84009389855169,0 175.3479185790504,-37.83990274602794,0 175.3476968198711,-37.83949153404269,0 175.3473770723045,-37.83920344904827,0 175.346829543874,-37.83887978534885,0 175.3463744907357,-37.83874658562253,0 175.3456933500227,-37.83841098997691,0 175.3451444848062,-37.83828222797656,0 175.3448898001738,-37.83881491713832,0 175.34536560459,-37.83891383471314,0 
						
</coordinates>

						</LinearRing>

					</outerBoundaryIs>

				</Polygon>

				<flyID>5</flyID>

				<flyDescription>Keep to 5 knots or less (9.25km / fast walking pace) in this area</flyDescription>

			</Placemark>
<Placemark>

				<name>5 Knot Zone</name>

				<description>Keep to 5 knots or less (9.25km / fast walking pace) in this area</description>

				<styleUrl>#style1</styleUrl>

				<Polygon>

					<tessellate>1</tessellate>

					<outerBoundaryIs>

						<LinearRing>

							<coordinates>

							175.2892186489028,-37.79112339724351,0 175.2899871733423,-37.79185143108432,0 175.2903037152051,-37.792323804741,0 175.2906049864214,-37.79297464667098,0 175.2906053943639,-37.79335041461808,0 175.2904674220544,-37.7940529726519,0 175.2900785403577,-37.79492348284322,0 175.2894365213071,-37.7960114003806,0 175.2887263382723,-37.79705980311864,0 175.2884011588735,-37.7972246774764,0 175.2881493321551,-37.79754342756407,0 175.2885338283189,-37.79784434207406,0 175.28891955457,-37.79811302463564,0 175.2892267968822,-37.79782084354574,0 175.2899826065287,-37.79717558383734,0 175.2906944844962,-37.79605497663305,0 175.291324348173,-37.79480814303773,0 175.291505460686,-37.7938904672062,0 175.2915667237065,-37.79293112939536,0 175.2914992704519,-37.79259702691338,0 175.2911251061669,-37.79223500404734,0 175.2906997411081,-37.7919533946401,0 175.2904925283265,-37.791456294356,0 175.2899896766754,-37.79078523819167,0 175.2896143591754,-37.79022188434561,0 175.2887646345278,-37.79074103858024,0 175.2892186489028,-37.79112339724351,0 
						
</coordinates>

						</LinearRing>

					</outerBoundaryIs>

				</Polygon>

				<flyID>6</flyID>

				<flyDescription>Keep to 5 knots or less (9.25km / fast walking pace) in this area</flyDescription>

			</Placemark>
<Placemark>

				<name>5 Knot Zone</name>

				<description>Keep to 5 knots or less (9.25km / fast walking pace) in this area - Hamilton</description>

				<styleUrl>#style1</styleUrl>

				<Polygon>

					<tessellate>1</tessellate>

					<outerBoundaryIs>

						<LinearRing>

							<coordinates>

							175.3045112687856,-37.80741959446624,0 175.3046291481953,-37.80735625880384,0 175.3048829044468,-37.80726615305748,0 175.305226405332,-37.80718284760746,0 175.3056651081705,-37.80720799816521,0 175.3063580977942,-37.80712420469254,0 175.3067852688866,-37.80718469274404,0 175.3075264569617,-37.80714430021435,0 175.3078378531662,-37.80695693557266,0 175.3076819399944,-37.80620493928302,0 175.3060919405525,-37.80664392468557,0 175.3057461638541,-37.80661342215043,0 175.3048753849828,-37.80678932529971,0 175.3049679286023,-37.80698781208051,0 175.3039383188716,-37.80728095104968,0 175.3041560907161,-37.8077317829158,0 175.3045112687856,-37.80741959446624,0 
						
</coordinates>

						</LinearRing>

					</outerBoundaryIs>

				</Polygon>

				<flyID>7</flyID>

				<flyDescription>Keep to 5 knots or less (9.25km / fast walking pace) in this area - Hamilton</flyDescription>

			</Placemark>

</Document>
</kml>
