<?xml version="1.0" encoding="UTF-8"?>
<kml xmlns="http://www.opengis.net/kml/2.2" xmlns:gx="http://www.google.com/kml/ext/2.2" xmlns:kml="http://www.opengis.net/kml/2.2" xmlns:atom="http://www.w3.org/2005/Atom">
<Document>
	<name>R17 C40.kml</name>
	<Style id="sn_ylw-pushpin">
		<LineStyle>
			<color>ff0000ff</color>
		</LineStyle>
		<PolyStyle>
			<color>ff0000ff</color>
		</PolyStyle>
	</Style>
	<Style id="style0">
		<LineStyle>
			<color>ffff0000</color>
		</LineStyle>
		<PolyStyle>
			<color>ffff0000</color>
			<width>0.9</width>
		</PolyStyle>
	</Style>
	<Style id="style1">
		<LineStyle>
			<color>ff00ffff</color>
		</LineStyle>
		<PolyStyle>
			<color>ff00ffff</color>
			<width>0.9</width>
		</PolyStyle>
	</Style>
	<Placemark>
		<name>Cable Protection Area</name>
		<open>1</open>
		<description>- DANGER HIGH VOLTAGE CABLES  (10000 volts).
		- FISHING in this Cable Protection Area is illegal.
		- ANCHORING in this Cable Protection Area is illegal.
		- Refer to Marine Charts for details.
		- Ph: 0800782627 for more details.</description>
		<styleUrl>#sn_ylw-pushpin</styleUrl>
		<Polygon>
			<tessellate>1</tessellate>
			<outerBoundaryIs>
				<LinearRing>
					<coordinates>
						174.6899479826639,-36.81227949691439,0 174.6899443498059,-36.81110051755814,0 174.6888088164725,-36.81014087712219,0 174.6708674146312,-36.80400737648583,0 174.6709223108337,-36.80481727040396,0 174.6676800650894,-36.80671059952437,0 174.6899479826639,-36.81227949691439,0 
					</coordinates>
				</LinearRing>
			</outerBoundaryIs>
		</Polygon>
		<flyID>0</flyID><flyDescription>
		- DANGER HIGH VOLTAGE CABLES  (10000 volts).
		- FISHING in this Cable Protection Area is illegal.
		- ANCHORING in this Cable Protection Area is illegal.
		- Refer to Marine Charts for details.
		- Ph: 0800782627 for more details.
		</flyDescription>
	</Placemark>
	<Placemark>
		<name>Main Commercial Shipping Channel</name>
		<description>Main Commercial Shipping Channel</description>
		<styleUrl>#style0</styleUrl>
		<Polygon>
			<tessellate>1</tessellate>
			<outerBoundaryIs>
				<LinearRing>
					<coordinates>
						174.7927329930715,-36.83918176666622,0 174.7994141325096,-36.83875819536836,0 174.8102562087908,-36.83815600732017,0 174.8139134664758,-36.83687327500638,0 174.8165029002383,-36.83605963085535,0 174.8197587670098,-36.83354828063288,0 174.8186095159481,-36.83186227374784,0 174.8074882201697,-36.83497290402406,0 174.7968451563148,-36.83622372653177,0 174.7927329930715,-36.83918176666622,0 
					</coordinates>
				</LinearRing>
			</outerBoundaryIs>
		</Polygon>
		<flyID>0</flyID><flyDescription>Main Commercial Shipping Channel</flyDescription>
	</Placemark>
	<Placemark>
		<name>12 Knot Zone</name>
		<description>The Waitemata Harbour Restricted Zone limits speed to a maximum of 12 knots and includes all waters of the
Waitemata Harbour within this area.</description>
		<styleUrl>#style1</styleUrl>
		<Polygon>
			<tessellate>1</tessellate>
			<outerBoundaryIs>
				<LinearRing>
					<coordinates>
						174.8026840128455,-36.85306350661781,0 174.8085771411749,-36.85151489394934,0 174.8072769973003,-36.84999305896491,0 174.8093863480576,-36.84740039965043,0 174.8108088219001,-36.84879545857209,0 174.8139739152497,-36.85134190466838,0 174.8178440018465,-36.84920278063524,0 174.8163085028963,-36.84504759195759,0 174.8211697510805,-36.84538155349263,0 174.8237055273554,-36.84418663964949,0 174.8240129926535,-36.84382152813948,0 174.8226653753641,-36.84013792203583,0 174.8072965818022,-36.84257456386478,0 174.8001993765039,-36.84306660682452,0 174.8026840128455,-36.85306350661781,0 
					</coordinates>
				</LinearRing>
			</outerBoundaryIs>
		</Polygon>
		<flyID>1</flyID><flyDescription>The Waitemata Harbour Restricted Zone limits speed to a maximum of 12 knots and includes all waters of the
Waitemata Harbour within this area.</flyDescription>
	</Placemark>
	<Placemark>
		<name>12 Knot Zone</name>
		<description>The Waitemata Harbour Restricted Zone limits speed to a maximum of 12 knots and includes all waters of the
Waitemata Harbour within this area.</description>
		<styleUrl>#style1</styleUrl>
		<Polygon>
			<tessellate>1</tessellate>
			<outerBoundaryIs>
				<LinearRing>
					<coordinates>
						174.7968451563148,-36.83622372653177,0 174.8074882201697,-36.83497290402406,0 174.8186095159481,-36.83186227374784,0 174.8136557568012,-36.82858433979199,0 174.8131026798611,-36.82806299012251,0 174.8109162346652,-36.82982452203864,0 174.8073411313256,-36.828781344803,0 174.7993337088124,-36.83248695639675,0 174.7959901826319,-36.83276173653665,0 174.7968451563148,-36.83622372653177,0 
					</coordinates>
				</LinearRing>
			</outerBoundaryIs>
		</Polygon>
		<flyID>2</flyID><flyDescription>The Waitemata Harbour Restricted Zone limits speed to a maximum of 12 knots and includes all waters of the
Waitemata Harbour within this area.</flyDescription>
	</Placemark>
	<Placemark>
		<name>12 Knot Zone</name>
		<description>The Waitemata Harbour Restricted Zone limits speed to a maximum of 12 knots and includes all waters of the
Waitemata Harbour within this area.</description>
		<styleUrl>#style1</styleUrl>
		<Polygon>
			<tessellate>1</tessellate>
			<outerBoundaryIs>
				<LinearRing>
					<coordinates>
						174.7875548744958,-36.83943745733549,0 174.7926753120776,-36.83916882338998,0 174.7968451563148,-36.83622372653177,0 174.7959901826319,-36.83276173653665,0 174.7889776950861,-36.83078446116095,0 174.7889020722426,-36.8326159086195,0 174.7875548744958,-36.83943745733549,0 
					</coordinates>
				</LinearRing>
			</outerBoundaryIs>
		</Polygon>
		<flyID>3</flyID><flyDescription>The Waitemata Harbour Restricted Zone limits speed to a maximum of 12 knots and includes all waters of the
Waitemata Harbour within this area.</flyDescription>
	</Placemark>
	<Placemark>
		<name>12 Knot Zone</name>
		<description>The Waitemata Harbour Restricted Zone limits speed to a maximum of 12 knots and includes all waters of the
Waitemata Harbour within this area.</description>
		<styleUrl>#style1</styleUrl>
		<Polygon>
			<tessellate>1</tessellate>
			<outerBoundaryIs>
				<LinearRing>
					<coordinates>
						174.7876061519792,-36.84126348842425,0 174.7885978837945,-36.84376606250859,0 174.7876769495987,-36.84587799374166,0 174.7923605350435,-36.84885705040015,0 174.7981860761541,-36.85257328164322,0 174.8026840128455,-36.85306350661781,0 174.8001993765039,-36.84306660682452,0 174.7883353717928,-36.84228806138011,0 174.7898460220687,-36.84119711377467,0 174.7875411480564,-36.83948626913227,0 174.7876061519792,-36.84126348842425,0 
					</coordinates>
				</LinearRing>
			</outerBoundaryIs>
		</Polygon>
		<flyID>4</flyID><flyDescription>The Waitemata Harbour Restricted Zone limits speed to a maximum of 12 knots and includes all waters of the
Waitemata Harbour within this area.</flyDescription>
	</Placemark>
	<Placemark>
		<name>12 Knot Zone</name>
		<description>The Waitemata Harbour Restricted Zone limits speed to a maximum of 12 knots and includes all waters of the
Waitemata Harbour within this area.</description>
		<styleUrl>#style1</styleUrl>
		<Polygon>
			<tessellate>1</tessellate>
			<outerBoundaryIs>
				<LinearRing>
					<coordinates>
						174.772984408092,-36.83970743602985,0 174.7766173769603,-36.83993242638145,0 174.7758472478183,-36.84113448904292,0 174.776824756056,-36.8419284388285,0 174.7756872426521,-36.84312133744035,0 174.7844048531617,-36.84557155389262,0 174.7829160914401,-36.83991281985584,0 174.7876024423143,-36.84125622405738,0 174.7875392358375,-36.83950158417721,0 174.7889020722426,-36.8326159086195,0 174.7871540603884,-36.8331874870126,0 174.7828409912781,-36.83245088119227,0 174.7805429544304,-36.82971745231091,0 174.7811664646315,-36.82758355102529,0 174.7793681976984,-36.82721692914026,0 174.7773618238163,-36.82800124409193,0 174.7771503600609,-36.82806138789695,0 174.7761105290691,-36.82847062012068,0 174.7750294624314,-36.82893318338085,0 174.7729206550912,-36.82973574901899,0 174.772984408092,-36.83970743602985,0 
					</coordinates>
				</LinearRing>
			</outerBoundaryIs>
		</Polygon>
		<flyID>5</flyID><flyDescription>The Waitemata Harbour Restricted Zone limits speed to a maximum of 12 knots and includes all waters of the
Waitemata Harbour within this area.</flyDescription>
	</Placemark>
	<Placemark>
		<name>12 Knot Zone</name>
		<description>The Waitemata Harbour Restricted Zone limits speed to a maximum of 12 knots and includes all waters of the
Waitemata Harbour within this area.</description>
		<styleUrl>#style1</styleUrl>
		<Polygon>
			<tessellate>1</tessellate>
			<outerBoundaryIs>
				<LinearRing>
					<coordinates>
						174.7666496758275,-36.82858653900827,0 174.7666944994063,-36.83195210193868,0 174.7602472340564,-36.83722617664208,0 174.7568955939222,-36.84028060573851,0 174.7642264006489,-36.84221244249451,0 174.7651672007459,-36.8421009328995,0 174.7665058804636,-36.83891171976853,0 174.768519993969,-36.83943677639084,0 174.767183526466,-36.8430091564533,0 174.7715244257894,-36.84393719649908,0 174.772984408092,-36.83970743602985,0 174.7729206550912,-36.82973574901899,0 174.7719073716778,-36.82812856165389,0 174.7666496758275,-36.82858653900827,0 
					</coordinates>
				</LinearRing>
			</outerBoundaryIs>
		</Polygon>
		<flyID>6</flyID><flyDescription>The Waitemata Harbour Restricted Zone limits speed to a maximum of 12 knots and includes all waters of the
Waitemata Harbour within this area.</flyDescription>
	</Placemark>
	<Placemark>
		<name>12 Knot Zone</name>
		<description>The Waitemata Harbour Restricted Zone limits speed to a maximum of 12 knots and includes all waters of the
Waitemata Harbour within this area.</description>
		<styleUrl>#style1</styleUrl>
		<Polygon>
			<tessellate>1</tessellate>
			<outerBoundaryIs>
				<LinearRing>
					<coordinates>
						174.7666944994063,-36.83195210193868,0 174.7574247018062,-36.83111050427258,0 174.7508525254578,-36.82986655562934,0 174.7495228219817,-36.83170429669799,0 174.7573133179596,-36.83656544648746,0 174.7594243416822,-36.83639295579618,0 174.7602472340564,-36.83722617664208,0 174.7666944994063,-36.83195210193868,0 
					</coordinates>
				</LinearRing>
			</outerBoundaryIs>
		</Polygon>
		<flyID>7</flyID><flyDescription>The Waitemata Harbour Restricted Zone limits speed to a maximum of 12 knots and includes all waters of the
Waitemata Harbour within this area.</flyDescription>
	</Placemark>
	<Placemark>
		<name>12 Knot Zone</name>
		<description>The Waitemata Harbour Restricted Zone limits speed to a maximum of 12 knots and includes all waters of the
Waitemata Harbour within this area.</description>
		<styleUrl>#style1</styleUrl>
		<Polygon>
			<tessellate>1</tessellate>
			<outerBoundaryIs>
				<LinearRing>
					<coordinates>
						174.7495228219817,-36.83170429669799,0 174.7458949468885,-36.8302304325367,0 174.7457636120541,-36.83042273233895,0 174.7432897309642,-36.83480008401661,0 174.7427704054322,-36.83803004531414,0 174.7469672027106,-36.84209740336344,0 174.7493554106369,-36.84267842574089,0 174.7500021273324,-36.84197045785222,0 174.7512008724858,-36.84202304829478,0 174.7513725826762,-36.84354866892316,0 174.7540743437063,-36.83937681879053,0 174.7573133179596,-36.83656544648746,0 174.7495228219817,-36.83170429669799,0 
					</coordinates>
				</LinearRing>
			</outerBoundaryIs>
		</Polygon>
		<flyID>8</flyID><flyDescription>The Waitemata Harbour Restricted Zone limits speed to a maximum of 12 knots and includes all waters of the
Waitemata Harbour within this area.</flyDescription>
	</Placemark>
	<Placemark>
		<name>12 Knot Zone</name>
		<description>The Waitemata Harbour Restricted Zone limits speed to a maximum of 12 knots and includes all waters of the
Waitemata Harbour within this area.</description>
		<styleUrl>#style1</styleUrl>
		<Polygon>
			<tessellate>1</tessellate>
			<outerBoundaryIs>
				<LinearRing>
					<coordinates>
						174.7719073716778,-36.82812856165389,0 174.7744473885047,-36.82701760957377,0 174.7764074996468,-36.82598302102417,0 174.7924759949333,-36.81846566550051,0 174.7852350686094,-36.81906242879784,0 174.7845799997111,-36.81875532891895,0 174.7831256631039,-36.81806843806453,0 174.7853245963104,-36.81650468035851,0 174.7814029694525,-36.81495498315538,0 174.7704941007081,-36.81815853520887,0 174.7701361216724,-36.81833415276979,0 174.7697682222656,-36.8183822468774,0 174.7654525622071,-36.82218633662639,0 174.7665863713601,-36.82859341937,0 174.7719073716778,-36.82812856165389,0 
					</coordinates>
				</LinearRing>
			</outerBoundaryIs>
		</Polygon>
		<flyID>9</flyID><flyDescription>The Waitemata Harbour Restricted Zone limits speed to a maximum of 12 knots and includes all waters of the
Waitemata Harbour within this area.</flyDescription>
	</Placemark>
	<Placemark>
		<name>12 Knot Zone</name>
		<description>The Waitemata Harbour Restricted Zone limits speed to a maximum of 12 knots and includes all waters of the
Waitemata Harbour within this area.</description>
		<styleUrl>#style1</styleUrl>
		<Polygon>
			<tessellate>1</tessellate>
			<outerBoundaryIs>
				<LinearRing>
					<coordinates>
						174.7666496758275,-36.82858653900827,0 174.7654525622071,-36.82218633662639,0 174.7628055285287,-36.82122636491036,0 174.7507448804479,-36.81873294383099,0 174.7483291153156,-36.82717229892536,0 174.7474931511569,-36.82827128676909,0 174.7666496758275,-36.82858653900827,0 
					</coordinates>
				</LinearRing>
			</outerBoundaryIs>
		</Polygon>
		<flyID>10</flyID><flyDescription>The Waitemata Harbour Restricted Zone limits speed to a maximum of 12 knots and includes all waters of the
Waitemata Harbour within this area.</flyDescription>
	</Placemark>
	<Placemark>
		<name>12 Knot Zone</name>
		<description>The Waitemata Harbour Restricted Zone limits speed to a maximum of 12 knots and includes all waters of the
Waitemata Harbour within this area.</description>
		<styleUrl>#style1</styleUrl>
		<Polygon>
			<tessellate>1</tessellate>
			<outerBoundaryIs>
				<LinearRing>
					<coordinates>
						174.7628055285287,-36.82122636491036,0 174.7653909707076,-36.81832324646225,0 174.767645253056,-36.81846062913306,0 174.7683551561834,-36.81481854660611,0 174.7784781127773,-36.8105796448448,0 174.7726824148246,-36.80664666078059,0 174.7701498411444,-36.80381608186595,0 174.7647741554313,-36.79807941085723,0 174.7609544089697,-36.80362709482434,0 174.7595292461994,-36.80565110921514,0 174.7595281585987,-36.80587327750067,0 174.7543736449144,-36.81334323613848,0 174.7507448804479,-36.81873294383099,0 174.7628055285287,-36.82122636491036,0 
					</coordinates>
				</LinearRing>
			</outerBoundaryIs>
		</Polygon>
		<flyID>11</flyID><flyDescription>The Waitemata Harbour Restricted Zone limits speed to a maximum of 12 knots and includes all waters of the
Waitemata Harbour within this area.</flyDescription>
	</Placemark>
	<Placemark>
		<name>Main Commercial Shipping Channel</name>
		<description>Main Commercial Shipping Channel</description>
		<styleUrl>#style0</styleUrl>
		<Polygon>
			<tessellate>1</tessellate>
			<outerBoundaryIs>
				<LinearRing>
					<coordinates>
						174.8000524769055,-36.84304492328182,0 174.8073937890173,-36.84262888959347,0 174.8214529550435,-36.83633764459352,0 174.8307825824694,-36.82779743177358,0 174.8335260372066,-36.82159110489798,0 174.833074893429,-36.81484146421471,0 174.8293376763614,-36.80839886010902,0 174.8129975581092,-36.79192870463793,0 174.8093504500556,-36.78624585419742,0 174.8121475394985,-36.77416434771518,0 174.8096768782843,-36.77280894629221,0 174.8057955717979,-36.77933457778654,0 174.8059134223398,-36.78708823025112,0 174.8099816718437,-36.79358050349222,0 174.8264913164387,-36.81039137188108,0 174.8297819268917,-36.81575708676504,0 174.8301575873666,-36.82125129491162,0 174.8280056462335,-36.82634664545309,0 174.8186847823073,-36.83184754244027,0 174.8198012942877,-36.83358798081691,0 174.8164004147392,-36.83609267432732,0 174.8102884015495,-36.8381868988908,0 174.7927749438795,-36.83921143379294,0 174.7883339102388,-36.84229506503533,0 174.8000524769055,-36.84304492328182,0 
					</coordinates>
				</LinearRing>
			</outerBoundaryIs>
		</Polygon>
		<flyID>12</flyID><flyDescription>Main Commercial Shipping Channel</flyDescription>
	</Placemark>
	<Placemark>
		<name>Auckland Ferry Terminal Zone</name>
		<description>Auckland Ferry Terminal Zone</description>
		<styleUrl>#style0</styleUrl>
		<Polygon>
			<tessellate>1</tessellate>
			<outerBoundaryIs>
				<LinearRing>
					<coordinates>
						174.7665574308077,-36.84288057588756,0 174.7665574787015,-36.84288808565259,0 174.7670409267765,-36.84302005044415,0 174.7684871598995,-36.83941790147823,0 174.7664879703592,-36.83892197915371,0 174.7651951778892,-36.8421010795532,0 174.765429646137,-36.84253544994443,0 174.7665574308077,-36.84288057588756,0 
					</coordinates>
				</LinearRing>
			</outerBoundaryIs>
		</Polygon>
		<flyID>13</flyID><flyDescription>Auckland Ferry Terminal Zone</flyDescription>
	</Placemark>
	<Placemark>
		<name>Non-mechanically Powered Vessel Zone</name>
		<description>Judges Bay - the sea areas lying to the south west of Tamaki Drive.</description>
		<styleUrl>#style0</styleUrl>
		<Polygon>
			<tessellate>1</tessellate>
			<outerBoundaryIs>
				<LinearRing>
					<coordinates>
						174.7891141526634,-36.84961694446736,0 174.7895769512172,-36.84966773013752,0 174.7908928512827,-36.8491629999425,0 174.791045670592,-36.84873683102653,0 174.7921528824704,-36.84882109970144,0 174.7912728215008,-36.8483960639837,0 174.7902565139981,-36.84820037572359,0 174.7886488549623,-36.84821516426565,0 174.7874855039487,-36.84829564140259,0 174.7873200081465,-36.84838347097531,0 174.787353335481,-36.84854526764004,0 174.7880543629443,-36.84927947143819,0 174.7885100485374,-36.84965874596642,0 174.7891141526634,-36.84961694446736,0 
					</coordinates>
				</LinearRing>
			</outerBoundaryIs>
		</Polygon>
		<flyID>14</flyID><flyDescription>Judges Bay - the sea areas lying to the south west of Tamaki Drive.</flyDescription>
	</Placemark>
	<Placemark>
		<name>Reserved Area</name>
		<description>This area is reserved for use by vessels including kite boards and windsurfers</description>
		<styleUrl>#style0</styleUrl>
		<Polygon>
			<tessellate>1</tessellate>
			<outerBoundaryIs>
				<LinearRing>
					<coordinates>
						174.7783807578877,-36.78561685484612,0 174.778380105736,-36.78431998596837,0 174.7766548846701,-36.78431458240307,0 174.7750284832646,-36.78484002740678,0 174.7783807578877,-36.78561685484612,0 
					</coordinates>
				</LinearRing>
			</outerBoundaryIs>
		</Polygon>
		<flyID>15</flyID><flyDescription>This area is reserved for use by vessels including kite boards and windsurfers</flyDescription>
	</Placemark>
	<Placemark>
		<name>Access Lane</name>
		<description>Cornwallis Beach- Reserved for the purpose of allowing power driven vessel and power driven vessels towing water-skiers, wake boards or ski biscuits to navigate from a beach or launching area offshore to the 200m mark.</description>
		<styleUrl>#style0</styleUrl>
		<Polygon>
			<tessellate>1</tessellate>
			<outerBoundaryIs>
				<LinearRing>
					<coordinates>
						174.6037472641638,-37.00643204498561,0 174.6062159492708,-37.00643494033422,0 174.606336276426,-37.00558921798957,0 174.6035240245047,-37.00559085986692,0 174.6037472641638,-37.00643204498561,0 
					</coordinates>
				</LinearRing>
			</outerBoundaryIs>
		</Polygon>
		<flyID>16</flyID><flyDescription>Cornwallis Beach- Reserved for the purpose of allowing power driven vessel and power driven vessels towing water-skiers, wake boards or ski biscuits to navigate from a beach or launching area offshore to the 200m mark.</flyDescription>
	</Placemark>
	<Placemark>
		<name>Access Lane</name>
		<description>Little Huia- Reserved for the purpose of allowing power driven vessel and power driven vessels towing water-skiers, wake boards or ski biscuits to navigate from a beach or launching area offshore to the 200m mark.</description>
		<styleUrl>#style0</styleUrl>
		<Polygon>
			<tessellate>1</tessellate>
			<outerBoundaryIs>
				<LinearRing>
					<coordinates>
						174.5616862320999,-37.01546223034444,0 174.562171663098,-37.01464303671288,0 174.5595587348636,-37.01412125529004,0 174.5589906171898,-37.0149454715391,0 174.5616862320999,-37.01546223034444,0 
					</coordinates>
				</LinearRing>
			</outerBoundaryIs>
		</Polygon>
		<flyID>17</flyID><flyDescription>Little Huia- Reserved for the purpose of allowing power driven vessel and power driven vessels towing water-skiers, wake boards or ski biscuits to navigate from a beach or launching area offshore to the 200m mark.</flyDescription>
	</Placemark>
	<Placemark>
		<name>Defence Area (naval Base): Kauri Point</name>
		<description>Defence Area (naval base): Kauri Point</description>
		<styleUrl>#style0</styleUrl>
		<Polygon>
			<tessellate>1</tessellate>
			<outerBoundaryIs>
				<LinearRing>
					<coordinates>
						174.6971338357581,-36.82544869066334,0 174.6994446543189,-36.82429149327076,0 174.6989113247217,-36.82413661014613,0 174.6985770968954,-36.82404827324422,0 174.6985551625373,-36.82400424065941,0 174.6977726884646,-36.82327269983693,0 174.6969395842519,-36.82295270680401,0 174.6970849595838,-36.82213737566021,0 174.6981646466651,-36.82150276023467,0 174.6976310721556,-36.82043332280071,0 174.6972353612196,-36.82047770931638,0 174.6943881175691,-36.82164786711498,0 174.6971338357581,-36.82544869066334,0 
					</coordinates>
				</LinearRing>
			</outerBoundaryIs>
		</Polygon>
		<flyID>18</flyID><flyDescription>Defence Area (naval base): Kauri Point</flyDescription>
	</Placemark>
	<Placemark>
		<name>Reserved For Swimming And Non Mechanically Propelled Vessels</name>
		<description>Point Chevalier Beach – that sea area extending a minimum of 200 meters from the shore along the beach from the northern most point of Coyle Park extending south to the point of land at 36 degrees 51.43 minutes south latitude, 174 degrees 42.00 minutes east longitude.</description>
		<styleUrl>#style0</styleUrl>
		<Polygon>
			<tessellate>1</tessellate>
			<outerBoundaryIs>
				<LinearRing>
					<coordinates>
						174.7033587105349,-36.85076757313651,0 174.701265517311,-36.8500353129652,0 174.6980151547323,-36.85642707565388,0 174.700025437028,-36.85711979317696,0 174.7033587105349,-36.85076757313651,0 
					</coordinates>
				</LinearRing>
			</outerBoundaryIs>
		</Polygon>
		<flyID>19</flyID><flyDescription>Point Chevalier Beach – that sea area extending a minimum of 200 meters from the shore along the beach from the northern most point of Coyle Park extending south to the point of land at 36 degrees 51.43 minutes south latitude, 174 degrees 42.00 minutes east longitude.</flyDescription>
	</Placemark>
	<Placemark>
		<name>Reserved For Swimming And Non Mechanically Propelled Vessels</name>
		<description>Hellyers Creek - that sea area of Hellyers creek lying east of Beachhaven wharf. Note: This reservation does not prohibit a power driven vessel navigating at 5 knots or less passing through the area when it is in use for its designated purpose, provided that the vessel does so by the most direct route and does not remain within the area.</description>
		<styleUrl>#style0</styleUrl>
		<Polygon>
			<tessellate>1</tessellate>
			<outerBoundaryIs>
				<LinearRing>
					<coordinates>
						174.6813190082526,-36.78750629442735,0 174.6825507895301,-36.78612692202365,0 174.6840598292355,-36.78566656221478,0 174.6857312445372,-36.78550218383476,0 174.6874329578784,-36.78501188632637,0 174.6884099852642,-36.7853082167441,0 174.689127889371,-36.78482349181471,0 174.6893299008708,-36.78436530244899,0 174.6907153625126,-36.78366248688656,0 174.6917817685305,-36.78365089882379,0 174.6924249851619,-36.78330808198213,0 174.692734994091,-36.78307913151157,0 174.6932750000592,-36.78277593052586,0 174.6947169120392,-36.78195334864899,0 174.692352811133,-36.78102239954912,0 174.690160364464,-36.78159408562125,0 174.6888568894592,-36.78238973736029,0 174.6831425437866,-36.78311348011332,0 174.6817098916369,-36.78375926756346,0 174.6810569721451,-36.78483321541714,0 174.6799586441463,-36.7861996172036,0 174.6787518709946,-36.78672637814474,0 174.6778779773794,-36.7865991035961,0 174.67619213167,-36.78671325389265,0 174.6785462276205,-36.78976712032932,0 174.6813190082526,-36.78750629442735,0 
					</coordinates>
				</LinearRing>
			</outerBoundaryIs>
		</Polygon>
		<flyID>20</flyID><flyDescription>Hellyers Creek - that sea area of Hellyers creek lying east of Beachhaven wharf. Note: This reservation does not prohibit a power driven vessel navigating at 5 knots or less passing through the area when it is in use for its designated purpose, provided that the vessel does so by the most direct route and does not remain within the area.</flyDescription>
	</Placemark>
	<Placemark>
		<name>Harbour Bridge Precautionary Area</name>
		<description>Harbour Bridge Precautionary Area. Prohitibed Anchorage.</description>
		<styleUrl>#style0</styleUrl>
		<Polygon>
			<tessellate>1</tessellate>
			<outerBoundaryIs>
				<LinearRing>
					<coordinates>
						174.7495065288122,-36.83167768573295,0 174.7508395440459,-36.82982421636721,0 174.7435046099566,-36.82682910924078,0 174.7423275819003,-36.82883404915826,0 174.7495065288122,-36.83167768573295,0 
					</coordinates>
				</LinearRing>
			</outerBoundaryIs>
		</Polygon>
		<flyID>21</flyID><flyDescription>Harbour Bridge Precautionary Area. Prohitibed Anchorage.</flyDescription>
	</Placemark>
	<Placemark>
		<name>Reserved For The Use Of Vessels Towing Water
Skiers, Wake Boards Or Ski Biscuits</name>
		<description>Paremoremo Creek. 
Note:This reservation does not prohibit a vessel passing through the area
when it is in use for its designated purpose, provided that the vessel does so by the most direct route and does not interfere with the users of the area.</description>
		<styleUrl>#style0</styleUrl>
		<Polygon>
			<tessellate>1</tessellate>
			<outerBoundaryIs>
				<LinearRing>
					<coordinates>
						174.6322802669028,-36.75963848622946,0 174.6321929406563,-36.7627160937357,0 174.6337794889088,-36.76566396466587,0 174.6333188009645,-36.76763564749547,0 174.6330982423836,-36.76887469209141,0 174.6320065431156,-36.77056105647761,0 174.6339518376051,-36.77198414140801,0 174.6336991852531,-36.76934069040753,0 174.6342647765868,-36.76791276102144,0 174.6343035282076,-36.7651797640057,0 174.6331841166898,-36.76350453773873,0 174.6327809718884,-36.75985594453598,0 174.6322802669028,-36.75963848622946,0 
					</coordinates>
				</LinearRing>
			</outerBoundaryIs>
		</Polygon>
		<flyID>22</flyID><flyDescription>Paremoremo Creek. 
Note:This reservation does not prohibit a vessel passing through the area
when it is in use for its designated purpose, provided that the vessel does so by the most direct route and does not interfere with the users of the area.</flyDescription>
	</Placemark>
	<Placemark>
		<name>Reserved For The Use Of Vessels Towing Water
Skiers, Wake Boards Or Ski Biscuits</name>
		<description>Henderson Creek. 
Note:This reservation does not prohibit a vessel passing through the area
when it is in use for its designated purpose, provided that the vessel does so by the most direct route and does not interfere with the users of the area.</description>
		<styleUrl>#style0</styleUrl>
		<Polygon>
			<tessellate>1</tessellate>
			<outerBoundaryIs>
				<LinearRing>
					<coordinates>
						174.6321537115452,-36.84296346354191,0 174.6316071334782,-36.84224312959605,0 174.6315872603428,-36.84156488482387,0 174.6317409182251,-36.8408166904073,0 174.632006709977,-36.84007776101583,0 174.6325877547425,-36.83863399754535,0 174.6330150378183,-36.83806245744529,0 174.6337081975211,-36.83747591294349,0 174.6347176480234,-36.83725202261849,0 174.6361507771088,-36.83699963435397,0 174.6382799400788,-36.8364811174156,0 174.6387475927758,-36.83618779770213,0 174.6396433570812,-36.83558452791141,0 174.6399630073012,-36.83501715096992,0 174.6400893724334,-36.83414449069193,0 174.6404908323388,-36.83348870004428,0 174.6408168320509,-36.83313468834895,0 174.6414747550525,-36.83249690665042,0 174.6430271560409,-36.83151777101822,0 174.6408473659282,-36.82989976860358,0 174.6406651904826,-36.83107738665495,0 174.6403766479673,-36.83178296853789,0 174.6393302975127,-36.83427270579238,0 174.6382410502146,-36.83556124903859,0 174.6352721713559,-36.83675261967949,0 174.6346622379633,-36.83684252605194,0 174.6340036098996,-36.83700756318422,0 174.6323263898064,-36.83766022494364,0 174.6316549259221,-36.83860212079744,0 174.6311806147672,-36.84055004405021,0 174.6309632983768,-36.84219102361764,0 174.6312623962279,-36.84236454946634,0 174.6321721878747,-36.8434767397376,0 174.6321537115452,-36.84296346354191,0 
					</coordinates>
				</LinearRing>
			</outerBoundaryIs>
		</Polygon>
		<flyID>23</flyID><flyDescription>Henderson Creek. 
Note:This reservation does not prohibit a vessel passing through the area
when it is in use for its designated purpose, provided that the vessel does so by the most direct route and does not interfere with the users of the area.</flyDescription>
	</Placemark>
</Document>
</kml>
