<?xml version="1.0" encoding="UTF-8"?>
<kml xmlns="http://www.opengis.net/kml/2.2" xmlns:gx="http://www.google.com/kml/ext/2.2" xmlns:kml="http://www.opengis.net/kml/2.2" xmlns:atom="http://www.w3.org/2005/Atom">
<Document>
<name>R9 C34.kml</name>

<Style id="style0">

					<LineStyle>

						<color>ffff0000</color>

					</LineStyle>

					<PolyStyle>

						<color>ffff0000</color>

						<width>0.9</width>

					</PolyStyle>

				</Style>

<Placemark>

				<name>Water Ski Lane</name>

				<description>Houhora-This area is reserved for vessels towing. Within this zone proceed in an anticlockwise direction. Speed within proximity to shore, structures, people in the water and other vessels apply.</description>

				<styleUrl>#style0</styleUrl>

				<Polygon>

					<tessellate>1</tessellate>

					<outerBoundaryIs>

						<LinearRing>

							<coordinates>

							173.1460518466346,-34.81765754044511,0 173.1499275520055,-34.81777530040404,0 173.1508653778777,-34.81688923369103,0 173.1507679367055,-34.81490880152712,0 173.1478431787352,-34.81212306613566,0 173.1463891870484,-34.81139655882159,0 173.1433586155281,-34.81203295928581,0 173.1420423337317,-34.81381064547321,0 173.1460518466346,-34.81765754044511,0 
						
</coordinates>

						</LinearRing>

					</outerBoundaryIs>

				</Polygon>

				<flyID>0</flyID>

				<flyDescription>Houhora-This area is reserved for vessels towing. Within this zone proceed in an anticlockwise direction. Speed within proximity to shore, structures, people in the water and other vessels apply.</flyDescription>

			</Placemark>

</Document>
</kml>
