<?xml version="1.0" encoding="UTF-8"?>
<kml xmlns="http://www.opengis.net/kml/2.2" xmlns:gx="http://www.google.com/kml/ext/2.2" xmlns:kml="http://www.opengis.net/kml/2.2" xmlns:atom="http://www.w3.org/2005/Atom">
<Document>
	<name>R30 C45.kml</name>
	<Style id="msn_ylw-pushpin02">
		<LineStyle>
			<color>ffff00ff</color>
		</LineStyle>
		<PolyStyle>
			<color>ffff00ff</color>
		</PolyStyle>
	</Style>
	<Style id="msn_ylw-pushpin01">
		<LineStyle>
			<color>ffff00ff</color>
		</LineStyle>
		<PolyStyle>
			<color>ffff00ff</color>
		</PolyStyle>
	</Style>
	<Style id="msn_ylw-pushpin0">
		<LineStyle>
			<color>ffff00ff</color>
		</LineStyle>
		<PolyStyle>
			<color>ffff00ff</color>
		</PolyStyle>
	</Style>
	<Style id="msn_ylw-pushpin000">
		<LineStyle>
			<color>ffff00ff</color>
		</LineStyle>
		<PolyStyle>
			<color>ffff00ff</color>
		</PolyStyle>
	</Style>
	<Style id="msn_ylw-pushpin00">
		<LineStyle>
			<color>ffff00ff</color>
		</LineStyle>
		<PolyStyle>
			<color>ffff00ff</color>
		</PolyStyle>
	</Style>
	<Placemark>
		<name>Speed shall not exceed 5 knots year round</name>
		<open>1</open>
		<description>Speed shall not exceed 5 knots year round</description>
		<styleUrl>#msn_ylw-pushpin00</styleUrl>
		<Polygon>
			<tessellate>1</tessellate>
			<outerBoundaryIs>
				<LinearRing>
					<coordinates>
						175.7627198285629,-40.30210142923501,0 175.7644050270704,-40.30053064619801,0 175.7656026562267,-40.29867954144056,0 175.7663273047352,-40.29531639620523,0 175.7685467866666,-40.29184438351653,0 175.7681080138228,-40.28743808597879,0 175.7685845739662,-40.2868102045112,0 175.7704629623407,-40.28271681757671,0 175.7719351163257,-40.28084623059832,0 175.7737259537823,-40.27946114170315,0 175.7747762517044,-40.27806926002155,0 175.7741554146904,-40.27652724434122,0 175.7738150269198,-40.27471509065182,0 175.7727857502352,-40.27267518687308,0 175.7733921063772,-40.26771245856007,0 175.775277608186,-40.25982128188289,0 175.7745320688776,-40.25365152629464,0 175.7730371810178,-40.237506561927,0 175.7757260973558,-40.22800946140384,0 175.7824532155356,-40.21631773148811,0 175.7883305323057,-40.21034905147564,0 175.7885192348678,-40.20993224067145,0 175.7881469024308,-40.20937222668331,0 175.7843535816685,-40.20404991266362,0 175.7832844566582,-40.20448195541083,0 175.7872164554001,-40.20994119209627,0 175.7814328506019,-40.2158662075015,0 175.7745312494855,-40.22779440136869,0 175.7718326673377,-40.23748865776062,0 175.7724293294137,-40.24395519688139,0 175.7740590755899,-40.25978132951979,0 175.7736037028174,-40.26173446137516,0 175.7721759682738,-40.26783182396154,0 175.7718970217764,-40.27006605149742,0 175.7715763530748,-40.27273258894449,0 175.7716912602462,-40.27296260023726,0 175.7725400842967,-40.27473978216563,0 175.7729300304873,-40.2762682558427,0 175.7735098589644,-40.27794716792686,0 175.7726902139228,-40.27905770744891,0 175.7710411318843,-40.28029006596978,0 175.7694250627525,-40.28221029590453,0 175.7682757324237,-40.28491439238479,0 175.7669529271204,-40.28734552684237,0 175.7673808394332,-40.29165467741962,0 175.7664920764345,-40.29288041703804,0 175.7651842468095,-40.2950579915612,0 175.7649986324326,-40.29592871293458,0 175.7644399249607,-40.2984478789875,0 175.7633887354628,-40.3000246869118,0 175.7616733238614,-40.30159227834122,0 175.7602515497232,-40.30435481791142,0 175.7601213577792,-40.30494284476284,0 175.7614444401905,-40.30449759776968,0 175.7627198285629,-40.30210142923501,0 
					</coordinates>
				</LinearRing>
			</outerBoundaryIs>
		</Polygon>
		<flyID>3</flyID><flyDescription>Speed shall not exceed 5 knots year round</flyDescription>
	</Placemark>
	<Placemark>
		<name>Speed shall not exceed 5 knots year round</name>
		<open>1</open>
		<description>Speed shall not exceed 5 knots year round</description>
		<styleUrl>#msn_ylw-pushpin02</styleUrl>
		<Polygon>
			<tessellate>1</tessellate>
			<outerBoundaryIs>
				<LinearRing>
					<coordinates>
						175.7843535816685,-40.20404991266362,0 175.7822748525029,-40.19915144672698,0 175.7890952407584,-40.19661151376511,0 175.7902116940024,-40.19580472187715,0 175.7929345687441,-40.19358600301197,0 175.7972758817598,-40.18885016267208,0 175.7977043260498,-40.18761007645974,0 175.7993852606023,-40.1818769497209,0 175.8015488303538,-40.17357742075072,0 175.8123477541637,-40.16937093474451,0 175.8221954686133,-40.16523330831006,0 175.822580069065,-40.16500557229055,0 175.8234389602339,-40.16241193599927,0 175.8242882562872,-40.16040209510857,0 175.8291956263091,-40.15913405602819,0 175.8358515337102,-40.15799024408584,0 175.8386686791168,-40.15522911526463,0 175.8411766644931,-40.15037562811963,0 175.8396554925161,-40.14756119944743,0 175.8371811311273,-40.14326736106246,0 175.8363800706644,-40.13785734542123,0 175.8386806477603,-40.13730829981078,0 175.8409614864429,-40.13656302054402,0 175.8411696588671,-40.13611002689802,0 175.8409891107217,-40.13400770645849,0 175.8406203110932,-40.13217270944658,0 175.8422935756798,-40.1317325088622,0 175.8492190227516,-40.13040986423878,0 175.8531204810942,-40.12856958170071,0 175.8567814460075,-40.12694043403415,0 175.8568721394485,-40.12640486952157,0 175.8565453712857,-40.12618469313415,0 175.8525620298073,-40.12420153059205,0 175.8509377891063,-40.12299041908887,0 175.8500551747217,-40.12367791001792,0 175.8518819659119,-40.1249492887088,0 175.8551958290641,-40.12659544991376,0 175.8487815717455,-40.12957941178409,0 175.8404397121371,-40.13124082427582,0 175.8394547043206,-40.13147624865932,0 175.8392642190057,-40.13171290980552,0 175.8393268715428,-40.13204326528345,0 175.8399249609044,-40.13436109509754,0 175.8399082057042,-40.13591186746719,0 175.8383481898165,-40.13646636196617,0 175.8355201802674,-40.13711837287204,0 175.8352165404785,-40.13735778536161,0 175.8351621579755,-40.13770198105833,0 175.8360033166901,-40.1434420515406,0 175.8363213984927,-40.14388325128418,0 175.8398777883089,-40.15043278090606,0 175.8376630846921,-40.15473312822676,0 175.8351457235636,-40.15720344554995,0 175.8292279507559,-40.1582148108901,0 175.8249382605727,-40.15930750616245,0 175.8236892325393,-40.15958503313636,0 175.8233572408545,-40.15973354811688,0 175.8224929711434,-40.16168944768365,0 175.8215354525869,-40.1645116196013,0 175.8122368305444,-40.16839984247328,0 175.802652325451,-40.172180796071,0 175.8006827102139,-40.1728829035515,0 175.8004908472719,-40.17315839505241,0 175.8003010738756,-40.173814209985,0 175.7981343737849,-40.18200564852281,0 175.7961836804123,-40.18856899938106,0 175.7917988014478,-40.19323490286537,0 175.7884068069128,-40.19594009043641,0 175.7821477482983,-40.19825654115149,0 175.7811932573978,-40.19857881567256,0 175.7810268508194,-40.19892096285605,0 175.7812861678467,-40.19949661659184,0 175.7832844566582,-40.20448195541083,0 175.7843535816685,-40.20404991266362,0 
					</coordinates>
				</LinearRing>
			</outerBoundaryIs>
		</Polygon>
		<flyID>4</flyID><flyDescription>Speed shall not exceed 5 knots year round</flyDescription>
	</Placemark>
	<Placemark>
		<name>Speed shall not exceed 5 knots year round</name>
		<description>Speed shall not exceed 5 knots year round</description>
		<styleUrl>#msn_ylw-pushpin0</styleUrl>
		<Polygon>
			<tessellate>1</tessellate>
			<outerBoundaryIs>
				<LinearRing>
					<coordinates>
						175.5805465182475,-40.23920851061384,0 175.5806646628029,-40.2387868861734,0 175.5821204976483,-40.23197998185307,0 175.5849016798048,-40.21937101365384,0 175.601212598579,-40.21761763517829,0 175.6072389888672,-40.22088031419029,0 175.608737298709,-40.2216522712599,0 175.6092572812445,-40.22151977691432,0 175.6123150614416,-40.22013357158991,0 175.6130645243989,-40.21980369792284,0 175.6130648690766,-40.2193787873493,0 175.610934704794,-40.21750667818823,0 175.6070813394531,-40.2141392249728,0 175.6110917516206,-40.21225215142604,0 175.6147135290986,-40.21414329766195,0 175.6152604695772,-40.21414357027885,0 175.6158369709621,-40.21377038658961,0 175.6260497778771,-40.20581702959917,0 175.6351667018641,-40.20910476665282,0 175.6358553870861,-40.20901739945212,0 175.6359993272882,-40.20855773747083,0 175.6344273285127,-40.20548470297792,0 175.6413757686332,-40.2036628465471,0 175.6436957561269,-40.20202362991935,0 175.6442115593957,-40.20154293339711,0 175.6440692977799,-40.20110645183885,0 175.6387375246974,-40.18978278449649,0 175.655365986805,-40.17430649312623,0 175.665896019258,-40.17177349512766,0 175.6672254659803,-40.17138469419201,0 175.6673111030912,-40.17093239107395,0 175.6654309790726,-40.16409290613245,0 175.6732765088894,-40.15565682321459,0 175.681428869086,-40.15576396480786,0 175.6817380561409,-40.1555920146701,0 175.6823002729234,-40.15492596583518,0 175.6810202042433,-40.15482776339245,0 175.673537010689,-40.15479598611223,0 175.6727565912795,-40.15481627098804,0 175.6723385572789,-40.15505112293632,0 175.6641818998934,-40.16391781399712,0 175.6660624087657,-40.17082664745261,0 175.6601732699041,-40.17219970754817,0 175.65456659611,-40.17358210830568,0 175.6487857453192,-40.17897558123046,0 175.6374942275903,-40.18954147376506,0 175.6374656387948,-40.18978076148295,0 175.6380066390532,-40.19086911456127,0 175.6428607778908,-40.2013295661724,0 175.6408660098166,-40.202863145553,0 175.6334195071753,-40.20479061602247,0 175.6330751718166,-40.2050312883794,0 175.6330171299789,-40.20538158410538,0 175.6343889936138,-40.20781480986615,0 175.6286420329839,-40.20575245719112,0 175.6260051280955,-40.20478803686802,0 175.6256038942112,-40.20491927474272,0 175.6181309541326,-40.21069048484574,0 175.6149486101755,-40.21315149951565,0 175.6125626595338,-40.2119638019695,0 175.6112406535957,-40.21128209754956,0 175.6108664525334,-40.21134785784854,0 175.6060658083245,-40.21354421000875,0 175.605601889464,-40.21398661949518,0 175.6059106014088,-40.21442947998742,0 175.6115124809032,-40.21944081220776,0 175.6088449569985,-40.22061956837883,0 175.6014997201005,-40.21668586032308,0 175.5886413114765,-40.21808368946851,0 175.58410355987,-40.21849180822836,0 175.5838312684977,-40.2189653053783,0 175.5795042500379,-40.23860429205248,0 175.5786639756683,-40.23897957329039,0 175.5792121461523,-40.23977547397426,0 175.5805465182475,-40.23920851061384,0 
					</coordinates>
				</LinearRing>
			</outerBoundaryIs>
		</Polygon>
		<flyID>0</flyID><flyDescription>Speed shall not exceed 5 knots year round</flyDescription>
	</Placemark>
	<Placemark>
		<name>Speed shall not exceed 5 knots year round</name>
		<description>Speed shall not exceed 5 knots year round</description>
		<styleUrl>#msn_ylw-pushpin000</styleUrl>
		<Polygon>
			<tessellate>1</tessellate>
			<outerBoundaryIs>
				<LinearRing>
					<coordinates>
						175.6823002729234,-40.15492596583518,0 175.6946603049778,-40.13907945880509,0 175.7065234733419,-40.14103058743866,0 175.7078673455233,-40.14318262965136,0 175.7082612985057,-40.14346086097869,0 175.7117301092183,-40.14362528516979,0 175.7148529212673,-40.14371630931947,0 175.7152187415652,-40.14352429957049,0 175.7194248046708,-40.13702998566143,0 175.7296940043026,-40.13432507901312,0 175.738631495024,-40.14115797884867,0 175.7395250216381,-40.14179558261257,0 175.7400164594432,-40.14177716630365,0 175.7403242581376,-40.14149953947105,0 175.7511692643716,-40.12937542283944,0 175.7573019050474,-40.12255096639334,0 175.7552755564786,-40.11709851949712,0 175.7538697100187,-40.11348626937765,0 175.7551538079951,-40.11301749711544,0 175.7619977018887,-40.11078488130089,0 175.7798155563891,-40.10469402134678,0 175.7805031013686,-40.1043988781855,0 175.788934134087,-40.09899186292141,0 175.7933170628206,-40.09616083638152,0 175.7921996097148,-40.09572194374523,0 175.779495436148,-40.10383545333829,0 175.7532828359717,-40.11267775559843,0 175.7526829222481,-40.11299134647008,0 175.7526286476018,-40.11334596449051,0 175.7560113117829,-40.12241994477449,0 175.7396366443679,-40.14066069263215,0 175.7309934443751,-40.13408136709789,0 175.730134138434,-40.13339219416984,0 175.7297416751337,-40.13337149715903,0 175.7209502504515,-40.1357280728036,0 175.718539583939,-40.13632869997618,0 175.7143671337103,-40.14283531923371,0 175.7087814623074,-40.14255830130324,0 175.7075620043135,-40.14067247045038,0 175.7071734613104,-40.1401834905667,0 175.6972110383571,-40.13858730925065,0 175.6944783667059,-40.1381829084823,0 175.6940106510787,-40.13820303149246,0 175.6936235054045,-40.13859945214941,0 175.6810202042433,-40.15482776339245,0 175.6823002729234,-40.15492596583518,0 
					</coordinates>
				</LinearRing>
			</outerBoundaryIs>
		</Polygon>
		<flyID>1</flyID><flyDescription>Speed shall not exceed 5 knots year round</flyDescription>
	</Placemark>
	<Placemark>
		<name>Speed shall not exceed 5 knots year round</name>
		<description>Speed shall not exceed 5 knots year round</description>
		<styleUrl>#msn_ylw-pushpin01</styleUrl>
		<Polygon>
			<tessellate>1</tessellate>
			<outerBoundaryIs>
				<LinearRing>
					<coordinates>
						175.7933170628206,-40.09616083638152,0 175.7944391888163,-40.09002270916899,0 175.7947539951672,-40.08846114687532,0 175.7931150956378,-40.08679323263445,0 175.7867348862911,-40.08027220896972,0 175.7911058177373,-40.07096415765196,0 175.8007521559063,-40.06855295380432,0 175.8025833174896,-40.06807581813817,0 175.8027381348366,-40.06759812679302,0 175.803293565663,-40.0562807778101,0 175.8110426415719,-40.05451894419846,0 175.8132043057287,-40.05399698190362,0 175.8134961377193,-40.0537320558248,0 175.8134225293459,-40.05239162400667,0 175.8125123022114,-40.04304698763014,0 175.8155993613461,-40.04259152625544,0 175.8192610496415,-40.04209128543423,0 175.8196329591556,-40.0417607194375,0 175.8193636669204,-40.04131000771784,0 175.8173675130255,-40.03814443828095,0 175.834982331757,-40.02946041098666,0 175.8356719707965,-40.02903221803202,0 175.8357237262666,-40.02864546529852,0 175.835320477657,-40.02846750782148,0 175.8326030008599,-40.02774411382026,0 175.8325347255766,-40.02867152650003,0 175.8337338611483,-40.02899256173996,0 175.8165999510761,-40.03745849005674,0 175.8160258222287,-40.03782226426077,0 175.8160493638981,-40.03822813481906,0 175.8181052656864,-40.04136433081512,0 175.8118931028432,-40.04219695349506,0 175.8113902839409,-40.04240003521768,0 175.8112560626163,-40.04266297139319,0 175.8122684978272,-40.05325500981554,0 175.8031309645318,-40.05539859469044,0 175.8022901893005,-40.05567049697576,0 175.8021002807826,-40.05604437582354,0 175.801546259475,-40.06738697036106,0 175.7907314933592,-40.07015005014709,0 175.7902707836851,-40.07033869952034,0 175.7900518452215,-40.07077558907089,0 175.7855189695625,-40.08014026000522,0 175.7854629170988,-40.08045610276506,0 175.7935412444034,-40.08872884694996,0 175.7921996097148,-40.09572194374523,0 175.7933170628206,-40.09616083638152,0 
					</coordinates>
				</LinearRing>
			</outerBoundaryIs>
		</Polygon>
		<flyID>2</flyID><flyDescription>Speed shall not exceed 5 knots year round</flyDescription>
	</Placemark>
</Document>
</kml>
