Name,Lat,Long,Description,region,marker
 Lake Benmore  Ohau C Boat Ramp,-44.348939,170.192882,"Boat Ramp available for public use. Before launching from this boat ramp, please ensure your boat is well prepared before joining the queue, you are aware of the conditions and make sure you have enough well-fitting lifejackets onboard for everyone.",4,2
Lake Aviemore  Te Akatarawa Camp Boat Ramp,-44.607122,170.270162,"Boat Ramp available for public use. Before launching from this boat ramp, please ensure your boat is well prepared before joining the queue, you are aware of the conditions and make sure you have enough well-fitting lifejackets onboard for everyone.",4,2
Lake Aviemore Waitangi Camp Boat Ramp,-44.602786,170.30255,"Boat Ramp available for public use. Before launching from this boat ramp, please ensure your boat is well prepared before joining the queue, you are aware of the conditions and make sure you have enough well-fitting lifejackets onboard for everyone.",4,2
Avon Heathcote Estuary Moncks Bay Boat Ramp,-43.566131,172.745617,"Boat Ramp available for public use. Before launching from this boat ramp, please ensure your boat is well prepared before joining the queue, you are aware of the conditions and make sure you have enough well-fitting lifejackets onboard for everyone.",4,2
Lake Opuha  Dam Boat Ramp 124 Opuha Dam Road ,-44.000316,170.889243,"Boat Ramp available for public use. Before launching from this boat ramp, please ensure your boat is well prepared before joining the queue, you are aware of the conditions and make sure you have enough well-fitting lifejackets onboard for everyone.",4,2
Avon Heathcote Estuary  Beachville Rd,-43.555952,172.734441,"Boat Ramp available for public use. Before launching from this boat ramp, please ensure your boat is well prepared before joining the queue, you are aware of the conditions and make sure you have enough well-fitting lifejackets onboard for everyone.  The estuary is 5 knots throughout.",4,2
Lake Aviemore   Otematata Boat Harbour Boat Ramp,-44.602637,170.201517,"Boat Ramp available for public use. Before launching from this boat ramp, please ensure your boat is well prepared , you are aware of the conditions and make sure you have enough well-fitting lifejackets onboard for everyone.",4,2
Lake Aviemore  Parson Rock Camp Boat Ramp,-44.617109,170.237426,"Boat Ramp available for public use. Before launching from this boat ramp, please ensure your boat is well prepared before joining the queue, you are aware of the conditions and make sure you have enough well-fitting lifejackets onboard for everyone.",4,2
Motunau Boat Ramp,-43.048006,173.079273,"Boat Ramp available for public use. Before launching from this boat ramp, please ensure your boat is well prepared before joining the queue, you are aware of the conditions and make sure you have enough well-fitting lifejackets onboard for everyone.",4,2
Lake Opuha Ewarts Corner Hays Rd off  Clayton Road Boat Ramp,-43.977687,170.865504,"Boat Ramp available for public use. Before launching from this boat ramp, please ensure your boat is well prepared before joining the queue, you are aware of the conditions and make sure you have enough well-fitting lifejackets onboard for everyone.",4,2
Sumner Boat Ramp,-43.571457,172.771287,"Boat Ramp available for public use. Before launching from this boat ramp, please ensure your boat is well prepared before joining the queue, you are aware of the conditions and make sure you have enough well-fitting lifejackets onboard for everyone.",4,2
Lake Middleton Boat Ramp,-44.281135,169.8508,"Boat Ramp available for public use. Before launching from this boat ramp, please ensure your boat is well prepared before joining the queue, you are aware of the conditions and make sure you have enough well-fitting lifejackets onboard for everyone.",4,2
Rakaia River Lagoon  Rakaiai Huts Pacific Dr Boat Ramp,-43.888722,172.240247,"Boat Ramp available for public use. Before launching from this boat ramp, please ensure your boat is well prepared before joining the queue, you are aware of the conditions and make sure you have enough well-fitting lifejackets onboard for everyone.",4,2
Lake Ohau Port Bryson Marina Glen Lyon Rd Boat Ramp,-44.269944,169.928633,"Boat Ramp available for public use. Before launching from this boat ramp, please ensure your boat is well prepared before joining the queue, you are aware of the conditions and make sure you have enough well-fitting lifejackets onboard for everyone.",4,2
Lake Tekapo Ski Lane 20 Lilybank Road Beach Launching,-43.999016,170.497999,"Gravel beach launching only.  Be aware of hazards at low lake levels, keep well clear of power generation structures.  Also be aware the lake is very cold. ",4,2
Lower Waimakariri River Brooklands Lagoon Boat Ramp,-43.396947,172.701914,"Boat Ramp available for public use.  Very tidal, half tide at best.  Note the whole Lower Waimakariri is a 5 knot area unless water skiing or towing in Brooklands Lagoon",4,2
Lake Ellesmere Timber Yard Point North Boat Ramp,-43.796992,172.374405,"Boat Ramp available for public use. Before launching from this boat ramp, please ensure your boat is well prepared before joining the queue, you are aware of the conditions and make sure you have enough well-fitting lifejackets onboard for everyone.",4,2
Lake Ellesmere Timber Yard Point South Boat Ramp,-43.766192,172.915515,"Boat Ramp available for public use. Before launching from this boat ramp, please ensure your boat is well prepared before joining the queue, you are aware of the conditions and make sure you have enough well-fitting lifejackets onboard for everyone.",4,2
Lake Opuha  Ashwicks Flat Bennets Rd Boat Ramp ,-44.00544,170.866482,"Boat Ramp available for public use. Before launching from this boat ramp, please ensure your boat is well prepared before joining the queue, you are aware of the conditions and make sure you have enough well-fitting lifejackets onboard for everyone.",4,2
Lake Benmore Dam Boat Ramp,-44.561912,170.197632,"Boat Ramp available for public use. Before launching from this boat ramp, please ensure your boat is well prepared before joining the queue, you are aware of the conditions and make sure you have enough well-fitting lifejackets onboard for everyone.",4,2
Loch Laird Boat Ramp,-44.568687,170.182226,"Boat Ramp available for public use. Before launching from this boat ramp, please ensure your boat is well prepared before joining the queue, you are aware of the conditions and make sure you have enough well-fitting lifejackets onboard for everyone.",4,2
Akaroa Barrys Bay Boat Ramp ,-43.766192,172.915515,"Boat Ramp available for public use, but useable at high tide only. Before launching from this boat ramp, please ensure your boat is well prepared  you are aware of the conditions and make sure you have enough well-fitting lifejackets onboard for everyone.",4,2
Lake Benmore Totara Peak Camp Gravel Boat Ramp,-44.386141,170.199262,"Boat Ramp available for public use. Before launching from this boat ramp, please ensure your boat is well prepared before joining the queue, you are aware of the conditions and make sure you have enough well-fitting lifejackets onboard for everyone.",4,2
Lake Benmore Falston Camp Boat Ramp,-44.396937,170.199302,"Boat Ramp available for public use. Before launching from this boat ramp, please ensure your boat is well prepared before joining the queue, you are aware of the conditions and make sure you have enough well-fitting lifejackets onboard for everyone.",4,2
Kaikoura  Jimmy Armers Beach launching ,-42.4195925,173.7064338,Sandy beach launching suitable for light boats only.  Keep to eastern end well clear of swimmers.  ,4,2
Kaikoura South Bay Boat ramp,-42.424969,173.682363,"Boat Ramp available for public use. Very tidal,  half tide at best.   All this area low speed (5knots) unless waterskiing or towing in Brooklands Lagoon. ",4,2
Lake Benmore Haldon Boat Ramp,-44.34663,170.224213,"Boat Ramp available for public use. Before launching from this boat ramp, please ensure your boat is well prepared before joining the queue, you are aware of the conditions and make sure you have enough well-fitting lifejackets onboard for everyone.",4,2
Lake Camp Boat Ramp,-43.611755,171.049071,"Boat Ramp available for public use. Before launching from this boat ramp, please ensure your boat is well prepared before joining the queue, you are aware of the conditions and make sure you have enough well-fitting lifejackets onboard for everyone.",4,2
Rakaia River Mouth Boat Ramp,-43.888815,172.240227,"Boat Ramp available for public use. Before launching from this boat ramp, please ensure your boat is well prepared before joining the queue, you are aware of the conditions and make sure you have enough well-fitting lifejackets onboard for everyone.",4,2
Lake Hood Ashburton Aquatic Park Boat Ramp,-43.964738,171.77305,"Boat Ramp available for public use. Before launching from this boat ramp, please ensure your boat is well prepared before joining the queue, you are aware of the conditions and make sure you have enough well-fitting lifejackets onboard for everyone.",4,2
Lake Ohau Outlet Boat Ramp,-44.284042,169.939253,"Boat Ramp available for public use. Before launching from this boat ramp, please ensure your boat is well prepared before joining the queue, you are aware of the conditions and make sure you have enough well-fitting lifejackets onboard for everyone.",4,2
Lake Ohau West Reserve Boat Ramp,-44.208715,169.818355,"Boat Ramp available for public use. Before launching from this boat ramp, please ensure your boat is well prepared before joining the queue, you are aware of the conditions and make sure you have enough well-fitting lifejackets onboard for everyone.",4,2
Lake Ruataniwha Water ski zone east Gravel Ramp,-44.280414,170.086043,"Boat Ramp available for public use. Before launching from this boat ramp, please ensure your boat is well prepared before joining the queue, you are aware of the conditions and make sure you have enough well-fitting lifejackets onboard for everyone.",4,2
Lake Tekapo Main Boat Ramp,-44.003519,170.480329,"Boat Ramp available for public use. Before launching from this boat ramp, please ensure your boat is well prepared before joining the queue, you are aware of the conditions and make sure you have enough well-fitting lifejackets onboard for everyone.",4,2
Lake Waitaki Gravel Pits Boat Ramp,-44.660458,170.358917,"Boat Ramp available for public use.  No power boats in the gravel pits themselves, except transiting to and from the Lake itself.",4,2
Lake Waitaki Fishermans Bend Boat Ramp,-44.665776,170.360971,"Boat Ramp available for public use. Before launching from this boat ramp, please ensure your boat is well prepared before joining the queue, you are aware of the conditions and make sure you have enough well-fitting lifejackets onboard for everyone.",4,2
Lake Tekapo Waterski Club  Boat Ramp Lakeside Drive,-43.997875,170.463117,"Boat Ramp available for public use. Before launching from this boat ramp, please ensure your boat is well prepared before joining the queue, you are aware of the conditions and make sure you have enough well-fitting lifejackets onboard for everyone.",4,2
Timaru Yacht Yacht Boat Ramp,-44.385758,171.256085,"Boat Ramp available for public use. Before launching from this boat ramp, please ensure your boat is well prepared before joining the queue, you are aware of the conditions and make sure you have enough well-fitting lifejackets onboard for everyone.",4,2
Lake Ruataniwha Main Ramps x 2 Max Smith Drive ,-44.27268,170.046202,"Boat Ramp available for public use. Before launching from this boat ramp, please ensure your boat is well prepared before joining the queue, you are aware of the conditions and make sure you have enough well-fitting lifejackets onboard for everyone.",4,2
Lake Ruataniwha Main Ramps Gravel  Max Smith Drive ,-44.272811,170.050204,"Boat Ramp available for public use. Before launching from this boat ramp, please ensure your boat is well prepared before joining the queue, you are aware of the conditions and make sure you have enough well-fitting lifejackets onboard for everyone.",4,2
Naval Point Public Slipway Boat Ramp,-43.611367,172.706099,"Boat Ramp available for public use. Before launching from this boat ramp, please ensure your boat is well prepared before joining the queue, you are aware of the conditions and make sure you have enough well-fitting lifejackets onboard for everyone.",4,2
Lake Waitaki   Old Boating Club   Boat Ramp,-44.665447,170.371029,"Boat Ramp available for public use. Access over private land,  stay on track and leave gates as you find them.  Note strong currents off the ramp. ",4,2
Lake Coleridge Ryton Bay Boat Ramp,-43.290976,171.525719,"Boat Ramp available for public use. Before launching from this boat ramp, please ensure your boat is well prepared before joining the queue, you are aware of the conditions and make sure you have enough well-fitting lifejackets onboard for everyone.",4,2
Lake Benmore West Arm Sailors Cutting Boat Ramp,-44.545082,170.085635,"Boat Ramp available for public use. Before launching from this boat ramp, please ensure your boat is well prepared before joining the queue, you are aware of the conditions and make sure you have enough well-fitting lifejackets onboard for everyone.",4,2
Akaroa Wainui Boat Ramp,-43.818258,172.903795,"Boat Ramp available for public use. Before launching from this boat ramp, please ensure your boat is well prepared before joining the queue, you are aware of the conditions and make sure you have enough well-fitting lifejackets onboard for everyone.",4,2
Akaroa Duvauchelle Bay Ramp,-43.757878,172.942344,"Boat Ramp available for public use. Before launching from this boat ramp, please ensure your boat is well prepared before joining the queue, you are aware of the conditions and make sure you have enough well-fitting lifejackets onboard for everyone.",4,2
Akaroa  Takamatua Ramp,-43.785032,172.955424,"Rocky beach launching only, and tide limited ",4,2
Akaroa Main Ramp Recreation Ground Ramp,-43.801724,172.967088,Main ramp in Akaroa.  Tide limited except for very shallow draft craft.  ,4,2
Akaroa  Dalys Wharf Boat club ramp,-43.804722,172.965898,"Boat Ramp available for public use. Before launching from this boat ramp, please ensure your boat is well prepared before joining the queue, you are aware of the conditions and make sure you have enough well-fitting lifejackets onboard for everyone.",4,2
Little Akaloa Bay Boat Ramp,-43.672873,172.992168,"Boat Ramp available for public use. Before launching from this boat ramp, please ensure your boat is well prepared, you are aware of the conditions and make sure you have enough well-fitting lifejackets onboard for everyone.",4,2
Lyttelton  Sandy Bay Boat Ramp,-43.619727,172.656106,Beach launch on to mudflats suitable small craft only.  Tide limited.,4,2
Lyttelton Charteris Bay Boat Ramp,-43.645814,172.709112,"Boat Ramp available for public use. Tidal.  Before launching from this boat ramp, please ensure your boat is well prepared, you are aware of the conditions and make sure you have enough well-fitting lifejackets onboard for everyone.",4,2
Lyttelton Purau Bay Boat Ramp,-43.636396,172.747317,"Boat Ramp available for public use. Note no power craft area in the head of the Bay. Before launching from this boat ramp, please ensure your boat is well prepared, you are aware of the conditions and make sure you have enough well-fitting lifejackets onboard for everyone.",4,2
Lower Waimakariri River Kairaki Pines Beach  Boat Ramp,-43.389343,172.701644,Boat Ramp available for public use. Tidal.  Multiple use area. Note the whole Lower Waimakariri is a 5 knot area unless water skiing or towing in Brooklands Lagoon,4,2
Lower Waimakariri Kaiapoi River Ashkeaton Boat Ramp,-43.387406,172.672294,Boat Ramp available for public use. Tidal.   Multiple use area.  Note the whole Lower Waimakariri is a 5 knot area unless water skiing or towing in Brooklands Lagoon,4,2
