longitude,latitude
173.3640224956895,-43.925614079096
174.2640127471084,-42.09913966867487
174.0483391452549,-41.96745273285021
174.0445910456217,-41.92691519081637
173.7685329597058,-41.93161390992252
173.0794681,-42.4704661
172.71692,-42.1128839
169.6187748,-43.927958
169.5675336886444,-44.41987634012799
170.0364171423501,-44.92165050590641
170.8768786593113,-44.89449953433721
171.1432849530857,-44.93948519330989
171.4074055861437,-45.01509973291698
173.3640224956895,-43.925614079096