longitude,latitude
174.4225204683205,-37.36332919325663
174.344706450395,-38.70101947869188
174.6144710020256,-38.70466330040538
174.8614869815804,-38.78860414240131
175.5810914737679,-38.50974975575025
175.5536256534554,-39.10900897955685
176.0644899112679,-39.14736018765905
176.3885865909554,-38.88701557039423
176.5149293643929,-38.41942651601156
176.1304078800179,-38.19528248512904
175.8447633487679,-37.48384000655894
175.9554559659063,-37.35031626250462
176.382166342425,-36.8453112953441
176.2103305937354,-36.44036419936961
175.892045258756,-36.25966064116643
175.6380448074665,-36.39073787373795
175.2616513082161,-36.39550187695458
175.1658283191871,-36.53430542745562
175.2596334094532,-36.68618400776441
175.3140862680686,-36.83688543954351
175.4296895008996,-37.07102284176389
174.4225204683205,-37.36332919325663