<?xml version="1.0" encoding="UTF-8"?>
<kml xmlns="http://www.opengis.net/kml/2.2" xmlns:gx="http://www.google.com/kml/ext/2.2" xmlns:kml="http://www.opengis.net/kml/2.2" xmlns:atom="http://www.w3.org/2005/Atom">
<Document>
<name>R17C44.kml</name>

<Style id="style0">

					<LineStyle>

						<color>ff00ffff</color>

					</LineStyle>

					<PolyStyle>

						<color>ff00ffff</color>

						<width>0.9</width>

					</PolyStyle>

				</Style>
<Style id="style1">

					<LineStyle>

						<color>ff0000ff</color>

					</LineStyle>

					<PolyStyle>

						<color>ff0000ff</color>

						<width>0.9</width>

					</PolyStyle>

				</Style>
<Style id="style2">

					<LineStyle>

						<color>ffff0000</color>

					</LineStyle>

					<PolyStyle>

						<color>ffff0000</color>

						<width>0.9</width>

					</PolyStyle>

				</Style>

<Placemark>

				<name>5 Knot Zone</name>

				<description>Keep to 5 knots or less (9.25km / fast walking pace) in this area -  Whangapoua Harbour</description>

				<styleUrl>#style0</styleUrl>

				<Polygon>

					<tessellate>1</tessellate>

					<outerBoundaryIs>

						<LinearRing>

							<coordinates>

							175.668583878571,-36.74441505400681,0 175.6688977536503,-36.7443290854968,0 175.6702371001148,-36.74401847558667,0 175.6708761280032,-36.74386319562504,0 175.6725297733968,-36.74334458765053,0 175.673889821081,-36.7431036151675,0 175.6754196386501,-36.74076615934042,0 175.6748510033123,-36.74093347723806,0 175.6742467008374,-36.73999146516368,0 175.6741517548133,-36.73991471308807,0 175.673996362622,-36.73984642401813,0 175.6738117309807,-36.73984131411751,0 175.6736684523997,-36.73993354347388,0 175.6735709746269,-36.74007495061781,0 175.6734665527176,-36.74025743309193,0 175.6733293383733,-36.74034459097383,0 175.6730859813996,-36.74036696479967,0 175.6729212900162,-36.7403659397382,0 175.6728261126553,-36.74033021737881,0 175.6721624058621,-36.73993888536204,0 175.6718595420317,-36.73969620380407,0 175.6716719539773,-36.73940753705607,0 175.6716021285467,-36.73917328998866,0 175.6715010682467,-36.73859138349649,0 175.6713629445612,-36.73835759021758,0 175.6711854047235,-36.73823848209465,0 175.6709500414308,-36.73817519164849,0 175.6706894699805,-36.7381474334427,0 175.6703670301499,-36.73817002797193,0 175.6696541464221,-36.73818675355744,0 175.668583878571,-36.74441505400681,0 
						
</coordinates>

						</LinearRing>

					</outerBoundaryIs>

				</Polygon>

				<flyID>0</flyID>

				<flyDescription>Keep to 5 knots or less (9.25km / fast walking pace) in this area -  Whangapoua Harbour</flyDescription>

			</Placemark>
<Placemark>

				<name>5 Knot Zone</name>

				<description>Keep to 5 knots or less (9.25km / fast walking pace) in this area -  Whangapoua Harbour</description>

				<styleUrl>#style0</styleUrl>

				<Polygon>

					<tessellate>1</tessellate>

					<outerBoundaryIs>

						<LinearRing>

							<coordinates>

							175.6554002332397,-36.74422276066426,0 175.6554662158508,-36.74443034389293,0 175.6554132219846,-36.74489277311702,0 175.6556108393891,-36.74512171655152,0 175.6567020994021,-36.74571412609963,0 175.6588052170189,-36.74649150807988,0 175.6601199145289,-36.74683816546729,0 175.6623113882083,-36.7469451949784,0 175.664654480005,-36.74627780533595,0 175.6650166782783,-36.74626500212879,0 175.6655485408594,-36.7458711764963,0 175.6657961824857,-36.74580212029947,0 175.6685542152539,-36.74442305718989,0 175.6696167662964,-36.73820953866454,0 175.6693466959889,-36.73811665339197,0 175.6690819449831,-36.73795240334068,0 175.6687149100086,-36.73783456946428,0 175.6683495232571,-36.73778792431969,0 175.6678702643667,-36.7378015725026,0 175.6673260755363,-36.73780345154177,0 175.6669650059214,-36.73784061459582,0 175.6667645086103,-36.73786520314534,0 175.6665227519696,-36.73813816693347,0 175.6663734133282,-36.73838363649791,0 175.6660951426544,-36.73867268753759,0 175.6655399831249,-36.73898868378654,0 175.6649068262168,-36.73919461599669,0 175.6644692329959,-36.73930300910474,0 175.6639729131827,-36.73933789653191,0 175.6634951842305,-36.73935279929619,0 175.6630683210184,-36.73928133021445,0 175.6626595964282,-36.73915529735305,0 175.662374278147,-36.73905448327868,0 175.661976109171,-36.73900111654471,0 175.6614524095406,-36.73889940232515,0 175.6610184879853,-36.73869746654403,0 175.66059960857,-36.73832294597506,0 175.6601569775476,-36.73820578854798,0 175.6597677303405,-36.73802636822783,0 175.6591364117018,-36.73759351668677,0 175.6586810970801,-36.73738651924619,0 175.6582104946039,-36.73709215702495,0 175.6578097309154,-36.73662443555086,0 175.6554002332397,-36.74422276066426,0 
						
</coordinates>

						</LinearRing>

					</outerBoundaryIs>

				</Polygon>

				<flyID>1</flyID>

				<flyDescription>Keep to 5 knots or less (9.25km / fast walking pace) in this area -  Whangapoua Harbour</flyDescription>

			</Placemark>
<Placemark>

				<name>5 Knot Zone</name>

				<description>Keep to 5 knots or less (9.25km / fast walking pace) in this area -  Whangapoua Harbour</description>

				<styleUrl>#style0</styleUrl>

				<Polygon>

					<tessellate>1</tessellate>

					<outerBoundaryIs>

						<LinearRing>

							<coordinates>

							175.6454571057687,-36.74280887851221,0 175.6456658569059,-36.7428297708487,0 175.6467115777866,-36.74298544641851,0 175.6479638300913,-36.74300861994917,0 175.6498753737008,-36.74334043380259,0 175.6511122968716,-36.74343289470441,0 175.6522032549047,-36.7370106385434,0 175.6519986894578,-36.73711048355257,0 175.6515243327924,-36.73729796740308,0 175.6511542490168,-36.737412103348,0 175.6508195512178,-36.7375159786988,0 175.6503950367448,-36.73762718966512,0 175.6497701726542,-36.73766287503194,0 175.6493262940234,-36.73761427661085,0 175.6490405191549,-36.73753937316313,0 175.6488618606529,-36.73748042703358,0 175.6487154429052,-36.73745527134685,0 175.6483179748074,-36.73740507147834,0 175.6478860238275,-36.73724962456667,0 175.647569855714,-36.73708150555862,0 175.6472376289473,-36.73686353018849,0 175.6469946801537,-36.73677125109553,0 175.646609577972,-36.73661173586086,0 175.6464019167589,-36.73634029656562,0 175.6460777431427,-36.73611088603204,0 175.6459636749558,-36.7359158733925,0 175.6451460331731,-36.73526022878374,0 175.6454571057687,-36.74280887851221,0 
						
</coordinates>

						</LinearRing>

					</outerBoundaryIs>

				</Polygon>

				<flyID>2</flyID>

				<flyDescription>Keep to 5 knots or less (9.25km / fast walking pace) in this area -  Whangapoua Harbour</flyDescription>

			</Placemark>
<Placemark>

				<name>5 Knot Zone</name>

				<description>Keep to 5 knots or less (9.25km / fast walking pace) in this area -  Whangapoua Harbour</description>

				<styleUrl>#style0</styleUrl>

				<Polygon>

					<tessellate>1</tessellate>

					<outerBoundaryIs>

						<LinearRing>

							<coordinates>

							175.6454571057687,-36.74280887851221,0 175.6456658569059,-36.7428297708487,0 175.6467115777866,-36.74298544641851,0 175.6479638300913,-36.74300861994917,0 175.6498753737008,-36.74334043380259,0 175.6511122968716,-36.74343289470441,0 175.6522032549047,-36.7370106385434,0 175.6519986894578,-36.73711048355257,0 175.6515243327924,-36.73729796740308,0 175.6511542490168,-36.737412103348,0 175.6508195512178,-36.7375159786988,0 175.6503950367448,-36.73762718966512,0 175.6497701726542,-36.73766287503194,0 175.6493262940234,-36.73761427661085,0 175.6490405191549,-36.73753937316313,0 175.6488618606529,-36.73748042703358,0 175.6487154429052,-36.73745527134685,0 175.6483179748074,-36.73740507147834,0 175.6478860238275,-36.73724962456667,0 175.647569855714,-36.73708150555862,0 175.6472376289473,-36.73686353018849,0 175.6469946801537,-36.73677125109553,0 175.646609577972,-36.73661173586086,0 175.6464019167589,-36.73634029656562,0 175.6460777431427,-36.73611088603204,0 175.6459636749558,-36.7359158733925,0 175.6451460331731,-36.73526022878374,0 175.6454571057687,-36.74280887851221,0 
						
</coordinates>

						</LinearRing>

					</outerBoundaryIs>

				</Polygon>

				<flyID>3</flyID>

				<flyDescription>Keep to 5 knots or less (9.25km / fast walking pace) in this area -  Whangapoua Harbour</flyDescription>

			</Placemark>
<Placemark>

				<name>Prohibited Towing Zone</name>

				<description>Towing is prohibited in this area.</description>

				<styleUrl>#style1</styleUrl>

				<Polygon>

					<tessellate>1</tessellate>

					<outerBoundaryIs>

						<LinearRing>

							<coordinates>

							175.6252753864812,-36.72507981380726,0 175.6257236369823,-36.72447481080569,0 175.626140300943,-36.72371304457397,0 175.6264841576142,-36.72269857626228,0 175.6261622299823,-36.72329974327181,0 175.6254267483657,-36.72446687754184,0 175.6250471574958,-36.72506569369917,0 175.6252753864812,-36.72507981380726,0 
						
</coordinates>

						</LinearRing>

					</outerBoundaryIs>

				</Polygon>

				<flyID>4</flyID>

				<flyDescription>Towing is prohibited in this area.</flyDescription>

			</Placemark>
<Placemark>

				<name>Prohibited Towing Zone</name>

				<description>Towing is prohibited in this area.</description>

				<styleUrl>#style1</styleUrl>

				<Polygon>

					<tessellate>1</tessellate>

					<outerBoundaryIs>

						<LinearRing>

							<coordinates>

							175.6178156296235,-36.72568935827757,0 175.6185536774046,-36.72570792460893,0 175.6194204771762,-36.72554882773031,0 175.6198588345996,-36.72537606714207,0 175.6198845193686,-36.72518872599761,0 175.6192319975984,-36.72511835226745,0 175.6188642461535,-36.72496510638656,0 175.6187087197516,-36.72473403943242,0 175.6187014739874,-36.72457201469125,0 175.6183509132521,-36.72356574430436,0 175.6185866251644,-36.72293554157428,0 175.6187821338454,-36.72265175594036,0 175.6188546151546,-36.72238950534383,0 175.6201719834286,-36.72201257898045,0 175.620660743222,-36.72175005887674,0 175.6215579794909,-36.72150313550313,0 175.622300356618,-36.72163995030667,0 175.6226642079387,-36.72194191911663,0 175.6226526176342,-36.72250003352242,0 175.6230081957006,-36.72337436031685,0 175.6229163648861,-36.72377696189088,0 175.6228343702342,-36.72388501832,0 175.6230417539828,-36.7242801312915,0 175.6234613823608,-36.72445226560426,0 175.6240609582178,-36.72498189649419,0 175.6246173414653,-36.72512404208217,0 175.6247514465264,-36.72509537030206,0 175.6250231724553,-36.72506595845714,0 175.6257907356418,-36.72386416444526,0 175.6263562044067,-36.72296050735852,0 175.6264827909725,-36.72271803601528,0 175.6264407853526,-36.72267251517413,0 175.6263910954646,-36.72264683394394,0 175.6262659523856,-36.72266836629165,0 175.6260286850277,-36.72280271149992,0 175.6258757491203,-36.72282440890558,0 175.6256453705082,-36.72297489244144,0 175.6252207209984,-36.72317905996022,0 175.6248582542279,-36.723212540001,0 175.6247089099958,-36.72313420121087,0 175.6247031967536,-36.72295187677609,0 175.6246308361055,-36.72268863640504,0 175.6247025570444,-36.72245940105571,0 175.6246827740823,-36.72224013528093,0 175.6246483927585,-36.72187696171403,0 175.6247072071008,-36.72171958802996,0 175.6246418754953,-36.72161110623604,0 175.6244287489877,-36.72144744844758,0 175.6242324787419,-36.72130780242532,0 175.6240402399316,-36.72109462092696,0 175.6238440762894,-36.7209593308658,0 175.6235144431856,-36.72085779419808,0 175.623420465113,-36.72078681659455,0 175.623256972225,-36.72073490574603,0 175.6229770023719,-36.72070356753421,0 175.6227654117008,-36.72072883107975,0 175.6226284377491,-36.72072509428665,0 175.6225608085409,-36.72062095777385,0 175.6225876207146,-36.72045481255222,0 175.6226597760911,-36.72037468204821,0 175.6226748006995,-36.72026822216181,0 175.6225960997868,-36.72020706203992,0 175.6224640102346,-36.72022504210175,0 175.6222243717885,-36.72018150437038,0 175.6219643654634,-36.72001516659697,0 175.6216364372303,-36.71980910145956,0 175.6212799228122,-36.71962829388936,0 175.6209436912149,-36.71962945084604,0 175.6205267322129,-36.71972293624553,0 175.620146797564,-36.71989319404481,0 175.6199665305016,-36.7200673645462,0 175.6198692384498,-36.72028576215269,0 175.6197258316129,-36.72036386426901,0 175.619586696123,-36.72046334842552,0 175.619458898958,-36.72064234166545,0 175.6194084513985,-36.72076499360573,0 175.6192233951887,-36.72082284375873,0 175.6190419267449,-36.72079090142457,0 175.618874996656,-36.72081972122791,0 175.6187201570847,-36.72099014410027,0 175.6185098196039,-36.72112121132613,0 175.6182688783967,-36.72118142151848,0 175.6178919344669,-36.72124830513256,0 175.6176427350555,-36.72135570317666,0 175.6174594535354,-36.72155837868298,0 175.6171742467995,-36.72191611878163,0 175.6171763563325,-36.72219341419599,0 175.6172508426701,-36.72248497669794,0 175.6174730536506,-36.72273552982863,0 175.6174799018895,-36.72283644106574,0 175.617251254985,-36.72305908066239,0 175.6169172355804,-36.72314561636944,0 175.6164797042159,-36.72327284276026,0 175.6161425033828,-36.72347915691677,0 175.6158385652493,-36.72359827468815,0 175.6157266409859,-36.72372787485228,0 175.6156050276578,-36.72394003427839,0 175.6154524715846,-36.7240063454019,0 175.6159792175727,-36.72475961609101,0 175.616774470097,-36.72538301882921,0 175.6178156296235,-36.72568935827757,0 
						
</coordinates>

						</LinearRing>

					</outerBoundaryIs>

				</Polygon>

				<flyID>5</flyID>

				<flyDescription>Towing is prohibited in this area.</flyDescription>

			</Placemark>
<Placemark>

				<name>3 Knot Zone</name>

				<description>Keep to 3 knots or less in this area.</description>

				<styleUrl>#style0</styleUrl>

				<Polygon>

					<tessellate>1</tessellate>

					<outerBoundaryIs>

						<LinearRing>

							<coordinates>

							175.6871559588901,-36.841872404474,0 175.6871453662469,-36.84143369235598,0 175.6871727677547,-36.84097152087598,0 175.6871868956992,-36.84048149143179,0 175.6871441560917,-36.83991207868504,0 175.6870323988213,-36.8390481841112,0 175.6870871297263,-36.8386219652059,0 175.6871344139444,-36.8385276569023,0 175.6872899392953,-36.83831139220833,0 175.6874189449194,-36.83820397184289,0 175.6876986796121,-36.83806285489683,0 175.6879159821357,-36.83799902141713,0 175.6885017604476,-36.83790194967315,0 175.6887914101669,-36.8380150481708,0 175.6890130239943,-36.83815732014984,0 175.6894273557942,-36.8385130123492,0 175.6896088604907,-36.83909049146141,0 175.6899271758509,-36.83911024703118,0 175.6901885524553,-36.83884056682523,0 175.6902347107967,-36.8386363253715,0 175.6900620173143,-36.8384317267049,0 175.6897299693914,-36.83810239476019,0 175.6894831517926,-36.83795067982611,0 175.6894579259953,-36.83772857484714,0 175.6896290819922,-36.8374452777437,0 175.690132662875,-36.83717475767481,0 175.6904110584381,-36.83700875284549,0 175.6901605931124,-36.83640229426378,0 175.6900289041847,-36.83654144551071,0 175.6893192617263,-36.83709703646254,0 175.6886083653991,-36.837355052373,0 175.688031271519,-36.8375078047125,0 175.6876634578192,-36.83755522003113,0 175.6871667374098,-36.83750784434621,0 175.68676876597,-36.83733877144909,0 175.6863125303187,-36.83761790014757,0 175.6864140022759,-36.83777914692869,0 175.6865226925455,-36.83812421615181,0 175.6865278976569,-36.8384489973333,0 175.6864380460727,-36.83894849830971,0 175.6864419516584,-36.83914759188557,0 175.6865399273911,-36.8398671964292,0 175.6865143436043,-36.8404540280877,0 175.6863687799235,-36.84054004450096,0 175.6848750000139,-36.8405995050947,0 175.6844227211117,-36.84048853175786,0 175.6838810241945,-36.84021548326538,0 175.6836801483477,-36.84020646137809,0 175.6834087124555,-36.84038423116624,0 175.6834858776313,-36.84046259156069,0 175.6837814329363,-36.84066674136415,0 175.6841544853702,-36.84079908600195,0 175.6846988579697,-36.84099220517643,0 175.6848665450752,-36.84096841886032,0 175.6864838609885,-36.84099224118,0 175.6865386303721,-36.84132290690601,0 175.6866511137863,-36.84164942602546,0 175.6866775549782,-36.8419108314183,0 175.6871559588901,-36.841872404474,0 
						
</coordinates>

						</LinearRing>

					</outerBoundaryIs>

				</Polygon>

				<flyID>6</flyID>

				<flyDescription>Keep to 3 knots or less in this area.</flyDescription>

			</Placemark>
<Placemark>

				<name>3 Knot Zone</name>

				<description>Keep to 3 knots or less in this area.</description>

				<styleUrl>#style0</styleUrl>

				<Polygon>

					<tessellate>1</tessellate>

					<outerBoundaryIs>

						<LinearRing>

							<coordinates>

							175.6904110584381,-36.83700875284549,0 175.6908715292946,-36.83632472161926,0 175.6913411911246,-36.83629159999591,0 175.6915638230092,-36.83640658359398,0 175.691742058564,-36.83647933646465,0 175.6919550055273,-36.83685270378226,0 175.6922185698265,-36.83726634276313,0 175.6923493992163,-36.83737709168238,0 175.6925052839298,-36.83757882158009,0 175.6925644330963,-36.83768983769988,0 175.6925899642249,-36.83788567106699,0 175.6925462806383,-36.83807626715829,0 175.6924035049779,-36.83833773287211,0 175.6921135719071,-36.83847800446509,0 175.6918856638996,-36.83854668856576,0 175.6915214470258,-36.83859405294875,0 175.69137449,-36.83882927294607,0 175.6915543925426,-36.83897341566858,0 175.6916389293274,-36.83900330063101,0 175.6918623603271,-36.83911397983164,0 175.6920472432257,-36.83915038967817,0 175.6923093170246,-36.83919376753156,0 175.6925624067072,-36.83902558705021,0 175.6928227135753,-36.83843999325936,0 175.6932192554726,-36.83792522673965,0 175.6932155053267,-36.83753277231767,0 175.692983234215,-36.8373448655491,0 175.6926767885198,-36.83704691952031,0 175.6925180631883,-36.83671924584929,0 175.6924960096042,-36.83653444403984,0 175.6925281364277,-36.83627526441685,0 175.6926450805562,-36.836192929405,0 175.6930259562994,-36.83598866967726,0 175.6930424243271,-36.83569404859259,0 175.6928556034201,-36.83551745426833,0 175.692428583289,-36.83552526700345,0 175.6921379858846,-36.83585069190427,0 175.6918575799027,-36.83590194919798,0 175.6915776590502,-36.83590924130158,0 175.6913646942978,-36.83586540818982,0 175.6910689104223,-36.83579157930565,0 175.6909164183301,-36.83568656255054,0 175.6906826535375,-36.835462687274,0 175.6905525736312,-36.8351473613601,0 175.6905024493574,-36.83489290310029,0 175.6904930378315,-36.83469034648184,0 175.6906890659763,-36.83430245667633,0 175.6909045164074,-36.83410133167513,0 175.6912085229658,-36.83396594881612,0 175.6915904541646,-36.83394980818007,0 175.6922297785853,-36.83394979298385,0 175.6924339633997,-36.8338602477554,0 175.6927278712837,-36.83370232828442,0 175.6928685592747,-36.83354015224471,0 175.6927687019668,-36.83331998364698,0 175.6925277094839,-36.83332895201408,0 175.6923185519262,-36.83339131605614,0 175.6921414398781,-36.8334178543992,0 175.6918129907988,-36.83351417904017,0 175.6914764543015,-36.83354030471669,0 175.6912475177927,-36.83351921308405,0 175.6908973522832,-36.83362391750653,0 175.6906545320057,-36.83380074546627,0 175.690467338606,-36.83391329186925,0 175.6902191217666,-36.83394594780452,0 175.6899760303557,-36.83387385164971,0 175.6898233719285,-36.83377393373507,0 175.6897294196623,-36.83356136695712,0 175.6893783881596,-36.8334125231935,0 175.6892111022529,-36.83324479106273,0 175.6892458173533,-36.8330719104195,0 175.6891358812193,-36.83294067813214,0 175.689005103051,-36.83288576089922,0 175.6886909798453,-36.83289363586686,0 175.6886194427577,-36.83304896528725,0 175.6886032854342,-36.83319272748192,0 175.6891218034531,-36.83365839953442,0 175.6891780778784,-36.83392639055971,0 175.6895798198964,-36.83414856301037,0 175.6896567707005,-36.83424340998725,0 175.6899063253711,-36.83454130222514,0 175.6898925978196,-36.83484545128805,0 175.6899469228061,-36.83506641079978,0 175.6899811889926,-36.83531753203711,0 175.6902208567279,-36.83578455046543,0 175.6902519785506,-36.8360906966212,0 175.6901605931124,-36.83640229426378,0 175.6904110584381,-36.83700875284549,0 
						
</coordinates>

						</LinearRing>

					</outerBoundaryIs>

				</Polygon>

				<flyID>7</flyID>

				<flyDescription>Keep to 3 knots or less in this area.</flyDescription>

			</Placemark>
<Placemark>

				<name>5 Knot Zone</name>

				<description>Keep to 5 knots or less (9.25km / fast walking pace) in this area -  Whangapoua Harbour</description>

				<styleUrl>#style0</styleUrl>

				<Polygon>

					<tessellate>1</tessellate>

					<outerBoundaryIs>

						<LinearRing>

							<coordinates>

							175.6170981655833,-36.72571538597688,0 175.6178083363352,-36.72570387472259,0 175.6167840164694,-36.72538991880829,0 175.6159833002706,-36.72475707511884,0 175.615454304131,-36.72401226048587,0 175.6153649609469,-36.72412847334265,0 175.6153401042654,-36.72418008568309,0 175.6153393357513,-36.72418242896983,0 175.6152685956434,-36.72434779223639,0 175.615048257585,-36.72577446845038,0 175.6170981655833,-36.72571538597688,0 
						
</coordinates>

						</LinearRing>

					</outerBoundaryIs>

				</Polygon>

				<flyID>8</flyID>

				<flyDescription>Keep to 5 knots or less (9.25km / fast walking pace) in this area -  Whangapoua Harbour</flyDescription>

			</Placemark>
<Placemark>

				<name>Towing Access Lanes</name>

				<description>In this area you may tow at speed from the shore.  The lane is marked by orange posts with horizontal black bands.  Proceed in an anti-clockwise direction.</description>

				<styleUrl>#style2</styleUrl>

				<Polygon>

					<tessellate>1</tessellate>

					<outerBoundaryIs>

						<LinearRing>

							<coordinates>

							175.6355005653632,-36.73078405632762,0 175.6361673918383,-36.73078405478797,0 175.6360508281815,-36.72896253824576,0 175.6354515506076,-36.72900430367568,0 175.6355005653632,-36.73078405632762,0 
						
</coordinates>

						</LinearRing>

					</outerBoundaryIs>

				</Polygon>

				<flyID>9</flyID>

				<flyDescription>In this area you may tow at speed from the shore.  The lane is marked by orange posts with horizontal black bands.  Proceed in an anti-clockwise direction.</flyDescription>

			</Placemark>
<Placemark>

				<name>Mooring Zone</name>

				<description>These zones are designated for moored vessels.  Keep to 5 knots or less within 50 meters of the mooring zone.  Avoid transiting through this area.</description>

				<styleUrl>#style2</styleUrl>

				<Polygon>

					<tessellate>1</tessellate>

					<outerBoundaryIs>

						<LinearRing>

							<coordinates>

							175.4674047807088,-36.73571246258898,0 175.46571163667,-36.7340503459104,0 175.4638564859458,-36.7352828736493,0 175.4656355641301,-36.73714898709084,0 175.4674047807088,-36.73571246258898,0 
						
</coordinates>

						</LinearRing>

					</outerBoundaryIs>

				</Polygon>

				<flyID>10</flyID>

				<flyDescription>These zones are designated for moored vessels.  Keep to 5 knots or less within 50 meters of the mooring zone.  Avoid transiting through this area.</flyDescription>

			</Placemark>
<Placemark>

				<name>Towing Access Lanes</name>

				<description>In this area you may tow at speed from the shore.  The lane is marked by orange posts with horizontal black bands.  Proceed in an anti-clockwise direction.</description>

				<styleUrl>#style2</styleUrl>

				<Polygon>

					<tessellate>1</tessellate>

					<outerBoundaryIs>

						<LinearRing>

							<coordinates>

							175.4714074121583,-36.73414666129578,0 175.4708343577224,-36.73353360329401,0 175.4690737804373,-36.73463821014467,0 175.4696355302434,-36.73523987803804,0 175.4714074121583,-36.73414666129578,0 
						
</coordinates>

						</LinearRing>

					</outerBoundaryIs>

				</Polygon>

				<flyID>11</flyID>

				<flyDescription>In this area you may tow at speed from the shore.  The lane is marked by orange posts with horizontal black bands.  Proceed in an anti-clockwise direction.</flyDescription>

			</Placemark>
<Placemark>

				<name>Mooring Zone</name>

				<description>These zones are designated for moored vessels.  Keep to 5 knots or less within 50 meters of the mooring zone.  Avoid transiting through this area.</description>

				<styleUrl>#style2</styleUrl>

				<Polygon>

					<tessellate>1</tessellate>

					<outerBoundaryIs>

						<LinearRing>

							<coordinates>

							175.6998518779289,-36.8504778724003,0 175.7027946019244,-36.84743262173378,0 175.7047653353228,-36.8457350412962,0 175.7079252782293,-36.84366950310643,0 175.7078814289876,-36.8418687701536,0 175.7107992698079,-36.8392003754768,0 175.712522217161,-36.83612228732623,0 175.7124353048858,-36.83505363546077,0 175.7104659314981,-36.83490935560526,0 175.7103470313143,-36.83430156582138,0 175.7108641229793,-36.83328520780092,0 175.7108902901014,-36.83236434129165,0 175.7089449132203,-36.83334886084535,0 175.7091929158459,-36.83712018584571,0 175.702499095407,-36.8449976684836,0 175.7013623239306,-36.84595918023505,0 175.6983850455444,-36.84810094955962,0 175.6998518779289,-36.8504778724003,0 
						
</coordinates>

						</LinearRing>

					</outerBoundaryIs>

				</Polygon>

				<flyID>12</flyID>

				<flyDescription>These zones are designated for moored vessels.  Keep to 5 knots or less within 50 meters of the mooring zone.  Avoid transiting through this area.</flyDescription>

			</Placemark>
<Placemark>

				<name>Mooring Zone</name>

				<description>These zones are designated for moored vessels.  Keep to 5 knots or less within 50 meters of the mooring zone.  Avoid transiting through this area.</description>

				<styleUrl>#style2</styleUrl>

				<Polygon>

					<tessellate>1</tessellate>

					<outerBoundaryIs>

						<LinearRing>

							<coordinates>

							175.7223081631405,-36.83122954828641,0 175.7237130757058,-36.83034562091635,0 175.7238983656889,-36.82852093484859,0 175.7205551205118,-36.83042291235552,0 175.7223081631405,-36.83122954828641,0 
						
</coordinates>

						</LinearRing>

					</outerBoundaryIs>

				</Polygon>

				<flyID>13</flyID>

				<flyDescription>These zones are designated for moored vessels.  Keep to 5 knots or less within 50 meters of the mooring zone.  Avoid transiting through this area.</flyDescription>

			</Placemark>
<Placemark>

				<name>Towing Access Lanes</name>

				<description>In this area you may tow at speed from the shore.  The lane is marked by orange posts with horizontal black bands.  Proceed in an anti-clockwise direction.</description>

				<styleUrl>#style2</styleUrl>

				<Polygon>

					<tessellate>1</tessellate>

					<outerBoundaryIs>

						<LinearRing>

							<coordinates>

							175.7274019004838,-36.79465176536174,0 175.7276354293532,-36.79435941677105,0 175.7258913044115,-36.79355904521138,0 175.7257416561023,-36.79382059684706,0 175.7274019004838,-36.79465176536174,0 
						
</coordinates>

						</LinearRing>

					</outerBoundaryIs>

				</Polygon>

				<flyID>14</flyID>

				<flyDescription>In this area you may tow at speed from the shore.  The lane is marked by orange posts with horizontal black bands.  Proceed in an anti-clockwise direction.</flyDescription>

			</Placemark>
<Placemark>

				<name>3 Knot Zone</name>

				<description>Keep to 3 knots or less (5.5km / normal walking pace) in this area</description>

				<styleUrl>#style0</styleUrl>

				<Polygon>

					<tessellate>1</tessellate>

					<outerBoundaryIs>

						<LinearRing>

							<coordinates>

							175.6885826928029,-36.83096650027043,0 175.6887722984957,-36.83078810460177,0 175.6889789542929,-36.83046835775568,0 175.6893566591708,-36.82992269221909,0 175.689520386736,-36.82984191650056,0 175.689797931262,-36.8296979066055,0 175.6902661527234,-36.82955041754297,0 175.6907987080007,-36.82955042043029,0 175.6911911660924,-36.82961406569459,0 175.6914853538804,-36.82976005099055,0 175.6917350111803,-36.82990260989524,0 175.6920318210564,-36.83006149086487,0 175.6923474995814,-36.83016829968918,0 175.69277916779,-36.83030148172074,0 175.693174697126,-36.83032024817013,0 175.6936072870226,-36.83056800408507,0 175.6937202842984,-36.83076215670899,0 175.6939246321871,-36.831049471081,0 175.6941174136775,-36.83125145539475,0 175.6941258436452,-36.83149574632751,0 175.6940044646806,-36.83169337892339,0 175.6936752197705,-36.83182498846817,0 175.6931658242075,-36.83213706899542,0 175.69317210072,-36.83244230311927,0 175.6933388176455,-36.83254052567492,0 175.6935536399959,-36.83246925439214,0 175.6937701144873,-36.83226853097743,0 175.6940104695727,-36.83208936530235,0 175.6944505852129,-36.83185492752842,0 175.694708099474,-36.83161091931999,0 175.6947159440869,-36.83139456212876,0 175.6943112542404,-36.8309756088151,0 175.6941094382191,-36.83066538103397,0 175.6939604156492,-36.83022754688213,0 175.693708451095,-36.83000122985885,0 175.6932301375304,-36.82987416391639,0 175.6925756075069,-36.82975534662739,0 175.6921666479594,-36.82951071934067,0 175.6919064037582,-36.82927986798448,0 175.6906264955656,-36.82905267254783,0 175.6897153288169,-36.82907696231026,0 175.6890779782314,-36.82939631526384,0 175.6884035823773,-36.83003257703086,0 175.6880547865526,-36.83076758579037,0 175.6882735166217,-36.83091310062811,0 175.6885826928029,-36.83096650027043,0 
						
</coordinates>

						</LinearRing>

					</outerBoundaryIs>

				</Polygon>

				<flyID>15</flyID>

				<flyDescription>Keep to 3 knots or less (5.5km / normal walking pace) in this area</flyDescription>

			</Placemark>
<Placemark>

				<name>3 Knot Zone</name>

				<description>Keep to 3 knots or less (5.5km / normal walking pace) in this area</description>

				<styleUrl>#style0</styleUrl>

				<Polygon>

					<tessellate>1</tessellate>

					<outerBoundaryIs>

						<LinearRing>

							<coordinates>

							175.6864798149553,-36.83584528585066,0 175.6865418185854,-36.83551430465232,0 175.6866124586701,-36.83505789902517,0 175.6866270981321,-36.83455585882671,0 175.6866062288943,-36.83387509129788,0 175.6866414490505,-36.8336247929025,0 175.6868270938103,-36.83323286815183,0 175.6873429183407,-36.83288413325644,0 175.687761928919,-36.83281952198447,0 175.6881283725012,-36.83293205015762,0 175.6883148440343,-36.83304213031067,0 175.6885420297937,-36.83283573879724,0 175.6888402928705,-36.8327458267444,0 175.6886234030364,-36.83233109651678,0 175.6886372166565,-36.8316005762436,0 175.6881765150604,-36.83151800833734,0 175.6878699392004,-36.83218762976703,0 175.6874558612564,-36.83225991866797,0 175.6868256704609,-36.83228979815482,0 175.6863163758086,-36.83218045966117,0 175.6859258910328,-36.8319864996158,0 175.6858640093712,-36.83161130349922,0 175.6855551403123,-36.83142013256757,0 175.6851065053212,-36.83148829761655,0 175.6849080177182,-36.8316991887471,0 175.685061344133,-36.83221049252118,0 175.6854692331322,-36.83245472361997,0 175.6860143753543,-36.83266109812989,0 175.6862123768497,-36.83285105090243,0 175.6862193776827,-36.83392534101952,0 175.6862098401498,-36.83533273015213,0 175.6860515156522,-36.83560284177458,0 175.6862048505172,-36.8359451110815,0 175.6864798149553,-36.83584528585066,0 
						
</coordinates>

						</LinearRing>

					</outerBoundaryIs>

				</Polygon>

				<flyID>16</flyID>

				<flyDescription>Keep to 3 knots or less (5.5km / normal walking pace) in this area</flyDescription>

			</Placemark>
<Placemark>

				<name>Towing Access Lanes</name>

				<description>In this area you may tow at speed from the shore.  The lane is marked by orange posts with horizontal black bands.  Proceed in an anti-clockwise direction.</description>

				<styleUrl>#style2</styleUrl>

				<Polygon>

					<tessellate></tessellate>

					<outerBoundaryIs>

						<LinearRing>

							<coordinates>

							175.737366662564,-36.8345500012096,0 175.738299995234,-36.8349833344133,0 175.739133334437,-36.8336333301212,0 175.738116661563,-36.8332166671998,0 175.737366662564,-36.8345500012096,0 
						
</coordinates>

						</LinearRing>

					</outerBoundaryIs>

				</Polygon>

				<flyID>17</flyID>

				<flyDescription>In this area you may tow at speed from the shore.  The lane is marked by orange posts with horizontal black bands.  Proceed in an anti-clockwise direction.</flyDescription>

			</Placemark>
<Placemark>

				<name>Towing Access Lanes</name>

				<description>In this area you may tow at speed from the shore.  The lane is marked by orange posts with horizontal black bands.  Proceed in an anti-clockwise direction.</description>

				<styleUrl>#style2</styleUrl>

				<Polygon>

					<tessellate></tessellate>

					<outerBoundaryIs>

						<LinearRing>

							<coordinates>

							175.706566667034,-36.8303999992262,0 175.70703333846,-36.8307500029628,0 175.708340855336,-36.8290436446154,0 175.707761488362,-36.8287631112693,0 175.706566667034,-36.8303999992262,0 
						
</coordinates>

						</LinearRing>

					</outerBoundaryIs>

				</Polygon>

				<flyID>18</flyID>

				<flyDescription>In this area you may tow at speed from the shore.  The lane is marked by orange posts with horizontal black bands.  Proceed in an anti-clockwise direction.</flyDescription>

			</Placemark>
<Placemark>

				<name>Towing Access Lanes</name>

				<description>In this area you may tow at speed from the shore.  The lane is marked by orange posts with horizontal black bands.  Proceed in an anti-clockwise direction.</description>

				<styleUrl>#style2</styleUrl>

				<Polygon>

					<tessellate></tessellate>

					<outerBoundaryIs>

						<LinearRing>

							<coordinates>

							175.700750002257,-36.8097333331129,0 175.700833541396,-36.8092038024666,0 175.703883333026,-36.810083332737,0 175.703733332846,-36.810700002979,0 175.700750002257,-36.8097333331129,0 
						
</coordinates>

						</LinearRing>

					</outerBoundaryIs>

				</Polygon>

				<flyID>19</flyID>

				<flyDescription>In this area you may tow at speed from the shore.  The lane is marked by orange posts with horizontal black bands.  Proceed in an anti-clockwise direction.</flyDescription>

			</Placemark>
<Placemark>

				<name>Towing Zone</name>

				<description>This area is reserved for vessels towing. Within this zone proceed in an anticlockwise direction. Speed within proximity to shore, structures, people in the water and other vessels apply.</description>

				<styleUrl>#style2</styleUrl>

				<Polygon>

					<tessellate></tessellate>

					<outerBoundaryIs>

						<LinearRing>

							<coordinates>

							175.687607416507,-36.8617186632734,0 175.688785778733,-36.8580532405906,0 175.689618718195,-36.8564078010871,0 175.690488653114,-36.8546639231495,0 175.692050567882,-36.8526980351881,0 175.692321923664,-36.8525330928776,0 175.694079555989,-36.8531456667669,0 175.696367305466,-36.8539602403504,0 175.69408478336,-36.8571565100127,0 175.693955061439,-36.8575012627741,0 175.692738535369,-36.8607341929691,0 175.692475160698,-36.862262611141,0 175.690041281496,-36.8619906625154,0 175.687607416507,-36.8617186632734,0 
						
</coordinates>

						</LinearRing>

					</outerBoundaryIs>

				</Polygon>

				<flyID>20</flyID>

				<flyDescription>This area is reserved for vessels towing. Within this zone proceed in an anticlockwise direction. Speed within proximity to shore, structures, people in the water and other vessels apply.</flyDescription>

			</Placemark>

</Document>
</kml>
