<?xml version="1.0" encoding="UTF-8"?>
<kml xmlns="http://www.opengis.net/kml/2.2" xmlns:gx="http://www.google.com/kml/ext/2.2" xmlns:kml="http://www.opengis.net/kml/2.2" xmlns:atom="http://www.w3.org/2005/Atom">
<Document>
<name>R17C45.kml</name>

<Style id="style0">

					<LineStyle>

						<color>ff0000ff</color>

					</LineStyle>

					<PolyStyle>

						<color>ff0000ff</color>

						<width>0.9</width>

					</PolyStyle>

				</Style>
<Style id="style1">

					<LineStyle>

						<color>ffff0000</color>

					</LineStyle>

					<PolyStyle>

						<color>ffff0000</color>

						<width>0.9</width>

					</PolyStyle>

				</Style>
<Style id="style2">

					<LineStyle>

						<color>ff00ffff</color>

					</LineStyle>

					<PolyStyle>

						<color>ff00ffff</color>

						<width>0.9</width>

					</PolyStyle>

				</Style>

<Placemark>

				<name>Prohibited Power Driven Vessel</name>

				<description>The use of power driven vessels are prohibited in this area, as the area has been set aside for passive activities.  This area could also contain hazards or extreme shallowing</description>

				<styleUrl>#style0</styleUrl>

				<Polygon>

					<tessellate>1</tessellate>

					<outerBoundaryIs>

						<LinearRing>

							<coordinates>

							175.8412885420967,-37.00395063413225,0 175.8412883969579,-37.00408501010901,0 175.8412995823994,-37.00416566291759,0 175.8413312792968,-37.00423838064842,0 175.8413932829636,-37.00430972697699,0 175.8414879562664,-37.00437889587821,0 175.8415506698602,-37.00443319269616,0 175.8415835217211,-37.00448050879686,0 175.8416037093707,-37.00455158574001,0 175.8416344598423,-37.00469854781652,0 175.8416396019795,-37.00474187674391,0 175.8416668483127,-37.00478959936115,0 175.8418736665298,-37.00479240341742,0 175.8421606219292,-37.0047699551175,0 175.8425892222896,-37.0047201588109,0 175.8429649032714,-37.0046719973128,0 175.8433527116993,-37.00464286208786,0 175.8436788331738,-37.00464766217664,0 175.843957868405,-37.004697137526,0 175.8441660525501,-37.0047767651185,0 175.8443012556635,-37.00482328075356,0 175.8444014457187,-37.00484946592333,0 175.8444858245924,-37.00484621300234,0 175.8449746390937,-37.00429835066709,0 175.845211152481,-37.00400474874835,0 175.8453685898465,-37.00387431164401,0 175.8455979291971,-37.00380039688347,0 175.8458902423552,-37.00378184706069,0 175.8463979396702,-37.00380404379172,0 175.8468936929839,-37.0038126433966,0 175.8476425786582,-37.00380403560569,0 175.8479112555404,-37.0038004668869,0 175.8480087143074,-37.003764415702,0 175.8480555848995,-37.00370181921335,0 175.8480576287,-37.00364166998055,0 175.8480135227605,-37.00347567951516,0 175.8479730925895,-37.00312052599844,0 175.8479371586059,-37.00304393925895,0 175.8478349926047,-37.00301345134854,0 175.8476591832802,-37.00300854265413,0 175.8474824401544,-37.00301833402651,0 175.8475031328065,-37.0029838876879,0 175.8475698762065,-37.00296263036356,0 175.8477062382923,-37.00294900535575,0 175.8478040820663,-37.00294675947283,0 175.8478898265049,-37.00290977873826,0 175.8479193401442,-37.00286621547945,0 175.8479090178913,-37.00273714012191,0 175.8478919674224,-37.00258894841599,0 175.8478571598034,-37.00254754777286,0 175.8477692335113,-37.00250034540058,0 175.8476408797863,-37.00239534237984,0 175.8475324357749,-37.0022532152856,0 175.8474293764756,-37.00208940440291,0 175.8473746235189,-37.00195122045103,0 175.8473226582313,-37.00177614710751,0 175.8472574605524,-37.00175651245134,0 175.8472047977038,-37.00165106268376,0 175.8471816773978,-37.00157537085791,0 175.8471711341158,-37.0013883044714,0 175.8427943987642,-37.00194181950587,0 175.8428229996761,-37.00204648145849,0 175.8428409677952,-37.00223511281027,0 175.842848435502,-37.00254399405591,0 175.8428377363285,-37.00262986286151,0 175.8428060192461,-37.00271719442699,0 175.8427114455255,-37.00287874032567,0 175.842577930812,-37.00307599936293,0 175.8425311471248,-37.00311818098754,0 175.8424975169835,-37.00314685558607,0 175.8424470629095,-37.00322795731281,0 175.8424067953644,-37.0032488952552,0 175.8423732725921,-37.00327673446905,0 175.8423440741184,-37.0033253110616,0 175.8423113712075,-37.00341902226743,0 175.842278830295,-37.00346279287125,0 175.842199747813,-37.00352560721032,0 175.8420548069272,-37.00361200447853,0 175.8418610435354,-37.00373594358935,0 175.8416876169207,-37.00381013285113,0 175.8414504408976,-37.00389658654567,0 175.8412885420967,-37.00395063413225,0 
						
</coordinates>

						</LinearRing>

					</outerBoundaryIs>

				</Polygon>

				<flyID>0</flyID>

				<flyDescription>The use of power driven vessels are prohibited in this area, as the area has been set aside for passive activities.  This area could also contain hazards or extreme shallowing</flyDescription>

			</Placemark>
<Placemark>

				<name>3 Knot Zone</name>

				<description>Keep to (3) knots or less in this area</description>

				<styleUrl>#style2</styleUrl>

				<Polygon>

					<tessellate>1</tessellate>

					<outerBoundaryIs>

						<LinearRing>

							<coordinates>

							175.8548461640906,-37.02783259276522,0 175.8548407658373,-37.02759326521993,0 175.8549035647482,-37.02734202401735,0 175.8550619990452,-37.02696988362097,0 175.8553588025191,-37.02690816090335,0 175.8555908951696,-37.02711827902498,0 175.856754006291,-37.0289550065819,0 175.8573521806356,-37.02986587138241,0 175.8577161228053,-37.0304732464403,0 175.8577442765914,-37.03065496047274,0 175.8574356246801,-37.03079964271929,0 175.8573669741664,-37.03094714240882,0 175.8574388608926,-37.0310547542425,0 175.857759934038,-37.03099323402206,0 175.8580294634829,-37.03074776812459,0 175.8585961858856,-37.02999735863092,0 175.8584980020076,-37.02988412355167,0 175.8582696045653,-37.02996516368231,0 175.858089849316,-37.03000438264827,0 175.8579784664926,-37.02998088142198,0 175.8577352124291,-37.02974906612605,0 175.8572253366152,-37.02886177873466,0 175.8561795392509,-37.02711357134108,0 175.8562059725588,-37.02690772958034,0 175.8565615773757,-37.02682171881222,0 175.8568870902602,-37.026718749846,0 175.8571306035654,-37.02678676847899,0 175.85755077964,-37.02731136385239,0 175.858158037955,-37.028287726243,0 175.8585486399856,-37.02890444995248,0 175.8587511825417,-37.02922696820499,0 175.8587163508539,-37.02934498221374,0 175.8586360243159,-37.02947726808828,0 175.8586575355022,-37.02956665404565,0 175.8588067910318,-37.02962288685859,0 175.8589908227636,-37.02957471329363,0 175.8591128016016,-37.02909810484768,0 175.8585896994715,-37.02822929163546,0 175.8578884535883,-37.02708635022299,0 175.8572238323498,-37.02596550802146,0 175.8568492803657,-37.02533742499473,0 175.8568645440166,-37.02516671181466,0 175.8570253169072,-37.02491226581479,0 175.8569893108034,-37.02480585190381,0 175.8569776566628,-37.02472742808912,0 175.8568542577493,-37.02465807960341,0 175.8568003551152,-37.02457798198018,0 175.8566658125133,-37.02463813942171,0 175.8565428358175,-37.02497913617894,0 175.8564336916841,-37.02529499592671,0 175.856693164252,-37.0257390899049,0 175.8568259561995,-37.02595603752383,0 175.8568421183915,-37.02620544041606,0 175.8566348464338,-37.02640724349405,0 175.8561077900215,-37.02649820390914,0 175.8557772448198,-37.02649819664594,0 175.8555028706506,-37.02644528646697,0 175.8546293705782,-37.02553564086119,0 175.8543463881533,-37.02565814797865,0 175.8546924156119,-37.02609574121757,0 175.8547038886896,-37.02630296782663,0 175.8547046771314,-37.02657817865676,0 175.8545734598583,-37.02703033699699,0 175.8543749266869,-37.02722633030024,0 175.8540904474369,-37.02737522627842,0 175.8548461640906,-37.02783259276522,0 
						
</coordinates>

						</LinearRing>

					</outerBoundaryIs>

				</Polygon>

				<flyID>1</flyID>

				<flyDescription>Keep to (3) knots or less in this area</flyDescription>

			</Placemark>
<Placemark>

				<name>3 Knot Zone</name>

				<description>Keep to (3) knots or less in this area</description>

				<styleUrl>#style2</styleUrl>

				<Polygon>

					<tessellate>1</tessellate>

					<outerBoundaryIs>

						<LinearRing>

							<coordinates>

							175.8526023524648,-37.03036324372427,0 175.8526010837413,-37.02977946021699,0 175.852079524333,-37.02897633986964,0 175.8520216662465,-37.02854655373881,0 175.8520334541252,-37.02835518983921,0 175.8522505839423,-37.02773756607088,0 175.8524075340591,-37.02760992399671,0 175.8530788357477,-37.02766630396522,0 175.8537659832334,-37.02772138794782,0 175.8541186539081,-37.02779561176129,0 175.8542051630859,-37.02796393189717,0 175.8540585684777,-37.02827573792052,0 175.8539289836996,-37.02846038568134,0 175.853469271835,-37.02858163262781,0 175.8532853453821,-37.02867480452829,0 175.8533769132917,-37.02883571003503,0 175.8536676349243,-37.02899304321345,0 175.853808372147,-37.02910052594711,0 175.8537937734325,-37.02927964100343,0 175.8534094369227,-37.03029564316182,0 175.8533042692173,-37.03063028600526,0 175.8530744998111,-37.03069903986097,0 175.8528684764964,-37.03063737040071,0 175.8527251251306,-37.03080876157664,0 175.8530598072373,-37.03142080195124,0 175.8537152624319,-37.03155629992185,0 175.8542023361686,-37.03142844806325,0 175.854246047599,-37.03131310322971,0 175.8542768052866,-37.03122528385911,0 175.8541293105103,-37.03112268328694,0 175.8538483257818,-37.03106692348528,0 175.8537662108986,-37.03098083458605,0 175.8538007669168,-37.03080564049831,0 175.8545330386198,-37.02866741164957,0 175.8546701598682,-37.02864996334402,0 175.8551016474147,-37.02931763691924,0 175.8554706689378,-37.02993750452532,0 175.855877991428,-37.03061022398342,0 175.8558468994182,-37.03075654357436,0 175.8555332232257,-37.03077662757503,0 175.8553547119901,-37.03075310008337,0 175.8547500797128,-37.03086698810523,0 175.8544898794586,-37.03094975918713,0 175.8545116007415,-37.03108780575105,0 175.8545969670259,-37.0312464425753,0 175.8546886215482,-37.03131160620791,0 175.8551238994733,-37.03121861783937,0 175.8554447582629,-37.03114819292722,0 175.856073693803,-37.03114435086354,0 175.8567877120708,-37.03111182515289,0 175.8569669019136,-37.03112368159723,0 175.8570641733567,-37.03102629672141,0 175.8569397104637,-37.03082674203736,0 175.85666756356,-37.0308074426375,0 175.8558057897268,-37.02941935011052,0 175.8548461640906,-37.02783259276522,0 175.8540904474369,-37.02737522627842,0 175.8534900910831,-37.02733684862348,0 175.8526894696812,-37.02725187024896,0 175.8523666819866,-37.02724234914903,0 175.8520232695103,-37.02738351311693,0 175.8518716928368,-37.02755823918237,0 175.8517040719929,-37.02777128449168,0 175.8516652799746,-37.02813190909265,0 175.8515581085223,-37.02868177460547,0 175.8516532423917,-37.02898012593318,0 175.8519488568994,-37.02955746348255,0 175.8522678180443,-37.03007819614695,0 175.8524753163585,-37.03036287537279,0 175.8526023524648,-37.03036324372427,0 
						
</coordinates>

						</LinearRing>

					</outerBoundaryIs>

				</Polygon>

				<flyID>2</flyID>

				<flyDescription>Keep to (3) knots or less in this area</flyDescription>

			</Placemark>
<Placemark>

				<name>Towing Access Lanes</name>

				<description>In this area you may tow at speed from the shore.  The lane is marked by orange posts with horizontal black bands.  Proceed in an anti-clockwise direction.</description>

				<styleUrl>#style1</styleUrl>

				<Polygon>

					<tessellate>1</tessellate>

					<outerBoundaryIs>

						<LinearRing>

							<coordinates>

							175.7274019004838,-36.79465176536174,0 175.7276354293532,-36.79435941677105,0 175.7258913044115,-36.79355904521138,0 175.7257416561023,-36.79382059684706,0 175.7274019004838,-36.79465176536174,0 
						
</coordinates>

						</LinearRing>

					</outerBoundaryIs>

				</Polygon>

				<flyID>3</flyID>

				<flyDescription>In this area you may tow at speed from the shore.  The lane is marked by orange posts with horizontal black bands.  Proceed in an anti-clockwise direction.</flyDescription>

			</Placemark>
<Placemark>

				<name>Mooring Zone</name>

				<description>These zones are designated for moored vessels.  Keep to 5 knots or less within 50 meters of the mooring zone.  Avoid transiting through this area.</description>

				<styleUrl>#style1</styleUrl>

				<Polygon>

					<tessellate>1</tessellate>

					<outerBoundaryIs>

						<LinearRing>

							<coordinates>

							175.7223081631405,-36.83122954828641,0 175.7237130757058,-36.83034562091635,0 175.7238983656889,-36.82852093484859,0 175.7205551205118,-36.83042291235552,0 175.7223081631405,-36.83122954828641,0 
						
</coordinates>

						</LinearRing>

					</outerBoundaryIs>

				</Polygon>

				<flyID>4</flyID>

				<flyDescription>These zones are designated for moored vessels.  Keep to 5 knots or less within 50 meters of the mooring zone.  Avoid transiting through this area.</flyDescription>

			</Placemark>
<Placemark>

				<name>Towing Access Lanes</name>

				<description>In this area you may tow at speed from the shore.  The lane is marked by orange posts with horizontal black bands.  Proceed in an anti-clockwise direction.</description>

				<styleUrl>#style1</styleUrl>

				<Polygon>

					<tessellate></tessellate>

					<outerBoundaryIs>

						<LinearRing>

							<coordinates>

							175.737366662564,-36.8345500012096,0 175.738299995234,-36.8349833344133,0 175.739133334437,-36.8336333301212,0 175.738116661563,-36.8332166671998,0 175.737366662564,-36.8345500012096,0 
						
</coordinates>

						</LinearRing>

					</outerBoundaryIs>

				</Polygon>

				<flyID>5</flyID>

				<flyDescription>In this area you may tow at speed from the shore.  The lane is marked by orange posts with horizontal black bands.  Proceed in an anti-clockwise direction.</flyDescription>

			</Placemark>
<Placemark>

				<name>Towing Access Lanes</name>

				<description>In this area you may tow at speed from the shore.  The lane is marked by orange posts with horizontal black bands.  Proceed in an anti-clockwise direction.</description>

				<styleUrl>#style1</styleUrl>

				<Polygon>

					<tessellate></tessellate>

					<outerBoundaryIs>

						<LinearRing>

							<coordinates>

							175.849568108418,-37.0122138621023,0 175.850045511316,-37.0119599944579,0 175.848953737961,-37.0105494286764,0 175.848942348601,-37.0105494135806,0 175.848923173623,-37.0105478744888,0 175.848876668432,-37.0105489917041,0 175.848843674325,-37.0105557835643,0 175.848806219912,-37.010576680788,0 175.848795091131,-37.0105902797726,0 175.848780715173,-37.0106059565077,0 175.848762992529,-37.0106210470542,0 175.848749705317,-37.0106213662431,0 175.84874140081,-37.0106215657353,0 175.8487169575729,-37.010628869237,0 175.848698108303,-37.010641936587,0 175.848685925165,-37.0106495616502,0 175.848674472976,-37.0106545028251,0 175.848639360571,-37.0106713442461,0 175.848625059189,-37.010689018918,0 175.84860364157,-37.010694199467,0 175.848574824504,-37.0107015574991,0 175.848560025618,-37.0107059124712,0 175.848534779091,-37.0107198505485,0 175.848502963559,-37.0107359461555,0 175.848495206257,-37.0107507972937,0 175.848488811374,-37.0107576167206,0 175.84846573282,-37.0107628371409,0 175.848445401743,-37.0107635151163,0 175.848462845489,-37.0107860500151,0 175.849568108418,-37.0122138621023,0 
						
</coordinates>

						</LinearRing>

					</outerBoundaryIs>

				</Polygon>

				<flyID>6</flyID>

				<flyDescription>In this area you may tow at speed from the shore.  The lane is marked by orange posts with horizontal black bands.  Proceed in an anti-clockwise direction.</flyDescription>

			</Placemark>
<Placemark>

				<name>Towing Access Lanes</name>

				<description>In this area you may tow at speed from the shore.  The lane is marked by orange posts with horizontal black bands.  Proceed in an anti-clockwise direction.</description>

				<styleUrl>#style1</styleUrl>

				<Polygon>

					<tessellate></tessellate>

					<outerBoundaryIs>

						<LinearRing>

							<coordinates>

							175.852533684575,-37.015304801688,0 175.852767455022,-37.0162593520143,0 175.852767455022,-37.0162593520143,0 175.854791240831,-37.0158569006204,0 175.854759371214,-37.0158017402594,0 175.854732568384,-37.01576661765,0 175.854716667596,-37.015724845462,0 175.854717638014,-37.0157082155922,0 175.854712289977,-37.0156930152553,0 175.854684038989,-37.0156617597666,0 175.854666068905,-37.0156072631485,0 175.854661500201,-37.0155703278441,0 175.854697992327,-37.0154813071142,0 175.854700363186,-37.0154595338355,0 175.854715720199,-37.0154016800669,0 175.854728467444,-37.015359218209,0 175.854720811189,-37.0153249120824,0 175.854687943878,-37.0152554450099,0 175.854670308355,-37.0152098823002,0 175.854652290631,-37.0151541093975,0 175.854651382849,-37.0151298601982,0 175.854652496616,-37.0151170591481,0 175.85468060277,-37.0150977256959,0 175.854694082802,-37.0150790127409,0 175.854699397855,-37.0150507814652,0 175.854698490062,-37.0150265322662,0 175.854697677827,-37.0150048356149,0 175.854687077436,-37.0149769874786,0 175.854687570079,-37.0149475948708,0 175.85470735235,-37.0149228475903,0 175.854714688941,-37.0149060644625,0 175.854714067819,-37.0148894729053,0 175.854713494476,-37.0148741576218,0 175.854711377371,-37.0148601569258,0 175.854563530504,-37.0148950375947,0 175.852533684575,-37.015304801688,0 175.852533684575,-37.015304801688,0 
						
</coordinates>

						</LinearRing>

					</outerBoundaryIs>

				</Polygon>

				<flyID>7</flyID>

				<flyDescription>In this area you may tow at speed from the shore.  The lane is marked by orange posts with horizontal black bands.  Proceed in an anti-clockwise direction.</flyDescription>

			</Placemark>
<Placemark>

				<name>Mooring Zone</name>

				<description>These zones are designated for moored vessels.  Keep to 5 knots or less within 50 meters of the mooring zone.  Avoid transiting through this area.</description>

				<styleUrl>#style1</styleUrl>

				<Polygon>

					<tessellate></tessellate>

					<outerBoundaryIs>

						<LinearRing>

							<coordinates>

							175.850096563038,-37.0124493060204,0 175.850727972318,-37.0128314028127,0 175.851620227196,-37.0133713374335,0 175.854431180111,-37.0086269111369,0 175.858510222258,-37.0060936083744,0 175.857318387254,-37.0045632142871,0 175.853417900536,-37.007130112092,0 175.85157669852,-37.0092724371564,0 175.850394028504,-37.0118108661793,0 175.850096563038,-37.0124493060204,0 
						
</coordinates>

						</LinearRing>

					</outerBoundaryIs>

				</Polygon>

				<flyID>8</flyID>

				<flyDescription>These zones are designated for moored vessels.  Keep to 5 knots or less within 50 meters of the mooring zone.  Avoid transiting through this area.</flyDescription>

			</Placemark>
<Placemark>

				<name>Mooring Zone</name>

				<description>These zones are designated for moored vessels.  Keep to 5 knots or less within 50 meters of the mooring zone.  Avoid transiting through this area.</description>

				<styleUrl>#style1</styleUrl>

				<Polygon>

					<tessellate></tessellate>

					<outerBoundaryIs>

						<LinearRing>

							<coordinates>

							175.861833682254,-37.0033672486808,0 175.862673579646,-37.0032272844717,0 175.863504982397,-37.0040357876107,0 175.862905089324,-37.0044679183248,0 175.861833682254,-37.0033672486808,0 
						
</coordinates>

						</LinearRing>

					</outerBoundaryIs>

				</Polygon>

				<flyID>9</flyID>

				<flyDescription>These zones are designated for moored vessels.  Keep to 5 knots or less within 50 meters of the mooring zone.  Avoid transiting through this area.</flyDescription>

			</Placemark>
<Placemark>

				<name>Transit Zone</name>

				<description>Within this zone all vessels shall proceed through this zone in the most direct route possible.  It is prohibited to tow and anchor in this zone</description>

				<styleUrl>#style1</styleUrl>

				<Polygon>

					<tessellate>1</tessellate>

					<outerBoundaryIs>

						<LinearRing>

							<coordinates>

							175.8693309264293,-37.00777005829905,0 175.8692419115149,-37.00498997614067,0 175.868127425625,-37.00495229132681,0 175.8671964284475,-37.00485436952835,0 175.8660949126922,-37.00465592497168,0 175.8646729579264,-37.00402300354445,0 175.8634524460496,-37.00582634095008,0 175.8693309264293,-37.00777005829905,0 
						
</coordinates>

						</LinearRing>

					</outerBoundaryIs>

				</Polygon>

				<flyID>10</flyID>

				<flyDescription>Within this zone all vessels shall proceed through this zone in the most direct route possible.  It is prohibited to tow and anchor in this zone</flyDescription>

			</Placemark>
<Placemark>

				<name>Towing Access Lanes</name>

				<description>In this area you may tow at speed from the shore.  The lane is marked by orange posts with horizontal black bands.  Proceed in an anti-clockwise direction.</description>

				<styleUrl>#style1</styleUrl>

				<Polygon>

					<tessellate>1</tessellate>

					<outerBoundaryIs>

						<LinearRing>

							<coordinates>

							175.8136941312845,-36.83972543531355,0 175.8132599467229,-36.8395395804735,0 175.8120068906152,-36.84149730896954,0 175.8124107535236,-36.84166435960942,0 175.8136941312845,-36.83972543531355,0 
						
</coordinates>

						</LinearRing>

					</outerBoundaryIs>

				</Polygon>

				<flyID>11</flyID>

				<flyDescription>In this area you may tow at speed from the shore.  The lane is marked by orange posts with horizontal black bands.  Proceed in an anti-clockwise direction.</flyDescription>

			</Placemark>
<Placemark>

				<name>Prohibited Power Driven Vessel</name>

				<description>The use of power driven vessels are prohibited in this area, as the area has been set aside for passive activities.  This area could also contain hazards or extreme shallowing</description>

				<styleUrl>#style0</styleUrl>

				<Polygon>

					<tessellate>1</tessellate>

					<outerBoundaryIs>

						<LinearRing>

							<coordinates>

							175.8471795487143,-37.00139527940459,0 175.8471740212316,-37.00087010198575,0 175.8471788890642,-37.00021300262777,0 175.8471547119951,-36.99962991905129,0 175.8471041802553,-36.99911033053692,0 175.8470320550956,-36.99877430563922,0 175.8469388852876,-36.9985591083524,0 175.8468565039269,-36.99842426162127,0 175.8467435191337,-36.99833055195606,0 175.8466872280596,-36.99821905764944,0 175.8466591887616,-36.99811791581715,0 175.8466564580198,-36.99798885373007,0 175.8466162829905,-36.99790466555722,0 175.8465706194843,-36.99786821060299,0 175.8463885452465,-36.99785747614617,0 175.8462623189241,-36.99782420194354,0 175.8461487663211,-36.99775149892724,0 175.8460264391108,-36.99773488919551,0 175.8458127289437,-36.99770681649075,0 175.8456642636413,-36.99765202055718,0 175.8455394516969,-36.99752814307371,0 175.8454850499399,-36.99746993402063,0 175.8454230906417,-36.99744247643589,0 175.8453138244747,-36.99743785842523,0 175.8452347770206,-36.99745776697255,0 175.845176941618,-36.99749400831274,0 175.8451623541188,-36.99753089320959,0 175.8450978570455,-36.99756738473958,0 175.8449251165813,-36.99760116190965,0 175.844248315898,-36.99772131210295,0 175.8437800905755,-36.99782122542648,0 175.8432941211086,-36.99795525466702,0 175.842944723653,-36.9980760112749,0 175.8428585973854,-36.99808632193678,0 175.8427351627369,-36.99807019188131,0 175.8425309596375,-36.99801897131782,0 175.8423480444816,-36.9980004623475,0 175.8421864825837,-36.99799946456093,0 175.84202659464,-36.99801021957354,0 175.8417937362027,-36.99805599108707,0 175.8415494608939,-36.99812530772034,0 175.8414360057545,-36.99817139553878,0 175.8412840368959,-36.99828285305339,0 175.8411193237103,-36.99848982665889,0 175.8410210524289,-36.99863702480177,0 175.8409724529149,-36.99877919909372,0 175.840913249457,-36.99887335384204,0 175.8408016152073,-36.9990225281386,0 175.840767805689,-36.99911192169022,0 175.8407552381081,-36.99923515537648,0 175.8407622886982,-36.99940707910908,0 175.8407709449026,-36.99957122019255,0 175.8407886617836,-36.99969469407454,0 175.840825866183,-36.99979890718692,0 175.8408793574318,-36.99988175047518,0 175.8410147652782,-37.00003857286933,0 175.8410645606276,-37.00011349527388,0 175.8410882952777,-37.00017509303882,0 175.8410978293088,-37.00024755574322,0 175.8410997083069,-37.00039786051292,0 175.841104578249,-37.00046145149945,0 175.8411206039926,-37.0005251457819,0 175.8411495756618,-37.00057679802011,0 175.8412637957928,-37.00056761120466,0 175.8413634817816,-37.00053485584124,0 175.8414573005074,-37.00048340858326,0 175.8415177696,-37.00044262909665,0 175.8415705306891,-37.00041354598612,0 175.841657971421,-37.00037932918841,0 175.8417752338188,-37.00035240618696,0 175.8419483531401,-37.00031314283525,0 175.8422285439693,-37.00024184588601,0 175.8424485907895,-37.00021243453423,0 175.8428387442303,-37.0002028783867,0 175.8429498550156,-37.0001916210239,0 175.8430471564123,-37.00016503748719,0 175.8433083562486,-37.00009070749669,0 175.8434458486165,-37.00006512093417,0 175.8435540346623,-37.00006269371699,0 175.8436165932618,-37.00007159255029,0 175.8436676297725,-37.00009230516096,0 175.8437039235636,-37.00012255285549,0 175.8437305039924,-37.00017306409453,0 175.8437372913212,-37.00023521735061,0 175.8437244524206,-37.00029707027611,0 175.8436935900228,-37.00035283184434,0 175.8436442077361,-37.00039303262629,0 175.8435564598376,-37.00043014986377,0 175.8434036836987,-37.0004830984826,0 175.8433379934904,-37.00051543579971,0 175.8432354077408,-37.00058197986051,0 175.8431194062782,-37.0006511226648,0 175.843013307743,-37.00069842825046,0 175.8429139080216,-37.00072416444168,0 175.8427269524433,-37.00075254485303,0 175.8425948864172,-37.00078645175129,0 175.8424992494157,-37.00083209950776,0 175.8424320926919,-37.00091349591209,0 175.8424148924834,-37.00099663987708,0 175.8424205447921,-37.00110100105849,0 175.8424684296264,-37.0012668231759,0 175.8425149083865,-37.00138436722628,0 175.8426146315185,-37.00161835207564,0 175.8426764048399,-37.0017415468562,0 175.8427552193851,-37.00186597535347,0 175.8427943987642,-37.00194181950587,0 175.8471795487143,-37.00139527940459,0 
						
</coordinates>

						</LinearRing>

					</outerBoundaryIs>

				</Polygon>

				<flyID>12</flyID>

				<flyDescription>The use of power driven vessels are prohibited in this area, as the area has been set aside for passive activities.  This area could also contain hazards or extreme shallowing</flyDescription>

			</Placemark>

</Document>
</kml>
