<?xml version="1.0" encoding="UTF-8"?>
<kml xmlns="http://www.opengis.net/kml/2.2" xmlns:gx="http://www.google.com/kml/ext/2.2" xmlns:kml="http://www.opengis.net/kml/2.2" xmlns:atom="http://www.w3.org/2005/Atom">
<Document>
<name>R21C44.kml</name>

<Style id="style0">

					<LineStyle>

						<color>ffff0000</color>

					</LineStyle>

					<PolyStyle>

						<color>ffff0000</color>

						<width>0.9</width>

					</PolyStyle>

				</Style>
<Style id="style1">

					<LineStyle>

						<color>ff0000ff</color>

					</LineStyle>

					<PolyStyle>

						<color>ff0000ff</color>

						<width>0.9</width>

					</PolyStyle>

				</Style>
<Style id="style2">

					<LineStyle>

						<color>ffffaa00</color>

					</LineStyle>

					<PolyStyle>

						<color>ffffaa00</color>

						<width>0.9</width>

					</PolyStyle>

				</Style>
<Style id="style3">

					<LineStyle>

						<color>ff00008a</color>

					</LineStyle>

					<PolyStyle>

						<color>ff00008a</color>

						<width>0.9</width>

					</PolyStyle>

				</Style>
<Style id="style4">

					<LineStyle>

						<color>ff00ffff</color>

					</LineStyle>

					<PolyStyle>

						<color>ff00ffff</color>

						<width>0.9</width>

					</PolyStyle>

				</Style>
<Style id="style5">

					<LineStyle>

						<color>ffc0ffdc</color>

					</LineStyle>

					<PolyStyle>

						<color>ffc0ffdc</color>

						<width>0.9</width>

					</PolyStyle>

				</Style>

<Placemark>

				<name>5 Knot Zone</name>

				<description>Keep to 5 knots or less (9.25km / fast walking pace) in this area.</description>

				<styleUrl>#style4</styleUrl>

				<Polygon>

					<tessellate>1</tessellate>

					<outerBoundaryIs>

						<LinearRing>

							<coordinates>

							175.6594047917791,-37.99425225967773,0 175.6590651721436,-37.99383836328188,0 175.6590732546547,-37.99363659025401,0 175.6591371863429,-37.99343415113136,0 175.6593754893093,-37.99332100899349,0 175.6594241437912,-37.99322988169145,0 175.6593042936289,-37.99310962299836,0 175.6592575567418,-37.99286646808304,0 175.6593395517167,-37.99243606915517,0 175.6595746900321,-37.99201149569058,0 175.6596900768743,-37.99168410741498,0 175.6595652775976,-37.99106463685583,0 175.6595140720614,-37.99045208819573,0 175.6597305745615,-37.99010030994548,0 175.6599583831942,-37.99002214180765,0 175.6602735663962,-37.99004293624513,0 175.660505033224,-37.9900169812587,0 175.6607644360362,-37.98980613825977,0 175.6607222329739,-37.98949535327449,0 175.6606508509563,-37.98929930498559,0 175.6606481399783,-37.9888517653195,0 175.6605175026414,-37.98847219811236,0 175.6601075688817,-37.98789127122136,0 175.6600421874823,-37.98758009698537,0 175.6601415555842,-37.98726586850471,0 175.6600597190598,-37.98693405162441,0 175.6597913830288,-37.98664870079956,0 175.6593944744871,-37.98649298340865,0 175.6591646440567,-37.98634723162157,0 175.6591819706184,-37.98619927782654,0 175.6595279402989,-37.98584885584898,0 175.6600524239097,-37.98550906368072,0 175.6602265359122,-37.98521002113593,0 175.6601189803486,-37.98455717207451,0 175.6598212744157,-37.98413471612886,0 175.6596857208763,-37.98387453856046,0 175.6597859188495,-37.98370342293803,0 175.6597589080785,-37.98345102787908,0 175.6599750039226,-37.98327329028027,0 175.660240853862,-37.98321197133013,0 175.6605243863236,-37.98326432827205,0 175.6607783562125,-37.98337723872643,0 175.6610695477554,-37.98359231023338,0 175.6614515822603,-37.98376533763319,0 175.661891135195,-37.98374982846938,0 175.6617326895517,-37.98358615023709,0 175.6612819799057,-37.98335322521555,0 175.6609196662294,-37.98317953834674,0 175.6605633013004,-37.98293303442504,0 175.6604741219821,-37.98272034918291,0 175.6605286769852,-37.98242000972945,0 175.6605852539829,-37.98215789981609,0 175.6603873468509,-37.98194084512895,0 175.6597959746221,-37.98183949575241,0 175.659254643485,-37.98228813138917,0 175.6592778183478,-37.98260976269928,0 175.6593474262976,-37.98276936638302,0 175.6595021232974,-37.98315070952301,0 175.6592245136621,-37.98374481710643,0 175.6592449887189,-37.98400031848513,0 175.6594261140617,-37.9845526976479,0 175.659721208864,-37.98487216242341,0 175.6596670667263,-37.98500450244571,0 175.6592993795761,-37.98496366908173,0 175.6591152292234,-37.98494836400941,0 175.6587895662462,-37.98523556097039,0 175.6570582580275,-37.98772371396851,0 175.6575838706337,-37.98926636264924,0 175.6576038533356,-37.98970552939483,0 175.657371085654,-37.99046194043996,0 175.6573909317296,-37.99085189890596,0 175.657634283659,-37.99113611655299,0 175.6581568818993,-37.99132315349328,0 175.6583717765568,-37.99163562945438,0 175.6583291808384,-37.99214153324102,0 175.6582712813487,-37.99261018066079,0 175.6584119499107,-37.9931700378517,0 175.6579923898609,-37.99389190340327,0 175.6579295892219,-37.99425439208186,0 175.6594047917791,-37.99425225967773,0 
						
</coordinates>

						</LinearRing>

					</outerBoundaryIs>

				</Polygon>

				<flyID>0</flyID>

				<flyDescription>Keep to 5 knots or less (9.25km / fast walking pace) in this area.</flyDescription>

			</Placemark>
<Placemark>

				<name>5 Knot Zone</name>

				<description>Keep to 5 knots or less (9.25km / fast walking pace) in this area.</description>

				<styleUrl>#style4</styleUrl>

				<Polygon>

					<tessellate>1</tessellate>

					<outerBoundaryIs>

						<LinearRing>

							<coordinates>

							175.6559412884259,-38.00830340811197,0 175.656179728761,-38.00820495929591,0 175.6563668013736,-38.00819701650524,0 175.6566470134302,-38.0080747254224,0 175.6568583647469,-38.0080375920861,0 175.657132410228,-38.00808835294682,0 175.6577590371925,-38.00800116367432,0 175.6583730098475,-38.00768989582942,0 175.6588822230723,-38.00744116335753,0 175.6592350910686,-38.00721389493658,0 175.6594885647571,-38.00683372449254,0 175.6596282851221,-38.00659307886907,0 175.659722578173,-38.00575152400202,0 175.6596838257772,-38.00510905898265,0 175.6593261862593,-38.00414290620816,0 175.6588539478986,-38.00319761116215,0 175.6588180883309,-38.00266076249989,0 175.6586352363443,-38.00200701093262,0 175.6586175981016,-38.00157855592553,0 175.6588494502845,-38.00138073570263,0 175.6592025319877,-38.00119039408955,0 175.6592176229449,-38.00108326923276,0 175.6592291088359,-38.00050198721629,0 175.6593789674066,-37.99990555518959,0 175.6594204237719,-37.99953932428512,0 175.6592213227223,-37.99875816516762,0 175.6588655166223,-37.99782768897028,0 175.6590346854177,-37.99695632805427,0 175.6592783192653,-37.99652866954848,0 175.6593272997239,-37.99628589068399,0 175.65949404852,-37.99568145168199,0 175.659509704495,-37.99479111736908,0 175.6594047917791,-37.99425225967773,0 175.6579295892219,-37.99425439208186,0 175.6583414243868,-37.99487973206702,0 175.6583404550703,-37.99519261737459,0 175.6581182477844,-37.99586241786544,0 175.6581251540849,-37.99646055401615,0 175.6574694067415,-37.99722200575894,0 175.6573668518636,-37.9977087599543,0 175.6575406144597,-37.99797208902802,0 175.6577245681631,-37.99886952265554,0 175.6577665766294,-37.99931967941739,0 175.6574217026422,-38.00020391425888,0 175.6570549188508,-38.00136153684293,0 175.6563578146199,-38.00189634331147,0 175.6556408916346,-38.00224171042892,0 175.6552257869149,-38.0025405909518,0 175.6552110039865,-38.00287349606573,0 175.6552885221514,-38.00308863631319,0 175.6556216564895,-38.00336272464717,0 175.6559915975165,-38.00346493138388,0 175.656486544914,-38.00366325712358,0 175.6570278509546,-38.00435004874793,0 175.6575299403446,-38.00473566013604,0 175.6578854341298,-38.0050807706126,0 175.6582545520639,-38.00530120793992,0 175.6584842448611,-38.00558082763344,0 175.6585401845794,-38.00583074301428,0 175.6583741644874,-38.00608076084485,0 175.6575954928555,-38.00651477576835,0 175.6568233750314,-38.00677077502239,0 175.6562414647628,-38.00679477742103,0 175.6552774125421,-38.00695042811747,0 175.6540179541809,-38.00724224790989,0 175.6535156135628,-38.0074145952357,0 175.6521747138965,-38.00771416232539,0 175.6508387582561,-38.00820420280461,0 175.6559412884259,-38.00830340811197,0 
						
</coordinates>

						</LinearRing>

					</outerBoundaryIs>

				</Polygon>

				<flyID>1</flyID>

				<flyDescription>Keep to 5 knots or less (9.25km / fast walking pace) in this area.</flyDescription>

			</Placemark>
<Placemark>

				<name>5 Knot Zone</name>

				<description>Keep to 5 knots or less (9.25km / fast walking pace) in this area.</description>

				<styleUrl>#style4</styleUrl>

				<Polygon>

					<tessellate>1</tessellate>

					<outerBoundaryIs>

						<LinearRing>

							<coordinates>

							175.6577691291669,-38.02546335831072,0 175.6579799557392,-38.0252367067398,0 175.6579387489759,-38.02494797713293,0 175.6580026739472,-38.02462193235555,0 175.6580653708142,-38.02388379481702,0 175.6582708850156,-38.02329456484149,0 175.6583058905626,-38.02293874330952,0 175.6584123188304,-38.02268456418278,0 175.6585242388915,-38.02235500172811,0 175.6584356965856,-38.0217687967084,0 175.6583035793393,-38.02120446032142,0 175.6579874681639,-38.02049052047554,0 175.6574532347917,-38.02001478401511,0 175.6571078329818,-38.01966838562971,0 175.6570188233049,-38.01932967294115,0 175.6568562542633,-38.01905913586402,0 175.6564679009147,-38.0185999831064,0 175.6563251372029,-38.01812089309277,0 175.656219919559,-38.01775712142858,0 175.6554922374702,-38.01727628709109,0 175.6555440819651,-38.01702668953092,0 175.6557536591263,-38.01687126748106,0 175.6560977898499,-38.01680153321859,0 175.6564025084073,-38.01667369612303,0 175.6567621416289,-38.01624766821989,0 175.6570643891594,-38.01545370583298,0 175.6571066869815,-38.01494864062566,0 175.6568255111614,-38.01434540437236,0 175.6565762657432,-38.01342050037372,0 175.6565448282988,-38.01274830254381,0 175.656250340158,-38.01254839110298,0 175.6557534059698,-38.01237561290768,0 175.6555664307627,-38.01226422089586,0 175.6552228515435,-38.01204118073403,0 175.6547583146846,-38.0119735913981,0 175.6544904564153,-38.01188966368546,0 175.6543332230844,-38.01164340673483,0 175.6542163754674,-38.01105378990744,0 175.6542684333842,-38.01032450450898,0 175.6544968540553,-38.00971557654714,0 175.6551719968789,-38.00903500247057,0 175.6559412884259,-38.00830340811197,0 175.6508387582561,-38.00820420280461,0 175.6509266741944,-38.00837800414758,0 175.650962083103,-38.00858669323343,0 175.6505051940916,-38.00899669651031,0 175.6504541678004,-38.00926436734003,0 175.6506966193179,-38.00975406790184,0 175.6507430559364,-38.01015853610613,0 175.6509229866838,-38.01038077731529,0 175.6510271791236,-38.01065716188821,0 175.6509016268516,-38.01099647806856,0 175.6516597904434,-38.01131206978862,0 175.6521935243816,-38.01169273441454,0 175.6526045063327,-38.01221737923894,0 175.6526632434419,-38.01259283086954,0 175.6523445935028,-38.01385727718932,0 175.6523003517602,-38.01422852364455,0 175.6522623427439,-38.01473611389618,0 175.6521354365705,-38.01506760310082,0 175.6517213103238,-38.0152912122195,0 175.6513142539261,-38.01568610982219,0 175.6510115220538,-38.01616499124677,0 175.6510462680601,-38.01650791901292,0 175.6508528910576,-38.01669574489448,0 175.6507607108862,-38.01706880991664,0 175.6507361562845,-38.01776692883578,0 175.6508365551623,-38.01802279445731,0 175.6508058318368,-38.01816961371725,0 175.6508768368186,-38.01852934924256,0 175.6511762297855,-38.01892915086689,0 175.6515007420508,-38.01907399092118,0 175.6516610128938,-38.01935888815171,0 175.6516097728155,-38.0196578380467,0 175.6517555999196,-38.01984480220317,0 175.651750881725,-38.02009698824498,0 175.652034893848,-38.02067370465877,0 175.6520904628174,-38.02088889463405,0 175.6521986593535,-38.02160161302442,0 175.6525572321133,-38.0218744345901,0 175.6528561736637,-38.02187802351525,0 175.6532001516204,-38.02194975185417,0 175.6540289604636,-38.02172835455025,0 175.6545596369364,-38.02177319165852,0 175.6550589719993,-38.02210265710306,0 175.6552674929067,-38.02241804767596,0 175.6555089290158,-38.02263755807387,0 175.6556939464377,-38.02264621170104,0 175.6560832423985,-38.02277708018897,0 175.656482189414,-38.02318281274963,0 175.6567642728323,-38.02373398122198,0 175.6568450495582,-38.02403157798906,0 175.6567331067713,-38.02478911530667,0 175.6566459816841,-38.02550027231084,0 175.6577691291669,-38.02546335831072,0 
						
</coordinates>

						</LinearRing>

					</outerBoundaryIs>

				</Polygon>

				<flyID>2</flyID>

				<flyDescription>Keep to 5 knots or less (9.25km / fast walking pace) in this area.</flyDescription>

			</Placemark>
<Placemark>

				<name>5 Knot Zone</name>

				<description>Keep to 5 knots or less (9.25km / fast walking pace) in this area.</description>

				<styleUrl>#style4</styleUrl>

				<Polygon>

					<tessellate>1</tessellate>

					<outerBoundaryIs>

						<LinearRing>

							<coordinates>

							175.6597983955467,-38.04446419166979,0 175.6597799023095,-38.04386769075322,0 175.6598350094407,-38.04345486878727,0 175.6599560186132,-38.04284710404179,0 175.6599225821541,-38.04253316962966,0 175.6598963642848,-38.04183083172111,0 175.6598471009841,-38.04118422787063,0 175.6597435436187,-38.04059090927527,0 175.659687928442,-38.04038269841048,0 175.6594118218736,-38.03977427512947,0 175.6593661475017,-38.03947072801548,0 175.6591599705838,-38.03909234247952,0 175.6591082652324,-38.03881880981523,0 175.6591647787074,-38.03868117485864,0 175.6590762635681,-38.03808948816404,0 175.6589121693751,-38.03775427748945,0 175.6585802882663,-38.03696543858876,0 175.6584788929102,-38.03622485300987,0 175.6585291457625,-38.03563659107718,0 175.6587059744045,-38.03510192260811,0 175.6587442702038,-38.03471167668043,0 175.6586242531974,-38.03451489029742,0 175.6584312156773,-38.03419015929474,0 175.6583376392705,-38.03379307117454,0 175.6580997535371,-38.03332802038461,0 175.6576923254256,-38.03249212593852,0 175.6575000971677,-38.03193259164267,0 175.6573081616055,-38.03075233727849,0 175.6573449382067,-38.02997771791467,0 175.6574518580845,-38.02950501429288,0 175.6576152625275,-38.02888287507998,0 175.657604484692,-38.02753346437029,0 175.6576433980567,-38.02707341153545,0 175.6578303912516,-38.02684318335196,0 175.6580826319158,-38.02685973058791,0 175.6583426968675,-38.02720442790513,0 175.6584936562191,-38.02754002974206,0 175.658773959175,-38.02776787686113,0 175.65913536841,-38.02778725587557,0 175.6593750408231,-38.0278611908553,0 175.6596565374642,-38.02792925236357,0 175.6598280202414,-38.02791755257354,0 175.6602033653565,-38.02791338783739,0 175.6607427435433,-38.02792264968226,0 175.6611778949787,-38.02796246638938,0 175.6617268562487,-38.02807394920551,0 175.6621785223813,-38.02820759940563,0 175.6629685352198,-38.02843025354973,0 175.6634868603056,-38.02861970532684,0 175.6638205176942,-38.02906107280457,0 175.6638370065831,-38.02875509982848,0 175.6634592930538,-38.02829461393623,0 175.6630681784932,-38.0282342433456,0 175.6627825090633,-38.02813607325663,0 175.6625641471772,-38.02795301448997,0 175.6619686999395,-38.02777841734627,0 175.6612599984644,-38.02763027523523,0 175.6603891736142,-38.02763718445652,0 175.6597510017746,-38.02757246687589,0 175.6592524078186,-38.02744368287922,0 175.6587598604108,-38.02719864080309,0 175.658546640258,-38.02687861063291,0 175.6584444032072,-38.02639234246659,0 175.6579056106288,-38.02602628061487,0 175.6576599901755,-38.02580177877095,0 175.6577691291669,-38.02546335831072,0 175.6566459816841,-38.02550027231084,0 175.6562708045549,-38.02608103916965,0 175.6559671108112,-38.02623174806549,0 175.6555779146297,-38.02645304640575,0 175.6555382541036,-38.02663032986762,0 175.6553630174845,-38.02685400613047,0 175.6559594938048,-38.02663186626986,0 175.6562486609371,-38.02671985820712,0 175.6562422455927,-38.02686413054742,0 175.6557699015171,-38.02741619026509,0 175.6556391919099,-38.02767991627145,0 175.6557114715801,-38.02893476706171,0 175.6557388657332,-38.02933179131058,0 175.6556443833268,-38.02971613502624,0 175.655755993918,-38.03016025836972,0 175.6561344296084,-38.03103193218352,0 175.6561719406938,-38.03133887925355,0 175.6560382087006,-38.03185911707941,0 175.6561001732711,-38.03229167793124,0 175.6564979643101,-38.03324602320505,0 175.6563831884678,-38.03372777952761,0 175.6566666153721,-38.03464675719636,0 175.6567343830395,-38.03544910699686,0 175.6568856538965,-38.03653221342117,0 175.657132717482,-38.03734234428623,0 175.6574149044365,-38.03783213879996,0 175.6578247105163,-38.03892812727237,0 175.6578778814798,-38.03933976250423,0 175.6577211633953,-38.04013599326238,0 175.6577432134627,-38.04055162235058,0 175.658043330869,-38.04143249388363,0 175.6586087140055,-38.04254753284673,0 175.658615635765,-38.04388608048004,0 175.6584075984817,-38.04460543269718,0 175.658066769082,-38.04474137729534,0 175.6597983955467,-38.04446419166979,0 
						
</coordinates>

						</LinearRing>

					</outerBoundaryIs>

				</Polygon>

				<flyID>3</flyID>

				<flyDescription>Keep to 5 knots or less (9.25km / fast walking pace) in this area.</flyDescription>

			</Placemark>
<Placemark>

				<name>5 Knot Zone</name>

				<description>Keep to 5 knots or less (9.25km / fast walking pace) in this area.</description>

				<styleUrl>#style4</styleUrl>

				<Polygon>

					<tessellate>1</tessellate>

					<outerBoundaryIs>

						<LinearRing>

							<coordinates>

							175.6600812869578,-38.05785940862697,0 175.6603278962311,-38.05716297893198,0 175.6605897276805,-38.05649738808437,0 175.6607088362711,-38.05570959521306,0 175.6607652235559,-38.05429215528319,0 175.6608676302402,-38.05414178541881,0 175.661017491816,-38.05369999268981,0 175.661081198086,-38.05304704696822,0 175.6608839584793,-38.05254115372432,0 175.6608743600141,-38.05193110117846,0 175.6606934904607,-38.05150553566303,0 175.6602372283695,-38.0505676503933,0 175.660184325176,-38.0500446636826,0 175.6598605057154,-38.04976921784681,0 175.6596634079115,-38.0492929961509,0 175.6593348744151,-38.04885657915156,0 175.6592591491095,-38.04853607260264,0 175.6589684770882,-38.04821437676173,0 175.6587492479786,-38.04765259333291,0 175.6587468085854,-38.04741650420016,0 175.658558504448,-38.0467426067903,0 175.6586200368735,-38.04632904164951,0 175.6587819507961,-38.04620905534969,0 175.6591474226499,-38.04596633747668,0 175.6594759501458,-38.04555206529311,0 175.6596364860482,-38.04520166923287,0 175.6597983955467,-38.04446419166979,0 175.658041125439,-38.04474111753522,0 175.6573406654298,-38.04495115057001,0 175.6569080933522,-38.04535619893634,0 175.6569125445665,-38.04566935408005,0 175.657041263669,-38.04587123872578,0 175.6569030269166,-38.0462782670885,0 175.6569603247127,-38.04677187807818,0 175.6570008782641,-38.04698605463094,0 175.6573231912012,-38.04730441048033,0 175.6573270124382,-38.04748808289956,0 175.6571406588485,-38.04792544101252,0 175.6571597755251,-38.0481723376613,0 175.6572933548795,-38.04860131244235,0 175.6578865093536,-38.04956068466205,0 175.6581994551437,-38.04975520584056,0 175.6588597893848,-38.05005858579236,0 175.6591302505173,-38.05034326529468,0 175.6593951848423,-38.05064335656416,0 175.6597858707001,-38.05167585272296,0 175.6598338752242,-38.05237257785332,0 175.6596802061732,-38.05342768557991,0 175.659728736985,-38.05419057120125,0 175.6599294783701,-38.05506107000422,0 175.659945302717,-38.05573902073444,0 175.659840044279,-38.05618536952087,0 175.6595396180928,-38.05686554783809,0 175.6594614587262,-38.05725915862848,0 175.6593122745602,-38.05752880893093,0 175.6590694792769,-38.0577837257723,0 175.6600812869578,-38.05785940862697,0 
						
</coordinates>

						</LinearRing>

					</outerBoundaryIs>

				</Polygon>

				<flyID>4</flyID>

				<flyDescription>Keep to 5 knots or less (9.25km / fast walking pace) in this area.</flyDescription>

			</Placemark>
<Placemark>

				<name>5 Knot Zone</name>

				<description>Keep to 5 knots or less (9.25km / fast walking pace) in this area.</description>

				<styleUrl>#style4</styleUrl>

				<Polygon>

					<tessellate>1</tessellate>

					<outerBoundaryIs>

						<LinearRing>

							<coordinates>

							175.6492907606883,-38.06454242836012,0 175.6499063286502,-38.06405910291043,0 175.6507671098759,-38.06357329183726,0 175.6514432167008,-38.06323570222471,0 175.6521489229154,-38.06298563492877,0 175.6529006530695,-38.06255744282612,0 175.653745114181,-38.06225687379625,0 175.6543712748135,-38.06196692608708,0 175.654894036802,-38.06170642062155,0 175.6553000002922,-38.06145091657633,0 175.6556930596154,-38.06127998526591,0 175.6561359218815,-38.0612738915451,0 175.6566857550308,-38.0610846605254,0 175.6569796057457,-38.06090354881791,0 175.6574137154605,-38.06051545294025,0 175.6575830572045,-38.06028365481872,0 175.6577666765953,-38.05980646050766,0 175.6578866093345,-38.05966631264123,0 175.6583839994925,-38.05921500588556,0 175.6588936964218,-38.05888064849987,0 175.6594580617482,-38.05848329499201,0 175.659853856734,-38.05817691692873,0 175.6600812869578,-38.05785940862697,0 175.6590694792769,-38.0577837257723,0 175.6583511906423,-38.05808832449259,0 175.6576947537884,-38.05848548605126,0 175.6571905610763,-38.05893568098682,0 175.6569820076977,-38.05943823520856,0 175.6570830911751,-38.05988090051518,0 175.656896590352,-38.06015316016259,0 175.6563750077868,-38.06052651260501,0 175.6557593769834,-38.06073417983236,0 175.6551059031728,-38.0610535981005,0 175.6546693728042,-38.06145728049527,0 175.6541952194449,-38.06161994191815,0 175.653998774537,-38.06161022538723,0 175.6537015985403,-38.06170732861735,0 175.6532974967658,-38.06191802206894,0 175.6528049431895,-38.06212250893029,0 175.652332562556,-38.06229659347449,0 175.652203767804,-38.06256297455878,0 175.6520443149948,-38.06273812148346,0 175.6517063275023,-38.0628906472533,0 175.6514240603075,-38.06303551442224,0 175.6510432398409,-38.06312416620443,0 175.6506091818307,-38.06316297007121,0 175.6501467819563,-38.06314850626258,0 175.6496897381545,-38.06321123356062,0 175.6494945657053,-38.06340307920259,0 175.6495465938756,-38.06367210205863,0 175.6495143813428,-38.06388491977819,0 175.6493355264346,-38.06417786775927,0 175.6489710197406,-38.06444794619979,0 175.6492907606883,-38.06454242836012,0 
						
</coordinates>

						</LinearRing>

					</outerBoundaryIs>

				</Polygon>

				<flyID>5</flyID>

				<flyDescription>Keep to 5 knots or less (9.25km / fast walking pace) in this area.</flyDescription>

			</Placemark>
<Placemark>

				<name>5 Knot Zone</name>

				<description>Keep to 5 knots or less (9.25km / fast walking pace) in this area.</description>

				<styleUrl>#style4</styleUrl>

				<Polygon>

					<tessellate>1</tessellate>

					<outerBoundaryIs>

						<LinearRing>

							<coordinates>

							175.6448743368373,-38.06885285108324,0 175.645037789513,-38.0682943897194,0 175.6451721843252,-38.06794080991991,0 175.6453615456031,-38.06760193276041,0 175.6453908106482,-38.0672638056118,0 175.6454846973826,-38.06709085869405,0 175.6456665314873,-38.06689533659912,0 175.6460037251732,-38.06656896886942,0 175.6464708416782,-38.0659805308718,0 175.6466903703941,-38.06566156898711,0 175.6468397550307,-38.06543698074158,0 175.6468554952637,-38.06526243147423,0 175.6469570989882,-38.06511779274312,0 175.6470754974651,-38.06499337642648,0 175.6472482080498,-38.06499338829698,0 175.6473709034374,-38.06505018781487,0 175.6475494197572,-38.06508390015531,0 175.6477439788313,-38.06498153316193,0 175.6479346572469,-38.06493385560186,0 175.6481191305713,-38.06493277394273,0 175.6484638446467,-38.06490873090835,0 175.6488523019822,-38.0648012279934,0 175.6492907606883,-38.06454242836012,0 175.6489710197406,-38.06444794619979,0 175.6486257370399,-38.0646795298947,0 175.6482716236025,-38.06470415632013,0 175.6478041546509,-38.06458033943368,0 175.6474867437073,-38.06439110805614,0 175.647130723057,-38.0643669814109,0 175.6468081901894,-38.06455897343548,0 175.6465540058889,-38.06507160888144,0 175.6465047407876,-38.0655445506364,0 175.6461916315015,-38.06599815381935,0 175.6458846651653,-38.06612705276514,0 175.6456159814441,-38.06636293966301,0 175.645367961079,-38.06673572372605,0 175.6451086034155,-38.06725830107,0 175.644836812839,-38.06829885392997,0 175.6444496745976,-38.06907856738996,0 175.6444185903346,-38.06941453015315,0 175.6446509527207,-38.06944429667697,0 175.6448743368373,-38.06885285108324,0 
						
</coordinates>

						</LinearRing>

					</outerBoundaryIs>

				</Polygon>

				<flyID>6</flyID>

				<flyDescription>Keep to 5 knots or less (9.25km / fast walking pace) in this area.</flyDescription>

			</Placemark>
<Placemark>

				<name>Prohibited Power Driven Vessel</name>

				<description>The use of power driven vessels are prohibited in this area, as the area has been set aside for passive activities.  This area could also contain hazards or extreme shallowing</description>

				<styleUrl>#style1</styleUrl>

				<Polygon>

					<tessellate>1</tessellate>

					<outerBoundaryIs>

						<LinearRing>

							<coordinates>

							175.662941536962,-37.95255567371478,0 175.6630685186383,-37.95262004955823,0 175.6632375712674,-37.95274350023397,0 175.6633978425207,-37.95279296010023,0 175.6634035222443,-37.95270539649884,0 175.6634678457077,-37.95259251324517,0 175.6636638569873,-37.95251538808437,0 175.6639043380696,-37.95255352699516,0 175.6640736599606,-37.95277030470278,0 175.6643140638109,-37.95295505395775,0 175.6641795858537,-37.95314350776337,0 175.6641708760199,-37.95326486473265,0 175.6643745811884,-37.95346163567405,0 175.6646470330498,-37.9537381093467,0 175.6646400797321,-37.95387452450564,0 175.6645641828019,-37.95412148579953,0 175.6645685113857,-37.95418991405775,0 175.6646268882174,-37.95430397102969,0 175.6647706857353,-37.95435784812534,0 175.6649225930242,-37.95426629486392,0 175.6649987599555,-37.95413956783899,0 175.6651343196443,-37.95379333751426,0 175.6651550048242,-37.95338321657683,0 175.6650950421601,-37.95310937926804,0 175.6649634325548,-37.9525691602681,0 175.6647492039853,-37.95211203737267,0 175.6643677754024,-37.95143623159026,0 175.6639694940456,-37.95093965655702,0 175.663714864592,-37.95069392193404,0 175.6635155150919,-37.95064870346119,0 175.6632332453426,-37.95066037860214,0 175.6627464994436,-37.9507604358806,0 175.6626098626379,-37.95074781866403,0 175.6625600411636,-37.95099101391429,0 175.6627078899581,-37.951083444197,0 175.6626454832753,-37.95126585813642,0 175.662537295867,-37.95138288052129,0 175.6624180120839,-37.9515128097946,0 175.6624902077519,-37.9516085414274,0 175.6625206486559,-37.95178348054421,0 175.662941536962,-37.95255567371478,0 
						
</coordinates>

						</LinearRing>

					</outerBoundaryIs>

				</Polygon>

				<flyID>7</flyID>

				<flyDescription>The use of power driven vessels are prohibited in this area, as the area has been set aside for passive activities.  This area could also contain hazards or extreme shallowing</flyDescription>

			</Placemark>
<Placemark>

				<name>Prohibited Power Driven Vessel</name>

				<description>The use of power driven vessels are prohibited in this area, as the area has been set aside for passive activities.  This area could also contain hazards or extreme shallowing</description>

				<styleUrl>#style1</styleUrl>

				<Polygon>

					<tessellate>1</tessellate>

					<outerBoundaryIs>

						<LinearRing>

							<coordinates>

							175.6605085476347,-37.95375715782782,0 175.660893132529,-37.9536445833871,0 175.661575332392,-37.95338809765969,0 175.6618510982291,-37.95323642914951,0 175.662087236201,-37.95309863130856,0 175.6622684162855,-37.95291979448073,0 175.6624664034307,-37.952802138139,0 175.6625254349319,-37.95298206587625,0 175.6626360156009,-37.95301707385952,0 175.6627746630733,-37.95298055833294,0 175.6628054566983,-37.95287488378543,0 175.662941536962,-37.95255567371478,0 175.6625206486559,-37.95178348054421,0 175.6622262700332,-37.95190723445987,0 175.6620035368026,-37.95206978223339,0 175.661988414591,-37.95222302876229,0 175.6617229341395,-37.95241148335771,0 175.6614944981673,-37.95254844279974,0 175.6614414853486,-37.95272299016875,0 175.6610251906108,-37.95283881022102,0 175.6603466138141,-37.95292695022324,0 175.6605085476347,-37.95375715782782,0 
						
</coordinates>

						</LinearRing>

					</outerBoundaryIs>

				</Polygon>

				<flyID>8</flyID>

				<flyDescription>The use of power driven vessels are prohibited in this area, as the area has been set aside for passive activities.  This area could also contain hazards or extreme shallowing</flyDescription>

			</Placemark>
<Placemark>

				<name>Prohibited Power Driven Vessel</name>

				<description>The use of power driven vessels are prohibited in this area, as the area has been set aside for passive activities.  This area could also contain hazards or extreme shallowing</description>

				<styleUrl>#style1</styleUrl>

				<Polygon>

					<tessellate>1</tessellate>

					<outerBoundaryIs>

						<LinearRing>

							<coordinates>

							175.5770721097681,-37.949482931866,0 175.5770648152337,-37.94967561973191,0 175.5769839798604,-37.94980935883928,0 175.5767746337059,-37.94988019175107,0 175.5767426038214,-37.94995476076296,0 175.5766772806514,-37.95006345866771,0 175.5766867561356,-37.95021086934998,0 175.576652912925,-37.95050612737614,0 175.5767735042649,-37.95071921996509,0 175.5768263600181,-37.95103805301941,0 175.5770016634501,-37.95133986622616,0 175.5771020433394,-37.95141942211738,0 175.5772371848971,-37.95154063951429,0 175.5773302842656,-37.95150803644163,0 175.5773385327796,-37.95138499896616,0 175.5771581114904,-37.95120208342139,0 175.5770776929848,-37.95107385024045,0 175.5770665991867,-37.95087715781273,0 175.5769569780664,-37.95078839822263,0 175.5769713111709,-37.95049506862073,0 175.5769584412617,-37.95017555562046,0 175.5772408626852,-37.94978186647957,0 175.5773752645104,-37.94921947265985,0 175.5770721097681,-37.949482931866,0 
						
</coordinates>

						</LinearRing>

					</outerBoundaryIs>

				</Polygon>

				<flyID>9</flyID>

				<flyDescription>The use of power driven vessels are prohibited in this area, as the area has been set aside for passive activities.  This area could also contain hazards or extreme shallowing</flyDescription>

			</Placemark>
<Placemark>

				<name>Prohibited Power Driven Vessel</name>

				<description>The use of power driven vessels are prohibited in this area, as the area has been set aside for passive activities.  This area could also contain hazards or extreme shallowing</description>

				<styleUrl>#style1</styleUrl>

				<Polygon>

					<tessellate>1</tessellate>

					<outerBoundaryIs>

						<LinearRing>

							<coordinates>

							175.5743312562637,-37.94920400351276,0 175.5746533835219,-37.94931703646025,0 175.5749728053664,-37.94931913824841,0 175.5752262520051,-37.94941175476524,0 175.5754391761633,-37.94951791714048,0 175.5756312844979,-37.94949809476634,0 175.5757815216622,-37.94935918880805,0 175.5759685944459,-37.94934554564882,0 175.576147753437,-37.94940806961406,0 175.5765553089625,-37.94952797164604,0 175.5768212224113,-37.94940523755046,0 175.5770596274519,-37.94933923186445,0 175.5770721097681,-37.949482931866,0 175.5773752645104,-37.94921947265985,0 175.5772591095263,-37.9490628314061,0 175.5770175304685,-37.94890946262651,0 175.577209882984,-37.94885925026236,0 175.5773287705665,-37.9488631389961,0 175.5774489210783,-37.94878382672396,0 175.5773597620102,-37.94856435186386,0 175.5771677809561,-37.94840621977593,0 175.576794601651,-37.94825710455024,0 175.5765731061448,-37.94823842617862,0 175.5764182052154,-37.94831614646093,0 175.5764164521533,-37.94850064411011,0 175.5764551356763,-37.94877049286727,0 175.5767582324629,-37.9489295508259,0 175.5769116856381,-37.94909046008382,0 175.576764003961,-37.94920154360801,0 175.5765982647048,-37.94915344220309,0 175.5764436851484,-37.94904057065907,0 175.5760735176113,-37.94872736214598,0 175.575823125303,-37.94877225029858,0 175.5756931459929,-37.94890848767667,0 175.5754244250466,-37.94902254919631,0 175.5751529046378,-37.94904773599059,0 175.574659195002,-37.94895312356576,0 175.5745022491863,-37.94879792487104,0 175.5743312562637,-37.94920400351276,0 
						
</coordinates>

						</LinearRing>

					</outerBoundaryIs>

				</Polygon>

				<flyID>10</flyID>

				<flyDescription>The use of power driven vessels are prohibited in this area, as the area has been set aside for passive activities.  This area could also contain hazards or extreme shallowing</flyDescription>

			</Placemark>
<Placemark>

				<name>Prohibited Power Driven Vessel</name>

				<description>The use of power driven vessels are prohibited in this area, as the area has been set aside for passive activities.  This area could also contain hazards or extreme shallowing</description>

				<styleUrl>#style1</styleUrl>

				<Polygon>

					<tessellate>1</tessellate>

					<outerBoundaryIs>

						<LinearRing>

							<coordinates>

							175.5729115020899,-37.94892085373568,0 175.5732558305648,-37.9493745624959,0 175.5733724323954,-37.94952657093072,0 175.5734220634759,-37.94976888969398,0 175.5733100912835,-37.94978603825441,0 175.5731584557501,-37.94984481268778,0 175.5731181670089,-37.94996202969838,0 175.5731448851249,-37.95014304934522,0 175.5733737130018,-37.95012300117191,0 175.57350068928,-37.95016206423819,0 175.5737134660773,-37.95022832594528,0 175.5740036673378,-37.95024753720662,0 175.5743112086529,-37.95016975793261,0 175.5743165526396,-37.95006844535524,0 175.5740019199197,-37.94993817968747,0 175.5739676546742,-37.94972016984502,0 175.5739428207473,-37.94965601715672,0 175.5737287219492,-37.94934875808934,0 175.5735306777086,-37.94919480585779,0 175.5737436381138,-37.94909824828267,0 175.5740262418345,-37.94910746354318,0 175.5743312562637,-37.94920400351276,0 175.5745022491863,-37.94879792487104,0 175.5742527981186,-37.94871145116352,0 175.5739311712787,-37.94866055450914,0 175.5736679994133,-37.94866308290882,0 175.5734422686043,-37.94877896554893,0 175.5729471730195,-37.94831133030953,0 175.5728923130517,-37.94809437559864,0 175.5734004475964,-37.94828182514832,0 175.573721334426,-37.94823265029619,0 175.5737796158485,-37.94813743928073,0 175.5738937622546,-37.94792037390897,0 175.5740051540622,-37.94794242374816,0 175.5740649406968,-37.94799206870587,0 175.5742940968074,-37.948037238682,0 175.5743722222272,-37.94795064469712,0 175.5747502938041,-37.94795064845911,0 175.5748318684548,-37.9477886958582,0 175.5750235567577,-37.94777924325001,0 175.5750463441263,-37.94771236452694,0 175.5753715949866,-37.94743443276228,0 175.5755420086682,-37.94728188056048,0 175.575814281925,-37.94702271189494,0 175.5759515150307,-37.94703543670278,0 175.5761436994698,-37.94659032700281,0 175.5744172870339,-37.94675131825096,0 175.5745436037937,-37.94710708713158,0 175.5744142489638,-37.94729200323476,0 175.5743147190013,-37.94749055774373,0 175.5736549535682,-37.94759454521932,0 175.5734705543576,-37.94781568850203,0 175.5733957852918,-37.94800675572619,0 175.5728821621053,-37.94774021046894,0 175.5725525170193,-37.94777602717678,0 175.5724373947789,-37.94808963951752,0 175.5724542364459,-37.94860930034931,0 175.5729115020899,-37.94892085373568,0 
						
</coordinates>

						</LinearRing>

					</outerBoundaryIs>

				</Polygon>

				<flyID>11</flyID>

				<flyDescription>The use of power driven vessels are prohibited in this area, as the area has been set aside for passive activities.  This area could also contain hazards or extreme shallowing</flyDescription>

			</Placemark>
<Placemark>

				<name>Prohibited Jetski (PWC) Zone</name>

				<description>The use of jetski's (PWC -personal water craft) in this area is prohibited.</description>

				<styleUrl>#style1</styleUrl>

				<Polygon>

					<tessellate>1</tessellate>

					<outerBoundaryIs>

						<LinearRing>

							<coordinates>

							175.5557385056244,-37.92203804560989,0 175.5561121216807,-37.92234585574457,0 175.5562887457244,-37.92259542153002,0 175.5563628417102,-37.92288235613062,0 175.556449572456,-37.92297471581185,0 175.556621454346,-37.92299105463408,0 175.5567095509577,-37.92306269254771,0 175.5567639363871,-37.92320808275044,0 175.5569292280797,-37.92331439410109,0 175.5571267863527,-37.92339831537677,0 175.5571261877136,-37.92332883552935,0 175.5572734982586,-37.92332432537442,0 175.5573971470395,-37.92341866120964,0 175.5573306930485,-37.92351506139544,0 175.5574254187058,-37.92357116170018,0 175.5574324697143,-37.92369212199288,0 175.5575880778255,-37.92374052839777,0 175.5576778048134,-37.9239908734348,0 175.5578900034823,-37.92409073044424,0 175.5581127758068,-37.92420255430607,0 175.5583100162939,-37.92424436103197,0 175.5585501435286,-37.92422734532566,0 175.558806571005,-37.92439762459598,0 175.5591509083762,-37.92433114798106,0 175.5592222469151,-37.92422040090542,0 175.5593430010418,-37.92421478596434,0 175.5595940654401,-37.92438686644884,0 175.559685823964,-37.92437699146211,0 175.5596913768566,-37.92430778241431,0 175.5595982392353,-37.92420623826369,0 175.5597282834625,-37.92412050350207,0 175.5595130989032,-37.92405405606748,0 175.5591778983752,-37.92405762425076,0 175.5587763904395,-37.9240809030122,0 175.55874871771,-37.92402495136506,0 175.5585766508213,-37.92402261888408,0 175.5584422924948,-37.92412558036148,0 175.5583469839582,-37.92409849752411,0 175.5583277697685,-37.92402201533236,0 175.5581343059129,-37.92388233191191,0 175.5578552070948,-37.9235567882616,0 175.5573900188664,-37.92315867038468,0 175.5572260497674,-37.92311775014724,0 175.556927944237,-37.92244579901409,0 175.55688410731,-37.92235322688386,0 175.5567100141919,-37.92208189937593,0 175.5564929106193,-37.92200431301635,0 175.5564586895532,-37.92177075085118,0 175.5564165427882,-37.92145576548565,0 175.5557385056244,-37.92203804560989,0 
						
</coordinates>

						</LinearRing>

					</outerBoundaryIs>

				</Polygon>

				<flyID>12</flyID>

				<flyDescription>The use of jetski's (PWC -personal water craft) in this area is prohibited.</flyDescription>

			</Placemark>
<Placemark>

				<name>Prohibited Jetski (PWC) Zone</name>

				<description>The use of jetski's (PWC -personal water craft) in this area is prohibited.</description>

				<styleUrl>#style1</styleUrl>

				<Polygon>

					<tessellate>1</tessellate>

					<outerBoundaryIs>

						<LinearRing>

							<coordinates>

							175.5514817465031,-37.91836897117422,0 175.5515222872648,-37.91859080811014,0 175.5516015496048,-37.91864279682649,0 175.5516505667735,-37.91877932476427,0 175.5517009047134,-37.91882455372916,0 175.5519365169524,-37.9190189502116,0 175.5520156508144,-37.91923155081965,0 175.552022822929,-37.91949033666425,0 175.5521380145605,-37.91955043015258,0 175.5522633257741,-37.91958621329103,0 175.5524772918236,-37.91964579344748,0 175.5526246813913,-37.91973548534338,0 175.5527555000508,-37.91974183009052,0 175.5528246548884,-37.91978979314088,0 175.5530091847785,-37.91990411283929,0 175.5531421227201,-37.91987696629284,0 175.5532347291617,-37.91994592675754,0 175.5532933210955,-37.9200852448468,0 175.5534348868316,-37.92014752823352,0 175.5535462412232,-37.92027242364492,0 175.5536552782889,-37.92044921151205,0 175.5538566765897,-37.92052720735703,0 175.5538408384587,-37.92058663442266,0 175.5541097991495,-37.9207720692203,0 175.5543496835049,-37.92086870067723,0 175.5544591489055,-37.92085919782607,0 175.5547171016754,-37.92102832181242,0 175.5548207209962,-37.92118605664815,0 175.55519699097,-37.92153153677922,0 175.5552427966554,-37.92165001041893,0 175.5552997788339,-37.92172380886628,0 175.5554696088395,-37.92184753940875,0 175.5554610582586,-37.9219088959506,0 175.5556408738898,-37.92196746674858,0 175.5557385056244,-37.92203804560989,0 175.5564165427882,-37.92145576548565,0 175.5562702762481,-37.92154517521061,0 175.5559658661096,-37.92151571539865,0 175.5557900633295,-37.92133921064811,0 175.5557360005312,-37.92103184960343,0 175.5553024846308,-37.92066653052264,0 175.555299286982,-37.92049229534366,0 175.5552554468399,-37.9204028272808,0 175.5550321393129,-37.92032042882525,0 175.5550283964272,-37.9202257405347,0 175.5549432540044,-37.92022201679144,0 175.5547414644407,-37.92009938366175,0 175.554752343901,-37.92003168936205,0 175.5546602034958,-37.91991757665558,0 175.5545570436298,-37.91989555507401,0 175.5543218420311,-37.91973723668562,0 175.5538223479524,-37.91957988720833,0 175.5538812416509,-37.9193187655199,0 175.553637739702,-37.91918624052731,0 175.5533034310272,-37.91912060361591,0 175.552735415724,-37.91892565787329,0 175.5526796800414,-37.91870979571834,0 175.5524978775915,-37.91856741970923,0 175.552292062851,-37.91823347055716,0 175.5522474095521,-37.91785404402454,0 175.5514817465031,-37.91836897117422,0 
						
</coordinates>

						</LinearRing>

					</outerBoundaryIs>

				</Polygon>

				<flyID>13</flyID>

				<flyDescription>The use of jetski's (PWC -personal water craft) in this area is prohibited.</flyDescription>

			</Placemark>
<Placemark>

				<name>Prohibited Jetski (PWC) Zone</name>

				<description>The use of jetski's (PWC -personal water craft) in this area is prohibited.</description>

				<styleUrl>#style1</styleUrl>

				<Polygon>

					<tessellate>1</tessellate>

					<outerBoundaryIs>

						<LinearRing>

							<coordinates>

							175.5479614131491,-37.91683805932682,0 175.5482244791552,-37.91669402194443,0 175.5485682637897,-37.91656282840217,0 175.5489028011304,-37.91646822535729,0 175.5491494364628,-37.91667651085895,0 175.5492904646525,-37.91669725579015,0 175.5494931424847,-37.91679529199258,0 175.5496872131675,-37.91700114005623,0 175.5500062061928,-37.91723640294823,0 175.550374483639,-37.91747590074936,0 175.5505395973559,-37.91762059973819,0 175.5507389166523,-37.91770561661942,0 175.5508796451636,-37.91781672822378,0 175.550971023483,-37.91797471349383,0 175.5511758037879,-37.91804395904371,0 175.5512653332651,-37.91813206747373,0 175.5514817465031,-37.91836897117422,0 175.5522474095521,-37.91785404402454,0 175.5515115247592,-37.91728412124026,0 175.5514431672663,-37.91710838675485,0 175.5510391550923,-37.91688628678902,0 175.5507608395734,-37.91702535706985,0 175.5511834940012,-37.91732174511869,0 175.5518479315257,-37.91780325320802,0 175.5515633429533,-37.91801925265582,0 175.5498794348033,-37.91681292931361,0 175.5501382760733,-37.91657253591036,0 175.5507571593089,-37.91702399118164,0 175.5510393398078,-37.91688480942077,0 175.5505051057812,-37.91659023960317,0 175.5502941761084,-37.91636740228665,0 175.5494956377013,-37.91594114455502,0 175.54926819758,-37.91588217372131,0 175.5484676338247,-37.91588964442167,0 175.5479851422671,-37.91605900974916,0 175.5474823868089,-37.9162517087518,0 175.5472213226622,-37.91641911593379,0 175.5476908634641,-37.91695249119569,0 175.5479614131491,-37.91683805932682,0 
						
</coordinates>

						</LinearRing>

					</outerBoundaryIs>

				</Polygon>

				<flyID>14</flyID>

				<flyDescription>The use of jetski's (PWC -personal water craft) in this area is prohibited.</flyDescription>

			</Placemark>
<Placemark>

				<name>Prohibited Jetski (PWC) Zone+5 Knot Zone</name>

				<description>5 Knot Zone-Keep to 5 knots or less (9.25km / fast walking pace) in this area.</description>

				<styleUrl>#style5</styleUrl>

				<Polygon>

					<tessellate>1</tessellate>

					<outerBoundaryIs>

						<LinearRing>

							<coordinates>

							175.5456140484829,-37.91853848438385,0 175.5455635053486,-37.91816531963537,0 175.5457147485185,-37.91812082807198,0 175.5459126541457,-37.91799706904593,0 175.5462731670002,-37.91767833527603,0 175.5470022463732,-37.91728324078409,0 175.5473640223537,-37.91716971276055,0 175.5476755145572,-37.91695735237393,0 175.5472128225526,-37.91641330810172,0 175.5462282021508,-37.91687185420363,0 175.54584634121,-37.91686996535708,0 175.5457528359137,-37.91672255988445,0 175.545451880063,-37.91677114662515,0 175.5453821929889,-37.91693945068191,0 175.5453967594499,-37.91709178765822,0 175.5453038394611,-37.91734299325882,0 175.5450860053057,-37.91745082602228,0 175.5451359428545,-37.91754987819356,0 175.5449076493004,-37.91767067808719,0 175.5449148909452,-37.91758152809652,0 175.544787435776,-37.91746846269957,0 175.5447730200608,-37.91731172381323,0 175.544913187104,-37.91726914872942,0 175.5448945794061,-37.91716722837962,0 175.5446835616575,-37.91709774222106,0 175.5444774553837,-37.9171651120988,0 175.5444229769681,-37.91707988003539,0 175.5442100580562,-37.91702550397466,0 175.5440223515185,-37.91716028624371,0 175.5440029545435,-37.91730680952316,0 175.5440692453729,-37.91750896769868,0 175.5438645563913,-37.91767370311199,0 175.5435737022896,-37.91768309123776,0 175.5434685364893,-37.9175875896411,0 175.5432038337206,-37.91745383559533,0 175.5431586934726,-37.91753689789905,0 175.5431463497959,-37.91792882137698,0 175.5430841577395,-37.91815176510666,0 175.5432451373247,-37.91826279078713,0 175.5433311814007,-37.91821793858222,0 175.54343833927,-37.91811669321482,0 175.5436536554437,-37.91810569187268,0 175.5437341976941,-37.91815155856596,0 175.5439546735294,-37.9181515630744,0 175.5440872934808,-37.91828750790604,0 175.5440884064243,-37.91845767129113,0 175.544264901531,-37.91850383071676,0 175.5444897542864,-37.91850136097344,0 175.5446749484733,-37.91853566318628,0 175.5448325724809,-37.91870522956649,0 175.5449230907703,-37.91890246528458,0 175.5451453999281,-37.91912812163632,0 175.5456140484829,-37.91853848438385,0 
						
</coordinates>

						</LinearRing>

					</outerBoundaryIs>

				</Polygon>

				<flyID>15</flyID>

				<flyDescription>5 Knot Zone-Keep to 5 knots or less (9.25km / fast walking pace) in this area.</flyDescription>

			</Placemark>
<Placemark>

				<name>Prohibited Jetski (PWC) Zone+5 Knot Zone</name>

				<description>5 Knot Zone-Keep to 5 knots or less (9.25km / fast walking pace) in this area.</description>

				<styleUrl>#style5</styleUrl>

				<Polygon>

					<tessellate>1</tessellate>

					<outerBoundaryIs>

						<LinearRing>

							<coordinates>

							175.5457669770819,-37.92015367339365,0 175.5457678743508,-37.91991404075513,0 175.5459640271513,-37.91969693872134,0 175.5462781786497,-37.91965134509406,0 175.5466283033673,-37.91993717924457,0 175.5469911900828,-37.92025083685185,0 175.5473710736264,-37.92039843321512,0 175.5476022323099,-37.92044317651389,0 175.5478725122339,-37.92053724387356,0 175.5478825576746,-37.92071715089264,0 175.5482835885558,-37.92085960759949,0 175.5485743558828,-37.92087653621729,0 175.5485657826328,-37.92062705479638,0 175.5484832016599,-37.92060751765458,0 175.5483110710021,-37.92048515004125,0 175.5482563093086,-37.92028421820822,0 175.5483969740176,-37.92009229693115,0 175.5483132861118,-37.9200189236487,0 175.5481863608116,-37.92005949464297,0 175.5480071496496,-37.92010029768805,0 175.5478288421553,-37.92007035598533,0 175.5476251510802,-37.9199638101552,0 175.5474784425273,-37.91982022120494,0 175.547202584737,-37.91951840499749,0 175.5469387909033,-37.91938915542829,0 175.5465511834878,-37.91911471761507,0 175.54628026762,-37.9190082070794,0 175.5462611517987,-37.9189252481653,0 175.5460818653012,-37.9185998438296,0 175.5457897027173,-37.91862449601851,0 175.5456140484829,-37.91853848438385,0 175.5451453999281,-37.91912812163632,0 175.5451340935188,-37.9192813063185,0 175.544849429855,-37.91966519141806,0 175.5448639865501,-37.91997212185748,0 175.5457669770819,-37.92015367339365,0 
						
</coordinates>

						</LinearRing>

					</outerBoundaryIs>

				</Polygon>

				<flyID>16</flyID>

				<flyDescription>5 Knot Zone-Keep to 5 knots or less (9.25km / fast walking pace) in this area.</flyDescription>

			</Placemark>
<Placemark>

				<name>Prohibited Jetski (PWC) Zone+5 Knot Zone</name>

				<description>5 Knot Zone-Keep to 5 knots or less (9.25km / fast walking pace) in this area.</description>

				<styleUrl>#style5</styleUrl>

				<Polygon>

					<tessellate>1</tessellate>

					<outerBoundaryIs>

						<LinearRing>

							<coordinates>

							175.5484680122067,-37.92358481155477,0 175.548355198678,-37.92329455606131,0 175.5482104371405,-37.92299367325521,0 175.5478577273653,-37.92259074010874,0 175.5476198279672,-37.92258805859644,0 175.5473751771802,-37.9224207095125,0 175.5469229490271,-37.92222341865163,0 175.5466737851862,-37.92206650343245,0 175.5462913632538,-37.92189183794061,0 175.5461706570938,-37.92164010040148,0 175.5461178550609,-37.92136338734806,0 175.5460356940153,-37.92115730180698,0 175.5457906193531,-37.92088746664295,0 175.5456662405861,-37.92064125319122,0 175.5455927439423,-37.92041987625913,0 175.5457669770819,-37.92015367339365,0 175.5448639865501,-37.91997212185748,0 175.544915270766,-37.92007623592897,0 175.5449499967738,-37.92029037107683,0 175.5449083392654,-37.92053770773029,0 175.5450100225368,-37.92093404031318,0 175.5452637864304,-37.92126519204379,0 175.5454833005229,-37.92162636977422,0 175.5457008398685,-37.92179423248604,0 175.5458278216237,-37.92204059589195,0 175.5459157116612,-37.92211049314324,0 175.5461037040046,-37.92221141714556,0 175.5460811153299,-37.92237108465846,0 175.5464245860818,-37.92256864147112,0 175.5474453097006,-37.92297280070271,0 175.5475981540375,-37.92316887005273,0 175.5477748339994,-37.92348106128789,0 175.5477762088114,-37.92365036537114,0 175.5486009783186,-37.92446468677307,0 175.5487545845047,-37.92422693939963,0 175.5484680122067,-37.92358481155477,0 
						
</coordinates>

						</LinearRing>

					</outerBoundaryIs>

				</Polygon>

				<flyID>17</flyID>

				<flyDescription>5 Knot Zone-Keep to 5 knots or less (9.25km / fast walking pace) in this area.</flyDescription>

			</Placemark>
<Placemark>

				<name>Hydro Dam Safety Zone</name>

				<description>All activities are prohibited within 200m of the hydro dam structure</description>

				<styleUrl>#style0</styleUrl>

				<Polygon>

					<tessellate>1</tessellate>

					<outerBoundaryIs>

						<LinearRing>

							<coordinates>

							175.5396694536479,-37.92355985734554,0 175.5396459709643,-37.92308479752612,0 175.5397372598497,-37.92305719953102,0 175.5396680771766,-37.9229560927369,0 175.5395728121236,-37.92284328716622,0 175.5395078790558,-37.92284520622815,0 175.5395519717306,-37.92277923586005,0 175.539564776609,-37.9226681785257,0 175.5394929754753,-37.92259199649111,0 175.5392262370461,-37.92237888354578,0 175.5388151796697,-37.92213832577242,0 175.5386978343123,-37.92213799196399,0 175.5384877959442,-37.9221719063519,0 175.5383521610895,-37.92207410416617,0 175.5381313201461,-37.92224318180432,0 175.5381014570375,-37.92245943878321,0 175.5381103955746,-37.92282754249098,0 175.5382344598288,-37.92285673437656,0 175.5383271544013,-37.92285612837016,0 175.5384193446139,-37.9228854748156,0 175.5384967413693,-37.9229990165451,0 175.5385780601174,-37.92299216637317,0 175.5387369336133,-37.92317625600077,0 175.5387539819647,-37.92332199689488,0 175.5386668723456,-37.92347315609574,0 175.538678136975,-37.92359953914571,0 175.538685979743,-37.92375101842234,0 175.5396694536479,-37.92355985734554,0 
						
</coordinates>

						</LinearRing>

					</outerBoundaryIs>

				</Polygon>

				<flyID>18</flyID>

				<flyDescription>All activities are prohibited within 200m of the hydro dam structure</flyDescription>

			</Placemark>
<Placemark>

				<name>Hydro Dam Safety Zone</name>

				<description>All activities are prohibited within 200m of the hydro dam structure</description>

				<styleUrl>#style0</styleUrl>

				<Polygon>

					<tessellate>1</tessellate>

					<outerBoundaryIs>

						<LinearRing>

							<coordinates>

							175.5391359276982,-37.92464167283033,0 175.5390824944075,-37.92455193922817,0 175.5391488139741,-37.92413116760798,0 175.5390920936933,-37.92410454069147,0 175.539159382837,-37.92389253512965,0 175.5392152015752,-37.92388892359054,0 175.5392037993319,-37.92385567756821,0 175.539397879292,-37.92373056761072,0 175.5394639042754,-37.92377703909695,0 175.5396694536479,-37.92355985734554,0 175.538685979743,-37.92375101842234,0 175.5385827429923,-37.92423298822312,0 175.5385860636182,-37.92446154980411,0 175.5387263090217,-37.92482014326406,0 175.5387329636936,-37.92488987508819,0 175.5388260241677,-37.9250154666947,0 175.5388405292369,-37.92506739039273,0 175.5389596326068,-37.92511171129397,0 175.5391560247496,-37.92511654458523,0 175.5393756572171,-37.92503507787734,0 175.5395165131506,-37.92485195914226,0 175.5395472591054,-37.92467687229943,0 175.5391359276982,-37.92464167283033,0 
						
</coordinates>

						</LinearRing>

					</outerBoundaryIs>

				</Polygon>

				<flyID>19</flyID>

				<flyDescription>All activities are prohibited within 200m of the hydro dam structure</flyDescription>

			</Placemark>
<Placemark>

				<name>Slalom Course</name>

				<description>This area is reserved for those using the slalom course. Only one vessel is permitted at a time on the course.</description>

				<styleUrl>#style0</styleUrl>

				<Polygon>

					<tessellate>1</tessellate>

					<outerBoundaryIs>

						<LinearRing>

							<coordinates>

							175.6634887307985,-37.9466970723003,0 175.664959263525,-37.94538449166767,0 175.6647926749331,-37.94533692001919,0 175.664743004142,-37.94522084520229,0 175.6649393687334,-37.94496305947599,0 175.6651729345012,-37.94481886720713,0 175.665599266506,-37.94473071031578,0 175.6659909169329,-37.94472825602539,0 175.6663491740081,-37.94491151179982,0 175.6666977150993,-37.94475990321784,0 175.6671395763452,-37.94472337777292,0 175.6672479497051,-37.94446366294229,0 175.667201889602,-37.94433134833719,0 175.6674993973159,-37.94406607496337,0 175.6673948938169,-37.9439330466252,0 175.6671026309619,-37.94386877029093,0 175.6661845647875,-37.94396447829922,0 175.6659941934847,-37.94404341589753,0 175.6655756729849,-37.9443062745046,0 175.6649593299028,-37.94445334139791,0 175.6643802270936,-37.94483877395547,0 175.6637105603781,-37.94516511375538,0 175.6634452130247,-37.94537149244614,0 175.6632055338968,-37.94574554758938,0 175.6630283562948,-37.94590263955975,0 175.6628449496622,-37.94603806465974,0 175.6634887307985,-37.9466970723003,0 
						
</coordinates>

						</LinearRing>

					</outerBoundaryIs>

				</Polygon>

				<flyID>20</flyID>

				<flyDescription>This area is reserved for those using the slalom course. Only one vessel is permitted at a time on the course.</flyDescription>

			</Placemark>
<Placemark>

				<name>Slalom Course</name>

				<description>This area is reserved for those using the slalom course. Only one vessel is permitted at a time on the course.</description>

				<styleUrl>#style0</styleUrl>

				<Polygon>

					<tessellate>1</tessellate>

					<outerBoundaryIs>

						<LinearRing>

							<coordinates>

							175.6611397540547,-37.95079542842919,0 175.6614485639358,-37.95066644198573,0 175.6614940554142,-37.95040922736717,0 175.6616927979317,-37.95025282251481,0 175.6619270518147,-37.95022749337486,0 175.6625992523486,-37.94994585377401,0 175.6625802824702,-37.94976751267026,0 175.6626492641143,-37.9495960673054,0 175.6630804875429,-37.94914532150533,0 175.6635990688654,-37.94868073061369,0 175.6640562904133,-37.94855145743929,0 175.6644462239333,-37.94842200120449,0 175.6646133084775,-37.94826463927979,0 175.6642330281681,-37.94807455758812,0 175.6639779296745,-37.94787295409893,0 175.6635304182094,-37.94769436251902,0 175.6634049317557,-37.94740131841333,0 175.663430854316,-37.9471602566659,0 175.6635104037657,-37.94691867181608,0 175.6634887307985,-37.9466970723003,0 175.6628449496622,-37.94603806465974,0 175.6627083422565,-37.9460274846004,0 175.6625332600844,-37.94606291398439,0 175.662432169511,-37.94614828512297,0 175.6623688195019,-37.94619733303397,0 175.6623106109255,-37.94626656689209,0 175.6621143423326,-37.94651642983509,0 175.662203341715,-37.94670016520973,0 175.6619542414712,-37.94848274183288,0 175.6606067997434,-37.94935057095216,0 175.6600776090939,-37.94993646653568,0 175.6599873839131,-37.95007164040658,0 175.6602626345446,-37.95031891928661,0 175.6607530760868,-37.95081417978803,0 175.6611397540547,-37.95079542842919,0 
						
</coordinates>

						</LinearRing>

					</outerBoundaryIs>

				</Polygon>

				<flyID>21</flyID>

				<flyDescription>This area is reserved for those using the slalom course. Only one vessel is permitted at a time on the course.</flyDescription>

			</Placemark>
<Placemark>

				<name>Rowing Zone</name>

				<description>This area is reserved for rowers.</description>

				<styleUrl>#style0</styleUrl>

				<Polygon>

					<tessellate>1</tessellate>

					<outerBoundaryIs>

						<LinearRing>

							<coordinates>

							175.556907347388,-37.94346238881752,0 175.5575262228652,-37.94297382520364,0 175.5431806690817,-37.9286003108717,0 175.5424907164442,-37.9290102836317,0 175.556907347388,-37.94346238881752,0 
						
</coordinates>

						</LinearRing>

					</outerBoundaryIs>

				</Polygon>

				<flyID>22</flyID>

				<flyDescription>This area is reserved for rowers.</flyDescription>

			</Placemark>
<Placemark>

				<name>Slalom Course</name>

				<description>This area is reserved for those using the slalom course. Only one vessel is permitted at a time on the course.</description>

				<styleUrl>#style0</styleUrl>

				<Polygon>

					<tessellate>1</tessellate>

					<outerBoundaryIs>

						<LinearRing>

							<coordinates>

							175.5540637719483,-37.94268953537026,0 175.5546774106308,-37.9427114407797,0 175.5550678798925,-37.943068188745,0 175.5551953271508,-37.94274005156748,0 175.551606903761,-37.94101361637852,0 175.5512482108639,-37.94131755978975,0 175.5540637719483,-37.94268953537026,0 
						
</coordinates>

						</LinearRing>

					</outerBoundaryIs>

				</Polygon>

				<flyID>23</flyID>

				<flyDescription>This area is reserved for those using the slalom course. Only one vessel is permitted at a time on the course.</flyDescription>

			</Placemark>
<Placemark>

				<name>Slalom Course</name>

				<description>This area is reserved for those using the slalom course. Only one vessel is permitted at a time on the course.</description>

				<styleUrl>#style0</styleUrl>

				<Polygon>

					<tessellate>1</tessellate>

					<outerBoundaryIs>

						<LinearRing>

							<coordinates>

							175.5515775955552,-37.91801979119632,0 175.5518340890829,-37.91779705163905,0 175.5501327879219,-37.91658480404674,0 175.5498895858228,-37.91680953747301,0 175.5515775955552,-37.91801979119632,0 
						
</coordinates>

						</LinearRing>

					</outerBoundaryIs>

				</Polygon>

				<flyID>24</flyID>

				<flyDescription>This area is reserved for those using the slalom course. Only one vessel is permitted at a time on the course.</flyDescription>

			</Placemark>
<Placemark>

				<name>Slalom Course</name>

				<description>This area is reserved for those using the slalom course. Only one vessel is permitted at a time on the course.</description>

				<styleUrl>#style0</styleUrl>

				<Polygon>

					<tessellate>1</tessellate>

					<outerBoundaryIs>

						<LinearRing>

							<coordinates>

							175.6545988251271,-37.97243894155481,0 175.6550172908642,-37.97250097871971,0 175.6555608357874,-37.96952892271546,0 175.6551379553803,-37.96948559234964,0 175.6545988251271,-37.97243894155481,0 
						
</coordinates>

						</LinearRing>

					</outerBoundaryIs>

				</Polygon>

				<flyID>25</flyID>

				<flyDescription>This area is reserved for those using the slalom course. Only one vessel is permitted at a time on the course.</flyDescription>

			</Placemark>
<Placemark>

				<name>Slalom Course</name>

				<description>This area is reserved for those using the slalom course. Only one vessel is permitted at a time on the course.</description>

				<styleUrl>#style0</styleUrl>

				<Polygon>

					<tessellate>1</tessellate>

					<outerBoundaryIs>

						<LinearRing>

							<coordinates>

							175.656793991965,-37.9616911171662,0 175.6572117401811,-37.95984002809929,0 175.6575495435121,-37.95851643833573,0 175.6569548049515,-37.95843216111638,0 175.6561297731182,-37.96157300057168,0 175.656793991965,-37.9616911171662,0 
						
</coordinates>

						</LinearRing>

					</outerBoundaryIs>

				</Polygon>

				<flyID>26</flyID>

				<flyDescription>This area is reserved for those using the slalom course. Only one vessel is permitted at a time on the course.</flyDescription>

			</Placemark>
<Placemark>

				<name>Hydro Dam Safety Zone</name>

				<description>All activities are prohibited within 200m of the hydro dam structure</description>

				<styleUrl>#style0</styleUrl>

				<Polygon>

					<tessellate>1</tessellate>

					<outerBoundaryIs>

						<LinearRing>

							<coordinates>

							175.5417380832774,-37.92386176246578,0 175.5415551030195,-37.92390306602038,0 175.5414250004251,-37.92398888981342,0 175.5414465441858,-37.92412623352709,0 175.5411533581117,-37.92414480178035,0 175.5406836422217,-37.92413376858521,0 175.5404277679874,-37.92410890352311,0 175.5402800662517,-37.92392468652319,0 175.5398816047705,-37.92423714974476,0 175.5398346842832,-37.92438485996818,0 175.5396842125955,-37.92482073401815,0 175.5395053479712,-37.92507609962305,0 175.5392607778977,-37.92523699811107,0 175.5391975551351,-37.92525180775019,0 175.5390603258478,-37.92528633329413,0 175.5387853579704,-37.92532152917524,0 175.5385751659414,-37.92533366234085,0 175.5382820612227,-37.92529049166481,0 175.5380322531344,-37.92517554698051,0 175.537851447947,-37.92511244025824,0 175.537696432879,-37.92502798859253,0 175.5376101828489,-37.9250798289814,0 175.5378742930387,-37.92539429706764,0 175.5379411674744,-37.92543694792236,0 175.5383194159212,-37.92567943185177,0 175.5384381852895,-37.92590283574204,0 175.538690202545,-37.92597136582752,0 175.5386265643359,-37.92616290222241,0 175.5385726431366,-37.92619720590677,0 175.5383777619286,-37.92635331744254,0 175.5385612775447,-37.92656699323185,0 175.5388029343887,-37.9267761474915,0 175.5389130306387,-37.92683392451213,0 175.5391500863005,-37.92691912576611,0 175.5393506346111,-37.92700844952113,0 175.5395610883672,-37.92719523323076,0 175.5398749344115,-37.9272142236572,0 175.5401297051042,-37.92711127739821,0 175.5403694297133,-37.92684691850929,0 175.540668523494,-37.92671078727581,0 175.5407500709751,-37.9265689674918,0 175.540859319966,-37.92658141444171,0 175.54104311263,-37.92660517993863,0 175.5413597508902,-37.92676019016543,0 175.5418422699928,-37.92373753870393,0 175.5417380832774,-37.92386176246578,0 
						
</coordinates>

						</LinearRing>

					</outerBoundaryIs>

				</Polygon>

				<flyID>27</flyID>

				<flyDescription>All activities are prohibited within 200m of the hydro dam structure</flyDescription>

			</Placemark>
<Placemark>

				<name>Towing Access Lanes</name>

				<description>In this area you may tow at speed from the shore.  The lane is marked by orange posts with horizontal black bands.  Proceed in an anti-clockwise direction.</description>

				<styleUrl>#style0</styleUrl>

				<Polygon>

					<tessellate>1</tessellate>

					<outerBoundaryIs>

						<LinearRing>

							<coordinates>

							175.5503741505598,-37.94013557138773,0 175.550612251392,-37.93998538230709,0 175.5500597625218,-37.93947820501778,0 175.5497953364987,-37.93967318373024,0 175.5503741505598,-37.94013557138773,0 
						
</coordinates>

						</LinearRing>

					</outerBoundaryIs>

				</Polygon>

				<flyID>28</flyID>

				<flyDescription>In this area you may tow at speed from the shore.  The lane is marked by orange posts with horizontal black bands.  Proceed in an anti-clockwise direction.</flyDescription>

			</Placemark>
<Placemark>

				<name>Towing Access Lanes</name>

				<description>In this area you may tow at speed from the shore.  The lane is marked by orange posts with horizontal black bands.  Proceed in an anti-clockwise direction.</description>

				<styleUrl>#style0</styleUrl>

				<Polygon>

					<tessellate>1</tessellate>

					<outerBoundaryIs>

						<LinearRing>

							<coordinates>

							175.5425598973319,-37.93093059815993,0 175.5430167289942,-37.93162221748023,0 175.5432659165934,-37.93147259700603,0 175.5428989691884,-37.93076131106811,0 175.5428465626173,-37.93027329408028,0 175.5424399953477,-37.93035471164029,0 175.5425598973319,-37.93093059815993,0 
						
</coordinates>

						</LinearRing>

					</outerBoundaryIs>

				</Polygon>

				<flyID>29</flyID>

				<flyDescription>In this area you may tow at speed from the shore.  The lane is marked by orange posts with horizontal black bands.  Proceed in an anti-clockwise direction.</flyDescription>

			</Placemark>
<Placemark>

				<name>Towing Access Lanes</name>

				<description>In this area you may tow at speed from the shore.  The lane is marked by orange posts with horizontal black bands.  Proceed in an anti-clockwise direction.</description>

				<styleUrl>#style0</styleUrl>

				<Polygon>

					<tessellate>1</tessellate>

					<outerBoundaryIs>

						<LinearRing>

							<coordinates>

							175.5420426360148,-37.92755816489783,0 175.5417201446767,-37.92692827784427,0 175.5414056730929,-37.92703511691018,0 175.5415278009024,-37.92727623281781,0 175.5417480260019,-37.92763102614469,0 175.5420426360148,-37.92755816489783,0 
						
</coordinates>

						</LinearRing>

					</outerBoundaryIs>

				</Polygon>

				<flyID>30</flyID>

				<flyDescription>In this area you may tow at speed from the shore.  The lane is marked by orange posts with horizontal black bands.  Proceed in an anti-clockwise direction.</flyDescription>

			</Placemark>
<Placemark>

				<name>Towing Access Lanes</name>

				<description>In this area you may tow at speed from the shore.  The lane is marked by orange posts with horizontal black bands.  Proceed in an anti-clockwise direction.</description>

				<styleUrl>#style0</styleUrl>

				<Polygon>

					<tessellate>1</tessellate>

					<outerBoundaryIs>

						<LinearRing>

							<coordinates>

							175.5488464819561,-37.93208395191666,0 175.5490641029681,-37.93241942267737,0 175.5493559282112,-37.93234557759347,0 175.5490360501192,-37.93171627847134,0 175.5487252605547,-37.93182208205301,0 175.5488464819561,-37.93208395191666,0 
						
</coordinates>

						</LinearRing>

					</outerBoundaryIs>

				</Polygon>

				<flyID>31</flyID>

				<flyDescription>In this area you may tow at speed from the shore.  The lane is marked by orange posts with horizontal black bands.  Proceed in an anti-clockwise direction.</flyDescription>

			</Placemark>
<Placemark>

				<name>Towing Access Lanes</name>

				<description>In this area you may tow at speed from the shore.  The lane is marked by orange posts with horizontal black bands.  Proceed in an anti-clockwise direction.</description>

				<styleUrl>#style0</styleUrl>

				<Polygon>

					<tessellate>1</tessellate>

					<outerBoundaryIs>

						<LinearRing>

							<coordinates>

							175.5528578426178,-37.93542939628918,0 175.553200423474,-37.9356836925427,0 175.5534490652948,-37.93553933272891,0 175.5528719455857,-37.93503345777347,0 175.5526241238415,-37.93522063934392,0 175.5528578426178,-37.93542939628918,0 
						
</coordinates>

						</LinearRing>

					</outerBoundaryIs>

				</Polygon>

				<flyID>32</flyID>

				<flyDescription>In this area you may tow at speed from the shore.  The lane is marked by orange posts with horizontal black bands.  Proceed in an anti-clockwise direction.</flyDescription>

			</Placemark>
<Placemark>

				<name>Towing Access Lanes</name>

				<description>In this area you may tow at speed from the shore.  The lane is marked by orange posts with horizontal black bands.  Proceed in an anti-clockwise direction.</description>

				<styleUrl>#style0</styleUrl>

				<Polygon>

					<tessellate>1</tessellate>

					<outerBoundaryIs>

						<LinearRing>

							<coordinates>

							175.5855978815037,-37.94667400313578,0 175.5856450487596,-37.94668904115308,0 175.5857066300659,-37.94670320566557,0 175.5858217976527,-37.94673609393262,0 175.5862310742979,-37.94683859410402,0 175.5868601167762,-37.94690438878437,0 175.5869096710713,-37.94667572941313,0 175.5862921106017,-37.94663075397736,0 175.5860743302186,-37.94657527942395,0 175.5855107170218,-37.94643777790996,0 175.5850343073969,-37.94631753947438,0 175.5844130172335,-37.94610948246181,0 175.5843141881579,-37.94633524207053,0 175.5855978815037,-37.94667400313578,0 
						
</coordinates>

						</LinearRing>

					</outerBoundaryIs>

				</Polygon>

				<flyID>33</flyID>

				<flyDescription>In this area you may tow at speed from the shore.  The lane is marked by orange posts with horizontal black bands.  Proceed in an anti-clockwise direction.</flyDescription>

			</Placemark>
<Placemark>

				<name>Towing Access Lanes</name>

				<description>In this area you may tow at speed from the shore.  The lane is marked by orange posts with horizontal black bands.  Proceed in an anti-clockwise direction.</description>

				<styleUrl>#style0</styleUrl>

				<Polygon>

					<tessellate>1</tessellate>

					<outerBoundaryIs>

						<LinearRing>

							<coordinates>

							175.6316224601089,-37.95292017266415,0 175.6318138319303,-37.95284034190613,0 175.6318600538855,-37.95281975204596,0 175.6323108720953,-37.95262160787701,0 175.6322017257164,-37.95248144458956,0 175.6320790627549,-37.95254862060678,0 175.631751111691,-37.95267872321409,0 175.6316274861086,-37.95273364533698,0 175.631500875368,-37.95280265059081,0 175.6313946824187,-37.95285998175432,0 175.6306229348143,-37.95312141680526,0 175.6306886475371,-37.95321732141562,0 175.6316224601089,-37.95292017266415,0 
						
</coordinates>

						</LinearRing>

					</outerBoundaryIs>

				</Polygon>

				<flyID>34</flyID>

				<flyDescription>In this area you may tow at speed from the shore.  The lane is marked by orange posts with horizontal black bands.  Proceed in an anti-clockwise direction.</flyDescription>

			</Placemark>
<Placemark>

				<name>Towing Access Lanes</name>

				<description>In this area you may tow at speed from the shore.  The lane is marked by orange posts with horizontal black bands.  Proceed in an anti-clockwise direction.</description>

				<styleUrl>#style0</styleUrl>

				<Polygon>

					<tessellate>1</tessellate>

					<outerBoundaryIs>

						<LinearRing>

							<coordinates>

							175.6524093990924,-37.98378564232371,0 175.6527036056096,-37.98400471247813,0 175.6529041414903,-37.98412057488283,0 175.6529597895888,-37.98416204718356,0 175.6533466524993,-37.98386050779163,0 175.6527774074468,-37.98341966871086,0 175.6523959119942,-37.98365480990891,0 175.6524093990924,-37.98378564232371,0 
						
</coordinates>

						</LinearRing>

					</outerBoundaryIs>

				</Polygon>

				<flyID>35</flyID>

				<flyDescription>In this area you may tow at speed from the shore.  The lane is marked by orange posts with horizontal black bands.  Proceed in an anti-clockwise direction.</flyDescription>

			</Placemark>
<Placemark>

				<name>Towing Access Lanes</name>

				<description>In this area you may tow at speed from the shore.  The lane is marked by orange posts with horizontal black bands.  Proceed in an anti-clockwise direction.</description>

				<styleUrl>#style0</styleUrl>

				<Polygon>

					<tessellate>1</tessellate>

					<outerBoundaryIs>

						<LinearRing>

							<coordinates>

							175.6481952608495,-37.94742148822462,0 175.6479930642642,-37.94733336577306,0 175.6477722113511,-37.94775320558896,0 175.6479672540421,-37.94782952198673,0 175.6481952608495,-37.94742148822462,0 
						
</coordinates>

						</LinearRing>

					</outerBoundaryIs>

				</Polygon>

				<flyID>36</flyID>

				<flyDescription>In this area you may tow at speed from the shore.  The lane is marked by orange posts with horizontal black bands.  Proceed in an anti-clockwise direction.</flyDescription>

			</Placemark>
<Placemark>

				<name>Towing Access Lanes</name>

				<description>In this area you may tow at speed from the shore.  The lane is marked by orange posts with horizontal black bands.  Proceed in an anti-clockwise direction.</description>

				<styleUrl>#style2</styleUrl>

				<Polygon>

					<tessellate>1</tessellate>

					<outerBoundaryIs>

						<LinearRing>

							<coordinates>

							175.6568670823025,-37.95799441941573,0 175.6573236055549,-37.95796954112943,0 175.6571849788876,-37.95718419306621,0 175.6567728359248,-37.95725565134178,0 175.6568670823025,-37.95799441941573,0 
						
</coordinates>

						</LinearRing>

					</outerBoundaryIs>

				</Polygon>

				<flyID>37</flyID>

				<flyDescription>In this area you may tow at speed from the shore.  The lane is marked by orange posts with horizontal black bands.  Proceed in an anti-clockwise direction.</flyDescription>

			</Placemark>
<Placemark>

				<name>Towing Access Lanes</name>

				<description>In this area you may tow at speed from the shore.  The lane is marked by orange posts with horizontal black bands.  Proceed in an anti-clockwise direction.</description>

				<styleUrl>#style2</styleUrl>

				<Polygon>

					<tessellate>1</tessellate>

					<outerBoundaryIs>

						<LinearRing>

							<coordinates>

							175.6567120978123,-37.95707239566949,0 175.6571620031466,-37.95699746707701,0 175.6571026509167,-37.95651795090174,0 175.6564586677388,-37.956634007738,0 175.6567120978123,-37.95707239566949,0 
						
</coordinates>

						</LinearRing>

					</outerBoundaryIs>

				</Polygon>

				<flyID>38</flyID>

				<flyDescription>In this area you may tow at speed from the shore.  The lane is marked by orange posts with horizontal black bands.  Proceed in an anti-clockwise direction.</flyDescription>

			</Placemark>
<Placemark>

				<name>Prohibited Power Driven Vessel</name>

				<description>The use of power driven vessels are prohibited in this area, as the area has been set aside for passive activities.  This area could also contain hazards or extreme shallowing</description>

				<styleUrl>#style1</styleUrl>

				<Polygon>

					<tessellate>1</tessellate>

					<outerBoundaryIs>

						<LinearRing>

							<coordinates>

							175.5786543273084,-37.94372533661451,0 175.5787469496933,-37.94364431968958,0 175.5788954490791,-37.94354065892493,0 175.5790583774217,-37.94337286521819,0 175.5792872401935,-37.94312647619066,0 175.5794037122444,-37.94309854809148,0 175.5795886949001,-37.94311282732502,0 175.5799064050926,-37.94317723612804,0 175.580109636159,-37.94315265617478,0 175.580344845518,-37.94303951183278,0 175.5805983387513,-37.94283235359723,0 175.5806554042325,-37.94267844308208,0 175.5805655665727,-37.94251119549521,0 175.5803594048018,-37.94236986830378,0 175.5802214024433,-37.94237178324168,0 175.5800239866831,-37.94253202941327,0 175.5798697663483,-37.94260385452496,0 175.5797283342475,-37.94251640151662,0 175.579492641759,-37.94232098692855,0 175.5792138235644,-37.94232050113804,0 175.5790366380851,-37.94239290893494,0 175.5788846486833,-37.94259069809171,0 175.5786494293741,-37.94280228826762,0 175.5784909428942,-37.94285682177767,0 175.5783650530599,-37.94277425395173,0 175.578151381535,-37.94263282314358,0 175.5779722194662,-37.94262428144646,0 175.5777434883554,-37.94279584530771,0 175.5775880635374,-37.94309299940205,0 175.5776153013896,-37.9434052745197,0 175.5776034290072,-37.94371116499044,0 175.577547612956,-37.94385679065339,0 175.577367725436,-37.94395944464475,0 175.5788390015943,-37.94406039249331,0 175.5786543273084,-37.94372533661451,0 
						
</coordinates>

						</LinearRing>

					</outerBoundaryIs>

				</Polygon>

				<flyID>39</flyID>

				<flyDescription>The use of power driven vessels are prohibited in this area, as the area has been set aside for passive activities.  This area could also contain hazards or extreme shallowing</flyDescription>

			</Placemark>
<Placemark>

				<name>Prohibited Towing Zone</name>

				<description>Towing is prohibited in this area.</description>

				<styleUrl>#style3</styleUrl>

				<Polygon>

					<tessellate>1</tessellate>

					<outerBoundaryIs>

						<LinearRing>

							<coordinates>

							175.6585693867766,-37.95149221871652,0 175.6595699949729,-37.95235005154459,0 175.6601046208815,-37.95368364460209,0 175.6601178892508,-37.95426905453761,0 175.6601588323129,-37.95440604035161,0 175.6602241450503,-37.9551209150119,0 175.6598132934286,-37.95604853019654,0 175.6596646288604,-37.95674985957614,0 175.6596412852225,-37.95727187268227,0 175.6598578524547,-37.95819982063981,0 175.6598550797442,-37.95834820275722,0 175.6608473725632,-37.95833962200775,0 175.6607826301839,-37.95801710549853,0 175.6603533464688,-37.95759316400027,0 175.6600592280106,-37.95692699939237,0 175.6601181808424,-37.95643002373156,0 175.6604264066883,-37.95599329911979,0 175.6605024577962,-37.95575751522737,0 175.6606023154767,-37.95530965367517,0 175.6607587791822,-37.95486861823581,0 175.6605977060996,-37.95460560400809,0 175.6604549401786,-37.95370129365282,0 175.6603433983333,-37.95299709680652,0 175.6602625251547,-37.95265198741279,0 175.6598882582393,-37.95228198208614,0 175.6598278110569,-37.95204115605552,0 175.6598482128799,-37.95168869079179,0 175.6589211390708,-37.95122555704514,0 175.6588003204616,-37.95126826782293,0 175.6587041233223,-37.95118258227056,0 175.6581184220899,-37.95119032538251,0 175.6581991119055,-37.9514048653365,0 175.6585693867766,-37.95149221871652,0 
						
</coordinates>

						</LinearRing>

					</outerBoundaryIs>

				</Polygon>

				<flyID>40</flyID>

				<flyDescription>Towing is prohibited in this area.</flyDescription>

			</Placemark>
<Placemark>

				<name>Swimming Zone</name>

				<description>This area is designated for swimming only.  Vessels (powered and non-powered are prohibited in this area)</description>

				<styleUrl>#style0</styleUrl>

				<Polygon>

					<tessellate>1</tessellate>

					<outerBoundaryIs>

						<LinearRing>

							<coordinates>

							175.5418014388948,-37.92889698420717,0 175.541888498108,-37.92910185863845,0 175.5421012296438,-37.92948587878927,0 175.5422795648925,-37.92973407346326,0 175.5428355625469,-37.92956907449693,0 175.5427118303725,-37.92942914382324,0 175.5425921509976,-37.92926301193757,0 175.5423798654113,-37.92884487648637,0 175.5424037494157,-37.92868306474147,0 175.541854054251,-37.92862684132862,0 175.5418014388948,-37.92889698420717,0 
						
</coordinates>

						</LinearRing>

					</outerBoundaryIs>

				</Polygon>

				<flyID>41</flyID>

				<flyDescription>This area is designated for swimming only.  Vessels (powered and non-powered are prohibited in this area)</flyDescription>

			</Placemark>
<Placemark>

				<name>Swimming Zone</name>

				<description>This area is designated for swimming only.  Vessels (powered and non-powered are prohibited in this area)</description>

				<styleUrl>#style0</styleUrl>

				<Polygon>

					<tessellate>1</tessellate>

					<outerBoundaryIs>

						<LinearRing>

							<coordinates>

							175.5417880491834,-37.92341591203235,0 175.5419485616533,-37.9234972771893,0 175.5419838269687,-37.92356628583431,0 175.541871892668,-37.92356628301948,0 175.5418466606984,-37.92374482194965,0 175.5444216396899,-37.92272926903087,0 175.5441892973695,-37.92269491514536,0 175.5439070647865,-37.92256778673626,0 175.5438084702833,-37.92262075000762,0 175.5437015560493,-37.92257386489311,0 175.5435198695118,-37.92267180306087,0 175.5434514808955,-37.92260141221372,0 175.543447272894,-37.92230567982713,0 175.5432733175495,-37.92231865189451,0 175.5431379801457,-37.92245165158968,0 175.5432338833971,-37.92251725381953,0 175.5433094171924,-37.92250990303855,0 175.5432608908224,-37.92269491057665,0 175.5433399105418,-37.92276324849966,0 175.5427232727887,-37.92310948808022,0 175.5425132834605,-37.92297452185321,0 175.5423380563139,-37.92293933619792,0 175.542022912681,-37.92287282001138,0 175.5418098711275,-37.92299677824693,0 175.5415169218405,-37.92327278692653,0 175.5414688877924,-37.92336597438908,0 175.5417880491834,-37.92341591203235,0 
						
</coordinates>

						</LinearRing>

					</outerBoundaryIs>

				</Polygon>

				<flyID>42</flyID>

				<flyDescription>This area is designated for swimming only.  Vessels (powered and non-powered are prohibited in this area)</flyDescription>

			</Placemark>
<Placemark>

				<name>Swimming Zone</name>

				<description>This area is designated for swimming only.  Vessels (powered and non-powered are prohibited in this area)</description>

				<styleUrl>#style0</styleUrl>

				<Polygon>

					<tessellate>1</tessellate>

					<outerBoundaryIs>

						<LinearRing>

							<coordinates>

							175.6564746390874,-37.95530515345474,0 175.656105099829,-37.95568036589258,0 175.6560367056172,-37.95581230242882,0 175.65588422864,-37.9561462885558,0 175.6559912808475,-37.95634901380594,0 175.6562498043927,-37.95647619099059,0 175.6564486404691,-37.95663072612427,0 175.6570952282424,-37.95651437358507,0 175.6569299959409,-37.95506017682898,0 175.6564746390874,-37.95530515345474,0 
						
</coordinates>

						</LinearRing>

					</outerBoundaryIs>

				</Polygon>

				<flyID>43</flyID>

				<flyDescription>This area is designated for swimming only.  Vessels (powered and non-powered are prohibited in this area)</flyDescription>

			</Placemark>
<Placemark>

				<name>5 Knot Zone</name>

				<description>Keep to 5 knots or less (9.25km / fast walking pace) in this area.</description>

				<styleUrl>#style4</styleUrl>

				<Polygon>

					<tessellate>1</tessellate>

					<outerBoundaryIs>

						<LinearRing>

							<coordinates>

							175.5432933030178,-37.93248959403198,0 175.5432052380566,-37.9325374339671,0 175.5433019857258,-37.93261250122372,0 175.5433819827628,-37.93298886922177,0 175.5432070566723,-37.93334306380675,0 175.5430353727251,-37.9334015680176,0 175.5428974318881,-37.93349118512274,0 175.5428771989722,-37.93357766153164,0 175.5427402301946,-37.93360816502772,0 175.5424561161191,-37.93365053876264,0 175.5423576630381,-37.93385689889607,0 175.5425435990888,-37.93395391997175,0 175.5425775242018,-37.93406376967041,0 175.5426841449292,-37.93421405090309,0 175.5430555525361,-37.93440605753147,0 175.5430311069037,-37.93457986696592,0 175.5432360702062,-37.93470754793843,0 175.5432262379082,-37.93494036692525,0 175.5430446143304,-37.93500605557409,0 175.5430654382476,-37.93509671139103,0 175.5431626186106,-37.93530064432971,0 175.543179700529,-37.93546022010903,0 175.5430383294716,-37.93560480100211,0 175.5432775566606,-37.93569591858197,0 175.5434278856386,-37.93572731313554,0 175.5435401157553,-37.93585594413664,0 175.5436452561551,-37.93569916962845,0 175.543917890098,-37.93563845106245,0 175.5440237507346,-37.93568678561555,0 175.5443528676279,-37.93546904806748,0 175.544580160666,-37.93537525972432,0 175.5447445794656,-37.93541558899072,0 175.5451317521681,-37.93577541462454,0 175.5441792742284,-37.93454690499036,0 175.5438840576831,-37.93418492972361,0 175.5437409565799,-37.93276763728095,0 175.5434971702752,-37.93223407758681,0 175.5434142972566,-37.93198734321106,0 175.5432886271417,-37.93151778725929,0 175.5430332431261,-37.93167588761975,0 175.5432933030178,-37.93248959403198,0 
						
</coordinates>

						</LinearRing>

					</outerBoundaryIs>

				</Polygon>

				<flyID>44</flyID>

				<flyDescription>Keep to 5 knots or less (9.25km / fast walking pace) in this area.</flyDescription>

			</Placemark>
<Placemark>

				<name>5 Knot Zone</name>

				<description>Keep to 5 knots or less (9.25km / fast walking pace) in this area - Karapiro.</description>

				<styleUrl>#style4</styleUrl>

				<Polygon>

					<tessellate>1</tessellate>

					<outerBoundaryIs>

						<LinearRing>

							<coordinates>

							175.542883733407,-37.92960670333483,0 175.5428466270771,-37.9295741784437,0 175.5422775248824,-37.92973857961005,0 175.5423210924627,-37.92977635360138,0 175.542883733407,-37.92960670333483,0 
						
</coordinates>

						</LinearRing>

					</outerBoundaryIs>

				</Polygon>

				<flyID>45</flyID>

				<flyDescription>Keep to 5 knots or less (9.25km / fast walking pace) in this area - Karapiro.</flyDescription>

			</Placemark>
<Placemark>

				<name>5 Knot Zone</name>

				<description>Keep to 5 knots or less (9.25km / fast walking pace) in this area.</description>

				<styleUrl>#style4</styleUrl>

				<Polygon>

					<tessellate>1</tessellate>

					<outerBoundaryIs>

						<LinearRing>

							<coordinates>

							175.6598491516311,-37.95166907210972,0 175.6597853251743,-37.95129712414794,0 175.6599924800572,-37.95115927400764,0 175.6607325360985,-37.95081626819886,0 175.6599723129551,-37.95008026989063,0 175.6598619027791,-37.95037151232149,0 175.6595050632512,-37.95045304356266,0 175.6593722504075,-37.95067497027279,0 175.6590283042526,-37.95081304681027,0 175.6589218515989,-37.95120246671837,0 175.6598491516311,-37.95166907210972,0 
						
</coordinates>

						</LinearRing>

					</outerBoundaryIs>

				</Polygon>

				<flyID>46</flyID>

				<flyDescription>Keep to 5 knots or less (9.25km / fast walking pace) in this area.</flyDescription>

			</Placemark>

</Document>
</kml>
