<?xml version="1.0" encoding="UTF-8"?>
<kml xmlns="http://www.opengis.net/kml/2.2" xmlns:gx="http://www.google.com/kml/ext/2.2" xmlns:kml="http://www.opengis.net/kml/2.2" xmlns:atom="http://www.w3.org/2005/Atom">
<Document>
<name>R22C41.kml</name>

<Style id="style0">

					<LineStyle>

						<color>ffff0000</color>

					</LineStyle>

					<PolyStyle>

						<color>ffff0000</color>

						<width>0.9</width>

					</PolyStyle>

				</Style>

<Placemark>

				<name>Prohibited Fishing Anchor Zone</name>

				<description>Fishing and anchoring is prohibited in this area.</description>

				<styleUrl>#style0</styleUrl>

				<Polygon>

					<tessellate>1</tessellate>

					<outerBoundaryIs>

						<LinearRing>

							<coordinates>

							174.7055029166093,-38.1787450621828,0 174.7013307872395,-38.16672711902496,0 174.6567602373084,-38.16664123323913,0 174.6628280568066,-38.18349326698721,0 174.7055029166093,-38.1787450621828,0 
						
</coordinates>

						</LinearRing>

					</outerBoundaryIs>

				</Polygon>

				<flyID>0</flyID>

				<flyDescription>Fishing and anchoring is prohibited in this area.</flyDescription>

			</Placemark>
<Placemark>

				<name>Mooring Zone</name>

				<description>These zones are designated for moored vessels.  Keep to 5 knots or less within 50 metres of the mooring zone.  Avoid transiting through this area.</description>

				<styleUrl>#style0</styleUrl>

				<Polygon>

					<tessellate>1</tessellate>

					<outerBoundaryIs>

						<LinearRing>

							<coordinates>

							174.7763287516477,-38.09528762736469,0 174.7755270373463,-38.09450204594617,0 174.7746349743838,-38.09395582771026,0 174.7730234025193,-38.09498436579007,0 174.7733410806743,-38.09643132096555,0 174.7751142772843,-38.09725235868015,0 174.7763287516477,-38.09528762736469,0 
						
</coordinates>

						</LinearRing>

					</outerBoundaryIs>

				</Polygon>

				<flyID>1</flyID>

				<flyDescription>These zones are designated for moored vessels.  Keep to 5 knots or less within 50 metres of the mooring zone.  Avoid transiting through this area.</flyDescription>

			</Placemark>
<Placemark>

				<name>Mooring Zone</name>

				<description>These zones are designated for moored vessels.  Keep to 5 knots or less within 50 metres of the mooring zone.  Avoid transiting through this area.</description>

				<styleUrl>#style0</styleUrl>

				<Polygon>

					<tessellate>1</tessellate>

					<outerBoundaryIs>

						<LinearRing>

							<coordinates>

							174.8253789723144,-38.13705479689374,0 174.8266259095141,-38.13683277793755,0 174.8257887305019,-38.13389667649427,0 174.8241914998306,-38.13426983981749,0 174.8253789723144,-38.13705479689374,0 
						
</coordinates>

						</LinearRing>

					</outerBoundaryIs>

				</Polygon>

				<flyID>2</flyID>

				<flyDescription>These zones are designated for moored vessels.  Keep to 5 knots or less within 50 metres of the mooring zone.  Avoid transiting through this area.</flyDescription>

			</Placemark>
<Placemark>

				<name>Mooring Zone</name>

				<description>These zones are designated for moored vessels.  Keep to 5 knots or less within 50 metres of the mooring zone.  Avoid transiting through this area.</description>

				<styleUrl>#style0</styleUrl>

				<Polygon>

					<tessellate>1</tessellate>

					<outerBoundaryIs>

						<LinearRing>

							<coordinates>

							174.8227928427622,-38.06681872494075,0 174.8224538162727,-38.06652704157482,0 174.8194937765813,-38.06868633070469,0 174.8179458136528,-38.07038609227005,0 174.8165602078531,-38.07190661017548,0 174.8176820302936,-38.07244194278361,0 174.8227928427622,-38.06681872494075,0 
						
</coordinates>

						</LinearRing>

					</outerBoundaryIs>

				</Polygon>

				<flyID>3</flyID>

				<flyDescription>These zones are designated for moored vessels.  Keep to 5 knots or less within 50 metres of the mooring zone.  Avoid transiting through this area.</flyDescription>

			</Placemark>
<Placemark>

				<name>Mooring Zone</name>

				<description>These zones are designated for moored vessels.  Keep to 5 knots or less within 50 metres of the mooring zone.  Avoid transiting through this area.</description>

				<styleUrl>#style0</styleUrl>

				<Polygon>

					<tessellate>1</tessellate>

					<outerBoundaryIs>

						<LinearRing>

							<coordinates>

							174.830392152173,-38.06744632556953,0 174.8301401458704,-38.06644517523051,0 174.8228981947518,-38.0679319371133,0 174.8228473794144,-38.06871895016562,0 174.830392152173,-38.06744632556953,0 
						
</coordinates>

						</LinearRing>

					</outerBoundaryIs>

				</Polygon>

				<flyID>4</flyID>

				<flyDescription>These zones are designated for moored vessels.  Keep to 5 knots or less within 50 metres of the mooring zone.  Avoid transiting through this area.</flyDescription>

			</Placemark>
<Placemark>

				<name>Mooring Zone</name>

				<description>These zones are designated for moored vessels.  Keep to 5 knots or less within 50 metres of the mooring zone.  Avoid transiting through this area.</description>

				<styleUrl>#style0</styleUrl>

				<Polygon>

					<tessellate>1</tessellate>

					<outerBoundaryIs>

						<LinearRing>

							<coordinates>

							174.8276617370105,-38.06630726461677,0 174.8297772760755,-38.06486506423539,0 174.8282615052236,-38.06433425943794,0 174.8252681016216,-38.06504866268674,0 174.8240401068014,-38.06594583667278,0 174.8247450058245,-38.06685056224001,0 174.8276617370105,-38.06630726461677,0 
						
</coordinates>

						</LinearRing>

					</outerBoundaryIs>

				</Polygon>

				<flyID>5</flyID>

				<flyDescription>These zones are designated for moored vessels.  Keep to 5 knots or less within 50 metres of the mooring zone.  Avoid transiting through this area.</flyDescription>

			</Placemark>
<Placemark>

				<name>Jetski (PWC) Zone</name>

				<description>This area is reserved for jet ski's (PWC - personal water craft)</description>

				<styleUrl>#style0</styleUrl>

				<Polygon>

					<tessellate>1</tessellate>

					<outerBoundaryIs>

						<LinearRing>

							<coordinates>

							174.7767583973008,-38.07396064851104,0 174.7765404537311,-38.07658024747681,0 174.7764669276823,-38.07699891372614,0 174.7761606158736,-38.07796654491831,0 174.7758295802602,-38.08052964553345,0 174.7786901306714,-38.08049601822366,0 174.7789936878339,-38.07883607483257,0 174.7789299523038,-38.07846716165751,0 174.7793820666327,-38.07697748733131,0 174.7795776860723,-38.07374896951894,0 174.7767090722895,-38.07374862037842,0 174.7767583973008,-38.07396064851104,0 
						
</coordinates>

						</LinearRing>

					</outerBoundaryIs>

				</Polygon>

				<flyID>6</flyID>

				<flyDescription>This area is reserved for jet ski's (PWC - personal water craft)</flyDescription>

			</Placemark>
<Placemark>

				<name>Towing Zone</name>

				<description>This area is reserved for vessels towing. Within this zone proceed in an anticlockwise direction. Speed within proximity to shore, structures, people in the water and other vessels apply.</description>

				<styleUrl>#style0</styleUrl>

				<Polygon>

					<tessellate>1</tessellate>

					<outerBoundaryIs>

						<LinearRing>

							<coordinates>

							174.7921844418391,-38.08725572639222,0 174.7929255563212,-38.08733571171255,0 174.7940653001796,-38.08730923007825,0 174.7956625207146,-38.08709495174829,0 174.7976341735974,-38.08662929467952,0 174.799356686432,-38.08591817641251,0 174.8026309771365,-38.08464742468968,0 174.8040409672545,-38.08424000434737,0 174.8051990626244,-38.08426617446072,0 174.8087378669897,-38.08431816758966,0 174.8105080504207,-38.0842656167403,0 174.8102751646692,-38.07966519239079,0 174.8095786571985,-38.07985440810534,0 174.8067908314337,-38.07970992561265,0 174.8029013399788,-38.07981285610268,0 174.8018574231249,-38.08004190181607,0 174.7997959119493,-38.08056027977694,0 174.7978478179421,-38.08137955861703,0 174.796491846161,-38.08204939341368,0 174.7937337367129,-38.08276964901384,0 174.7920151054802,-38.08274485436785,0 174.7901485126061,-38.0826376386157,0 174.7912912786222,-38.08760996033765,0 174.7921844418391,-38.08725572639222,0 
						
</coordinates>

						</LinearRing>

					</outerBoundaryIs>

				</Polygon>

				<flyID>7</flyID>

				<flyDescription>This area is reserved for vessels towing. Within this zone proceed in an anticlockwise direction. Speed within proximity to shore, structures, people in the water and other vessels apply.</flyDescription>

			</Placemark>

</Document>
</kml>
