<?xml version="1.0" encoding="UTF-8"?>
<kml xmlns="http://www.opengis.net/kml/2.2" xmlns:gx="http://www.google.com/kml/ext/2.2" xmlns:kml="http://www.opengis.net/kml/2.2" xmlns:atom="http://www.w3.org/2005/Atom">
<Document>
<name>R23 C47.kml</name>

<Style id="style0">

					<LineStyle>

						<color>ffff0000</color>

					</LineStyle>

					<PolyStyle>

						<color>ffff0000</color>

						<width>0.9</width>

					</PolyStyle>

				</Style>
<Style id="style1">

					<LineStyle>

						<color>ff0000ff</color>

					</LineStyle>

					<PolyStyle>

						<color>ff0000ff</color>

						<width>0.9</width>

					</PolyStyle>

				</Style>
<Style id="style2">

					<LineStyle>

						<color>ffffaa00</color>

					</LineStyle>

					<PolyStyle>

						<color>ffffaa00</color>

						<width>0.9</width>

					</PolyStyle>

				</Style>

<Placemark>

				<name>Water Ski Area</name>

				<description>This area is a designated water skiing area. No person in charge of a vessel may use it to tow any person unless at least one additional person is on board who is responsible for immediately notifying the person in charge of every mishap that occurs to the person who is being towed.</description>

				<styleUrl>#style2</styleUrl>

				<Polygon>

					<tessellate>1</tessellate>

					<outerBoundaryIs>

						<LinearRing>

							<coordinates>

							176.4268023776268,-38.22478152617781,0 176.4274147969777,-38.22448833690546,0 176.4279899892146,-38.22422897822213,0 176.4286540407369,-38.22384022494214,0 176.4293353090614,-38.22343932532763,0 176.4293692276553,-38.22323928541961,0 176.4296162298322,-38.2230622567042,0 176.429808254289,-38.22299629253358,0 176.4303514211521,-38.22288353496081,0 176.4310589178077,-38.22261158282676,0 176.4321085821324,-38.22211210747837,0 176.4325886817835,-38.22184955947629,0 176.4342495132837,-38.22090908473296,0 176.4344977684788,-38.22064746095098,0 176.435564745553,-38.22006827211963,0 176.4342832085229,-38.21858891400711,0 176.4334871383892,-38.21903476664205,0 176.4329427707829,-38.2193100421614,0 176.4326278450822,-38.21962081587444,0 176.4321730231518,-38.2198674565566,0 176.4314459097494,-38.22028100831214,0 176.4303057683109,-38.22087059775409,0 176.4294998176602,-38.2211894748947,0 176.4290809871942,-38.22126186865294,0 176.4284403335656,-38.22150676063936,0 176.427869203806,-38.22184637723913,0 176.4274430517455,-38.22228864596511,0 176.4267577600505,-38.22271244528265,0 176.4259315381436,-38.22309778532291,0 176.4253421578374,-38.2231902397482,0 176.4248362154502,-38.22338067910255,0 176.4259964245973,-38.22493640285079,0 176.4268023776268,-38.22478152617781,0 
						
</coordinates>

						</LinearRing>

					</outerBoundaryIs>

				</Polygon>

				<flyID>0</flyID>

				<flyDescription>This area is a designated water skiing area. No person in charge of a vessel may use it to tow any person unless at least one additional person is on board who is responsible for immediately notifying the person in charge of every mishap that occurs to the person who is being towed.</flyDescription>

			</Placemark>
<Placemark>

				<name>Water Ski Lane</name>

				<description>This access lane has been designated for water skiing. No person shall, in any access lane, propel, navigate, or manoeuvre a vessel except by the most direct route along the access lane and on that side of the access lane that lies to the starboard (right-hand) side of the vessel.</description>

				<styleUrl>#style0</styleUrl>

				<Polygon>

					<tessellate>1</tessellate>

					<outerBoundaryIs>

						<LinearRing>

							<coordinates>

							176.4087090516393,-38.22543701489833,0 176.4100838497037,-38.22404128469059,0 176.4075045680613,-38.22302748931893,0 176.4070605234728,-38.22483359270216,0 176.4087090516393,-38.22543701489833,0 
						
</coordinates>

						</LinearRing>

					</outerBoundaryIs>

				</Polygon>

				<flyID>1</flyID>

				<flyDescription>This access lane has been designated for water skiing. No person shall, in any access lane, propel, navigate, or manoeuvre a vessel except by the most direct route along the access lane and on that side of the access lane that lies to the starboard (right-hand) side of the vessel.</flyDescription>

			</Placemark>
<Placemark>

				<name>Water Ski Lane</name>

				<description>This access lane has been designated for water skiing. No person shall, in any access lane, propel, navigate, or manoeuvre a vessel except by the most direct route along the access lane and on that side of the access lane that lies to the starboard (right-hand) side of the vessel.</description>

				<styleUrl>#style0</styleUrl>

				<Polygon>

					<tessellate>1</tessellate>

					<outerBoundaryIs>

						<LinearRing>

							<coordinates>

							176.4370709692138,-38.24511826849967,0 176.4382674584499,-38.24359803123438,0 176.4365917213608,-38.2431433183575,0 176.4359638046786,-38.2447806415722,0 176.4370709692138,-38.24511826849967,0 
						
</coordinates>

						</LinearRing>

					</outerBoundaryIs>

				</Polygon>

				<flyID>2</flyID>

				<flyDescription>This access lane has been designated for water skiing. No person shall, in any access lane, propel, navigate, or manoeuvre a vessel except by the most direct route along the access lane and on that side of the access lane that lies to the starboard (right-hand) side of the vessel.</flyDescription>

			</Placemark>
<Placemark>

				<name>Passive Area</name>

				<description>On Lakes Rotomahana and Okataina no person shall operate personal water craft or hovercraft, or land aircraft or helicopters, or tow people or devices from vessles for recreational purposes other than equipment used for fishing.</description>

				<styleUrl>#style1</styleUrl>

				<Polygon>

					<tessellate>1</tessellate>

					<outerBoundaryIs>

						<LinearRing>

							<coordinates>

							176.4664074590811,-38.26207200371626,0 176.4666866394186,-38.26191515164684,0 176.4670953626672,-38.26181319428808,0 176.4674806460738,-38.26173970226111,0 176.4678107602508,-38.26155908913093,0 176.4680251220768,-38.26153291164155,0 176.4683261490277,-38.26147956641066,0 176.4685755318877,-38.26135598988332,0 176.4687088703675,-38.2612165797957,0 176.4687001953083,-38.26107680688337,0 176.468836044391,-38.26097576554945,0 176.4692997611019,-38.26073525291526,0 176.4692272994444,-38.26058393164669,0 176.4692307903555,-38.26047614221249,0 176.4693830095291,-38.26040242844557,0 176.469585624181,-38.26027548925045,0 176.4695617480805,-38.26016185053602,0 176.4694403713807,-38.26002623462419,0 176.4690676281951,-38.26003195905261,0 176.4689898525658,-38.25995055053792,0 176.4691830182122,-38.2597474385904,0 176.4692068699325,-38.25966263793087,0 176.4695499795624,-38.25943089276322,0 176.4695153062418,-38.25935810150224,0 176.4692734420087,-38.25915326575822,0 176.4690278427732,-38.25911252963671,0 176.4685574431728,-38.25935155136673,0 176.4679295770278,-38.25973381425737,0 176.4676568425068,-38.25962924056185,0 176.4677023842298,-38.25949600298824,0 176.4678705389335,-38.25942197586921,0 176.4682503084248,-38.25926273045243,0 176.4684969155705,-38.25901211032755,0 176.4685718150106,-38.25887828121709,0 176.4685092196393,-38.25863005692835,0 176.4687008412435,-38.258463887956,0 176.4690383537468,-38.25847683726424,0 176.4693643915985,-38.25854492934045,0 176.4696791512034,-38.25857377404788,0 176.4699489397661,-38.25884963521249,0 176.4704843806172,-38.25923001445456,0 176.4712128362826,-38.25970811974019,0 176.4713870454458,-38.25993152327992,0 176.471529958548,-38.25990933591434,0 176.4716026082807,-38.25985365798398,0 176.4715632087501,-38.25968740549192,0 176.4717150675839,-38.25960062843165,0 176.4719222462372,-38.25960739032476,0 176.4721988028416,-38.25964367812644,0 176.4724210597399,-38.25921403717513,0 176.472688311865,-38.25908142319346,0 176.4725323197024,-38.25902003887038,0 176.4723885873047,-38.25899615660208,0 176.4720424300053,-38.25898545625266,0 176.471782798756,-38.25887985586101,0 176.4715248118491,-38.25884001281065,0 176.4712484118864,-38.25865151041209,0 176.4711677970043,-38.25845570946874,0 176.4712402343733,-38.25834007488548,0 176.4714646296338,-38.25821207959831,0 176.4717912864375,-38.25804288105407,0 176.4715653442476,-38.25792600289217,0 176.4715492905114,-38.2577814781292,0 176.4716591705335,-38.25763693557406,0 176.4710304599896,-38.25773988149535,0 176.4708534251503,-38.25760970906622,0 176.4707038165107,-38.25728287628386,0 176.4707330237619,-38.25713350444904,0 176.4708858060737,-38.2568211470853,0 176.4707470956639,-38.25671588180057,0 176.4705734250021,-38.25670839515749,0 176.4704283472779,-38.25655580340877,0 176.4704597122484,-38.25646108718214,0 176.4705710504673,-38.25640300159719,0 176.4710113961844,-38.2563261035804,0 176.4713463134592,-38.25621473077332,0 176.4715481118713,-38.25599744732561,0 176.4716769103571,-38.25561309625002,0 176.4711974220895,-38.2557955416573,0 176.4702048849663,-38.25591386575055,0 176.4699515093295,-38.255846098819,0 176.4696909952329,-38.25567838200001,0 176.4693407126038,-38.25570840972593,0 176.4690991043119,-38.25562836357727,0 176.4686500334434,-38.2554134240775,0 176.4683680187123,-38.25540309092477,0 176.4680559109747,-38.25525559068288,0 176.4677455479059,-38.25541369024874,0 176.4676291613274,-38.25551701461135,0 176.467510766906,-38.25567884339149,0 176.4673066436595,-38.25570692850828,0 176.4672812990443,-38.25555797188667,0 176.4675096952559,-38.25535099225979,0 176.4676723681619,-38.25537193614343,0 176.4679918245438,-38.25523425719553,0 176.4681761596322,-38.25504180418194,0 176.468211091995,-38.25483735897537,0 176.46855946269,-38.25461255466646,0 176.4690251282026,-38.25447290530317,0 176.4694375542399,-38.25447455263011,0 176.4697458027758,-38.25450470248348,0 176.4699363840737,-38.25428539594655,0 176.4704480659886,-38.25396603595434,0 176.4704036492626,-38.25390463727146,0 176.4700852917357,-38.25393806076909,0 176.4699265552723,-38.25383691854798,0 176.4699171326744,-38.2537518455188,0 176.4701569322274,-38.25341768202829,0 176.470052045749,-38.2533526000438,0 176.4699316539222,-38.25342182295275,0 176.4693957900715,-38.25363061684077,0 176.4691657443819,-38.25365393365777,0 176.4690397424359,-38.25352318738136,0 176.4688838435313,-38.25317071004033,0 176.4688057432969,-38.25271889969432,0 176.4690401895927,-38.25258837064557,0 176.4693093411662,-38.25254753809363,0 176.4695647675268,-38.25244449800174,0 176.4700315585976,-38.2522054232439,0 176.470474156432,-38.25182336768114,0 176.4706889036033,-38.25155936542387,0 176.4705031413837,-38.25137161499172,0 176.4703321180435,-38.25112172006602,0 176.4703275569541,-38.25083134624493,0 176.4702586722114,-38.25065514689088,0 176.4702868812979,-38.25038749500019,0 176.4704093380819,-38.25026635793954,0 176.4706257910234,-38.25007495468871,0 176.4706446360986,-38.24971565647538,0 176.4708528209366,-38.24952184179482,0 176.4710389978999,-38.24949374275598,0 176.4712930258678,-38.24961111298848,0 176.4715557754254,-38.24956904934219,0 176.4720403433008,-38.24941087197453,0 176.4727626473145,-38.24926906170487,0 176.473156357903,-38.24907369995645,0 176.4734959562507,-38.24905713258707,0 176.4736512981532,-38.2489666247307,0 176.4736347429752,-38.24880459215137,0 176.4735872805524,-38.24837958949823,0 176.4737051368365,-38.24820349558461,0 176.4737257134687,-38.24809313206517,0 176.4735308116071,-38.24783218412112,0 176.4734055360482,-38.24763238652173,0 176.4731570095713,-38.24746054307386,0 176.4728511857261,-38.2476521287437,0 176.472416811278,-38.24780137130589,0 176.4719619071428,-38.24803099704411,0 176.4717420766208,-38.24800235689782,0 176.4714505911472,-38.24782680585008,0 176.4711377958115,-38.2476337227921,0 176.4707776274236,-38.24762402586002,0 176.4705605722795,-38.24770977530768,0 176.4705429488737,-38.24780167358163,0 176.4706226438551,-38.24804957647902,0 176.4704030444495,-38.24827223022809,0 176.4699306990898,-38.2484446100847,0 176.4696684257134,-38.2484359869201,0 176.4691330199906,-38.24831278424173,0 176.4684842150902,-38.24810781454867,0 176.4678698192873,-38.24813383688376,0 176.4674606575773,-38.2482813360299,0 176.4671754306629,-38.24836792470758,0 176.4665583107607,-38.24833032105758,0 176.4655652374811,-38.24831405203433,0 176.4648387899768,-38.24850177900753,0 176.4644220840801,-38.24869508135961,0 176.4643696835285,-38.24882245296143,0 176.4644210161164,-38.24896813455927,0 176.4642703915963,-38.24913227141399,0 176.4639654999288,-38.24913291680545,0 176.4635311065144,-38.24918789352557,0 176.4633148549606,-38.24934749096826,0 176.4630066792566,-38.24929465538281,0 176.4627159447495,-38.24920941776807,0 176.4625753838524,-38.24920890595879,0 176.462276644419,-38.24922263571093,0 176.461364781045,-38.24953850607336,0 176.4604663065529,-38.2498738851309,0 176.4595321097529,-38.25036136482623,0 176.4589845816797,-38.25086985729296,0 176.458370949323,-38.25113157114566,0 176.4579267093817,-38.25141563766371,0 176.4664074590811,-38.26207200371626,0 
						
</coordinates>

						</LinearRing>

					</outerBoundaryIs>

				</Polygon>

				<flyID>3</flyID>

				<flyDescription>On Lakes Rotomahana and Okataina no person shall operate personal water craft or hovercraft, or land aircraft or helicopters, or tow people or devices from vessles for recreational purposes other than equipment used for fishing.</flyDescription>

			</Placemark>
<Placemark>

				<name>Passive Area</name>

				<description>On Lakes Rotomahana and Okataina no person shall operate personal water craft or hovercraft, or land aircraft or helicopters, or tow people or devices from vessles for recreational purposes other than equipment used for fishing.</description>

				<styleUrl>#style1</styleUrl>

				<Polygon>

					<tessellate>1</tessellate>

					<outerBoundaryIs>

						<LinearRing>

							<coordinates>

							176.4539568560409,-38.26866153012502,0 176.4543811266547,-38.26840563732265,0 176.4547431247095,-38.26806794622176,0 176.4550355585865,-38.26794557864744,0 176.4553220502826,-38.2676830585142,0 176.455592927284,-38.26723301933227,0 176.4561659105203,-38.26705490378722,0 176.456786846852,-38.266723612657,0 176.457047656672,-38.26649638636258,0 176.4574206004631,-38.26559183663753,0 176.4578561738443,-38.26533877548012,0 176.458434758386,-38.26517619438792,0 176.4588743481048,-38.26518555079425,0 176.459097414438,-38.26505806351383,0 176.4595219552468,-38.26489264815461,0 176.4599771141104,-38.26488570333555,0 176.46052795073,-38.26469012439547,0 176.461155042877,-38.26438997785025,0 176.4614923643545,-38.26412165496024,0 176.461642690668,-38.26379606960831,0 176.4620916505055,-38.26352377336453,0 176.4626159311692,-38.26317942798628,0 176.4630880295792,-38.26260876970188,0 176.4631490334144,-38.26217339634892,0 176.4633015027746,-38.26165173349988,0 176.4635507589224,-38.26126054951805,0 176.4638883660303,-38.26094844778542,0 176.4643646722839,-38.26085072997599,0 176.464489593783,-38.26083032178964,0 176.4647941470475,-38.26077870054623,0 176.4650435031406,-38.26088149753051,0 176.4649163896891,-38.26096450880591,0 176.464718981454,-38.26100110257843,0 176.464473003068,-38.26115740039217,0 176.4644863055506,-38.2614280237479,0 176.4646260658156,-38.26161397669043,0 176.4652509908354,-38.26195923636369,0 176.4658344454209,-38.26214863398496,0 176.4661930188001,-38.26219570680706,0 176.4664074590811,-38.26207200371626,0 176.4579267093817,-38.25141563766371,0 176.4577905546929,-38.25166119127938,0 176.4578296301817,-38.25225115477406,0 176.4576565595775,-38.25244762608995,0 176.4573269133711,-38.25237956122022,0 176.4568345225908,-38.25196178329265,0 176.4564977482367,-38.25156760959737,0 176.4557867896973,-38.25170871992508,0 176.4553893689806,-38.25170184793909,0 176.4546723514238,-38.25166977727954,0 176.4544906306867,-38.25151366888198,0 176.4538853203244,-38.25165547883906,0 176.453137158082,-38.2516507694035,0 176.4528657669138,-38.25176318645564,0 176.4528284136908,-38.25189103771297,0 176.4525925088972,-38.25203479597109,0 176.4525873319642,-38.25210497353113,0 176.4524614378938,-38.25226062151769,0 176.4522152281356,-38.25230753599658,0 176.4521147934757,-38.25274985800438,0 176.4523443937906,-38.2526438330161,0 176.4526189524331,-38.2524759077942,0 176.4528176508005,-38.25244501872131,0 176.4529941393463,-38.25259185662885,0 176.4532890509937,-38.25310664684279,0 176.4533323178656,-38.25364443025204,0 176.4534246880203,-38.25380928430877,0 176.4534821479554,-38.25419199018798,0 176.4532906236697,-38.25439999862359,0 176.4528540566692,-38.25458458906741,0 176.4523978601655,-38.25479524506292,0 176.4521774860171,-38.25505291709046,0 176.4518037193498,-38.25539057033725,0 176.4512362720503,-38.25570570882999,0 176.4509213766339,-38.2558605008081,0 176.4504424514639,-38.25618581395693,0 176.4501284126181,-38.25603853611805,0 176.4495162197507,-38.25606549888212,0 176.4491044782204,-38.2561530998958,0 176.4487790003442,-38.25633295167915,0 176.4487490373612,-38.25674103828153,0 176.4491760102513,-38.25703233678208,0 176.4487901911952,-38.25721772808024,0 176.4482511076113,-38.25737106428736,0 176.4539568560409,-38.26866153012502,0 
						
</coordinates>

						</LinearRing>

					</outerBoundaryIs>

				</Polygon>

				<flyID>4</flyID>

				<flyDescription>On Lakes Rotomahana and Okataina no person shall operate personal water craft or hovercraft, or land aircraft or helicopters, or tow people or devices from vessles for recreational purposes other than equipment used for fishing.</flyDescription>

			</Placemark>
<Placemark>

				<name>Passive Area</name>

				<description>On Lakes Rotomahana and Okataina no person shall operate personal water craft or hovercraft, or land aircraft or helicopters, or tow people or devices from vessles for recreational purposes other than equipment used for fishing.</description>

				<styleUrl>#style1</styleUrl>

				<Polygon>

					<tessellate>1</tessellate>

					<outerBoundaryIs>

						<LinearRing>

							<coordinates>

							176.4407104651327,-38.27830325725664,0 176.4412341081161,-38.27802615799145,0 176.4446477549497,-38.27577786139321,0 176.4447776487574,-38.275642198029,0 176.4452233213233,-38.27517233048621,0 176.4453963663677,-38.27483303279041,0 176.4458031501828,-38.27431777548701,0 176.445800741378,-38.27403232577461,0 176.445905161923,-38.27387176316534,0 176.4464866214288,-38.27327868241032,0 176.4466368763695,-38.27297777580314,0 176.4466102847048,-38.27281254808649,0 176.446261633688,-38.27250178177539,0 176.4459998650676,-38.27201950426042,0 176.4461787983547,-38.27189247495055,0 176.4464468592394,-38.27186019648357,0 176.4471452899664,-38.27205278426079,0 176.4475511482155,-38.27200251952409,0 176.4488511732035,-38.27149327294394,0 176.4502213523174,-38.27129123850965,0 176.450818581682,-38.27096144207127,0 176.4513602735762,-38.27028502884259,0 176.4520021609006,-38.27004224676259,0 176.4525678159686,-38.2697256213729,0 176.4527918812722,-38.26940942409007,0 176.4475605281357,-38.26768356195116,0 176.4476360799974,-38.26838483356146,0 176.4473315349298,-38.26870553331113,0 176.4472244086083,-38.26891293829902,0 176.4471944749826,-38.26926383168924,0 176.447144842193,-38.269405964152,0 176.4470385672691,-38.2693966160758,0 176.4469023633199,-38.26931160774699,0 176.4466484886451,-38.26936847705133,0 176.4462743509502,-38.26950857348579,0 176.4454104356202,-38.26954985948724,0 176.4446924673535,-38.26955592738822,0 176.4443780414457,-38.26959697564575,0 176.4437994320717,-38.26952057506014,0 176.4436513251638,-38.26938954116638,0 176.4435865322457,-38.26909979572894,0 176.4438564952696,-38.26858722767562,0 176.4442572013454,-38.26809946644231,0 176.4442547339318,-38.26794442031633,0 176.4440036164163,-38.26757950606374,0 176.443587955562,-38.26715956287077,0 176.4435130230077,-38.26698382999474,0 176.4436893991022,-38.26667496092827,0 176.4437306985667,-38.26638162608281,0 176.4438669961729,-38.26631376443619,0 176.4441606619313,-38.26629425219986,0 176.4444474449408,-38.26644636421234,0 176.4448261331558,-38.26626625172482,0 176.4453031850485,-38.26625542117378,0 176.4454768336779,-38.26631418764576,0 176.445629481019,-38.2664012951862,0 176.445745166237,-38.2666259530819,0 176.4458824974291,-38.26668815597976,0 176.4463770636972,-38.26648687982907,0 176.4468621291968,-38.26637306853419,0 176.4474553773277,-38.26618631012389,0 176.4480697270889,-38.26608254305708,0 176.4489339687792,-38.2660414904339,0 176.4491946139437,-38.26601651703349,0 176.4494107705587,-38.2662350009882,0 176.4495108190025,-38.26641965009702,0 176.449515483744,-38.26664659631346,0 176.4492496428946,-38.26683994528091,0 176.4485911949258,-38.26690641800716,0 176.4480990038279,-38.26701879456294,0 176.4477399955491,-38.26719380173707,0 176.4475029171789,-38.2674230990522,0 176.4475230672227,-38.26761388371832,0 176.4475645352746,-38.26768336208801,0 176.4527887687009,-38.26940632839518,0 176.4532022341062,-38.26891926784229,0 176.4539568560409,-38.26866153012502,0 176.4482511076113,-38.25737106428736,0 176.4480897105611,-38.25724984374764,0 176.4480955064157,-38.2571246181442,0 176.4479886825094,-38.2570371158718,0 176.447782146269,-38.25707414794235,0 176.4475690133173,-38.25715995393296,0 176.4472900739667,-38.25751265214631,0 176.4471619509412,-38.25776927519961,0 176.4470639165151,-38.25814525097992,0 176.4470973486233,-38.25841469088902,0 176.4472775848668,-38.2586410907974,0 176.4468320620502,-38.25865037337194,0 176.446267511649,-38.25851014830877,0 176.446044085403,-38.25830918810048,0 176.4458209968864,-38.25818158591325,0 176.4455373162107,-38.25803128435117,0 176.4454659872554,-38.25785646991157,0 176.4456582729803,-38.25769760725643,0 176.445647258477,-38.25757025926981,0 176.4454427631633,-38.25740822642155,0 176.444918641989,-38.25721140702301,0 176.4447192403928,-38.2571010000032,0 176.4448819101909,-38.25693802729703,0 176.4454509552052,-38.2566976082115,0 176.4459236764351,-38.25645257624104,0 176.4461957348565,-38.25625232504351,0 176.4460414911949,-38.25607757978364,0 176.4453008870709,-38.25589654655232,0 176.4450794628415,-38.25573338641236,0 176.4448987753729,-38.25574303891422,0 176.4444404505504,-38.255907398369,0 176.4439493577471,-38.25616661761745,0 176.4437480025719,-38.25639047236739,0 176.4437744695497,-38.25669920640957,0 176.4441097031744,-38.25706136394326,0 176.4440159954034,-38.25719937466575,0 176.4437277743878,-38.25722582052882,0 176.443191823057,-38.25721194705148,0 176.4430268938202,-38.25712237401181,0 176.4427349228417,-38.25704710685204,0 176.4420382798895,-38.25704658400947,0 176.4417274421904,-38.25737567543421,0 176.4412776790975,-38.25737129630538,0 176.4411031929418,-38.25725419561666,0 176.4410979370565,-38.25705572914588,0 176.4412442049963,-38.25676425142891,0 176.4410987422249,-38.25669848918057,0 176.4408062518101,-38.25683863345765,0 176.4406699221954,-38.25677360254687,0 176.4407076633414,-38.25656464156143,0 176.4405718488728,-38.25639858682145,0 176.4404482834361,-38.25648634842937,0 176.4405543304346,-38.25723769431271,0 176.4405797853706,-38.25764423323552,0 176.4404604920569,-38.25780564867413,0 176.4401148290344,-38.25794888839285,0 176.4397953992792,-38.25795486737557,0 176.4393098181711,-38.25790953560745,0 176.4388844044172,-38.25788265110481,0 176.438594944929,-38.25798142862252,0 176.4377419792943,-38.25832863154702,0 176.4375619286395,-38.25853655088079,0 176.4372247497969,-38.25888394658933,0 176.4367347921378,-38.25885983954237,0 176.4364685688686,-38.25899149906542,0 176.4407104651327,-38.27830325725664,0 
						
</coordinates>

						</LinearRing>

					</outerBoundaryIs>

				</Polygon>

				<flyID>5</flyID>

				<flyDescription>On Lakes Rotomahana and Okataina no person shall operate personal water craft or hovercraft, or land aircraft or helicopters, or tow people or devices from vessles for recreational purposes other than equipment used for fishing.</flyDescription>

			</Placemark>
<Placemark>

				<name>Passive Area</name>

				<description>On Lakes Rotomahana and Okataina no person shall operate personal water craft or hovercraft, or land aircraft or helicopters, or tow people or devices from vessles for recreational purposes other than equipment used for fishing.</description>

				<styleUrl>#style1</styleUrl>

				<Polygon>

					<tessellate>1</tessellate>

					<outerBoundaryIs>

						<LinearRing>

							<coordinates>

							176.4407104651327,-38.27830325725664,0 176.4412341081161,-38.27802615799145,0 176.4416992343693,-38.27794887616506,0 176.4422958077444,-38.27791117578772,0 176.4428128968976,-38.27834357571393,0 176.4432956311649,-38.27857057664762,0 176.4435213203849,-38.2787048316665,0 176.443532597219,-38.278887827528,0 176.4433826229662,-38.27904502112386,0 176.4429696700059,-38.27920557304455,0 176.4428942158742,-38.27945715329068,0 176.4426420630318,-38.27971717630614,0 176.4423366436058,-38.27973955041727,0 176.44214634668,-38.27985823325473,0 176.4422442938068,-38.27991230895946,0 176.442506864463,-38.2799158227665,0 176.4432386700621,-38.27974582428659,0 176.443650159001,-38.27972755339116,0 176.443937206512,-38.27981742431551,0 176.4433784261793,-38.2799685899013,0 176.4430972271912,-38.28020432894797,0 176.4426454617194,-38.28035993543368,0 176.442170104414,-38.28036699029263,0 176.4421149800892,-38.28050274259866,0 176.4425440573829,-38.28076706276466,0 176.442552988244,-38.28088399952232,0 176.4427098521691,-38.28099688605931,0 176.4429336950103,-38.28107888706954,0 176.4432201379625,-38.28089546504451,0 176.4434732964079,-38.28093126661548,0 176.4432611786955,-38.28109586673873,0 176.4432095816484,-38.28125738681597,0 176.4434130967097,-38.2816334575344,0 176.4436315334433,-38.28187099300587,0 176.4442088200689,-38.28187184628861,0 176.4445633594123,-38.28178675205641,0 176.4448977068642,-38.28150903812142,0 176.4451928391719,-38.28150897297903,0 176.445459408969,-38.28165542229802,0 176.4456971616586,-38.28166513123254,0 176.4459896892224,-38.28144119626995,0 176.4462755582616,-38.28146263328389,0 176.4465779521436,-38.28151593012856,0 176.4468862654652,-38.28130678859984,0 176.4471382679587,-38.28123318319115,0 176.447210612007,-38.28097904672594,0 176.4477840089096,-38.28066444401917,0 176.4483463232331,-38.28040934263608,0 176.4486601791876,-38.28037201055865,0 176.4492209920409,-38.27999149372158,0 176.4496121830605,-38.28004411959575,0 176.4499981093785,-38.27998311688642,0 176.4502856721714,-38.27973531405319,0 176.4505847929337,-38.27956563367912,0 176.4507412107739,-38.27930317173641,0 176.4508693766398,-38.27901202270119,0 176.4512177560688,-38.27891219270852,0 176.4515715681758,-38.27889976050459,0 176.4520577000893,-38.27898634336321,0 176.4522754934729,-38.27909991359798,0 176.4525351220189,-38.27918365893613,0 176.45278625936,-38.27909970287193,0 176.4531393773641,-38.27904933391529,0 176.4532183050037,-38.2789668466122,0 176.4531935058836,-38.27869379968062,0 176.4534180720717,-38.27868062314795,0 176.4537323359017,-38.27866799389064,0 176.4538324555956,-38.27856576330306,0 176.4538540892318,-38.2783572744567,0 176.4541508552702,-38.27828358375831,0 176.4542595427725,-38.27813380458213,0 176.4538998312607,-38.27790394067642,0 176.4539256252677,-38.27779393397772,0 176.4540980306744,-38.27754509949584,0 176.4544595530367,-38.27747122098901,0 176.4549375773719,-38.27753828533113,0 176.4551787924329,-38.27762799632261,0 176.4554374605785,-38.27782827403978,0 176.4558047190707,-38.27797554030162,0 176.4561390383106,-38.27802523739246,0 176.4563370379713,-38.27797818245139,0 176.4563261864178,-38.27778365080734,0 176.4565720096922,-38.27751090353021,0 176.4563664274276,-38.27725779468737,0 176.4560723384255,-38.2769946998043,0 176.4558092763063,-38.27699292441343,0 176.4556882868738,-38.27692974961742,0 176.4557819248053,-38.27654664886823,0 176.4557861435112,-38.27638840121527,0 176.4554567795489,-38.27608295760069,0 176.4548563566371,-38.27565662774018,0 176.4544136323551,-38.27567721578986,0 176.4541493284088,-38.27577328274467,0 176.4538544243368,-38.27590891926378,0 176.4538274887459,-38.27572630439336,0 176.4536757647337,-38.27561621434695,0 176.453488001429,-38.27566779341515,0 176.4531877011455,-38.27561881102123,0 176.4528279305172,-38.27559411697543,0 176.4524870952721,-38.27589852565817,0 176.4523158290091,-38.27601745103903,0 176.4521975253556,-38.27593439217957,0 176.4523430065652,-38.27554449604858,0 176.4521111532545,-38.27541795185163,0 176.452021778295,-38.27554284635772,0 176.4519871148323,-38.27571645063627,0 176.4517863056261,-38.27596988629887,0 176.4514317710024,-38.27593182450205,0 176.4512117214383,-38.27568181394986,0 176.4509488252294,-38.2757083491796,0 176.4508313530984,-38.27598341423112,0 176.4505678215004,-38.27620532378823,0 176.4499774023313,-38.27646057746304,0 176.4494729964261,-38.27649750669191,0 176.4494619795075,-38.27669464927099,0 176.4496347984677,-38.27681637112063,0 176.4496114975268,-38.27704792585698,0 176.4496101606973,-38.27735197869871,0 176.4492533394819,-38.27760050053028,0 176.4490183270117,-38.27751543588865,0 176.4487266478319,-38.27744347966762,0 176.4484925074656,-38.27776120753985,0 176.4481411602673,-38.27782385733391,0 176.4478497024725,-38.27797040545827,0 176.4475678178725,-38.27800667745648,0 176.447495862717,-38.27786073076744,0 176.4473173109758,-38.27776929649332,0 176.4470116622457,-38.27794728856836,0 176.446439348226,-38.27775301337729,0 176.4457723350674,-38.27750838673168,0 176.4452273842344,-38.27699394227646,0 176.4450425151453,-38.27659076254499,0 176.4448208626514,-38.27606482004907,0 176.4446477549497,-38.27577786139321,0 176.4407104651327,-38.27830325725664,0 
						
</coordinates>

						</LinearRing>

					</outerBoundaryIs>

				</Polygon>

				<flyID>6</flyID>

				<flyDescription>On Lakes Rotomahana and Okataina no person shall operate personal water craft or hovercraft, or land aircraft or helicopters, or tow people or devices from vessles for recreational purposes other than equipment used for fishing.</flyDescription>

			</Placemark>
<Placemark>

				<name>Passive Area</name>

				<description>On Lakes Rotomahana and Okataina no person shall operate personal water craft or hovercraft, or land aircraft or helicopters, or tow people or devices from vessles for recreational purposes other than equipment used for fishing.</description>

				<styleUrl>#style1</styleUrl>

				<Polygon>

					<tessellate>1</tessellate>

					<outerBoundaryIs>

						<LinearRing>

							<coordinates>

							176.4282703290354,-38.25724940968457,0 176.4273824550516,-38.25770920548077,0 176.4272629055951,-38.25767556939254,0 176.4264078652052,-38.25800209839685,0 176.4258769233112,-38.25783274125843,0 176.4255637220513,-38.25802434676044,0 176.4253643006115,-38.25792374500638,0 176.4251252939967,-38.2577114245334,0 176.4244046258459,-38.25781848315724,0 176.4240087268751,-38.25813135845348,0 176.423859665991,-38.2584079025106,0 176.4235411167579,-38.25882918234338,0 176.4234752645864,-38.25911458096346,0 176.4240910290447,-38.25917247777603,0 176.4244463670784,-38.25912650474565,0 176.4248138138019,-38.25906194871333,0 176.4250373085285,-38.25916401475676,0 176.4251740901708,-38.25944380395882,0 176.4251992540349,-38.25983520002684,0 176.4249109439214,-38.26004688356408,0 176.4242395831325,-38.26018617092093,0 176.4235491385876,-38.2604713217445,0 176.4233953844895,-38.26067249349164,0 176.4230281533405,-38.26100765331881,0 176.4222685565783,-38.26141007522038,0 176.421486566576,-38.26199624510492,0 176.4297820992208,-38.27691277605433,0 176.4303646894815,-38.27666419434441,0 176.4307557500002,-38.27669936262655,0 176.4315093270468,-38.27732850807948,0 176.432060245323,-38.2775713775609,0 176.4324571145111,-38.2779197294437,0 176.4329794659256,-38.27842703106059,0 176.4339929765137,-38.27889525261483,0 176.4351344831935,-38.27896292324389,0 176.4364321981158,-38.2788778345103,0 176.4373750814847,-38.27900534367076,0 176.4392640538808,-38.27871706649297,0 176.4407104651327,-38.27830325725664,0 176.4364685688686,-38.25899149906542,0 176.4360886774637,-38.25907501542464,0 176.4354768464099,-38.25862828810894,0 176.4354575833808,-38.25820532124165,0 176.4356454961097,-38.25807346654693,0 176.4358707815679,-38.25790523124517,0 176.435902925161,-38.2577677806507,0 176.4360399989237,-38.25743692850011,0 176.4363660468701,-38.25711976790539,0 176.4369457656876,-38.25659659290404,0 176.4374732396173,-38.25639290690412,0 176.4377685171732,-38.25634368800638,0 176.438232508216,-38.25651373547125,0 176.438752552013,-38.25673687347382,0 176.4389964096711,-38.25685159604173,0 176.4391407110107,-38.25684788298594,0 176.43922120202,-38.25675504891753,0 176.4391685235638,-38.25663374534574,0 176.4388446858519,-38.25646358646618,0 176.4382370631617,-38.25616455909848,0 176.4375677718493,-38.25601696964343,0 176.4371479092766,-38.25605212496259,0 176.4365784192941,-38.2558649097215,0 176.4362799082311,-38.25586482537213,0 176.436060087612,-38.25577725758685,0 176.4358399321263,-38.2556024133367,0 176.4340768696313,-38.25630041189947,0 176.4330201926638,-38.25648539833656,0 176.4321323941501,-38.25638839672348,0 176.4314833237873,-38.25612069874392,0 176.4309461750448,-38.25607438791,0 176.4303673172441,-38.25629300746925,0 176.4296128486188,-38.25671516001774,0 176.4282703290354,-38.25724940968457,0 
						
</coordinates>

						</LinearRing>

					</outerBoundaryIs>

				</Polygon>

				<flyID>7</flyID>

				<flyDescription>On Lakes Rotomahana and Okataina no person shall operate personal water craft or hovercraft, or land aircraft or helicopters, or tow people or devices from vessles for recreational purposes other than equipment used for fishing.</flyDescription>

			</Placemark>
<Placemark>

				<name>Passive Area</name>

				<description>On Lakes Rotomahana and Okataina no person shall operate personal water craft or hovercraft, or land aircraft or helicopters, or tow people or devices from vessles for recreational purposes other than equipment used for fishing.</description>

				<styleUrl>#style1</styleUrl>

				<Polygon>

					<tessellate>1</tessellate>

					<outerBoundaryIs>

						<LinearRing>

							<coordinates>

							176.421486566576,-38.26199624510492,0 176.4212898898626,-38.26224451271176,0 176.4215276900368,-38.26285838368546,0 176.4212879049649,-38.26304275471281,0 176.4210998468138,-38.26331383794901,0 176.4205023800617,-38.26322718593979,0 176.4200156443829,-38.26315174479936,0 176.4197714248809,-38.26328301810242,0 176.4194204231112,-38.26363681452265,0 176.4189957856911,-38.26414275910939,0 176.4188243425142,-38.26441891889259,0 176.4189103499208,-38.26465034107574,0 176.4195034515892,-38.26528094787611,0 176.4196130944868,-38.2654859431947,0 176.4192091345254,-38.26585114447987,0 176.4190858547366,-38.26617457498919,0 176.4188273902988,-38.26653686676982,0 176.4188216068733,-38.26676139995693,0 176.41927661458,-38.26698970231789,0 176.4196583342797,-38.26738224561197,0 176.4196279934568,-38.26760674536621,0 176.4192436110179,-38.26814349683355,0 176.4192952979051,-38.26855772582099,0 176.4195266109957,-38.2687833684205,0 176.4192452077625,-38.26923143922868,0 176.419085716011,-38.26920045337756,0 176.4186561398431,-38.269160056959,0 176.4182433281808,-38.26935305250757,0 176.4177277871132,-38.26979225550169,0 176.4177062655158,-38.27015025905649,0 176.4175049315493,-38.27055357677364,0 176.4175105844134,-38.27081645473914,0 176.4178339589456,-38.27125861822167,0 176.4177462308802,-38.27140757422382,0 176.417393858283,-38.27170527856403,0 176.4175819355311,-38.27221445972873,0 176.4174441177355,-38.2724246044376,0 176.4171131672136,-38.27249680430695,0 176.4168578945117,-38.27245278117143,0 176.4167696233329,-38.27231185319254,0 176.4166895464997,-38.27216639427081,0 176.4163557744271,-38.27206325647634,0 176.4159465056572,-38.27219435459092,0 176.4157166971563,-38.27232616212793,0 176.4159252026809,-38.27260902575709,0 176.415844059243,-38.27263574353249,0 176.4156323516754,-38.27282016019814,0 176.4157667240474,-38.27314729178445,0 176.4159430365085,-38.27340698555567,0 176.4164994426731,-38.27380077953325,0 176.4167969344994,-38.27408148013204,0 176.4168908470054,-38.27430189872421,0 176.4175964379527,-38.27617668972055,0 176.4177335029496,-38.27583268757174,0 176.4178802746243,-38.27559823902238,0 176.4184471553742,-38.27558664631449,0 176.4190993500717,-38.27555306818851,0 176.4207145377862,-38.27554000531205,0 176.4214683815416,-38.27546310148679,0 176.4223590309679,-38.27515081361309,0 176.4232060949886,-38.27475956153855,0 176.4241890281409,-38.27444353744657,0 176.4246733158773,-38.27442648417873,0 176.4251995631835,-38.27452461228723,0 176.4256972101278,-38.27444767958582,0 176.4265372572925,-38.27431478374426,0 176.4269806993701,-38.27443214896578,0 176.4273686121421,-38.27486000893788,0 176.4275276293978,-38.27536326801584,0 176.4273542417844,-38.2759556242359,0 176.4270520784383,-38.2762888686754,0 176.4265670162733,-38.2766444055594,0 176.4261550645435,-38.27745859973814,0 176.4262104464414,-38.27768624618994,0 176.4273529162794,-38.27817067881146,0 176.4274613744072,-38.27811535014649,0 176.427779853227,-38.27768171011833,0 176.4279465705635,-38.27750156047834,0 176.4283100152788,-38.27738538593236,0 176.429213521075,-38.27708636876829,0 176.4297820992208,-38.27691277605433,0 176.421486566576,-38.26199624510492,0 
						
</coordinates>

						</LinearRing>

					</outerBoundaryIs>

				</Polygon>

				<flyID>8</flyID>

				<flyDescription>On Lakes Rotomahana and Okataina no person shall operate personal water craft or hovercraft, or land aircraft or helicopters, or tow people or devices from vessles for recreational purposes other than equipment used for fishing.</flyDescription>

			</Placemark>
<Placemark>

				<name>Passive Area</name>

				<description>On Lakes Rotomahana and Okataina no person shall operate personal water craft or hovercraft, or land aircraft or helicopters, or tow people or devices from vessles for recreational purposes other than equipment used for fishing.</description>

				<styleUrl>#style1</styleUrl>

				<Polygon>

					<tessellate>1</tessellate>

					<outerBoundaryIs>

						<LinearRing>

							<coordinates>

							176.4168908470054,-38.27430189872421,0 176.416762132678,-38.27436774219056,0 176.4164175502636,-38.27428102067655,0 176.4160398570063,-38.27412824853342,0 176.4156927433806,-38.27375846940178,0 176.4154695896131,-38.27385982891441,0 176.415221978465,-38.27408527793359,0 176.4152572166221,-38.27428376600164,0 176.4155506770127,-38.27463850969664,0 176.4152717789189,-38.27488531012804,0 176.4150068126068,-38.27494537205517,0 176.4143684268104,-38.27498493831729,0 176.4137593044936,-38.27496569757528,0 176.4139798487239,-38.27512238431326,0 176.4142096166575,-38.27517022639751,0 176.4143761740031,-38.27520805369959,0 176.4145689719154,-38.27528366970042,0 176.4146617668432,-38.27535824656489,0 176.4146960271665,-38.27548634315319,0 176.414564064367,-38.27559375671905,0 176.4143301687995,-38.2754862776373,0 176.4137912491905,-38.27560131692567,0 176.4134215525578,-38.27567717092877,0 176.413283427682,-38.27590625754742,0 176.413040286321,-38.27615552959863,0 176.4127887161834,-38.27612703064264,0 176.4124868471198,-38.27609881031685,0 176.4121584325048,-38.27627208688835,0 176.4119509809108,-38.2762761797193,0 176.4116934300758,-38.2760872650147,0 176.4115350520849,-38.27603516546741,0 176.411184027748,-38.27630933321977,0 176.4107660499266,-38.27697789984612,0 176.4102755337329,-38.27735043069809,0 176.4098210236577,-38.27760520323123,0 176.4096053820329,-38.27781252917649,0 176.4099178193378,-38.27839528763309,0 176.4098320783406,-38.27878219638896,0 176.4094956422215,-38.27929332574895,0 176.408967839032,-38.27964331957939,0 176.4084905333428,-38.27978862628836,0 176.4084150798526,-38.27990870216488,0 176.4085742016754,-38.28007668566714,0 176.4088216077173,-38.28006338039603,0 176.4092468139469,-38.28006802003924,0 176.4097632340535,-38.27972508658684,0 176.4101559039121,-38.27929885327396,0 176.4105496648862,-38.27869941430744,0 176.4107627844296,-38.27854382430761,0 176.4110492394646,-38.27839554725952,0 176.4114315949742,-38.27836065300348,0 176.4120324327945,-38.27814019581799,0 176.4127387620876,-38.27784964265995,0 176.4131327142425,-38.27778162021495,0 176.4133165724956,-38.27766143525134,0 176.4135499019168,-38.27766148641513,0 176.4139321172824,-38.27758037573712,0 176.4147777009285,-38.27737774882694,0 176.4155447811791,-38.27693023426111,0 176.416025584991,-38.2766501777601,0 176.416700260776,-38.27626915619958,0 176.4170622835648,-38.27625026729059,0 176.4172382461422,-38.27638684477514,0 176.4175964379527,-38.27617668972055,0 176.4168908470054,-38.27430189872421,0 
						
</coordinates>

						</LinearRing>

					</outerBoundaryIs>

				</Polygon>

				<flyID>9</flyID>

				<flyDescription>On Lakes Rotomahana and Okataina no person shall operate personal water craft or hovercraft, or land aircraft or helicopters, or tow people or devices from vessles for recreational purposes other than equipment used for fishing.</flyDescription>

			</Placemark>
<Placemark>

				<name>Water Ski Lane</name>

				<description>This access lane has been designated for water skiing. No person shall, in any access lane, propel, navigate, or manoeuvre a vessel except by the most direct route along the access lane and on that side of the access lane that lies to the starboard (right-hand) side of the vessel.</description>

				<styleUrl>#style0</styleUrl>

				<Polygon>

					<tessellate>1</tessellate>

					<outerBoundaryIs>

						<LinearRing>

							<coordinates>

							176.503715143281,-38.30607702877612,0 176.5032908602205,-38.30382135621287,0 176.5016280222728,-38.30506672774624,0 176.5016060738124,-38.30539694011397,0 176.503715143281,-38.30607702877612,0 
						
</coordinates>

						</LinearRing>

					</outerBoundaryIs>

				</Polygon>

				<flyID>10</flyID>

				<flyDescription>This access lane has been designated for water skiing. No person shall, in any access lane, propel, navigate, or manoeuvre a vessel except by the most direct route along the access lane and on that side of the access lane that lies to the starboard (right-hand) side of the vessel.</flyDescription>

			</Placemark>
<Placemark>

				<name>Water Ski Access Lane</name>

				<description>This access lane has been designated for water skiing. No person shall, in any access lane, propel, navigate, or manoeuvre a vessel except by the most direct route along the access lane and on that side of the access lane that lies to the starboard (right-hand) side of the vessel.</description>

				<styleUrl>#style0</styleUrl>

				<Polygon>

					<tessellate>1</tessellate>

					<outerBoundaryIs>

						<LinearRing>

							<coordinates>

							176.4993582033707,-38.28472031677927,0 176.5013416907429,-38.28375971332629,0 176.5002761811775,-38.28233513557215,0 176.4999970821716,-38.28234100427027,0 176.4995299654018,-38.2824849770079,0 176.4994524964884,-38.28269309942608,0 176.4992427318097,-38.28289127258416,0 176.4990959080071,-38.28267897704504,0 176.4988434287165,-38.28266150346255,0 176.4984501466129,-38.28280229544358,0 176.4981384329059,-38.28327421350333,0 176.4993582033707,-38.28472031677927,0 
						
</coordinates>

						</LinearRing>

					</outerBoundaryIs>

				</Polygon>

				<flyID>11</flyID>

				<flyDescription>This access lane has been designated for water skiing. No person shall, in any access lane, propel, navigate, or manoeuvre a vessel except by the most direct route along the access lane and on that side of the access lane that lies to the starboard (right-hand) side of the vessel.</flyDescription>

			</Placemark>
<Placemark>

				<name>Area Subject To A Speed Uplifting</name>

				<description>Location: Lake Okaro
Area subject to a speed uplifting.</description>

				<styleUrl>#style0</styleUrl>

				<Polygon>

					<tessellate>1</tessellate>

					<outerBoundaryIs>

						<LinearRing>

							<coordinates>

							176.3912519345304,-38.29812644569898,0 176.3913814693686,-38.2983504691546,0 176.3916636580668,-38.29873010117054,0 176.3916335126803,-38.29901312324436,0 176.391750609275,-38.29939717917961,0 176.391913392479,-38.29953925653429,0 176.3919875242314,-38.29964789048812,0 176.392237770658,-38.29981274848829,0 176.3921691399801,-38.30020854102463,0 176.3923174626438,-38.30047094680523,0 176.3922709949414,-38.30056318384255,0 176.3920824325991,-38.30063825829188,0 176.3919464310193,-38.30071188914262,0 176.3921410978791,-38.30122361799214,0 176.3924802558849,-38.30144269002641,0 176.3927594764705,-38.30153220257947,0 176.3930451895271,-38.30152763211432,0 176.393542878795,-38.30148150894185,0 176.3936855657685,-38.30149880161488,0 176.3941217458112,-38.30164854401586,0 176.3945194952569,-38.3016957732432,0 176.3949238612742,-38.30161622009777,0 176.3949856494825,-38.30152574919971,0 176.3950530789147,-38.30151813770884,0 176.3952219070833,-38.30147480467655,0 176.3954629259742,-38.30131691421124,0 176.3957455547716,-38.3011735902711,0 176.3958459781802,-38.3011165687267,0 176.3959790494786,-38.30104944693544,0 176.3961933528981,-38.3008561925069,0 176.3964892876194,-38.30081388445932,0 176.3967318598455,-38.30086937650419,0 176.3969050132555,-38.30092385506013,0 176.3970762540826,-38.30090024931526,0 176.3975363182192,-38.30080861874939,0 176.3977347774637,-38.30065893667926,0 176.3978640484011,-38.30044704958918,0 176.3980291659943,-38.3002685654763,0 176.3982996967218,-38.30015488656265,0 176.3983743429197,-38.29999245601656,0 176.3984469419177,-38.29977264639943,0 176.3982153011395,-38.29913231209395,0 176.3978331454501,-38.29867668615585,0 176.3976354657503,-38.29831423268121,0 176.3973158468871,-38.2978184541216,0 176.3970960915663,-38.29767615385968,0 176.3963896410343,-38.29710916444951,0 176.396202003985,-38.29677046696951,0 176.3961669492621,-38.29649399029673,0 176.3959600783983,-38.2962183205813,0 176.3956237368331,-38.29565907063754,0 176.3951555668282,-38.29533812180631,0 176.3947088341532,-38.29522674808583,0 176.394222126497,-38.29528598232884,0 176.393968604347,-38.29535709754431,0 176.3937178369185,-38.29543632533949,0 176.3932720044015,-38.29543629712094,0 176.3922886288745,-38.29566585929376,0 176.3921280127957,-38.29584786565312,0 176.3920215083795,-38.29651412517013,0 176.3918800200937,-38.29694565371058,0 176.391460914999,-38.29722823864083,0 176.3912519345304,-38.29812644569898,0 
						
</coordinates>

						</LinearRing>

					</outerBoundaryIs>

				</Polygon>

				<flyID>12</flyID>

				<flyDescription>Location: Lake Okaro
Area subject to a speed uplifting.</flyDescription>

			</Placemark>

</Document>
</kml>
