<?xml version="1.0" encoding="UTF-8"?>
<kml xmlns="http://www.opengis.net/kml/2.2" xmlns:gx="http://www.google.com/kml/ext/2.2" xmlns:kml="http://www.opengis.net/kml/2.2" xmlns:atom="http://www.w3.org/2005/Atom">
<Document>
<name>R24 C44.kml</name>

<Style id="style0">

					<LineStyle>

						<color>ffff0000</color>

					</LineStyle>

					<PolyStyle>

						<color>ffff0000</color>

						<width>0.9</width>

					</PolyStyle>

				</Style>

<Placemark>

				<name>Waihora Access Lane</name>

				<description>aihora Access Lane

Access lanes enable vessels involved in water sports to legally leave or approach the shore at speeds in excess of 5 knots.

Direction of travel is anti-clockwise. All access lane buoys are coloured orange and black.

You must:

Keep to the right in the lanes.
Enter and leave at right angles to the shore.
Have an observer who is not under the age of 10 years to report every mishap that occurs to the person and/or object that is being towed.
Not proceed in a manner dangerous to other persons or vessels in the lane.
Not beach your boat in the lane.
Not use lane for any other purposes.
No person may operate between sunset and sunrise.
Wear a life jacket when being towed.</description>

				<styleUrl>#style0</styleUrl>

				<Polygon>

					<tessellate>1</tessellate>

					<outerBoundaryIs>

						<LinearRing>

							<coordinates>

							175.7848812459939,-38.67929145015673,0 175.7869961950476,-38.67841568489484,0 175.7857989170628,-38.67682681608448,0 175.7837017065496,-38.67764376306562,0 175.7848812459939,-38.67929145015673,0 
						
</coordinates>

						</LinearRing>

					</outerBoundaryIs>

				</Polygon>

				<flyID>0</flyID>

				<flyDescription>aihora Access Lane

Access lanes enable vessels involved in water sports to legally leave or approach the shore at speeds in excess of 5 knots.

Direction of travel is anti-clockwise. All access lane buoys are coloured orange and black.

You must:

Keep to the right in the lanes.
Enter and leave at right angles to the shore.
Have an observer who is not under the age of 10 years to report every mishap that occurs to the person and/or object that is being towed.
Not proceed in a manner dangerous to other persons or vessels in the lane.
Not beach your boat in the lane.
Not use lane for any other purposes.
No person may operate between sunset and sunrise.
Wear a life jacket when being towed.</flyDescription>

			</Placemark>
<Placemark>

				<name>Waihaha Access Lane</name>

				<description>Access lanes enable vessels involved in water sports to legally leave or approach the shore at speeds in excess of 5 knots.

Direction of travel is anti-clockwise. All access lane buoys are coloured orange and black.

You must:

Keep to the right in the lanes.
Enter and leave at right angles to the shore.
Have an observer who is not under the age of 10 years to report every mishap that occurs to the person and/or object that is being towed.
Not proceed in a manner dangerous to other persons or vessels in the lane.
Not beach your boat in the lane.
Not use lane for any other purposes.
No person may operate between sunset and sunrise.
Wear a life jacket when being towed.</description>

				<styleUrl>#style0</styleUrl>

				<Polygon>

					<tessellate>1</tessellate>

					<outerBoundaryIs>

						<LinearRing>

							<coordinates>

							175.74609790064,-38.72877565084134,0 175.7470643687237,-38.72745806143776,0 175.7451687780375,-38.72627253398413,0 175.7442485464082,-38.72761066760377,0 175.74609790064,-38.72877565084134,0 
						
</coordinates>

						</LinearRing>

					</outerBoundaryIs>

				</Polygon>

				<flyID>1</flyID>

				<flyDescription>Access lanes enable vessels involved in water sports to legally leave or approach the shore at speeds in excess of 5 knots.

Direction of travel is anti-clockwise. All access lane buoys are coloured orange and black.

You must:

Keep to the right in the lanes.
Enter and leave at right angles to the shore.
Have an observer who is not under the age of 10 years to report every mishap that occurs to the person and/or object that is being towed.
Not proceed in a manner dangerous to other persons or vessels in the lane.
Not beach your boat in the lane.
Not use lane for any other purposes.
No person may operate between sunset and sunrise.
Wear a life jacket when being towed.</flyDescription>

			</Placemark>

</Document>
</kml>
