<?xml version="1.0" encoding="UTF-8"?>
<kml xmlns="http://www.opengis.net/kml/2.2" xmlns:gx="http://www.google.com/kml/ext/2.2" xmlns:kml="http://www.opengis.net/kml/2.2" xmlns:atom="http://www.w3.org/2005/Atom">
<Document>
<name>R24 C46.kml</name>

<Style id="style0">

					<LineStyle>

						<color>ff00ffff</color>

					</LineStyle>

					<PolyStyle>

						<color>ff00ffff</color>

						<width>0.9</width>

					</PolyStyle>

				</Style>
<Style id="style1">

					<LineStyle>

						<color>ffff0000</color>

					</LineStyle>

					<PolyStyle>

						<color>ffff0000</color>

						<width>0.9</width>

					</PolyStyle>

				</Style>

<Placemark>

				<name>5 Knot Zone</name>

				<description>Keep to 5 knots or less (9.25km / fast walking pace) in this area - Ohakuri</description>

				<styleUrl>#style0</styleUrl>

				<Polygon>

					<tessellate>1</tessellate>

					<outerBoundaryIs>

						<LinearRing>

							<coordinates>

							176.1696293803363,-38.50285416751084,0 176.1696063250449,-38.50313929923702,0 176.1696853368839,-38.50355647677818,0 176.1696112985675,-38.50399279161209,0 176.1696177042948,-38.50427120960072,0 176.1697641108084,-38.50435863587656,0 176.1699597764147,-38.5045201621942,0 176.1702935859792,-38.50491881652302,0 176.1704617635378,-38.50520136133977,0 176.1704682681343,-38.50549292920891,0 176.1703193916938,-38.50569203750811,0 176.1702294036317,-38.50583054429671,0 176.1700451544637,-38.50603570420729,0 176.1697662618492,-38.50614773372091,0 176.1696444312121,-38.50626687875863,0 176.1696663940065,-38.50643808648375,0 176.1697583489363,-38.50655453613678,0 176.1700598534308,-38.5066477651271,0 176.1704781904976,-38.50688891537865,0 176.1709429110618,-38.50723207301872,0 176.1711218208703,-38.50748256968042,0 176.1712010043366,-38.50777435469997,0 176.1714735437525,-38.5080368266169,0 176.1717120523711,-38.50837478333341,0 176.1718425438056,-38.50870487929657,0 176.1718227416189,-38.50898524748614,0 176.1717166692394,-38.50922406055918,0 176.1718933980132,-38.5094725654109,0 176.1720529485143,-38.50976419863102,0 176.1722940714392,-38.50993758310953,0 176.1727162120383,-38.51027939358353,0 176.1731709959445,-38.51072872382188,0 176.1738479044279,-38.50998058239503,0 176.1732771574083,-38.50931240504287,0 176.1731105244664,-38.50886788870801,0 176.1729024660492,-38.50869471999925,0 176.1725197828374,-38.50830873256458,0 176.1724254089764,-38.5080346780171,0 176.1723799254949,-38.50741061545902,0 176.1720282796204,-38.50683970148419,0 176.1717802907795,-38.50640193386147,0 176.1715958911976,-38.50571691487437,0 176.1715903963127,-38.50537508961992,0 176.1712867674721,-38.5046580050911,0 176.170840432864,-38.50396218716904,0 176.1707587255045,-38.50372614965205,0 176.170695761687,-38.50316767094248,0 176.1705337086591,-38.50267927444909,0 176.1701414061451,-38.50254543561658,0 176.1697965066318,-38.50268850736638,0 176.1696293803363,-38.50285416751084,0 
						
</coordinates>

						</LinearRing>

					</outerBoundaryIs>

				</Polygon>

				<flyID>0</flyID>

				<flyDescription>Keep to 5 knots or less (9.25km / fast walking pace) in this area - Ohakuri</flyDescription>

			</Placemark>
<Placemark>

				<name>5 Knot Zone</name>

				<description>Keep to 5 knots or less (9.25km / fast walking pace) in this area - Ohakuri</description>

				<styleUrl>#style0</styleUrl>

				<Polygon>

					<tessellate>1</tessellate>

					<outerBoundaryIs>

						<LinearRing>

							<coordinates>

							176.1731709959445,-38.51072872382188,0 176.1736352941878,-38.51124967198765,0 176.1740714835447,-38.5115731157143,0 176.1748054031464,-38.51215723458292,0 176.1750769090759,-38.51247220349791,0 176.1753358809511,-38.51287316291032,0 176.1755501002558,-38.51342216024848,0 176.1757867565351,-38.51409314153196,0 176.1759857612461,-38.51465316123469,0 176.1763430358949,-38.51519731807381,0 176.1766573282021,-38.51552239479027,0 176.1767855897809,-38.515822279744,0 176.1768106034936,-38.51612712047686,0 176.1767674450083,-38.5163960596515,0 176.176739444613,-38.51665583659013,0 176.1769093928887,-38.5168986557887,0 176.1770568890979,-38.51728333846385,0 176.1772245610737,-38.51778612496804,0 176.1772462054326,-38.51818201174091,0 176.1772757840368,-38.51839821817435,0 176.1774361589887,-38.51853423347773,0 176.1777789515289,-38.5185937291421,0 176.1782430784833,-38.51873607691087,0 176.178465893536,-38.5188998548835,0 176.1788190089904,-38.51910276037864,0 176.1794155301847,-38.51927585258449,0 176.1802754925546,-38.51953813446704,0 176.1803734417983,-38.51867725764311,0 176.1798567624206,-38.51856110094577,0 176.1793540563553,-38.51835501334845,0 176.1788000430458,-38.51818286189473,0 176.1783816510044,-38.51804374283261,0 176.1782022749265,-38.51787023879227,0 176.1781046107769,-38.51741091563104,0 176.1779417636245,-38.51653493789762,0 176.1778131844876,-38.51596917395334,0 176.1773259820968,-38.51542006632037,0 176.1767650425527,-38.51458973648984,0 176.176380525245,-38.51360688934442,0 176.1763255519444,-38.51298249710023,0 176.1763027880799,-38.51226634778195,0 176.1761535271926,-38.51177245886633,0 176.1758394994168,-38.51162394650248,0 176.175171552803,-38.51142088972323,0 176.1747116655523,-38.51132086072379,0 176.174440888458,-38.51089268368626,0 176.1738479044279,-38.50998058239503,0 176.1731709959445,-38.51072872382188,0 
						
</coordinates>

						</LinearRing>

					</outerBoundaryIs>

				</Polygon>

				<flyID>1</flyID>

				<flyDescription>Keep to 5 knots or less (9.25km / fast walking pace) in this area - Ohakuri</flyDescription>

			</Placemark>
<Placemark>

				<name>5 Knot Zone</name>

				<description>Keep to 5 knots or less (9.25km / fast walking pace) in this area - Ohakuri</description>

				<styleUrl>#style0</styleUrl>

				<Polygon>

					<tessellate>1</tessellate>

					<outerBoundaryIs>

						<LinearRing>

							<coordinates>

							176.1802754925546,-38.51953813446704,0 176.180820743549,-38.51964640348233,0 176.1812366290022,-38.51962452472095,0 176.1818229987588,-38.51964474510928,0 176.1822018650628,-38.51956089449537,0 176.1825008149666,-38.51959100730925,0 176.1828718461948,-38.51971383369672,0 176.183291835886,-38.5196948509065,0 176.1837889583704,-38.51971807143026,0 176.1842136281856,-38.51959155081868,0 176.1847867594967,-38.51934529322452,0 176.1849556606728,-38.51908430932177,0 176.1851221775976,-38.51900097637036,0 176.1853005425517,-38.51898025690201,0 176.1854134209613,-38.51891125418924,0 176.1855777764121,-38.51870282343868,0 176.1857189485042,-38.51866726480399,0 176.1859214255612,-38.51870610644495,0 176.1860481858263,-38.51855327637193,0 176.1861668089542,-38.51845814693743,0 176.1863947586185,-38.51842270044833,0 176.1867490133284,-38.51840519053508,0 176.1872544815338,-38.51842596232277,0 176.1875611853894,-38.51836556574917,0 176.1882311663633,-38.51816431022095,0 176.1887365052862,-38.51798063423821,0 176.1891874594485,-38.51784987707676,0 176.1896310268123,-38.51781772954136,0 176.189738715864,-38.51789318478199,0 176.189788392522,-38.518069908257,0 176.1898762090951,-38.51821018476998,0 176.1901662530479,-38.51851963358447,0 176.1902688640278,-38.51866723632814,0 176.1903049497407,-38.51901363948927,0 176.1903269150707,-38.51911254567474,0 176.1904733033208,-38.51894581658446,0 176.1904952525063,-38.51861808788123,0 176.1903970258031,-38.51839208422379,0 176.1901067504206,-38.51819731895087,0 176.1899370640281,-38.51796630833254,0 176.1900491218597,-38.51777391485292,0 176.1902397623897,-38.5174229649534,0 176.1902618139775,-38.51694434770798,0 176.1901060325553,-38.51672478775125,0 176.189812929383,-38.51683655898237,0 176.1893505537753,-38.5170534393036,0 176.1885532352625,-38.51732749250997,0 176.1882778870593,-38.51750897675048,0 176.1879772750237,-38.51755885079237,0 176.187395631312,-38.51763825138308,0 176.1866383988956,-38.51765151571167,0 176.1861535116144,-38.51783006696316,0 176.1856796421911,-38.51787480853264,0 176.1850705563162,-38.51786818479989,0 176.18468056671,-38.51815389013041,0 176.184632246912,-38.51835235091153,0 176.1841355223827,-38.5186354608024,0 176.1834827697707,-38.51881359999205,0 176.1827995444231,-38.51884650028178,0 176.1825346504015,-38.51891583030413,0 176.1816714364396,-38.518910581766,0 176.1812867380062,-38.51884089329788,0 176.1807753027729,-38.51881548261206,0 176.1803734417983,-38.51867725764311,0 176.1802754925546,-38.51953813446704,0 
						
</coordinates>

						</LinearRing>

					</outerBoundaryIs>

				</Polygon>

				<flyID>2</flyID>

				<flyDescription>Keep to 5 knots or less (9.25km / fast walking pace) in this area - Ohakuri</flyDescription>

			</Placemark>
<Placemark>

				<name>5 Knot Zone</name>

				<description>Keep to 5 knots or less (9.25km / fast walking pace) in this area - Ohakuri</description>

				<styleUrl>#style0</styleUrl>

				<Polygon>

					<tessellate>1</tessellate>

					<outerBoundaryIs>

						<LinearRing>

							<coordinates>

							176.1474082442058,-38.46716823475371,0 176.1479577258662,-38.46716526991038,0 176.1481764588511,-38.46701071734665,0 176.1484494205516,-38.46685027070024,0 176.1490462944836,-38.46684716071092,0 176.1494413615184,-38.46663720091807,0 176.1494816843756,-38.46654182430122,0 176.1493627827669,-38.46642034316241,0 176.1490523381775,-38.46634583667154,0 176.148743960165,-38.46637857405703,0 176.1484174064035,-38.46641644614928,0 176.1481529788885,-38.46639542074038,0 176.1478617796761,-38.46620546668776,0 176.1476918565226,-38.46586627210186,0 176.1474052611672,-38.46538410328878,0 176.1472925370554,-38.4650624202722,0 176.1469059643094,-38.46756367152665,0 176.1474082442058,-38.46716823475371,0 
						
</coordinates>

						</LinearRing>

					</outerBoundaryIs>

				</Polygon>

				<flyID>3</flyID>

				<flyDescription>Keep to 5 knots or less (9.25km / fast walking pace) in this area - Ohakuri</flyDescription>

			</Placemark>
<Placemark>

				<name>Kaiapo Bay Access Lane</name>

				<description>Access lanes enable vessels involved in water sports to legally leave or approach the shore at speeds in excess of 5 knots.

Direction of travel is anti-clockwise. All access lane buoys are coloured orange and black.

You must:

Keep to the right in the lanes.
Enter and leave at right angles to the shore.
Have an observer who is not under the age of 10 years to report every mishap that occurs to the person and/or object that is being towed.
Not proceed in a manner dangerous to other persons or vessels in the lane.
Not beach your boat in the lane.
Not use lane for any other purposes.
No person may operate between sunset and sunrise.
Wear a life jacket when being towed.</description>

				<styleUrl>#style1</styleUrl>

				<Polygon>

					<tessellate>1</tessellate>

					<outerBoundaryIs>

						<LinearRing>

							<coordinates>

							175.9757850925846,-38.7130524517578,0 175.9769113869902,-38.71398639033755,0 175.9780398499102,-38.71256628357674,0 175.9769994538346,-38.7114726314644,0 175.9757850925846,-38.7130524517578,0 
						
</coordinates>

						</LinearRing>

					</outerBoundaryIs>

				</Polygon>

				<flyID>4</flyID>

				<flyDescription>Access lanes enable vessels involved in water sports to legally leave or approach the shore at speeds in excess of 5 knots.

Direction of travel is anti-clockwise. All access lane buoys are coloured orange and black.

You must:

Keep to the right in the lanes.
Enter and leave at right angles to the shore.
Have an observer who is not under the age of 10 years to report every mishap that occurs to the person and/or object that is being towed.
Not proceed in a manner dangerous to other persons or vessels in the lane.
Not beach your boat in the lane.
Not use lane for any other purposes.
No person may operate between sunset and sunrise.
Wear a life jacket when being towed.</flyDescription>

			</Placemark>
<Placemark>

				<name>5 Mile Bay South Access Lane</name>

				<description>Access lanes enable vessels involved in water sports to legally leave or approach the shore at speeds in excess of 5 knots.

Direction of travel is anti-clockwise. All access lane buoys are coloured orange and black.

You must:

Keep to the right in the lanes.
Enter and leave at right angles to the shore.
Have an observer who is not under the age of 10 years to report every mishap that occurs to the person and/or object that is being towed.
Not proceed in a manner dangerous to other persons or vessels in the lane.
Not beach your boat in the lane.
Not use lane for any other purposes.
No person may operate between sunset and sunrise.
Wear a life jacket when being towed.</description>

				<styleUrl>#style1</styleUrl>

				<Polygon>

					<tessellate>1</tessellate>

					<outerBoundaryIs>

						<LinearRing>

							<coordinates>

							176.0711946785419,-38.75119603897166,0 176.0707225713177,-38.74998729215925,0 176.0686483986623,-38.75073177291209,0 176.0691691598886,-38.75188374787174,0 176.0711946785419,-38.75119603897166,0 
						
</coordinates>

						</LinearRing>

					</outerBoundaryIs>

				</Polygon>

				<flyID>5</flyID>

				<flyDescription>Access lanes enable vessels involved in water sports to legally leave or approach the shore at speeds in excess of 5 knots.

Direction of travel is anti-clockwise. All access lane buoys are coloured orange and black.

You must:

Keep to the right in the lanes.
Enter and leave at right angles to the shore.
Have an observer who is not under the age of 10 years to report every mishap that occurs to the person and/or object that is being towed.
Not proceed in a manner dangerous to other persons or vessels in the lane.
Not beach your boat in the lane.
Not use lane for any other purposes.
No person may operate between sunset and sunrise.
Wear a life jacket when being towed.</flyDescription>

			</Placemark>
<Placemark>

				<name>Lake Terrace (Taupo Township) Swimming Only Zone</name>

				<description>Lake Taupō has five designated areas for swimming only.

These are marked with white and black banded posts ashore, and black and white buoys in the water.

No vessels may enter these areas at all</description>

				<styleUrl>#style1</styleUrl>

				<Polygon>

					<tessellate>1</tessellate>

					<outerBoundaryIs>

						<LinearRing>

							<coordinates>

							176.0825713227728,-38.70041948590651,0 176.0828104160704,-38.70131030826398,0 176.083285941837,-38.70164393554472,0 176.0847537416478,-38.70096678144247,0 176.0846725822947,-38.70082957907353,0 176.0842985143123,-38.70066101183635,0 176.084325307152,-38.70003470296104,0 176.0839131898836,-38.69954939014709,0 176.0818526146639,-38.69790605866213,0 176.0804929995583,-38.6969467013869,0 176.0794510409673,-38.69804261571415,0 176.0825713227728,-38.70041948590651,0 
						
</coordinates>

						</LinearRing>

					</outerBoundaryIs>

				</Polygon>

				<flyID>6</flyID>

				<flyDescription>Lake Taupō has five designated areas for swimming only.

These are marked with white and black banded posts ashore, and black and white buoys in the water.

No vessels may enter these areas at all</flyDescription>

			</Placemark>
<Placemark>

				<name>Te Ti Point Swimming Only Zone</name>

				<description>Lake Taupō has five designated areas for swimming only.

These are marked with white and black banded posts ashore, and black and white buoys in the water.

No vessels may enter these areas at all.</description>

				<styleUrl>#style1</styleUrl>

				<Polygon>

					<tessellate>1</tessellate>

					<outerBoundaryIs>

						<LinearRing>

							<coordinates>

							176.0699256274624,-38.72719189810361,0 176.0699439366136,-38.72701205388652,0 176.0699178942881,-38.72665389764175,0 176.0687342303479,-38.72666031876663,0 176.0686795128752,-38.72715767437155,0 176.0699256274624,-38.72719189810361,0 
						
</coordinates>

						</LinearRing>

					</outerBoundaryIs>

				</Polygon>

				<flyID>7</flyID>

				<flyDescription>Lake Taupō has five designated areas for swimming only.

These are marked with white and black banded posts ashore, and black and white buoys in the water.

No vessels may enter these areas at all.</flyDescription>

			</Placemark>
<Placemark>

				<name>Taupo Yacht Club Swimming Only Zone</name>

				<description>Lake Taupō has five designated areas for swimming only.

These are marked with white and black banded posts ashore, and black and white buoys in the water.

No vessels may enter these areas at all</description>

				<styleUrl>#style1</styleUrl>

				<Polygon>

					<tessellate>1</tessellate>

					<outerBoundaryIs>

						<LinearRing>

							<coordinates>

							176.0652326157084,-38.68857369798942,0 176.0653228315557,-38.68831707384695,0 176.0648210631991,-38.68820054771746,0 176.0648088070996,-38.68844256324049,0 176.0652326157084,-38.68857369798942,0 
						
</coordinates>

						</LinearRing>

					</outerBoundaryIs>

				</Polygon>

				<flyID>8</flyID>

				<flyDescription>Lake Taupō has five designated areas for swimming only.

These are marked with white and black banded posts ashore, and black and white buoys in the water.

No vessels may enter these areas at all</flyDescription>

			</Placemark>
<Placemark>

				<name>5 Mile Bay North Access Lane</name>

				<description>Access lanes enable vessels involved in water sports to legally leave or approach the shore at speeds in excess of 5 knots.

Direction of travel is anti-clockwise. All access lane buoys are coloured orange and black.

You must:

Keep to the right in the lanes.
Enter and leave at right angles to the shore.
Have an observer who is not under the age of 10 years to report every mishap that occurs to the person and/or object that is being towed.
Not proceed in a manner dangerous to other persons or vessels in the lane.
Not beach your boat in the lane.
Not use lane for any other purposes.
No person may operate between sunset and sunrise.
Wear a life jacket when being towed.</description>

				<styleUrl>#style1</styleUrl>

				<Polygon>

					<tessellate>1</tessellate>

					<outerBoundaryIs>

						<LinearRing>

							<coordinates>

							176.0691572209663,-38.74645086449494,0 176.068564139725,-38.74524948436318,0 176.0664404327473,-38.74617767791648,0 176.0671495809526,-38.74738672358713,0 176.0691572209663,-38.74645086449494,0 
						
</coordinates>

						</LinearRing>

					</outerBoundaryIs>

				</Polygon>

				<flyID>9</flyID>

				<flyDescription>Access lanes enable vessels involved in water sports to legally leave or approach the shore at speeds in excess of 5 knots.

Direction of travel is anti-clockwise. All access lane buoys are coloured orange and black.

You must:

Keep to the right in the lanes.
Enter and leave at right angles to the shore.
Have an observer who is not under the age of 10 years to report every mishap that occurs to the person and/or object that is being towed.
Not proceed in a manner dangerous to other persons or vessels in the lane.
Not beach your boat in the lane.
Not use lane for any other purposes.
No person may operate between sunset and sunrise.
Wear a life jacket when being towed.</flyDescription>

			</Placemark>

</Document>
</kml>
