<?xml version="1.0" encoding="UTF-8"?>
<kml xmlns="http://www.opengis.net/kml/2.2" xmlns:gx="http://www.google.com/kml/ext/2.2" xmlns:kml="http://www.opengis.net/kml/2.2" xmlns:atom="http://www.w3.org/2005/Atom">
<Document>
<name>R26 C53.kml</name>

<Style id="style0">

					<LineStyle>

						<color>ffff0000</color>

					</LineStyle>

					<PolyStyle>

						<color>ffff0000</color>

						<width>0.9</width>

					</PolyStyle>

				</Style>

<Placemark>

				<name>Mahia Beach Access Lane</name>

				<description>An access lane has been designated for the launching and operation of powered vessels, except that no person may propel or navigate a vessel (including a
vessel towing a person or some object) at a proper speed exceeding 5 knots).</description>

				<styleUrl>#style0</styleUrl>

				<Polygon>

					<tessellate>1</tessellate>

					<outerBoundaryIs>

						<LinearRing>

							<coordinates>

							177.8711267668352,-39.08755547403076,0 177.8718021779183,-39.08602818263233,0 177.8680527581697,-39.08434999958915,0 177.8674960257268,-39.08603208046424,0 177.8711267668352,-39.08755547403076,0 
						
</coordinates>

						</LinearRing>

					</outerBoundaryIs>

				</Polygon>

				<flyID>0</flyID>

				<flyDescription>An access lane has been designated for the launching and operation of powered vessels, except that no person may propel or navigate a vessel (including a
vessel towing a person or some object) at a proper speed exceeding 5 knots).</flyDescription>

			</Placemark>
<Placemark>

				<name>Powered Vessel Access Lane</name>

				<description>An access lane has been designated for the launching and operation of powered vessel</description>

				<styleUrl>#style0</styleUrl>

				<Polygon>

					<tessellate>1</tessellate>

					<outerBoundaryIs>

						<LinearRing>

							<coordinates>

							177.829649922867,-39.07158690036336,0 177.8310974823569,-39.07012741842967,0 177.8279467234273,-39.07053311386175,0 177.8274651104399,-39.07092411558935,0 177.8273570601152,-39.0711341714675,0 177.829649922867,-39.07158690036336,0 
						
</coordinates>

						</LinearRing>

					</outerBoundaryIs>

				</Polygon>

				<flyID>1</flyID>

				<flyDescription>An access lane has been designated for the launching and operation of powered vessel</flyDescription>

			</Placemark>

</Document>
</kml>
