<?xml version="1.0" encoding="UTF-8"?>
<kml xmlns="http://www.opengis.net/kml/2.2" xmlns:gx="http://www.google.com/kml/ext/2.2" xmlns:kml="http://www.opengis.net/kml/2.2" xmlns:atom="http://www.w3.org/2005/Atom">
<Document>
<name>R34 C41.kml</name>

<Style id="style0">

					<LineStyle>

						<color>ffff0000</color>

					</LineStyle>

					<PolyStyle>

						<color>ffff0000</color>

						<width>0.9</width>

					</PolyStyle>

				</Style>
<Style id="style1">

					<LineStyle>

						<color>ffff5500</color>

					</LineStyle>

					<PolyStyle>

						<color>ffff5500</color>

						<width>0.9</width>

					</PolyStyle>

				</Style>
<Style id="style2">

					<LineStyle>

						<color>ff0000ff</color>

					</LineStyle>

					<PolyStyle>

						<color>ff0000ff</color>

						<width>0.9</width>

					</PolyStyle>

				</Style>
<Style id="style3">

					<LineStyle>

						<color>ff00ffff</color>

					</LineStyle>

					<PolyStyle>

						<color>ff00ffff</color>

						<width>0.9</width>

					</PolyStyle>

				</Style>

<Placemark>

				<name>12 Knot Speed Restriction</name>

				<description>In addition to Bylaw 3.2, no vessels shall exceed a speed of 12 knots in the Lambton harbour area (westwards of a line between Thorndon Container Pile Light and the fountain in Oriental Bay (unless exempted by the Harbourmaster.</description>

				<styleUrl>#style3</styleUrl>

				<Polygon>

					<tessellate>1</tessellate>

					<outerBoundaryIs>

						<LinearRing>

							<coordinates>

							174.7866768687847,-41.28643285962477,0 174.7940325698822,-41.28898143952964,0 174.791682172788,-41.28279760531924,0 174.7819204023951,-41.2842452859846,0 174.7825920544644,-41.28685763884141,0 174.7866768687847,-41.28643285962477,0 
						
</coordinates>

						</LinearRing>

					</outerBoundaryIs>

				</Polygon>

				<flyID>0</flyID>

				<flyDescription>In addition to Bylaw 3.2, no vessels shall exceed a speed of 12 knots in the Lambton harbour area (westwards of a line between Thorndon Container Pile Light and the fountain in Oriental Bay (unless exempted by the Harbourmaster.</flyDescription>

			</Placemark>
<Placemark>

				<name>Water Ski Access Lane</name>

				<description>Days Bay- The area of water at the northern end of Days Bay as indicated, bounded on the sides by parallel lines approximately 90 metres apart, and extending in a westerly direction 200 metres from the edge of the water.</description>

				<styleUrl>#style0</styleUrl>

				<Polygon>

					<tessellate>1</tessellate>

					<outerBoundaryIs>

						<LinearRing>

							<coordinates>

							174.9026606716664,-41.27865904072277,0 174.9048995890447,-41.27812352088381,0 174.9040066185582,-41.27748205315995,0 174.9018347633782,-41.27805470786465,0 174.9026606716664,-41.27865904072277,0 
						
</coordinates>

						</LinearRing>

					</outerBoundaryIs>

				</Polygon>

				<flyID>1</flyID>

				<flyDescription>Days Bay- The area of water at the northern end of Days Bay as indicated, bounded on the sides by parallel lines approximately 90 metres apart, and extending in a westerly direction 200 metres from the edge of the water.</flyDescription>

			</Placemark>
<Placemark>

				<name>Restricted Access Area For Non-Commercial Craft</name>

				<description>This area is a restricted area for commercial craft only.</description>

				<styleUrl>#style2</styleUrl>

				<Polygon>

					<tessellate>1</tessellate>

					<outerBoundaryIs>

						<LinearRing>

							<coordinates>

							174.7846311638639,-41.28199008920465,0 174.7844807343131,-41.28192486682156,0 174.7842381563014,-41.28127167720375,0 174.7838592357059,-41.28129255731976,0 174.7832453204709,-41.27907911226338,0 174.7824107098238,-41.27990066863151,0 174.7829327122304,-41.28188729652735,0 174.7824196542501,-41.2819808566031,0 174.7819322659835,-41.2801913997148,0 174.7816883485015,-41.28017901398062,0 174.7811636877839,-41.28051727410831,0 174.78161073784,-41.28239258915468,0 174.7812350847094,-41.28242700685414,0 174.7808862913038,-41.28112358606444,0 174.7807051208513,-41.28115561620619,0 174.7804693355072,-41.28169553762471,0 174.7807329487394,-41.282653916734,0 174.7846311638639,-41.28199008920465,0 
						
</coordinates>

						</LinearRing>

					</outerBoundaryIs>

				</Polygon>

				<flyID>2</flyID>

				<flyDescription>This area is a restricted area for commercial craft only.</flyDescription>

			</Placemark>
<Placemark>

				<name>Water Ski Access Lane</name>

				<description>Kau Bay-The area on the eastern side of Kau Bay as indicated, bounded on the sides by parralel lines approximately 90 metres apart, and extending in a northerly direction 200 metres from the edge of the water.</description>

				<styleUrl>#style0</styleUrl>

				<Polygon>

					<tessellate>1</tessellate>

					<outerBoundaryIs>

						<LinearRing>

							<coordinates>

							174.8312667556813,-41.2885935828943,0 174.8313909725152,-41.28673595116617,0 174.8301463311301,-41.28675042343114,0 174.8301376852908,-41.28858254985216,0 174.8312667556813,-41.2885935828943,0 
						
</coordinates>

						</LinearRing>

					</outerBoundaryIs>

				</Polygon>

				<flyID>3</flyID>

				<flyDescription>Kau Bay-The area on the eastern side of Kau Bay as indicated, bounded on the sides by parralel lines approximately 90 metres apart, and extending in a northerly direction 200 metres from the edge of the water.</flyDescription>

			</Placemark>
<Placemark>

				<name>Water Ski Access Lane</name>

				<description>Petone Beach (west)-The area of water at Petone beach west of the Korokoro Stream as indicated, bounded on the sides by parallel lines approximately 200 metres apart, and extending in a southerly direction 200 metres from the edge of the water.</description>

				<styleUrl>#style0</styleUrl>

				<Polygon>

					<tessellate>1</tessellate>

					<outerBoundaryIs>

						<LinearRing>

							<coordinates>

							174.8607964815022,-41.22725918820293,0 174.8610845704092,-41.22552267711434,0 174.8587421603871,-41.22514021722444,0 174.8585699011863,-41.22696076305217,0 174.8607964815022,-41.22725918820293,0 
						
</coordinates>

						</LinearRing>

					</outerBoundaryIs>

				</Polygon>

				<flyID>4</flyID>

				<flyDescription>Petone Beach (west)-The area of water at Petone beach west of the Korokoro Stream as indicated, bounded on the sides by parallel lines approximately 200 metres apart, and extending in a southerly direction 200 metres from the edge of the water.</flyDescription>

			</Placemark>
<Placemark>

				<name>Water Ski Access Lane</name>

				<description>Duck Creek-The area of water at the south-eastern end of Pauatahanui Inlet, bounded on the sides by parrallel lines approximately 90 metres apart, and extending in a northerly direction 200 metres from the edge of the water.</description>

				<styleUrl>#style0</styleUrl>

				<Polygon>

					<tessellate>1</tessellate>

					<outerBoundaryIs>

						<LinearRing>

							<coordinates>

							174.8987624965386,-41.1050338680833,0 174.8991420749147,-41.10514583406297,0 174.8995611539393,-41.10512940790571,0 174.8990071467011,-41.1031834062112,0 174.8978206557513,-41.10309685170903,0 174.8983619209199,-41.10481535925378,0 174.8987624965386,-41.1050338680833,0 
						
</coordinates>

						</LinearRing>

					</outerBoundaryIs>

				</Polygon>

				<flyID>5</flyID>

				<flyDescription>Duck Creek-The area of water at the south-eastern end of Pauatahanui Inlet, bounded on the sides by parrallel lines approximately 90 metres apart, and extending in a northerly direction 200 metres from the edge of the water.</flyDescription>

			</Placemark>
<Placemark>

				<name>Water Ski Access Lane</name>

				<description>Bradeys Bay-The area of water on the eastern side of Bradeys Bay, bounded on the sides by parallel lines approximately 90 metres apart, and extending in a north westerly direction 200 metres from the edge of the water.</description>

				<styleUrl>#style0</styleUrl>

				<Polygon>

					<tessellate>1</tessellate>

					<outerBoundaryIs>

						<LinearRing>

							<coordinates>

							174.8938858378403,-41.10499980913811,0 174.8942406951265,-41.10493925146773,0 174.8945098174131,-41.10476707835031,0 174.894767100064,-41.10449474426235,0 174.8933281926281,-41.10302431289195,0 174.89244514017,-41.10352374917675,0 174.8938858378403,-41.10499980913811,0 
						
</coordinates>

						</LinearRing>

					</outerBoundaryIs>

				</Polygon>

				<flyID>6</flyID>

				<flyDescription>Bradeys Bay-The area of water on the eastern side of Bradeys Bay, bounded on the sides by parallel lines approximately 90 metres apart, and extending in a north westerly direction 200 metres from the edge of the water.</flyDescription>

			</Placemark>
<Placemark>

				<name>Water Ski Access Lane</name>

				<description>Grays Road-The area to the south-west of the launching ramp extending south-west toward Camborne as indicated, bounded by parallel lines approximately 500 metres apart, and extending in a south-easterly direction 200 metres from the edge of the water.</description>

				<styleUrl>#style0</styleUrl>

				<Polygon>

					<tessellate>1</tessellate>

					<outerBoundaryIs>

						<LinearRing>

							<coordinates>

							174.8801418988932,-41.09409649758399,0 174.8831134014015,-41.09102436933429,0 174.8819536258051,-41.08958441823723,0 174.8808120653682,-41.09144672420462,0 174.8802330643739,-41.09126667740276,0 174.8801108932747,-41.09172428421005,0 174.8795350603886,-41.09223070536496,0 174.8788509633702,-41.09243896816813,0 174.8785372098323,-41.09290033171652,0 174.8801418988932,-41.09409649758399,0 
						
</coordinates>

						</LinearRing>

					</outerBoundaryIs>

				</Polygon>

				<flyID>7</flyID>

				<flyDescription>Grays Road-The area to the south-west of the launching ramp extending south-west toward Camborne as indicated, bounded by parallel lines approximately 500 metres apart, and extending in a south-easterly direction 200 metres from the edge of the water.</flyDescription>

			</Placemark>
<Placemark>

				<name>Reserved For Personal Water Craft</name>

				<description>The area of water at the eastern end of Petone beach as indicated, bounded on the sides by parallel lines approximately 90 metres apart, and extending in a southerly direction 200 metres from the edge of the water.</description>

				<styleUrl>#style0</styleUrl>

				<Polygon>

					<tessellate>1</tessellate>

					<outerBoundaryIs>

						<LinearRing>

							<coordinates>

							174.8911434207846,-41.23579959573538,0 174.8926859495558,-41.23444170382577,0 174.8918528239027,-41.2339080484547,0 174.8903164047249,-41.23529994419061,0 174.8911434207846,-41.23579959573538,0 
						
</coordinates>

						</LinearRing>

					</outerBoundaryIs>

				</Polygon>

				<flyID>8</flyID>

				<flyDescription>The area of water at the eastern end of Petone beach as indicated, bounded on the sides by parallel lines approximately 90 metres apart, and extending in a southerly direction 200 metres from the edge of the water.</flyDescription>

			</Placemark>
<Placemark>

				<name>Reserved For Personal Water Craft</name>

				<description>The area of water on the north-western side of Porirua Harbour, Onepoto Arm (at the end of Onepoto Road) as indicated, bounded on the sides by parallel lines approximately 200 metres apart, and extending in a south-easterly direction 200 metres from the edge of the water.</description>

				<styleUrl>#style0</styleUrl>

				<Polygon>

					<tessellate>1</tessellate>

					<outerBoundaryIs>

						<LinearRing>

							<coordinates>

							174.8523925112227,-41.11467204138778,0 174.8541271802526,-41.11342730846528,0 174.8522823817106,-41.11222821971493,0 174.8507038547447,-41.11348704347495,0 174.8523925112227,-41.11467204138778,0 
						
</coordinates>

						</LinearRing>

					</outerBoundaryIs>

				</Polygon>

				<flyID>9</flyID>

				<flyDescription>The area of water on the north-western side of Porirua Harbour, Onepoto Arm (at the end of Onepoto Road) as indicated, bounded on the sides by parallel lines approximately 200 metres apart, and extending in a south-easterly direction 200 metres from the edge of the water.</flyDescription>

			</Placemark>
<Placemark>

				<name>Reserved For Personal Water Craft</name>

				<description>The area of water to the east of the launching ramp as indicated and bounded on the sides by parrlel lines approximately 150 metres apart extending south-east from the shore.</description>

				<styleUrl>#style1</styleUrl>

				<Polygon>

					<tessellate>1</tessellate>

					<outerBoundaryIs>

						<LinearRing>

							<coordinates>

							174.8849645689746,-41.09074277410011,0 174.884005661528,-41.08935240927404,0 174.8829944757917,-41.08942983654608,0 174.8825843437705,-41.08935681124025,0 174.8820317356822,-41.08953728171303,0 174.8831883491052,-41.09099740191679,0 174.8849645689746,-41.09074277410011,0 
						
</coordinates>

						</LinearRing>

					</outerBoundaryIs>

				</Polygon>

				<flyID>10</flyID>

				<flyDescription>The area of water to the east of the launching ramp as indicated and bounded on the sides by parrlel lines approximately 150 metres apart extending south-east from the shore.</flyDescription>

			</Placemark>

</Document>
</kml>
