<?xml version="1.0" encoding="UTF-8"?>
<kml xmlns="http://www.opengis.net/kml/2.2" xmlns:gx="http://www.google.com/kml/ext/2.2" xmlns:kml="http://www.opengis.net/kml/2.2" xmlns:atom="http://www.w3.org/2005/Atom">
<Document>
<name>R35 C38.kml</name>

<Style id="style0">

					<LineStyle>

						<color>ffff0000</color>

					</LineStyle>

					<PolyStyle>

						<color>ffff0000</color>

						<width>0.9</width>

					</PolyStyle>

				</Style>
<Style id="style1">

					<LineStyle>

						<color>ff0000ff</color>

					</LineStyle>

					<PolyStyle>

						<color>ff0000ff</color>

						<width>0.9</width>

					</PolyStyle>

				</Style>
<Style id="style2">

					<LineStyle>

						<color>ff7b0080</color>

					</LineStyle>

					<PolyStyle>

						<color>ff7b0080</color>

						<width>0.9</width>

					</PolyStyle>

				</Style>
<Style id="style3">

					<LineStyle>

						<color>ffff5500</color>

					</LineStyle>

					<PolyStyle>

						<color>ffff5500</color>

						<width>0.9</width>

					</PolyStyle>

				</Style>

<Placemark>

				<name>Water Ski Lane</name>

				<description>Note: In this area only, the ski lane runs contrary to International Convention. This is due to the topography of the shore line.

Kumutoto Bay-Water recreation regulations and harbour bylaws require that all vessels navigate at a proper speed not exceeding five knots within 200 metres of the shore.
Recognising the wide enjoyment of water-skiing, the Marlborough District Council has set aside specific areas where this activity can legally take place from beaches.</description>

				<styleUrl>#style0</styleUrl>

				<Polygon>

					<tessellate>1</tessellate>

					<outerBoundaryIs>

						<LinearRing>

							<coordinates>

							174.0716514986002,-41.20751445748595,0 174.0716327461781,-41.20736123918963,0 174.071670387403,-41.2067204867945,0 174.0713458865158,-41.20620378196393,0 174.0711389863876,-41.20606790336746,0 174.0707540515335,-41.20588097484892,0 174.0700920049694,-41.20548158054355,0 174.0699065253805,-41.20547644354868,0 174.0693891087813,-41.20526922527515,0 174.0691485317052,-41.20539692363766,0 174.0691179866994,-41.20574948869214,0 174.0689487354671,-41.20598612957542,0 174.0686318133362,-41.20652078877588,0 174.0680999907178,-41.20700277106987,0 174.0677317040978,-41.20742483709218,0 174.0675274354632,-41.21182450319978,0 174.0692011430795,-41.21210385714797,0 174.0716514986002,-41.20751445748595,0 
						
</coordinates>

						</LinearRing>

					</outerBoundaryIs>

				</Polygon>

				<flyID>0</flyID>

				<flyDescription>Note: In this area only, the ski lane runs contrary to International Convention. This is due to the topography of the shore line.

Kumutoto Bay-Water recreation regulations and harbour bylaws require that all vessels navigate at a proper speed not exceeding five knots within 200 metres of the shore.
Recognising the wide enjoyment of water-skiing, the Marlborough District Council has set aside specific areas where this activity can legally take place from beaches.</flyDescription>

			</Placemark>
<Placemark>

				<name>Water Ski Lane</name>

				<description>Cherry Bay-Water recreation regulations and harbour bylaws require that all vessels navigate at a proper speed not exceeding five knots within 200 metres of the shore.
Recognising the wide enjoyment of water-skiing, the Marlborough District Council has set aside specific areas where this activity can legally take place from beaches.</description>

				<styleUrl>#style0</styleUrl>

				<Polygon>

					<tessellate>1</tessellate>

					<outerBoundaryIs>

						<LinearRing>

							<coordinates>

							174.1153561700361,-41.20885750017636,0 174.1155326181409,-41.20906563069401,0 174.1158921053425,-41.20923196630186,0 174.1160930448634,-41.20924975882792,0 174.1163066597075,-41.20923055714043,0 174.1170142084909,-41.20921279851171,0 174.1172533452564,-41.20915187272843,0 174.1176012028836,-41.20849861790926,0 174.1161247551463,-41.20776043679383,0 174.1158333894221,-41.2080067810519,0 174.1153688845162,-41.20835895253613,0 174.1153561700361,-41.20885750017636,0 
						
</coordinates>

						</LinearRing>

					</outerBoundaryIs>

				</Polygon>

				<flyID>1</flyID>

				<flyDescription>Cherry Bay-Water recreation regulations and harbour bylaws require that all vessels navigate at a proper speed not exceeding five knots within 200 metres of the shore.
Recognising the wide enjoyment of water-skiing, the Marlborough District Council has set aside specific areas where this activity can legally take place from beaches.</flyDescription>

			</Placemark>
<Placemark>

				<name>Water Ski Lane</name>

				<description>Kaipakirikiri Bay-Water recreation regulations and harbour bylaws require that all vessels navigate at a proper speed not exceeding five knots within 200 metres of the shore.
Recognising the wide enjoyment of water-skiing, the Marlborough District Council has set aside specific areas where this activity can legally take place from beaches.</description>

				<styleUrl>#style0</styleUrl>

				<Polygon>

					<tessellate>1</tessellate>

					<outerBoundaryIs>

						<LinearRing>

							<coordinates>

							174.0479124716973,-41.21362442107414,0 174.0496775280585,-41.21367016212353,0 174.049574061175,-41.20918502399218,0 174.0484975013342,-41.20917445094541,0 174.0481193829325,-41.20917794266254,0 174.0479124716973,-41.21362442107414,0 
						
</coordinates>

						</LinearRing>

					</outerBoundaryIs>

				</Polygon>

				<flyID>2</flyID>

				<flyDescription>Kaipakirikiri Bay-Water recreation regulations and harbour bylaws require that all vessels navigate at a proper speed not exceeding five knots within 200 metres of the shore.
Recognising the wide enjoyment of water-skiing, the Marlborough District Council has set aside specific areas where this activity can legally take place from beaches.</flyDescription>

			</Placemark>
<Placemark>

				<name>Long Island Marine Reserve</name>

				<description>Long Island, Kokomohua Islands and a charted rock to the north-east, form a chain of islands and submerged reefs. The marine reserve extends 463 metres (a quarter of a nautical mile) offshore from the charted rock and from the high water mark around the islands. GPS data should be used as a guide only.</description>

				<styleUrl>#style1</styleUrl>

				<Polygon>

					<tessellate>1</tessellate>

					<outerBoundaryIs>

						<LinearRing>

							<coordinates>

							174.2619801931449,-41.13432796622608,0 174.2650773364115,-41.13664222208379,0 174.2686674928675,-41.13680539768497,0 174.2724361504975,-41.13493308611312,0 174.2760318754955,-41.13214375901065,0 174.2784160292568,-41.12873903730319,0 174.2798250408609,-41.12545682016468,0 174.284326459441,-41.12201472569978,0 174.2854749740898,-41.12034280003053,0 174.2886366527947,-41.11891274067179,0 174.2901356898321,-41.11928923212545,0 174.2935541796635,-41.11877723786573,0 174.2950896003654,-41.11782476737145,0 174.2992689542611,-41.11415718046096,0 174.3049001415538,-41.11068366432527,0 174.3067251920799,-41.10787452953031,0 174.3110741365425,-41.10593617765776,0 174.3134784514062,-41.10438466908247,0 174.3148740232831,-41.10082823325426,0 174.3168423608061,-41.09975135815033,0 174.3180758311304,-41.09714511905111,0 174.3181376116241,-41.09642576448702,0 174.3142447932297,-41.09301415294826,0 174.3110493077517,-41.09290081103566,0 174.3080889894338,-41.09462141934581,0 174.307586493936,-41.09537471151328,0 174.2941540963417,-41.1044575820068,0 174.2936530388476,-41.10485673466182,0 174.2882114873314,-41.10645985278647,0 174.2852749514157,-41.10622066656238,0 174.2798286668711,-41.10849341010342,0 174.2735248348836,-41.11301110526883,0 174.2776259720973,-41.11593341799311,0 174.278312783924,-41.11536156865577,0 174.2790812357668,-41.1147039577972,0 174.2806694796587,-41.1134470104436,0 174.2817800790933,-41.11282214943618,0 174.2828035020833,-41.11200313631055,0 174.2836125110686,-41.11174830414978,0 174.2843345662374,-41.11115939991392,0 174.2854177078164,-41.11066596555276,0 174.2859196849893,-41.11100786147331,0 174.2862932920389,-41.11078627733752,0 174.2866152600439,-41.11068307774214,0 174.287234466968,-41.11054445968578,0 174.2881568351267,-41.11073451580531,0 174.2891716513798,-41.11061358002963,0 174.2897391913195,-41.11070081610404,0 174.2902852910498,-41.11080382646144,0 174.2906214701592,-41.11085021794266,0 174.2911091937954,-41.11044014271526,0 174.2914591831553,-41.1103523613486,0 174.291785276281,-41.11051228633777,0 174.2921627355891,-41.11010416927198,0 174.2924547150333,-41.10996072231446,0 174.2930251674841,-41.10999963099159,0 174.2938709995448,-41.11002292655813,0 174.2943625948459,-41.10944905042076,0 174.2946927864388,-41.10934332223099,0 174.295294589615,-41.10932883599113,0 174.2956604107105,-41.10880664596895,0 174.2959141182212,-41.10872949765922,0 174.2967053807577,-41.10875285071621,0 174.2969963644968,-41.10854372652149,0 174.2973946484394,-41.10824965778839,0 174.2973885213762,-41.10793350561983,0 174.2977908636956,-41.10769654047353,0 174.2981161555977,-41.10745617348405,0 174.2989747311322,-41.10688895548444,0 174.2999527654915,-41.10661481039405,0 174.3007931285917,-41.1062199054434,0 174.3009961329943,-41.10601889402705,0 174.3013263091806,-41.10580001829734,0 174.3015270375892,-41.10583203775136,0 174.3049774455162,-41.10364158513141,0 174.3049880707181,-41.10357819808916,0 174.3051441519546,-41.10342844709635,0 174.3053444857403,-41.10334824818583,0 174.3056818726597,-41.10337102396653,0 174.3059813288698,-41.10301923123758,0 174.3064089050583,-41.1028861127941,0 174.3065307002617,-41.10291707635884,0 174.3065693090701,-41.1029400492657,0 174.3073674486735,-41.10245638780337,0 174.3073443682106,-41.10235974469917,0 174.307471756167,-41.10224559529854,0 174.3077182371008,-41.10214993940519,0 174.3079621209324,-41.10191524870517,0 174.3080270646586,-41.1017891148474,0 174.3079277241551,-41.10136650451901,0 174.3078811525413,-41.1012311383256,0 174.3080256194853,-41.10112595162006,0 174.3083450604533,-41.10109777163295,0 174.3085167738146,-41.10103555241816,0 174.3086552758536,-41.1009222651217,0 174.3087812883288,-41.10081358535931,0 174.3089050371461,-41.10080706805889,0 174.3092455499959,-41.10093455967615,0 174.309345364412,-41.10104748843898,0 174.3092459499567,-41.10116919788711,0 174.3090954588087,-41.10128814859275,0 174.3090818568452,-41.1013688327207,0 174.3091451144734,-41.10154751479375,0 174.3091263234238,-41.10165601487665,0 174.3089319139298,-41.10182653910822,0 174.3088826795592,-41.10191480952617,0 174.308852394581,-41.10206919709643,0 174.3087635746874,-41.10216693390012,0 174.3086577731717,-41.1021539150096,0 174.3085481334813,-41.10211345405202,0 174.3084705662793,-41.10220458300699,0 174.3083588171021,-41.10233835316399,0 174.3082218291625,-41.10236741746241,0 174.3080134770216,-41.10235370490454,0 174.3078707928365,-41.10244820888259,0 174.3076675053237,-41.1025115465721,0 174.3075095321486,-41.10252684382579,0 174.307433043035,-41.1025251559711,0 174.3073704424203,-41.10246152662195,0 174.3065716873062,-41.10294633231533,0 174.3065790942659,-41.10304282368355,0 174.3063701390815,-41.10318503037081,0 174.3060371205816,-41.10326695424983,0 174.3058874389473,-41.10343940201064,0 174.3053146459196,-41.10363061388803,0 174.30507876365,-41.1037736254355,0 174.3049971761072,-41.10371339605096,0 174.3049794518638,-41.10364534659587,0 174.301533511735,-41.10583460357928,0 174.3016096848941,-41.10620384326404,0 174.3010735872601,-41.10694457455725,0 174.3007209572252,-41.1073055329381,0 174.3001769823706,-41.10768839933074,0 174.3000181990103,-41.10791543394976,0 174.3001332256613,-41.10803823644363,0 174.3004325290945,-41.10816452647126,0 174.3001373201882,-41.10842998148505,0 174.2998989555325,-41.10851911838211,0 174.2996037639335,-41.10851990687459,0 174.2990830833611,-41.10901556811961,0 174.2987818592153,-41.10916801765959,0 174.298158986879,-41.10904912654686,0 174.2978004496128,-41.10910927662561,0 174.2974683259841,-41.10944403181411,0 174.297098035788,-41.10966372463051,0 174.2961813530251,-41.11055960934093,0 174.2958884051639,-41.11078843421576,0 174.2953698963297,-41.11090091905107,0 174.2949876338046,-41.11106964602433,0 174.2946112057333,-41.11150237923712,0 174.2943333766998,-41.11165283211606,0 174.2940319994818,-41.11175458683837,0 174.293874815704,-41.11196123251747,0 174.2937607067259,-41.11249868103623,0 174.2927089217943,-41.11321346787451,0 174.2920854854182,-41.11331666861769,0 174.2913455410025,-41.11370296864885,0 174.2913154690755,-41.11423899087411,0 174.2909632398396,-41.11484921085729,0 174.2907271571917,-41.11511399907681,0 174.2903225057639,-41.11496393096689,0 174.289708480749,-41.11485840576378,0 174.2890790860548,-41.11462136826339,0 174.2886280568144,-41.11453635013226,0 174.287975183333,-41.11464357892319,0 174.2873254131005,-41.1146019300403,0 174.2866128593425,-41.11434646550556,0 174.2858195064353,-41.11428598173183,0 174.2851008444796,-41.11479958703905,0 174.2845434797561,-41.115103846293,0 174.2838962889278,-41.11515601697377,0 174.2832947189191,-41.11551048217471,0 174.2830534362124,-41.11614061106474,0 174.2821161137579,-41.1161937022345,0 174.2803110745734,-41.11696302857132,0 174.2793826578086,-41.11752842008943,0 174.2791137518393,-41.11833514905732,0 174.2792729239431,-41.11863941520825,0 174.2790706713792,-41.11908259969462,0 174.2795944619508,-41.11975616936783,0 174.2788260956487,-41.12043177484541,0 174.2778742227534,-41.12076763127467,0 174.277398021177,-41.12105832455755,0 174.2767151979726,-41.12126751659025,0 174.276287946654,-41.12171082487809,0 174.2753242734266,-41.1220691979315,0 174.2745801168657,-41.12273267500739,0 174.2739683498093,-41.12306089859109,0 174.2739355737485,-41.12358862833737,0 174.2736608153316,-41.12397939161404,0 174.2741530022234,-41.12455581108574,0 174.2741231918334,-41.12523863297803,0 174.2734637072364,-41.12581496291259,0 174.2735585814393,-41.1264738279957,0 174.2731200800433,-41.1273844394718,0 174.2723396955942,-41.12790047195784,0 174.2719161788496,-41.12866524422891,0 174.271978160018,-41.12923821232118,0 174.2713493402451,-41.12998558555289,0 174.2704551897854,-41.130589480933,0 174.2691271966423,-41.13121255554125,0 174.2682174521509,-41.13204132030405,0 174.2679041322005,-41.13253594722194,0 174.2672136849954,-41.13273169551366,0 174.2671924261574,-41.13237189131788,0 174.2677941572121,-41.13170734042734,0 174.2681636815762,-41.12973643052665,0 174.2691991870486,-41.12869581528647,0 174.2696873646174,-41.12812579674155,0 174.2703360612601,-41.12752582354394,0 174.2702918251516,-41.12609853724266,0 174.2711059670734,-41.12553601269579,0 174.2712151962614,-41.1247958024477,0 174.2706508642373,-41.12392721858784,0 174.2697995535525,-41.12327380544119,0 174.2709166582771,-41.12232084441256,0 174.2711319782186,-41.12162990586712,0 174.2747895802419,-41.11874617181827,0 174.2751856302587,-41.1182916514034,0 174.2762170728055,-41.11698035554823,0 174.2768808647893,-41.1163378285115,0 174.2775144871955,-41.11585353792746,0 174.2734971750583,-41.11301795060449,0 174.2668415786572,-41.1195306667738,0 174.2642237331689,-41.12233259950811,0 174.2645354196369,-41.12634034997046,0 174.2624966028278,-41.12960655681717,0 174.2616738102779,-41.13340515044735,0 174.2619801931449,-41.13432796622608,0 
						
</coordinates>

						</LinearRing>

					</outerBoundaryIs>

				</Polygon>

				<flyID>3</flyID>

				<flyDescription>Long Island, Kokomohua Islands and a charted rock to the north-east, form a chain of islands and submerged reefs. The marine reserve extends 463 metres (a quarter of a nautical mile) offshore from the charted rock and from the high water mark around the islands. GPS data should be used as a guide only.</flyDescription>

			</Placemark>
<Placemark>

				<name>Tory Channel Pilotage District</name>

				<description>Ships arriving at Tory Channel always board their pilot outside the entrance, usually at the charted position 41° 15.21'S 174° 22.21'E or sometimes in a more sheltered position specified by the pilot. The presence of frequent ferry traffic through Tory Channel entrance makes it very important that the ship follows the boarding instructions given by the pilot.</description>

				<styleUrl>#style2</styleUrl>

				<Polygon>

					<tessellate>1</tessellate>

					<outerBoundaryIs>

						<LinearRing>

							<coordinates>

							174.2815596730312,-41.26784016938539,0 174.2943158086724,-41.2713497533031,0 174.3077089484651,-41.27309675018088,0 174.3207363990897,-41.27309965535508,0 174.3382499607455,-41.27058260801182,0 174.3534520025927,-41.26570205054707,0 174.3675021251184,-41.25798994356988,0 174.3699715740934,-41.2557930490896,0 174.3718850530376,-41.25479105558714,0 174.3782341919922,-41.25015629169585,0 174.3879474239294,-41.23703250663324,0 174.3925033493617,-41.22632720714106,0 174.394678123792,-41.21409348748026,0 174.3930910984188,-41.20390121903789,0 174.3909785914212,-41.19587222099948,0 174.3853338177862,-41.18586002363036,0 174.378684598825,-41.17795791036395,0 174.3710643523633,-41.17102125524426,0 174.3665545278459,-41.17118159146161,0 174.3747951641093,-41.17839180823096,0 174.3796291539653,-41.18379395167415,0 174.3827692692326,-41.1889478352782,0 174.3863001595346,-41.19527882787141,0 174.3888735736656,-41.20354852634896,0 174.3899563226112,-41.21278092097807,0 174.38939792817,-41.22035204971544,0 174.3871212473222,-41.2295046566836,0 174.3825591324281,-41.23885565843097,0 174.3738875315336,-41.24937395842762,0 174.3629283439309,-41.25759485709057,0 174.3540706159013,-41.26196725667654,0 174.3384064643076,-41.26786899654449,0 174.3252661912982,-41.26972171424749,0 174.3112874387342,-41.26992371370224,0 174.3024931713821,-41.26950908490003,0 174.2908509420942,-41.26744196753975,0 174.2815705655567,-41.26432813863153,0 174.2815596730312,-41.26784016938539,0 
						
</coordinates>

						</LinearRing>

					</outerBoundaryIs>

				</Polygon>

				<flyID>4</flyID>

				<flyDescription>Ships arriving at Tory Channel always board their pilot outside the entrance, usually at the charted position 41° 15.21'S 174° 22.21'E or sometimes in a more sheltered position specified by the pilot. The presence of frequent ferry traffic through Tory Channel entrance makes it very important that the ship follows the boarding instructions given by the pilot.</flyDescription>

			</Placemark>
<Placemark>

				<name>Indicative Ferry Channel (Alternate Route)</name>

				<description>This channel will often be used by ferries during bad weather. Take caution when operating a vessel in this area.</description>

				<styleUrl>#style0</styleUrl>

				<Polygon>

					<tessellate>1</tessellate>

					<outerBoundaryIs>

						<LinearRing>

							<coordinates>

							174.1567703197545,-41.22267994480785,0 174.1846108293522,-41.20542509416165,0 174.21303402475,-41.18765417990013,0 174.2160915974263,-41.184643194439,0 174.2228561312968,-41.16648178136357,0 174.2250708105958,-41.16357319889701,0 174.2702714953558,-41.11038286600557,0 174.3673517232855,-41.06237909062895,0 174.3244941375833,-41.00757522289721,0 174.2878212943815,-41.08695581538395,0 174.2877676041185,-41.09381216355004,0 174.2859462084504,-41.09695503049132,0 174.2603981713862,-41.11228747621954,0 174.2143128358869,-41.16956448059219,0 174.2129818897631,-41.17168631717534,0 174.2081823111786,-41.18272280092923,0 174.2068332051674,-41.18491985695912,0 174.2058124340698,-41.18601401304461,0 174.1556952476328,-41.21742600752783,0 174.1435007865231,-41.22508506190874,0 174.1547881781628,-41.22525164307452,0 174.1567703197545,-41.22267994480785,0 
						
</coordinates>

						</LinearRing>

					</outerBoundaryIs>

				</Polygon>

				<flyID>5</flyID>

				<flyDescription>This channel will often be used by ferries during bad weather. Take caution when operating a vessel in this area.</flyDescription>

			</Placemark>
<Placemark>

				<name>Indicative Ferry Channel (Main Route)</name>

				<description>This channel will often be used by ferries. Take caution when operating a vessel in this area.</description>

				<styleUrl>#style3</styleUrl>

				<Polygon>

					<tessellate>1</tessellate>

					<outerBoundaryIs>

						<LinearRing>

							<coordinates>

							174.0245596515315,-41.25946882165334,0 174.0162997859904,-41.26933503387678,0 174.0180500830933,-41.26936366153695,0 174.0295792684371,-41.25756573012967,0 174.0345846137214,-41.25290543960384,0 174.036656281972,-41.25205417240696,0 174.0486906759133,-41.24849327312403,0 174.0631510932308,-41.24511343860694,0 174.1157906961387,-41.23323465221795,0 174.1402384614361,-41.23034821586008,0 174.1465149199534,-41.22989464632414,0 174.1491208051662,-41.23092403857433,0 174.1507945353436,-41.23514988687013,0 174.1535531927562,-41.24466557963391,0 174.1547525100694,-41.24680976386605,0 174.1563840571908,-41.24783768675145,0 174.159317229445,-41.2482190925593,0 174.1623838806593,-41.24793081619077,0 174.1751255738199,-41.24591219222155,0 174.2000643911888,-41.24218672818805,0 174.2428901078735,-41.24143926201548,0 174.2557917098581,-41.24107903025745,0 174.2583358153715,-41.239779678341,0 174.2904461777963,-41.21984220093795,0 174.3073883327488,-41.21114952100719,0 174.3099293821494,-41.21042845643108,0 174.3113090571485,-41.21033686400024,0 174.3143905765749,-41.21076432672231,0 174.3181944909199,-41.21248326360727,0 174.3202327024308,-41.2116214187112,0 174.3151997582797,-41.20862129276343,0 174.3126326508942,-41.20769119167827,0 174.3088647527501,-41.20740870558271,0 174.3057297656465,-41.20799168847403,0 174.2882176203868,-41.21689331943833,0 174.2549047018723,-41.23829555574503,0 174.2509754189218,-41.23895208714707,0 174.2007593607426,-41.24018185852766,0 174.1673223641056,-41.24529461458918,0 174.164553707657,-41.24536055926376,0 174.1613473158267,-41.24457687009309,0 174.1587905821793,-41.24260917921367,0 174.1545128317569,-41.22790091559458,0 174.154616083681,-41.22541675547578,0 174.1432094373465,-41.22515705107504,0 174.1384002576642,-41.22647424212411,0 174.1156392424335,-41.22981270074654,0 174.0494402744428,-41.24485379339767,0 174.0337920458517,-41.24919295707459,0 174.0050224769913,-41.26943185408035,0 174.0077926206685,-41.26940041734508,0 174.0245596515315,-41.25946882165334,0 
						
</coordinates>

						</LinearRing>

					</outerBoundaryIs>

				</Polygon>

				<flyID>6</flyID>

				<flyDescription>This channel will often be used by ferries. Take caution when operating a vessel in this area.</flyDescription>

			</Placemark>
<Placemark>

				<name>Swimming Only Zone</name>

				<description>Picton Foreshore-The areas are defined by yellow buoys and are reserved for swimming only between Labour Weekend and Easter of the following year. There are swimming rafts associated with the Waikawa Bay and Picton Foreshore areas.</description>

				<styleUrl>#style0</styleUrl>

				<Polygon>

					<tessellate>1</tessellate>

					<outerBoundaryIs>

						<LinearRing>

							<coordinates>

							174.0078501446172,-41.28848353696307,0 174.007937100702,-41.28817188592328,0 174.006889917635,-41.28734283072303,0 174.0067978923948,-41.28731829619938,0 174.0066258960474,-41.28740959083685,0 174.0065256601704,-41.28764954962887,0 174.0067399231998,-41.28803467039928,0 174.0076686229606,-41.28851105447651,0 174.0078501446172,-41.28848353696307,0 
						
</coordinates>

						</LinearRing>

					</outerBoundaryIs>

				</Polygon>

				<flyID>7</flyID>

				<flyDescription>Picton Foreshore-The areas are defined by yellow buoys and are reserved for swimming only between Labour Weekend and Easter of the following year. There are swimming rafts associated with the Waikawa Bay and Picton Foreshore areas.</flyDescription>

			</Placemark>
<Placemark>

				<name>Swimming Only Zone</name>

				<description>Shelly Beach - Picton.The areas are defined by yellow buoys and are reserved for swimming only between Labour Weekend and Easter of the following year. There are swimming rafts associated with the Waikawa Bay and Picton Foreshore areas.</description>

				<styleUrl>#style0</styleUrl>

				<Polygon>

					<tessellate>1</tessellate>

					<outerBoundaryIs>

						<LinearRing>

							<coordinates>

							174.0094076685283,-41.28712227181867,0 174.0097826025703,-41.28710048594073,0 174.010073672843,-41.28689182514413,0 174.0103651852712,-41.28625339976052,0 174.0101931849075,-41.2862046473227,0 174.0096364230418,-41.28685451567662,0 174.0088070332306,-41.28677564993038,0 174.0087734328116,-41.28696013004727,0 174.0094076685283,-41.28712227181867,0 
						
</coordinates>

						</LinearRing>

					</outerBoundaryIs>

				</Polygon>

				<flyID>8</flyID>

				<flyDescription>Shelly Beach - Picton.The areas are defined by yellow buoys and are reserved for swimming only between Labour Weekend and Easter of the following year. There are swimming rafts associated with the Waikawa Bay and Picton Foreshore areas.</flyDescription>

			</Placemark>
<Placemark>

				<name>Swimming Only Zone</name>

				<description>Waikawa Bay-The areas are defined by yellow buoys and are reserved for swimming only between Labour Weekend and Easter of the following year. There are swimming rafts associated with the Waikawa Bay and Picton Foreshore areas.</description>

				<styleUrl>#style0</styleUrl>

				<Polygon>

					<tessellate>1</tessellate>

					<outerBoundaryIs>

						<LinearRing>

							<coordinates>

							174.0473307909654,-41.26632769720928,0 174.0471682103672,-41.26625876408774,0 174.0469551576386,-41.26631193880381,0 174.0468048800242,-41.26645113745965,0 174.0467532764827,-41.26671644636378,0 174.0471548155039,-41.26681625145479,0 174.0473307909654,-41.26632769720928,0 
						
</coordinates>

						</LinearRing>

					</outerBoundaryIs>

				</Polygon>

				<flyID>9</flyID>

				<flyDescription>Waikawa Bay-The areas are defined by yellow buoys and are reserved for swimming only between Labour Weekend and Easter of the following year. There are swimming rafts associated with the Waikawa Bay and Picton Foreshore areas.</flyDescription>

			</Placemark>

</Document>
</kml>
