<?xml version="1.0" encoding="UTF-8"?>
<kml xmlns="http://www.opengis.net/kml/2.2" xmlns:gx="http://www.google.com/kml/ext/2.2" xmlns:kml="http://www.opengis.net/kml/2.2" xmlns:atom="http://www.w3.org/2005/Atom">
<Document>
<name>R44 C33.kml</name>

<Style id="style0">

					<LineStyle>

						<color>ffff0000</color>

					</LineStyle>

					<PolyStyle>

						<color>ffff0000</color>

						<width>0.9</width>

					</PolyStyle>

				</Style>
<Style id="style1">

					<LineStyle>

						<color>ff00ffff</color>

					</LineStyle>

					<PolyStyle>

						<color>ff00ffff</color>

						<width>0.9</width>

					</PolyStyle>

				</Style>
<Style id="style2">

					<LineStyle>

						<color>ffff5500</color>

					</LineStyle>

					<PolyStyle>

						<color>ffff5500</color>

						<width>0.9</width>

					</PolyStyle>

				</Style>
<Style id="style3">

					<LineStyle>

						<color>ffe65c00</color>

					</LineStyle>

					<PolyStyle>

						<color>ffe65c00</color>

						<width>0.9</width>

					</PolyStyle>

				</Style>
<Style id="style4">

					<LineStyle>

						<color>ffffaa00</color>

					</LineStyle>

					<PolyStyle>

						<color>ffffaa00</color>

						<width>0.9</width>

					</PolyStyle>

				</Style>
<Style id="style5">

					<LineStyle>

						<color>ffff7000</color>

					</LineStyle>

					<PolyStyle>

						<color>ffff7000</color>

						<width>0.9</width>

					</PolyStyle>

				</Style>

<Placemark>

				<name>Mooring Zone</name>

				<description>Cass Corsair Bays-These zones are designated for moored vessels.  Keep to 5 knots or less within 50 metres of the mooring zone.  Avoid transiting through this area.</description>

				<styleUrl>#style2</styleUrl>

				<Polygon>

					<tessellate>1</tessellate>

					<outerBoundaryIs>

						<LinearRing>

							<coordinates>

							172.7008140471638,-43.61074882733503,0 172.7008254793045,-43.61040924228797,0 172.7006149558199,-43.61020563172015,0 172.700409929506,-43.60982033002747,0 172.7003493473924,-43.60977589950954,0 172.6974682981548,-43.60899778162285,0 172.6967350144192,-43.60880755360211,0 172.6955886750367,-43.60831353334267,0 172.6953546641474,-43.60793527967646,0 172.6954008248768,-43.60687824372403,0 172.6940907841162,-43.60657431153947,0 172.6935062124877,-43.60573472813078,0 172.6930873818279,-43.60565081619954,0 172.6910492481963,-43.60577345525482,0 172.6904714918751,-43.60591714913335,0 172.6903978510897,-43.60702785118407,0 172.6899565628492,-43.6073061265574,0 172.6896097537785,-43.60783614228775,0 172.6895918777323,-43.6085268106834,0 172.68877276459,-43.60903389773124,0 172.6875241395258,-43.60955117990947,0 172.7008140471638,-43.61074882733503,0 
						
</coordinates>

						</LinearRing>

					</outerBoundaryIs>

				</Polygon>

				<flyID>0</flyID>

				<flyDescription>Cass Corsair Bays-These zones are designated for moored vessels.  Keep to 5 knots or less within 50 metres of the mooring zone.  Avoid transiting through this area.</flyDescription>

			</Placemark>
<Placemark>

				<name>5 Knot Speed Limit For Personal Water Craft</name>

				<description>Keep to 5 knots or less (9.25km / fast walking pace) in this area.</description>

				<styleUrl>#style1</styleUrl>

				<Polygon>

					<tessellate>1</tessellate>

					<outerBoundaryIs>

						<LinearRing>

							<coordinates>

							172.7094799569562,-43.55811716300875,0 172.7096870109865,-43.55751043929665,0 172.710054332221,-43.55709984415759,0 172.7103328055702,-43.5569834073055,0 172.7106771821868,-43.55673564063597,0 172.7112660113612,-43.55675177521084,0 172.7118634442257,-43.55656749704834,0 172.7124189339754,-43.55650509815116,0 172.7128881727975,-43.55627168686318,0 172.715987915669,-43.55544302983786,0 172.7176181306668,-43.55547950763425,0 172.7317095086662,-43.55646360529202,0 172.7325963352417,-43.5559290496469,0 172.733783383407,-43.5560213195708,0 172.7340135529254,-43.55622194695004,0 172.7343255502778,-43.55624622235743,0 172.7348666909349,-43.55571798782984,0 172.7343879285029,-43.53709325343326,0 172.7316787303226,-43.53490923326616,0 172.7316265865508,-43.53548985938907,0 172.730310214884,-43.53526442172766,0 172.7295855079987,-43.53376774302914,0 172.7300654649802,-43.53342591007542,0 172.7302067535248,-43.53267358532476,0 172.7300550672339,-43.53205153980898,0 172.7294085211011,-43.53149178852361,0 172.7289870185463,-43.53078003484448,0 172.7290298539921,-43.53033816313907,0 172.7290928325722,-43.53007732435658,0 172.7294024463735,-43.52979420262847,0 172.7296295781896,-43.52895051823868,0 172.7295564946773,-43.52860782611161,0 172.7292094422448,-43.52824129765192,0 172.7294435410218,-43.52812049026892,0 172.729697411448,-43.52805104863536,0 172.7284806774314,-43.52755587509948,0 172.7266409003666,-43.52682071545245,0 172.724830080429,-43.52557655867652,0 172.7245411837624,-43.52526995340081,0 172.7238645012293,-43.52537848925385,0 172.724027265856,-43.52557746196674,0 172.7246383457309,-43.52634361541391,0 172.7246214317307,-43.52678276326566,0 172.723925013606,-43.52686098953421,0 172.7235067143362,-43.52688284457818,0 172.7232245315243,-43.52711040765163,0 172.7239244802447,-43.52737700870183,0 172.7249903115108,-43.52746090420147,0 172.7253532058566,-43.52786232058562,0 172.7259817767719,-43.52904949198848,0 172.7255615276515,-43.52943116663561,0 172.7243423161523,-43.52966762464343,0 172.7233909965603,-43.53057172523726,0 172.7228501098371,-43.53101256092287,0 172.7224956357745,-43.53195379983595,0 172.7224365707852,-43.53385183833759,0 172.7217282944174,-43.53812858060833,0 172.7211809379048,-43.5405047665492,0 172.7201098498246,-43.54120939048275,0 172.7195543207553,-43.54235793567366,0 172.718395453819,-43.54375521564282,0 172.7167275767539,-43.54480796797304,0 172.7159944277007,-43.54573877789436,0 172.7160026164371,-43.54716971441593,0 172.7148605796967,-43.54758245712921,0 172.7144053819495,-43.54785065465985,0 172.7138883877821,-43.54790732588873,0 172.708403333948,-43.54792477470637,0 172.7083805422506,-43.55822865518238,0 172.7094799569562,-43.55811716300875,0 
						
</coordinates>

						</LinearRing>

					</outerBoundaryIs>

				</Polygon>

				<flyID>1</flyID>

				<flyDescription>Keep to 5 knots or less (9.25km / fast walking pace) in this area.</flyDescription>

			</Placemark>
<Placemark>

				<name>5 Knot Speed Limit For Personal Water Craft</name>

				<description>Keep to 5 knots or less (9.25km / fast walking pace) in this area.</description>

				<styleUrl>#style1</styleUrl>

				<Polygon>

					<tessellate>1</tessellate>

					<outerBoundaryIs>

						<LinearRing>

							<coordinates>

							172.7348666909349,-43.55571798782984,0 172.7361784293539,-43.55588229253164,0 172.7369918684027,-43.55593990929359,0 172.7375741945031,-43.55604860190496,0 172.7380724084274,-43.55665328266586,0 172.7384510193004,-43.55795452187898,0 172.7396166389517,-43.56044983092061,0 172.7403164813969,-43.5616859178926,0 172.7410370811562,-43.56293248122351,0 172.7415787598719,-43.56412537561909,0 172.7417417992011,-43.564481893592,0 172.7429778770305,-43.56396819328149,0 172.7432733397621,-43.56451254108166,0 172.7445108364291,-43.56517697870029,0 172.7455377082476,-43.56514072449535,0 172.7466025118964,-43.56522000929802,0 172.7477583248105,-43.56350128131223,0 172.7485859341951,-43.56361974146338,0 172.749007665811,-43.56381490616289,0 172.7490940358739,-43.56371601093767,0 172.7494781248822,-43.5635503911913,0 172.7506483770587,-43.5638512531734,0 172.7507011766251,-43.5625050412205,0 172.7486444423111,-43.56278608346909,0 172.7467997662332,-43.56283264062181,0 172.7444642436279,-43.56222065380945,0 172.7427696046669,-43.56052584383429,0 172.742629310313,-43.55970711987184,0 172.7427297713623,-43.55872898756631,0 172.7440967003825,-43.55294407246429,0 172.7442999429877,-43.55195473960811,0 172.7467122130088,-43.551908729733,0 172.7455728575924,-43.54897579336029,0 172.7444757393145,-43.54729108342981,0 172.7424824518068,-43.54785943813754,0 172.74112077679,-43.54465654050037,0 172.742416227396,-43.54429972229563,0 172.7419860457066,-43.54394402438287,0 172.742131538436,-43.54350472087086,0 172.742349141321,-43.54294411464508,0 172.7425027537121,-43.54149103314647,0 172.7417898808417,-43.53970958086772,0 172.7404158508984,-43.53886019673077,0 172.7378633333792,-43.53797633792476,0 172.7365159234418,-43.53797046389054,0 172.73571873743,-43.5375255373441,0 172.7343879285029,-43.53709325343326,0 172.7348666909349,-43.55571798782984,0 
						
</coordinates>

						</LinearRing>

					</outerBoundaryIs>

				</Polygon>

				<flyID>2</flyID>

				<flyDescription>Keep to 5 knots or less (9.25km / fast walking pace) in this area.</flyDescription>

			</Placemark>
<Placemark>

				<name>Mooring Zone</name>

				<description>Purau Bay-These zones are designated for moored vessels.  Keep to 5 knots or less within 50 metres of the mooring zone.  Avoid transiting through this area.</description>

				<styleUrl>#style2</styleUrl>

				<Polygon>

					<tessellate>1</tessellate>

					<outerBoundaryIs>

						<LinearRing>

							<coordinates>

							172.743222124555,-43.62894562622128,0 172.7437716674638,-43.62977258145027,0 172.7438279133974,-43.63035956974881,0 172.74427042811,-43.63087589252802,0 172.744246799487,-43.63132123245841,0 172.7443582097738,-43.63224845825297,0 172.7446763930281,-43.63367663686557,0 172.7450630253701,-43.6343989833418,0 172.7458708812063,-43.63490620506625,0 172.7465569209387,-43.63533639816556,0 172.7471055021161,-43.63587296207472,0 172.749465561895,-43.63583014140905,0 172.7494697157168,-43.63068408150911,0 172.7494684841827,-43.62740981870126,0 172.7462116180673,-43.62742633468583,0 172.7432383054098,-43.62743336235004,0 172.743222124555,-43.62894562622128,0 
						
</coordinates>

						</LinearRing>

					</outerBoundaryIs>

				</Polygon>

				<flyID>3</flyID>

				<flyDescription>Purau Bay-These zones are designated for moored vessels.  Keep to 5 knots or less within 50 metres of the mooring zone.  Avoid transiting through this area.</flyDescription>

			</Placemark>
<Placemark>

				<name>Restricted Area+Mooring Zone</name>

				<description>Moncks Bay-These zones are designated for moored vessels.  Keep to 5 knots or less within 50 metres of the mooring zone.  Avoid transiting through this area.</description>

				<styleUrl>#style2</styleUrl>

				<Polygon>

					<tessellate>1</tessellate>

					<outerBoundaryIs>

						<LinearRing>

							<coordinates>

							172.7418404724751,-43.56490069786671,0 172.7424622949483,-43.56532045045471,0 172.7431630308624,-43.5656981989772,0 172.7440319648215,-43.5661210884243,0 172.7443556278493,-43.56619852670769,0 172.7448090867622,-43.56609592936816,0 172.7452110503457,-43.56599524462884,0 172.7455094926756,-43.56611587123645,0 172.745750246795,-43.56627580667355,0 172.7461568805796,-43.56631008709901,0 172.7470625873906,-43.56621163179126,0 172.7474609593058,-43.56604398834165,0 172.7476850344809,-43.56573781533326,0 172.74801578316,-43.56527410466062,0 172.7484230010229,-43.56482915856135,0 172.7491822429711,-43.56390228793437,0 172.7485834091539,-43.56362316347762,0 172.7477571014592,-43.56350683204353,0 172.7466045348174,-43.56521852769033,0 172.7455112301347,-43.5651408114647,0 172.744503661209,-43.56517982010572,0 172.7439758208009,-43.56490078796816,0 172.7432747534401,-43.56452041064678,0 172.7429800241701,-43.56397126831928,0 172.7416122553508,-43.56453486838271,0 172.7418404724751,-43.56490069786671,0 
						
</coordinates>

						</LinearRing>

					</outerBoundaryIs>

				</Polygon>

				<flyID>4</flyID>

				<flyDescription>Moncks Bay-These zones are designated for moored vessels.  Keep to 5 knots or less within 50 metres of the mooring zone.  Avoid transiting through this area.</flyDescription>

			</Placemark>
<Placemark>

				<name>Wind/Kite Surfing Area</name>

				<description>This area is reserved for wind surfing and kite surfing.</description>

				<styleUrl>#style0</styleUrl>

				<Polygon>

					<tessellate>1</tessellate>

					<outerBoundaryIs>

						<LinearRing>

							<coordinates>

							172.7067203015074,-43.54793247113371,0 172.7055844644647,-43.54831053257443,0 172.7046533085076,-43.5490959075745,0 172.7041531945679,-43.54964740859133,0 172.7037452277191,-43.55012894741122,0 172.7033069991089,-43.55073991012966,0 172.7029020442011,-43.55046422080462,0 172.7028278698051,-43.55056111077246,0 172.7030672736223,-43.55093796676781,0 172.7030994833055,-43.55122091862,0 172.7030915222014,-43.55181451513868,0 172.7028745592215,-43.55287260563346,0 172.7028496856542,-43.55393045854375,0 172.7029487786777,-43.55443014651692,0 172.7032240014966,-43.55487523901054,0 172.7041465034342,-43.5556118786855,0 172.7050488714272,-43.55618712302175,0 172.7051849071116,-43.55638618049594,0 172.7054326651205,-43.55656767047757,0 172.7058164457342,-43.55663664870038,0 172.7061216426765,-43.5568273031679,0 172.7063686324551,-43.55706998581864,0 172.7072060190886,-43.55739630595161,0 172.7076104406493,-43.55765501926212,0 172.7078058050035,-43.55793048014087,0 172.7078088160798,-43.55818868727864,0 172.7083209749686,-43.55820229938983,0 172.7083249874864,-43.54790544783179,0 172.7067203015074,-43.54793247113371,0 
						
</coordinates>

						</LinearRing>

					</outerBoundaryIs>

				</Polygon>

				<flyID>5</flyID>

				<flyDescription>This area is reserved for wind surfing and kite surfing.</flyDescription>

			</Placemark>
<Placemark>

				<name>Wildlife Reserve</name>

				<description>Wildlife Reserve</description>

				<styleUrl>#style3</styleUrl>

				<Polygon>

					<tessellate>1</tessellate>

					<outerBoundaryIs>

						<LinearRing>

							<coordinates>

							172.7139847595143,-43.54789725734356,0 172.7128559554224,-43.54742939245271,0 172.7123923815174,-43.54742939526118,0 172.7119820516928,-43.54734616427827,0 172.7115254182143,-43.54713615854716,0 172.7109655974569,-43.54702863987811,0 172.710542784912,-43.5470742301967,0 172.7101740919894,-43.54736481920307,0 172.7097664448109,-43.54747397824686,0 172.7091701576469,-43.5474522375149,0 172.708508163504,-43.54747921761921,0 172.708149344916,-43.54753627665392,0 172.7077974071452,-43.54761494502682,0 172.7074280039982,-43.54789008541805,0 172.7139847595143,-43.54789725734356,0 
						
</coordinates>

						</LinearRing>

					</outerBoundaryIs>

				</Polygon>

				<flyID>6</flyID>

				<flyDescription>Wildlife Reserve</flyDescription>

			</Placemark>
<Placemark>

				<name>Wildlife Reserve</name>

				<description>Wildlife Reserve</description>

				<styleUrl>#style3</styleUrl>

				<Polygon>

					<tessellate>1</tessellate>

					<outerBoundaryIs>

						<LinearRing>

							<coordinates>

							172.726934348375,-43.52670398059124,0 172.7266631557306,-43.52678243156575,0 172.7270546573648,-43.52697274692848,0 172.7283816783949,-43.52751523802255,0 172.7291799048729,-43.52775016732865,0 172.7296759477722,-43.52807020880444,0 172.7294326531475,-43.52809132611949,0 172.7292167769917,-43.52821737761168,0 172.7293904492609,-43.528404536016,0 172.7296152376491,-43.52897266394088,0 172.7294395974153,-43.52970764739967,0 172.7290542863509,-43.5300903034776,0 172.7289984326425,-43.5304123227255,0 172.7290548101663,-43.53073350789211,0 172.7292493628826,-43.53040196206396,0 172.7295989250339,-43.53004506412791,0 172.7301289493206,-43.52972579876749,0 172.730377661251,-43.52964463914604,0 172.7307844832828,-43.52948068239552,0 172.7312419813304,-43.52921371252236,0 172.7312387980125,-43.52896477273511,0 172.7310137987699,-43.52860873915708,0 172.7310308336697,-43.52833053567289,0 172.7308020752002,-43.5281963984703,0 172.7304938915964,-43.52815135332022,0 172.7301500075902,-43.52801513516737,0 172.7298220925156,-43.52770664020885,0 172.7297870796994,-43.52740596150239,0 172.7298101845827,-43.52688202204288,0 172.7288135920802,-43.52642195358668,0 172.7279073599612,-43.52616105491106,0 172.7274860389894,-43.52608821345564,0 172.7269865116982,-43.5259757686831,0 172.7267416819272,-43.52602792719564,0 172.726934348375,-43.52670398059124,0 
						
</coordinates>

						</LinearRing>

					</outerBoundaryIs>

				</Polygon>

				<flyID>7</flyID>

				<flyDescription>Wildlife Reserve</flyDescription>

			</Placemark>
<Placemark>

				<name>Wildlife Reserve</name>

				<description>Wildlife Reserve</description>

				<styleUrl>#style3</styleUrl>

				<Polygon>

					<tessellate>1</tessellate>

					<outerBoundaryIs>

						<LinearRing>

							<coordinates>

							172.7315960395246,-43.53546949779697,0 172.7316579175635,-43.53412406768359,0 172.7310806883437,-43.53365599370912,0 172.7306799740112,-43.53351635423576,0 172.7301220780089,-43.53339660177277,0 172.7295866796289,-43.53379380287534,0 172.7302722880679,-43.53523079973232,0 172.7315960395246,-43.53546949779697,0 
						
</coordinates>

						</LinearRing>

					</outerBoundaryIs>

				</Polygon>

				<flyID>8</flyID>

				<flyDescription>Wildlife Reserve</flyDescription>

			</Placemark>
<Placemark>

				<name>Wildlife Reserve</name>

				<description>Wildlife Reserve</description>

				<styleUrl>#style3</styleUrl>

				<Polygon>

					<tessellate>1</tessellate>

					<outerBoundaryIs>

						<LinearRing>

							<coordinates>

							172.7442990981903,-43.54734415623909,0 172.7434889344823,-43.54664779747021,0 172.7430325554229,-43.54567671041157,0 172.7423617400714,-43.54435756318666,0 172.7411191309586,-43.54466924232163,0 172.7424845964371,-43.54780358130452,0 172.7442990981903,-43.54734415623909,0 
						
</coordinates>

						</LinearRing>

					</outerBoundaryIs>

				</Polygon>

				<flyID>9</flyID>

				<flyDescription>Wildlife Reserve</flyDescription>

			</Placemark>
<Placemark>

				<name>Wildlife Reserve</name>

				<description>Wildlife Reserve</description>

				<styleUrl>#style3</styleUrl>

				<Polygon>

					<tessellate>1</tessellate>

					<outerBoundaryIs>

						<LinearRing>

							<coordinates>

							172.701140085202,-43.55966322445677,0 172.7011143858585,-43.55995161139975,0 172.7012112252881,-43.56032424191476,0 172.7016889614553,-43.56096202690854,0 172.7020004337071,-43.56127530730745,0 172.7021781202583,-43.56164544431076,0 172.7026145865852,-43.56244474180756,0 172.7031363687785,-43.56262069934474,0 172.7036530304107,-43.56278582867543,0 172.7040947660375,-43.56281950408429,0 172.7046577260001,-43.56266413880685,0 172.7054250049449,-43.56242471104076,0 172.7058219913524,-43.56222389717033,0 172.705941678279,-43.56210274575865,0 172.7061482525964,-43.56181983689994,0 172.7063528800584,-43.56147194410341,0 172.7065673817769,-43.56122637354683,0 172.7067956191339,-43.56114312212803,0 172.7072373004147,-43.5609039577958,0 172.7075682962502,-43.56071282669151,0 172.7079542619272,-43.56041436176354,0 172.7073619603036,-43.56026236279656,0 172.7067735278163,-43.56018689995851,0 172.7063397324355,-43.56011773980497,0 172.7056552690965,-43.56015967000104,0 172.7052225335671,-43.56018351523312,0 172.701638053959,-43.55922817648868,0 172.701140085202,-43.55966322445677,0 
						
</coordinates>

						</LinearRing>

					</outerBoundaryIs>

				</Polygon>

				<flyID>10</flyID>

				<flyDescription>Wildlife Reserve</flyDescription>

			</Placemark>
<Placemark>

				<name>Swimming And Non-Powered Craft Area</name>

				<description>The use of power driven vessels in this area is prohibited.</description>

				<styleUrl>#style4</styleUrl>

				<Polygon>

					<tessellate>1</tessellate>

					<outerBoundaryIs>

						<LinearRing>

							<coordinates>

							172.7003582540223,-43.60977475355614,0 172.7000616915092,-43.60931484064158,0 172.6999669054972,-43.60818344157931,0 172.7001697727847,-43.60787065968201,0 172.6993751343033,-43.60750297239803,0 172.6988675584989,-43.60795244193812,0 172.6978635990174,-43.60867724427924,0 172.6968725022809,-43.60883963592573,0 172.7003582540223,-43.60977475355614,0 
						
</coordinates>

						</LinearRing>

					</outerBoundaryIs>

				</Polygon>

				<flyID>11</flyID>

				<flyDescription>The use of power driven vessels in this area is prohibited.</flyDescription>

			</Placemark>
<Placemark>

				<name>Wildlife Reserve</name>

				<description>Wildlife Reserve</description>

				<styleUrl>#style3</styleUrl>

				<Polygon>

					<tessellate>1</tessellate>

					<outerBoundaryIs>

						<LinearRing>

							<coordinates>

							172.7441168054465,-43.55313092100236,0 172.7426044621929,-43.5594131446417,0 172.7426961988185,-43.56049671196269,0 172.7431767404122,-43.56109565506917,0 172.7444899713243,-43.56224067440581,0 172.7452663014833,-43.56254947510917,0 172.7465698384412,-43.56278397325548,0 172.7477624859043,-43.56283862459604,0 172.7493061174774,-43.56275631456995,0 172.7506484958254,-43.56249384765775,0 172.7506491003575,-43.56158653670043,0 172.7501861656743,-43.5617597349062,0 172.7492614271145,-43.56193732407735,0 172.74777324151,-43.56208062350277,0 172.7462068099117,-43.56116310610828,0 172.7453789284684,-43.56046422447322,0 172.7453539371205,-43.55987483931621,0 172.7456313781595,-43.55935077833767,0 172.746194812159,-43.55900411392642,0 172.7465646882192,-43.55862657763819,0 172.7463045515622,-43.55818242190662,0 172.7460840489443,-43.55712525908482,0 172.7459566866163,-43.55586875157054,0 172.746222912888,-43.55507257180978,0 172.7462645887804,-43.55427755551816,0 172.7468016046287,-43.55362311299531,0 172.7469937908999,-43.55323681720199,0 172.7469481789368,-43.55235618587096,0 172.7468609384263,-43.55191638308006,0 172.7442479062678,-43.55194497543327,0 172.7441168054465,-43.55313092100236,0 
						
</coordinates>

						</LinearRing>

					</outerBoundaryIs>

				</Polygon>

				<flyID>12</flyID>

				<flyDescription>Wildlife Reserve</flyDescription>

			</Placemark>
<Placemark>

				<name>Swimming And Small Paddled Crafts Only</name>

				<description>Swimming and small paddled crafts only</description>

				<styleUrl>#style0</styleUrl>

				<Polygon>

					<tessellate>1</tessellate>

					<outerBoundaryIs>

						<LinearRing>

							<coordinates>

							172.7523713749718,-43.55880202978948,0 172.7519058787886,-43.55925099224312,0 172.7514424979177,-43.56010065192913,0 172.7513223438608,-43.56124846065255,0 172.7506627973112,-43.56157887590271,0 172.7507367966656,-43.56285620209535,0 172.7507071797969,-43.56370710745185,0 172.751447804213,-43.5639143092656,0 172.7527447900751,-43.56428785889908,0 172.7540425489552,-43.56463998745151,0 172.7550342393496,-43.56480943728382,0 172.7558267870635,-43.5653698795312,0 172.7563789605873,-43.56566421039091,0 172.7573789091219,-43.56584692723444,0 172.7584648316756,-43.56581491900597,0 172.7589478774037,-43.56594039891812,0 172.7596900119508,-43.56597138070477,0 172.7600244295221,-43.56618981100344,0 172.7598124338754,-43.56638615684547,0 172.7601838320455,-43.566958275907,0 172.7616076052377,-43.56838422686195,0 172.7617790614228,-43.56886133393417,0 172.7629756165824,-43.56992759867926,0 172.7651654391577,-43.57148466041015,0 172.7662276684904,-43.57191100493077,0 172.7678294691264,-43.57254817592853,0 172.7693067690148,-43.57271509468546,0 172.7699091366297,-43.57271104071666,0 172.7705666640956,-43.57253355877661,0 172.7712095156588,-43.57157681034738,0 172.7712849512992,-43.57109471485644,0 172.7711675386976,-43.57080354204172,0 172.7713492906596,-43.5707518665357,0 172.7718536788923,-43.57075070704566,0 172.7730158996592,-43.5700109022783,0 172.7702718653875,-43.56918251229298,0 172.766232610754,-43.56684203924423,0 172.765689553445,-43.56621487584247,0 172.7649199676631,-43.56521183031957,0 172.7636775926094,-43.56352291900591,0 172.7623288622521,-43.56280168539835,0 172.7607266791442,-43.56241305739054,0 172.7585230413817,-43.56221829055242,0 172.7577294564705,-43.56177486390926,0 172.7558351931331,-43.56112750540738,0 172.7537624781619,-43.56077758631459,0 172.7549222923007,-43.55813295513418,0 172.7524232797697,-43.55818368117039,0 172.7523713749718,-43.55880202978948,0 
						
</coordinates>

						</LinearRing>

					</outerBoundaryIs>

				</Polygon>

				<flyID>13</flyID>

				<flyDescription>Swimming and small paddled crafts only</flyDescription>

			</Placemark>
<Placemark>

				<name>Non-powered Water Craft Only Area</name>

				<description>The use of power driven vessels in this area is prohibited.</description>

				<styleUrl>#style5</styleUrl>

				<Polygon>

					<tessellate>1</tessellate>

					<outerBoundaryIs>

						<LinearRing>

							<coordinates>

							172.7478333072191,-43.63768878425615,0 172.7481035379052,-43.6382893121363,0 172.7485252601177,-43.63848608843404,0 172.7495579156895,-43.63848623449417,0 172.7499448073482,-43.6382000495442,0 172.7504579020711,-43.63802748408766,0 172.7513364913766,-43.63782025306261,0 172.7521867350626,-43.63762225097805,0 172.7533648749582,-43.6374354123168,0 172.7540940247005,-43.63732499059959,0 172.7546436040723,-43.63709767269971,0 172.7549101941574,-43.63682138672602,0 172.7549909557968,-43.63638924454637,0 172.7551378406293,-43.63580713802673,0 172.7513407012399,-43.63637284259351,0 172.7475750550575,-43.6369711338117,0 172.7478333072191,-43.63768878425615,0 
						
</coordinates>

						</LinearRing>

					</outerBoundaryIs>

				</Polygon>

				<flyID>14</flyID>

				<flyDescription>The use of power driven vessels in this area is prohibited.</flyDescription>

			</Placemark>

</Document>
</kml>
