<?xml version="1.0" encoding="UTF-8"?>
<kml xmlns="http://www.opengis.net/kml/2.2" xmlns:gx="http://www.google.com/kml/ext/2.2" xmlns:kml="http://www.opengis.net/kml/2.2" xmlns:atom="http://www.w3.org/2005/Atom">
<Document>
<name>R46 C23.kml</name>

<Style id="style0">

					<LineStyle>

						<color>ff0000ff</color>

					</LineStyle>

					<PolyStyle>

						<color>ff0000ff</color>

						<width>0.9</width>

					</PolyStyle>

				</Style>
<Style id="style1">

					<LineStyle>

						<color>ff00ff55</color>

					</LineStyle>

					<PolyStyle>

						<color>ff00ff55</color>

						<width>0.9</width>

					</PolyStyle>

				</Style>
<Style id="style2">

					<LineStyle>

						<color>ffff5500</color>

					</LineStyle>

					<PolyStyle>

						<color>ffff5500</color>

						<width>0.9</width>

					</PolyStyle>

				</Style>
<Style id="style3">

					<LineStyle>

						<color>ffff0000</color>

					</LineStyle>

					<PolyStyle>

						<color>ffff0000</color>

						<width>0.9</width>

					</PolyStyle>

				</Style>
<Style id="style4">

					<LineStyle>

						<color>ff00ffff</color>

					</LineStyle>

					<PolyStyle>

						<color>ff00ffff</color>

						<width>0.9</width>

					</PolyStyle>

				</Style>

<Placemark>

				<name>5 Knot Restriction Does Not Apply</name>

				<description>You are free to operate your vessel with no speed restriction, however use caution at all times.</description>

				<styleUrl>#style1</styleUrl>

				<Polygon>

					<tessellate>1</tessellate>

					<outerBoundaryIs>

						<LinearRing>

							<coordinates>

							170.4617825078844,-43.9964749556159,0 170.461853977696,-43.99665183837557,0 170.4620529278863,-43.99677809070859,0 170.4624323524179,-43.99679149811666,0 170.4625821986676,-43.99690929340962,0 170.4626463751677,-43.99730064645348,0 170.4627985771883,-43.99773630070767,0 170.4630790304808,-43.99817518280055,0 170.4681909236379,-43.99848687665872,0 170.4714666726467,-43.9986978507321,0 170.4717180284152,-43.99327805503626,0 170.4681940345609,-43.9951203372141,0 170.4649370565769,-43.99579152419724,0 170.4617825078844,-43.9964749556159,0 
						
</coordinates>

						</LinearRing>

					</outerBoundaryIs>

				</Polygon>

				<flyID>0</flyID>

				<flyDescription>You are free to operate your vessel with no speed restriction, however use caution at all times.</flyDescription>

			</Placemark>
<Placemark>

				<name>Swimming And Small Paddled Crafts Only</name>

				<description>Swimming and small paddled crafts only</description>

				<styleUrl>#style2</styleUrl>

				<Polygon>

					<tessellate>1</tessellate>

					<outerBoundaryIs>

						<LinearRing>

							<coordinates>

							170.4631494187458,-43.99616543080828,0 170.4631996275379,-43.99504244757036,0 170.4629944938922,-43.99504455460299,0 170.4629564628409,-43.99526755637557,0 170.4628387194243,-43.99538106917849,0 170.4626792525007,-43.99557051568826,0 170.4622704378046,-43.9959060197703,0 170.4620745835811,-43.99595592902555,0 170.4617884409372,-43.99616596644154,0 170.4617870585228,-43.99645269401147,0 170.4631494187458,-43.99616543080828,0 
						
</coordinates>

						</LinearRing>

					</outerBoundaryIs>

				</Polygon>

				<flyID>1</flyID>

				<flyDescription>Swimming and small paddled crafts only</flyDescription>

			</Placemark>
<Placemark>

				<name>Water Skiing Area</name>

				<description>This area is reserved for vessels towing. Within this zone proceed in an anticlockwise direction. Speed within proximity to shore, structures, people in the water and other vessels apply.</description>

				<styleUrl>#style3</styleUrl>

				<Polygon>

					<tessellate>1</tessellate>

					<outerBoundaryIs>

						<LinearRing>

							<coordinates>

							170.4631698777935,-43.9961635404219,0 170.4681795032894,-43.99511050447544,0 170.4717300288529,-43.99326140317623,0 170.4718359720487,-43.99138440065492,0 170.470734775786,-43.99269705662919,0 170.468274906977,-43.99393502001266,0 170.4673280656283,-43.99439462459554,0 170.4667215059034,-43.99461902019986,0 170.4664978745571,-43.99463722961525,0 170.4662568395685,-43.99460247062128,0 170.4657096700881,-43.99456669956258,0 170.4653731613238,-43.99467555497451,0 170.4649362999913,-43.99503239115602,0 170.4646216522287,-43.99506201874567,0 170.4632320697436,-43.99503165239801,0 170.4631698777935,-43.9961635404219,0 
						
</coordinates>

						</LinearRing>

					</outerBoundaryIs>

				</Polygon>

				<flyID>2</flyID>

				<flyDescription>This area is reserved for vessels towing. Within this zone proceed in an anticlockwise direction. Speed within proximity to shore, structures, people in the water and other vessels apply.</flyDescription>

			</Placemark>
<Placemark>

				<name>No Boating Or Swimming</name>

				<description>No boating or swimming in this area.</description>

				<styleUrl>#style0</styleUrl>

				<Polygon>

					<tessellate>1</tessellate>

					<outerBoundaryIs>

						<LinearRing>

							<coordinates>

							170.480355798013,-44.0061581284562,0 170.4812339345014,-44.00650405959573,0 170.481587775353,-44.00574505325989,0 170.4816982928533,-44.00539489976928,0 170.4817997184566,-44.00461064510766,0 170.4804442698763,-44.00450549835487,0 170.4804784548459,-44.00475540975052,0 170.4804902158263,-44.00525351942365,0 170.4804041330483,-44.0056131097543,0 170.4801970154115,-44.00604319018972,0 170.480355798013,-44.0061581284562,0 
						
</coordinates>

						</LinearRing>

					</outerBoundaryIs>

				</Polygon>

				<flyID>3</flyID>

				<flyDescription>No boating or swimming in this area.</flyDescription>

			</Placemark>
<Placemark>

				<name>No Boating Or Swimming</name>

				<description>No boating or swimming in this area.</description>

				<styleUrl>#style0</styleUrl>

				<Polygon>

					<tessellate>1</tessellate>

					<outerBoundaryIs>

						<LinearRing>

							<coordinates>

							170.4694045886299,-44.00058058737968,0 170.4696871422113,-44.00060802290463,0 170.4702392863461,-44.00071199757057,0 170.4706494419292,-44.00073495467115,0 170.4709405619938,-44.00083642852167,0 170.4712566816984,-44.00090193325733,0 170.4715189480273,-44.00099982274748,0 170.471960251077,-44.00109599333501,0 170.4723464344356,-44.00110580511406,0 170.472766619934,-44.0011699109041,0 170.4728835733118,-44.00094347527411,0 170.4729805326329,-44.00056779018033,0 170.4729426270453,-44.00012944880965,0 170.4727200722689,-43.99965224835003,0 170.4723410951867,-43.99923862181455,0 170.4718485890082,-43.99894385071814,0 170.4711326521949,-43.99870932507483,0 170.4703682926383,-43.99866310590061,0 170.4696866963047,-43.99873639896872,0 170.4688986671966,-43.99905507092112,0 170.4683727184523,-43.99951082568539,0 170.4681007457057,-43.99992818460615,0 170.4680248818067,-44.00043173120402,0 170.4694045886299,-44.00058058737968,0 
						
</coordinates>

						</LinearRing>

					</outerBoundaryIs>

				</Polygon>

				<flyID>4</flyID>

				<flyDescription>No boating or swimming in this area.</flyDescription>

			</Placemark>
<Placemark>

				<name>5 Knot Speed Limit</name>

				<description>Keep to 5 knots or less (9.25km / fast walking pace) in this area</description>

				<styleUrl>#style4</styleUrl>

				<Polygon>

					<tessellate>1</tessellate>

					<outerBoundaryIs>

						<LinearRing>

							<coordinates>

							170.4857692555535,-44.00395341381142,0 170.4865994357158,-44.00427624675362,0 170.4869581111534,-44.00438038685557,0 170.4871309567157,-44.00455575322054,0 170.4874069737915,-44.00507450660835,0 170.4875637596185,-44.00519253475599,0 170.4879034940799,-44.00544989370334,0 170.488257614747,-44.00560201793659,0 170.4888506021453,-44.00570161200894,0 170.4890956399781,-44.00575569785919,0 170.4892840446846,-44.00600046468254,0 170.4894482636061,-44.00615326530462,0 170.4899258467887,-44.0064543695637,0 170.4903793203503,-44.00660672821487,0 170.4909749869458,-44.00666111757862,0 170.491494747101,-44.00668094930514,0 170.4921436022841,-44.00674188096753,0 170.4924530299074,-44.0068619303346,0 170.4928560402912,-44.00700351414017,0 170.4932026944691,-44.00706391315224,0 170.4934515426261,-44.00697321644876,0 170.493700319964,-44.006784501667,0 170.494152548251,-44.00659278458694,0 170.4946235223195,-44.00651015933994,0 170.4952115753306,-44.00638000220816,0 170.495636195725,-44.00616668002465,0 170.4964127976887,-44.0055596262879,0 170.4972847276541,-44.00537784127573,0 170.4975606251312,-44.00518612050335,0 170.4980144034491,-44.0047091494061,0 170.4982902113511,-44.00425543047743,0 170.4986632056859,-44.00380986851511,0 170.498735069334,-44.00338104087454,0 170.4986249396917,-44.0031344246781,0 170.4983755486723,-44.00244181018812,0 170.4983998971543,-44.00167362037217,0 170.4984717189355,-44.00086230703358,0 170.4982654898663,-44.00025567862521,0 170.4981432628373,-43.99949938946489,0 170.4978951991875,-43.99871048655269,0 170.4974559858029,-43.99817595155135,0 170.4968357642925,-43.99760705027417,0 170.4964391822824,-43.99697556950028,0 170.4918478501072,-43.99927015398691,0 170.4841590686327,-44.00315707959235,0 170.4857692555535,-44.00395341381142,0 
						
</coordinates>

						</LinearRing>

					</outerBoundaryIs>

				</Polygon>

				<flyID>5</flyID>

				<flyDescription>Keep to 5 knots or less (9.25km / fast walking pace) in this area</flyDescription>

			</Placemark>

</Document>
</kml>
