<?xml version="1.0" encoding="UTF-8"?>
<kml xmlns="http://www.opengis.net/kml/2.2" xmlns:gx="http://www.google.com/kml/ext/2.2" xmlns:kml="http://www.opengis.net/kml/2.2" xmlns:atom="http://www.w3.org/2005/Atom">
<Document>
<name>R47 C17.kml</name>

<Style id="style0">

					<LineStyle>

						<color>ff00ffff</color>

					</LineStyle>

					<PolyStyle>

						<color>ff00ffff</color>

						<width>0.9</width>

					</PolyStyle>

				</Style>

<Placemark>

				<name>5 Knot Zone</name>

				<description>Keep to 5 knots or less (9.25km / fast walking pace) in this area</description>

				<styleUrl>#style0</styleUrl>

				<Polygon>

					<tessellate>1</tessellate>

					<outerBoundaryIs>

						<LinearRing>

							<coordinates>

							168.8838276264424,-44.51292349448733,0 168.8858001466593,-44.5142498592741,0 168.8901699787969,-44.51620452625626,0 168.8903695822456,-44.51952358547943,0 168.8893286175368,-44.52203754569798,0 168.8881326444499,-44.52693294307084,0 168.8900384851625,-44.53019570456556,0 168.8944592929644,-44.54038759097365,0 168.8985009823453,-44.54966926167925,0 168.9027191286253,-44.55451762813395,0 168.9007871597369,-44.56237611417239,0 168.9019306795542,-44.57053402627318,0 168.9053351853365,-44.57336106598623,0 168.9071804707079,-44.58087436062731,0 168.9115815592127,-44.58837345746484,0 168.9200101555736,-44.59345471226092,0 168.9265933599851,-44.59838482759387,0 168.9337523032742,-44.60016062177183,0 168.9372636542745,-44.60215371897897,0 168.941869861041,-44.60451685535902,0 168.9489584830081,-44.60607885264905,0 168.9541159588112,-44.60487777022345,0 168.960321555662,-44.60486231779834,0 168.9697252553778,-44.60910357417407,0 168.9760970874801,-44.61382084951033,0 168.9775231641845,-44.62034314978956,0 168.9774249821907,-44.63100300407233,0 168.9801522011568,-44.63497754204109,0 168.9868398046961,-44.63693891247945,0 168.9947702822278,-44.63733833291123,0 169.0003793016285,-44.63867557408369,0 169.0096730531983,-44.63854718568499,0 169.0133971175627,-44.63436925797995,0 169.0193197080883,-44.62889219612447,0 169.02806487773,-44.62965138255267,0 169.0072672126471,-44.61786452681022,0 169.0082702341073,-44.6200318858148,0 169.0073284812536,-44.62383930332636,0 169.005066296508,-44.62697328244867,0 169.002457851281,-44.62846629464254,0 168.9980726002219,-44.63073402723062,0 168.9910281367679,-44.63315816490116,0 168.989432302783,-44.63314601772179,0 168.9843804525453,-44.63264832876373,0 168.9837185649378,-44.62951165778261,0 168.9849240672656,-44.62671772299741,0 168.9865005095618,-44.6197803302427,0 168.9787424194425,-44.60491124803214,0 168.9733147213362,-44.60085911610059,0 168.9667250317927,-44.59977129498995,0 168.9554994368144,-44.59981879959423,0 168.9483010208231,-44.59761858410816,0 168.9375268215803,-44.59287632767943,0 168.9299870056605,-44.58846924023128,0 168.9161184623034,-44.57796950326706,0 168.9149753469612,-44.57386296968479,0 168.9135867880437,-44.56714451895562,0 168.9113990283699,-44.55996281833574,0 168.9106424822014,-44.55065350028787,0 168.9080824256028,-44.54363398081657,0 168.9033923449372,-44.53665810185673,0 168.9029105740798,-44.52940313010338,0 168.9029868076727,-44.52195021519978,0 168.9021983298733,-44.52039307727666,0 168.9003446220572,-44.51595076003655,0 168.8948395396615,-44.50673480184784,0 168.8925879116038,-44.50486735854023,0 168.8838276264424,-44.51292349448733,0 
						
</coordinates>

						</LinearRing>

					</outerBoundaryIs>

				</Polygon>

				<flyID>0</flyID>

				<flyDescription>Keep to 5 knots or less (9.25km / fast walking pace) in this area</flyDescription>

			</Placemark>
<Placemark>

				<name>5 Knot Zone</name>

				<description>Keep to 5 knots or less (9.25km / fast walking pace) in this area</description>

				<styleUrl>#style0</styleUrl>

				<Polygon>

					<tessellate>1</tessellate>

					<outerBoundaryIs>

						<LinearRing>

							<coordinates>

							168.7937932808359,-44.48317529032671,0 168.7967668234161,-44.48142115912092,0 168.8004441409832,-44.48162911026939,0 168.8060063935386,-44.48039238508756,0 168.8130527572053,-44.47954554186941,0 168.8163338070476,-44.48076170761272,0 168.8193483408116,-44.48395994515075,0 168.8212732250156,-44.48739837791762,0 168.826709731961,-44.48998142672526,0 168.8315645969747,-44.49111064236964,0 168.8378275616639,-44.49237242794705,0 168.8465183975237,-44.49078070891715,0 168.8532123481498,-44.49104860446375,0 168.8607221917929,-44.4930636626278,0 168.8704669506815,-44.49666526927503,0 168.8772763507615,-44.5022669187089,0 168.8794975259495,-44.50269490295881,0 168.8808093584778,-44.5090400992008,0 168.8838276264424,-44.51292349448733,0 168.8925879116038,-44.50486735854023,0 168.8830877871959,-44.49731729134817,0 168.8733922667563,-44.49057703855749,0 168.8635052056396,-44.48422832439632,0 168.8458849945852,-44.48357461894173,0 168.8386883996765,-44.48538290316633,0 168.8311298569984,-44.4883008112498,0 168.8257651685913,-44.4857009505426,0 168.822073878046,-44.48136909486369,0 168.8145764494065,-44.47433437408778,0 168.8115306588041,-44.46975716538614,0 168.8098438755949,-44.46383783202628,0 168.8111170280373,-44.45970679636166,0 168.8136978666291,-44.45503361082723,0 168.8154429893608,-44.4486999737405,0 168.8146701311456,-44.4472059684013,0 168.8142612655083,-44.44348141776123,0 168.8101035157903,-44.44339932106173,0 168.8106834118396,-44.44712557738035,0 168.8136362459684,-44.44890036321876,0 168.8132899007939,-44.45150772477861,0 168.8113478539869,-44.45579907671868,0 168.8068343315762,-44.4600398215288,0 168.8064806145701,-44.46626144458985,0 168.8079242254109,-44.47130897039058,0 168.8118916122859,-44.47585542815079,0 168.8104496143865,-44.47685006618889,0 168.8042913886162,-44.47647102047533,0 168.7955809124717,-44.47880131889755,0 168.7926012723729,-44.48209046908655,0 168.7902233325213,-44.48353826866181,0 168.7869434816638,-44.48776607450908,0 168.7860649100517,-44.48999356346678,0 168.7828487438001,-44.49582430859675,0 168.7873773119427,-44.49760287503469,0 168.7937932808359,-44.48317529032671,0 
						
</coordinates>

						</LinearRing>

					</outerBoundaryIs>

				</Polygon>

				<flyID>1</flyID>

				<flyDescription>Keep to 5 knots or less (9.25km / fast walking pace) in this area</flyDescription>

			</Placemark>

</Document>
</kml>
