<?xml version="1.0" encoding="UTF-8"?>
<kml xmlns="http://www.opengis.net/kml/2.2" xmlns:gx="http://www.google.com/kml/ext/2.2" xmlns:kml="http://www.opengis.net/kml/2.2" xmlns:atom="http://www.w3.org/2005/Atom">
<Document>
<name>R50 C12.kml</name>

<Style id="style0">

					<LineStyle>

						<color>ff00ffff</color>

					</LineStyle>

					<PolyStyle>

						<color>ff00ffff</color>

						<width>0.9</width>

					</PolyStyle>

				</Style>

<Placemark>

				<name>5 Knot Zone</name>

				<description>Keep to 5 knots or less (9.25km / fast walking pace) in Lake Te Anau within 200 metres of shore.</description>

				<styleUrl>#style0</styleUrl>

				<Polygon>

					<tessellate>1</tessellate>

					<outerBoundaryIs>

						<LinearRing>

							<coordinates>

							167.7274651231762,-45.28066881187681,0 167.7239904349001,-45.2737833784096,0 167.7221032298087,-45.26960620702261,0 167.7197144807132,-45.26730384695841,0 167.7193431027698,-45.26448016274378,0 167.716564932666,-45.26151923691256,0 167.7160803902263,-45.25985743814971,0 167.7149818988419,-45.25860113128029,0 167.7182879139723,-45.25523818835471,0 167.7213457542091,-45.25191103068612,0 167.7215781688829,-45.24951111707073,0 167.7220671046803,-45.24778226072472,0 167.720976856502,-45.24522247667503,0 167.7199022866479,-45.24251014720618,0 167.7177028177683,-45.24031765296449,0 167.7148010642521,-45.23863667873267,0 167.713150971768,-45.23715833988668,0 167.7139731235639,-45.23428694521348,0 167.7149598652174,-45.23242264837928,0 167.7154711480272,-45.22963554192446,0 167.716144289854,-45.22658183402351,0 167.7158838028035,-45.22439797101567,0 167.7161790703411,-45.22219713020775,0 167.7148927918836,-45.22084214307013,0 167.7137943280145,-45.220666796759,0 167.7135743508123,-45.22065276419203,0 167.7135291207511,-45.22248164462832,0 167.7135723707392,-45.22255380382448,0 167.7135794028854,-45.22278299770072,0 167.7134266420852,-45.22292191626904,0 167.7132235233512,-45.22301109624145,0 167.7132050778586,-45.22302062127305,0 167.7132453806461,-45.22329041569045,0 167.7133498044881,-45.22328819970375,0 167.7134244133844,-45.2233934877175,0 167.7133920763647,-45.22343031512666,0 167.7131472093078,-45.22350312365202,0 167.7130200620529,-45.22339632672896,0 167.7131552302025,-45.22330775658678,0 167.7132443334431,-45.22329053292742,0 167.713204572735,-45.22302064917783,0 167.7131385055688,-45.22298189903663,0 167.713039166725,-45.22294469211518,0 167.7130490133254,-45.22283217754048,0 167.7134386512573,-45.22247065623628,0 167.7135249974189,-45.22248119332785,0 167.7135699953519,-45.2206527153293,0 167.7124901663627,-45.22060839402337,0 167.7087773181189,-45.22145786123216,0 167.7051532613321,-45.22025853323355,0 167.702427301217,-45.22135139727574,0 167.6973694948363,-45.22033153070583,0 167.6972454218723,-45.22188514718503,0 167.699877833556,-45.22268548033833,0 167.701033097706,-45.2231860628614,0 167.7032651668573,-45.22346753930777,0 167.7052456399925,-45.22238969272093,0 167.7063506883599,-45.22246819201451,0 167.7067503207887,-45.22364255017243,0 167.7086357118336,-45.22556587801494,0 167.7095927214633,-45.22533301507565,0 167.7098800815842,-45.22322394854705,0 167.7113212404326,-45.2230551550818,0 167.7131995620613,-45.2245153974502,0 167.7134377504893,-45.22600640962925,0 167.7127461356191,-45.22814484303012,0 167.7130679824147,-45.22958054183325,0 167.7124929592842,-45.23158047053645,0 167.7112576270491,-45.23427360646207,0 167.7110399946877,-45.23691857840222,0 167.7108388197937,-45.23819712145656,0 167.7127183842959,-45.23972272971822,0 167.716339423182,-45.24223408350096,0 167.7172062961587,-45.24385378454404,0 167.7194684593234,-45.24752592081371,0 167.7184833890221,-45.24899095776132,0 167.7188093481925,-45.25039042249507,0 167.7183064302923,-45.25187426937391,0 167.7147156858301,-45.25578849727661,0 167.7119585429916,-45.25808854090679,0 167.7133393666899,-45.26110739021751,0 167.7152883557512,-45.2640196932346,0 167.7167141681368,-45.26495321021966,0 167.7171080038597,-45.26737742931511,0 167.7181485255402,-45.26904241948543,0 167.7199710273904,-45.27191128447966,0 167.7231232567217,-45.27701068358115,0 167.7265205874998,-45.2834398195587,0 167.7274651231762,-45.28066881187681,0 
						
</coordinates>

						</LinearRing>

					</outerBoundaryIs>

				</Polygon>

				<flyID>0</flyID>

				<flyDescription>Keep to 5 knots or less (9.25km / fast walking pace) in Lake Te Anau within 200 metres of shore.</flyDescription>

			</Placemark>
<Placemark>

				<name>5 Knot Zone</name>

				<description>Keep to 5 knots or less (9.25km / fast walking pace) in Lake Te Anau within 200 metres of shore.</description>

				<styleUrl>#style0</styleUrl>

				<Polygon>

					<tessellate>1</tessellate>

					<outerBoundaryIs>

						<LinearRing>

							<coordinates>

							167.6969704701932,-45.21912212478226,0 167.6979918519733,-45.21763320809955,0 167.6988901222458,-45.21691925974765,0 167.7010027603141,-45.21617970378634,0 167.7015753700626,-45.21429966262093,0 167.7020996846211,-45.21175596551453,0 167.7030619075092,-45.20970908676114,0 167.7035198960005,-45.20697655736964,0 167.7039888228158,-45.20458497498368,0 167.7049919411051,-45.2035916996808,0 167.7068545511434,-45.20398474575215,0 167.7084207457515,-45.20377768283695,0 167.7102245897104,-45.20224449408094,0 167.7092748018131,-45.20059600656966,0 167.7075764204148,-45.1989289511767,0 167.7081233124979,-45.19782461098907,0 167.7078547788622,-45.19617289448554,0 167.7045420459097,-45.19486248025627,0 167.6999233286253,-45.19342540307214,0 167.695990153631,-45.19341675972011,0 167.6928641638545,-45.19419115418514,0 167.6902487909899,-45.1932202560096,0 167.6857177166729,-45.1929091652344,0 167.6839670965948,-45.1912000739303,0 167.6806416401166,-45.19026182090157,0 167.6759805933313,-45.1889453111303,0 167.6736869175106,-45.18635428315724,0 167.6678907225179,-45.18443845061127,0 167.6638527617641,-45.18465599301042,0 167.6630614851536,-45.1865672611072,0 167.6635982614748,-45.18703859309995,0 167.6637505286055,-45.1869738074193,0 167.6640138464505,-45.1865226608708,0 167.6649146056537,-45.18640729392937,0 167.6668179512832,-45.18624242996873,0 167.6689303289138,-45.18656512656069,0 167.6708826566583,-45.1871675216319,0 167.6725717713062,-45.18809765349408,0 167.6732554779586,-45.18904638917201,0 167.6726504676727,-45.18958149287857,0 167.6726406222651,-45.19000991111827,0 167.6734367443121,-45.1905958787102,0 167.6743407279417,-45.19102792886536,0 167.6749810185954,-45.19075011943671,0 167.6758351422087,-45.19114477347156,0 167.6763708550527,-45.19157890242173,0 167.6771198176345,-45.19165433610655,0 167.6782177097563,-45.19152319080549,0 167.679193354718,-45.1920627439933,0 167.679927784695,-45.19230195069441,0 167.6804502677854,-45.19239698396726,0 167.680477930564,-45.19273785576334,0 167.6810483576877,-45.1926953257422,0 167.6811146034262,-45.19218466069045,0 167.6820684433826,-45.19251372843343,0 167.6828241158053,-45.19310781829505,0 167.6828076275127,-45.19373952254479,0 167.682368010143,-45.19376602462412,0 167.6816301521814,-45.19345571487914,0 167.681652376629,-45.19389458378254,0 167.681576018382,-45.19415328767188,0 167.6821847352062,-45.1946751795876,0 167.682359592287,-45.19521166903134,0 167.6832212069352,-45.19577805108886,0 167.6830993388931,-45.19670067182666,0 167.68483132852,-45.19692965542192,0 167.6844011398069,-45.19654030687551,0 167.6841031773554,-45.19578970844013,0 167.6839043942576,-45.1954452670035,0 167.6832965129444,-45.19478334960315,0 167.6833819482235,-45.19453233302121,0 167.6844679094714,-45.19452788645303,0 167.6855557898941,-45.19489952499261,0 167.6863497193997,-45.19528297450187,0 167.6867557389444,-45.1952852187208,0 167.6869861356001,-45.19496870061693,0 167.6879036860376,-45.19503068598832,0 167.6887162418822,-45.19520066120222,0 167.6896443008665,-45.19496747525852,0 167.6906556641895,-45.19546186634561,0 167.6913390114615,-45.19623448804651,0 167.6914567782094,-45.19724808155607,0 167.691288417913,-45.19773330699096,0 167.6915456779418,-45.19843864968933,0 167.6919219145184,-45.19896726261271,0 167.6919799103943,-45.19938972611588,0 167.692171590509,-45.19968337507216,0 167.692393850597,-45.19913025064323,0 167.693112577109,-45.19854407230739,0 167.6938127821873,-45.19802381233249,0 167.6939098492037,-45.19729643538839,0 167.6944222735233,-45.19679264705342,0 167.6946340893412,-45.19647628031813,0 167.6941882680135,-45.19603077035086,0 167.6948804790014,-45.19569131027055,0 167.6962130490477,-45.19563238797001,0 167.6972537873133,-45.19578897850387,0 167.6976454815549,-45.19568185175505,0 167.6968313176513,-45.19521087642008,0 167.6976885496916,-45.1952046940477,0 167.6990333121287,-45.19531914837184,0 167.7008653712989,-45.19567946532118,0 167.7018189570649,-45.19606339216811,0 167.7034409514081,-45.196485639101,0 167.7039826879048,-45.19697054871754,0 167.7049423983829,-45.19720562975952,0 167.7055748247208,-45.1974668328312,0 167.7054588212361,-45.19781755020694,0 167.7044985669718,-45.19813569824268,0 167.7034605821878,-45.19829520581945,0 167.7028549520707,-45.19866733284179,0 167.7030592012864,-45.19905455176535,0 167.7035583821681,-45.19968305686974,0 167.7037338645332,-45.20055662326839,0 167.7036519326283,-45.20099518489908,0 167.7054196848292,-45.20125250312018,0 167.7058533283752,-45.20115736060748,0 167.7062838701079,-45.20087207822332,0 167.7065984545422,-45.20077196148938,0 167.7066875682539,-45.20090066741937,0 167.7066862574522,-45.20105576027184,0 167.7070087821316,-45.20134336336254,0 167.7072598873147,-45.20167846178033,0 167.707285129816,-45.20192513212793,0 167.7068949831424,-45.20218358160982,0 167.7066053490723,-45.20222806971236,0 167.7063116251058,-45.20206766206326,0 167.7059851355394,-45.20199408796614,0 167.7057609150624,-45.20197734484815,0 167.7055010296021,-45.20185793283805,0 167.7052460479766,-45.20138987208796,0 167.705254976187,-45.20129919987791,0 167.7054191015111,-45.20125451098872,0 167.7036504164575,-45.20099838307168,0 167.7037722970383,-45.20162457789795,0 167.7036511872844,-45.20216321588316,0 167.7028946685781,-45.20258313420092,0 167.7021758684282,-45.20337920891691,0 167.7014621181368,-45.20397328839714,0 167.700763852226,-45.20439341049922,0 167.7010597907811,-45.2049564916229,0 167.7011532424412,-45.20594545303841,0 167.7008405704061,-45.20626040195795,0 167.7004175833933,-45.20637575361725,0 167.7000556065904,-45.20665481440082,0 167.7003997190618,-45.20740980270568,0 167.700806833395,-45.20807422710598,0 167.7006321930257,-45.20861218412333,0 167.7003896781739,-45.20946512353576,0 167.7003139964147,-45.21027172426404,0 167.7000481506685,-45.2108512583948,0 167.6992536328818,-45.2115491037376,0 167.6989552028782,-45.21228006254727,0 167.6991364521739,-45.21281342910033,0 167.6990692977127,-45.21320074962373,0 167.6986342325507,-45.21369334449075,0 167.6985819683135,-45.21436663325501,0 167.6988645230288,-45.21501612502507,0 167.6981392754468,-45.21503445184365,0 167.6973762314582,-45.21446687145927,0 167.6965698315667,-45.21346617014135,0 167.6960677013082,-45.212826820441,0 167.6957338794109,-45.21256012537177,0 167.6948745134107,-45.21278941694167,0 167.694151060117,-45.21264491847762,0 167.6936565924996,-45.21149978051951,0 167.6937089902631,-45.21095512765068,0 167.6942852795514,-45.21074268006205,0 167.6953251319222,-45.21103476570428,0 167.6956643421144,-45.21108897684427,0 167.6954134528823,-45.21042386597824,0 167.695089730346,-45.2094862839377,0 167.6949520110388,-45.20871697194304,0 167.6945087133015,-45.20827051211402,0 167.6943087372335,-45.20826592738489,0 167.6943929235869,-45.20879576355769,0 167.6946386883833,-45.20923862759113,0 167.6943616215207,-45.20923392507819,0 167.6932112647609,-45.20780628431415,0 167.6919620417974,-45.20630885522746,0 167.6916964420363,-45.20567153064294,0 167.6915850551391,-45.20431205189134,0 167.6916123147287,-45.20344276529238,0 167.691042606264,-45.20286791602076,0 167.6914870972233,-45.20260631763898,0 167.6922213481657,-45.20215908016709,0 167.6926328651433,-45.20175525389969,0 167.6917273680529,-45.20086267518029,0 167.6917013056565,-45.20057415533296,0 167.692112359169,-45.20029833559315,0 167.6921676739297,-45.19968725366403,0 167.6919770064047,-45.19939273506801,0 167.6916609157792,-45.19963029545584,0 167.6910359722658,-45.19950469320639,0 167.6907879154161,-45.19959676968741,0 167.6905611982908,-45.20014992627413,0 167.6902346765572,-45.20068776272051,0 167.6896081620307,-45.20094490522772,0 167.6888062420757,-45.2008860839358,0 167.6881308098435,-45.20026334030248,0 167.6876681562475,-45.19964825137787,0 167.6871272708073,-45.19928140655286,0 167.6848923179558,-45.20015576747781,0 167.6852613639551,-45.20053763087563,0 167.6856201625768,-45.20077138241824,0 167.6857443259945,-45.20084628539424,0 167.6862343862199,-45.2015471056917,0 167.685747135738,-45.20132204585985,0 167.6852843747258,-45.20120204930911,0 167.684663756678,-45.20113633519739,0 167.6843370615061,-45.20109885284171,0 167.6838236910381,-45.20088436660311,0 167.683492965527,-45.20080444088762,0 167.6830422967959,-45.20053680016083,0 167.6827240994534,-45.2004211437765,0 167.6823345842962,-45.2001012218066,0 167.6830625160292,-45.20002482367477,0 167.683645798853,-45.19982084700777,0 167.6843453474845,-45.19947750509624,0 167.6846381106877,-45.19977332232963,0 167.6848888756469,-45.20015462602823,0 167.6871254482671,-45.19927832353173,0 167.6859148224452,-45.19752945359486,0 167.6848354218409,-45.19693876599799,0 167.6830955069497,-45.19670360684022,0 167.6828620800506,-45.19787751423999,0 167.6821212422174,-45.1983025174249,0 167.6815719483155,-45.19766002111316,0 167.680534316704,-45.19728779189513,0 167.6790946048097,-45.19642344650816,0 167.6785300452984,-45.19636891084333,0 167.678034244692,-45.19700091013475,0 167.6774496556138,-45.19718947349556,0 167.6762797728948,-45.19727918693806,0 167.6754513400823,-45.19674424480986,0 167.6747946554783,-45.19635017664239,0 167.6738853000238,-45.19611202896631,0 167.6733496776397,-45.19548289029962,0 167.6722632077763,-45.19545445153749,0 167.6713865860935,-45.19493979958106,0 167.6708016869131,-45.19402060679986,0 167.6704777458235,-45.19331629003749,0 167.6698836514932,-45.19342153829757,0 167.668815092327,-45.19424393438977,0 167.6679835515181,-45.19462823092777,0 167.6668641276857,-45.19432866751969,0 167.6664948032942,-45.19374328593905,0 167.6658605274119,-45.19352263233438,0 167.6647415542076,-45.19336825454157,0 167.6637093886217,-45.19277039346828,0 167.6635231073946,-45.19163608988396,0 167.6628852459955,-45.19113386288828,0 167.6619325667621,-45.19054452549175,0 167.6620706605924,-45.18981333540257,0 167.6611551184212,-45.18877527697698,0 167.6606635897014,-45.18842166789496,0 167.6590962206858,-45.18815378474108,0 167.6584892970504,-45.18824304655303,0 167.6578972024097,-45.18862126978305,0 167.6574146033898,-45.1890732222548,0 167.6568180682048,-45.18917573193387,0 167.6561025586905,-45.18871272157575,0 167.6558873327926,-45.18815437060019,0 167.6565927574873,-45.18747628472214,0 167.6568097414661,-45.18710866869083,0 167.6566356426486,-45.18656978577185,0 167.65603136056,-45.18607778628098,0 167.6557057795073,-45.18579412236389,0 167.6561689377086,-45.18553696799231,0 167.6575124667003,-45.18560411627833,0 167.6587431032013,-45.18569009207695,0 167.6598657539453,-45.185742062661,0 167.6609286097282,-45.18578515640257,0 167.6619866788319,-45.18593504392647,0 167.6630561189848,-45.1865720438817,0 167.6638446929416,-45.18466082064959,0 167.6625082988432,-45.18413261121963,0 167.6609509273263,-45.18392028835059,0 167.6574402376801,-45.1838491246047,0 167.6537560075437,-45.18343822120477,0 167.6516181545987,-45.18480607581262,0 167.651517857685,-45.18633607889139,0 167.6534195482071,-45.18743820231308,0 167.653570492099,-45.18879786391199,0 167.6549137611381,-45.19043859387724,0 167.656455956888,-45.19106637220618,0 167.6585100148295,-45.19077624953312,0 167.6593369929145,-45.19045291942283,0 167.6596756144782,-45.19152065751886,0 167.6610439649675,-45.19263513168248,0 167.6619547910818,-45.19411645973592,0 167.6643914213609,-45.19511830828618,0 167.6669770729458,-45.19633753708075,0 167.6691412199305,-45.19629805152764,0 167.6717069139451,-45.19732095451383,0 167.6744506185992,-45.19861308941917,0 167.6745715716602,-45.19955344307041,0 167.6759208452165,-45.20060376954162,0 167.6742639451445,-45.20089105472267,0 167.6729669145083,-45.20215229136021,0 167.6731412580558,-45.20368445702426,0 167.6751712909111,-45.21128812682776,0 167.6757535564903,-45.20941602239363,0 167.6744574026583,-45.20908784125481,0 167.6744320238881,-45.20823081827079,0 167.6747762073976,-45.20724153611798,0 167.6755361860445,-45.20851769761589,0 167.6767530229337,-45.20919388509566,0 167.6772741977497,-45.20979831899512,0 167.6758249551989,-45.20944710773343,0 167.6752390178292,-45.21125360265102,0 167.6771956393403,-45.21165209798559,0 167.6792917209929,-45.21255437257641,0 167.6811213639536,-45.21511791446172,0 167.6840999113357,-45.21440416051455,0 167.6845983110212,-45.21440505144434,0 167.6847937464649,-45.21453104158586,0 167.6841227856645,-45.21258494209825,0 167.683556384556,-45.21262100611175,0 167.6828753348179,-45.21276055653183,0 167.682572310703,-45.2128301769345,0 167.6823451193625,-45.21259350339579,0 167.6818924462048,-45.21180177107733,0 167.682915943888,-45.21156445916669,0 167.6834266361914,-45.21126873314152,0 167.6846085514291,-45.20959918023156,0 167.684418648379,-45.20935963608105,0 167.6841600289692,-45.20913456026437,0 167.684111924308,-45.20891156512314,0 167.684444765307,-45.20857318561827,0 167.6842137603731,-45.20833774656477,0 167.6839086497755,-45.20842342162604,0 167.6834049540474,-45.2081856452787,0 167.6829970287218,-45.20804047311976,0 167.6828022296136,-45.20812288498392,0 167.6827694083227,-45.20848213731804,0 167.6827049917779,-45.20890034086171,0 167.6824233872701,-45.20919003795077,0 167.6819975675754,-45.20913749812851,0 167.6819021054324,-45.20881042753931,0 167.6817608013332,-45.20844099572697,0 167.681328180046,-45.20830349641902,0 167.6809480949445,-45.20853901347982,0 167.6808458251707,-45.2087460801651,0 167.681414252718,-45.20920061856003,0 167.6816555051548,-45.20958102931637,0 167.6816522840586,-45.20996561285489,0 167.681210291811,-45.20998000399275,0 167.681033319383,-45.20975361615649,0 167.6806486524889,-45.20930324519922,0 167.6796662239747,-45.20879694791063,0 167.6793092116771,-45.20861737904429,0 167.678927601456,-45.20815095203282,0 167.6787581624501,-45.2077497783512,0 167.6781922332238,-45.20750478490851,0 167.6776734967254,-45.20746240828816,0 167.6772258777085,-45.20669638736993,0 167.6768760124481,-45.20628383178806,0 167.6767633671203,-45.20562782676492,0 167.6765924984121,-45.20540254667996,0 167.676042491774,-45.20503623011014,0 167.6756559045045,-45.20415352466388,0 167.6757702898428,-45.20337982573471,0 167.6758275369794,-45.20308851096887,0 167.6755002301126,-45.20269134583117,0 167.6757669758869,-45.20251699571022,0 167.6761561531926,-45.20257131223037,0 167.6765621013961,-45.20283233748482,0 167.6770669712492,-45.20291217198539,0 167.6779895889845,-45.20261039592814,0 167.6788963484793,-45.20232193809957,0 167.6795965580384,-45.20247375777064,0 167.6801701499454,-45.201503596459,0 167.6805784592241,-45.20138286210904,0 167.6809533782304,-45.20188845981681,0 167.6810559112386,-45.20206669094567,0 167.6816770931096,-45.20208799372233,0 167.682418575565,-45.20249979452199,0 167.6828864485931,-45.20258036184044,0 167.6827828858036,-45.20312657482598,0 167.6829710845423,-45.20329212860091,0 167.6837569785831,-45.20307943879256,0 167.6842892728108,-45.20293018215691,0 167.6847380801819,-45.2030244326789,0 167.6851790891584,-45.2035002400434,0 167.6858376200095,-45.20363381191993,0 167.6861438241046,-45.20372754937228,0 167.6857216957851,-45.20391449038654,0 167.6860851803759,-45.20407572123143,0 167.6865795105779,-45.20444304356472,0 167.6872414445561,-45.20504042826114,0 167.6880648986155,-45.2055414300329,0 167.6888101283377,-45.20615589636396,0 167.6898154018682,-45.20675123319342,0 167.6905015612368,-45.2073373017412,0 167.690739036538,-45.20765432260817,0 167.690627147127,-45.20821417082226,0 167.6906364730573,-45.20865864569888,0 167.6900934666647,-45.20897265477953,0 167.689662600131,-45.20928008689946,0 167.6894156558342,-45.20956963729702,0 167.6894187580138,-45.20984336045754,0 167.6889296040717,-45.20984863342531,0 167.6884054785126,-45.21017330401509,0 167.688426316466,-45.21085719122553,0 167.6881178931244,-45.21143767561756,0 167.6875753934235,-45.21150553943696,0 167.6871795916238,-45.21120156212908,0 167.6870748754623,-45.21094619257489,0 167.6864285031525,-45.21084422633683,0 167.686133399414,-45.21031073845285,0 167.6857167982523,-45.20999209933869,0 167.6852893275354,-45.20970408563687,0 167.6846130060851,-45.20960321278479,0 167.6834331563378,-45.21126892642083,0 167.6838686719203,-45.21140513116805,0 167.6843699012037,-45.21200123014208,0 167.6850239034368,-45.2124231905997,0 167.6854553991626,-45.21256930700491,0 167.6857003293236,-45.21276202473883,0 167.6849074432917,-45.21259858320727,0 167.684125499973,-45.21258600967204,0 167.6847948687809,-45.21453080931062,0 167.6864455019356,-45.21556906685563,0 167.6869604229832,-45.21485131371868,0 167.6875773255885,-45.21452438072366,0 167.6886618178437,-45.21469540674569,0 167.6895726069674,-45.21507383953657,0 167.6904442275109,-45.21436104549365,0 167.6902036190749,-45.21426936570894,0 167.6899978576369,-45.21418777842858,0 167.689610540687,-45.21386837651572,0 167.6896679927338,-45.21365570813979,0 167.6898114003074,-45.21353814813114,0 167.6900892138343,-45.21354123173387,0 167.6904041297107,-45.21362289925537,0 167.6910207212133,-45.21396154038867,0 167.6915637178326,-45.21445831804986,0 167.691731109571,-45.21468523556005,0 167.6917564570524,-45.21475898807324,0 167.6915977227832,-45.2149056209506,0 167.6925573475327,-45.21496932618211,0 167.6925388627624,-45.2148756454568,0 167.6923564004224,-45.21463564380438,0 167.6922663409158,-45.21447745629322,0 167.6922877627723,-45.21429989425234,0 167.6924975977045,-45.21411432033402,0 167.692405298119,-45.21399447328011,0 167.6921736308662,-45.2139310488939,0 167.6920184329085,-45.2137903335543,0 167.692066326294,-45.21370194004804,0 167.6919075758724,-45.21342503555368,0 167.6918320995047,-45.21341980930784,0 167.6916041552497,-45.21335285073921,0 167.6910644735866,-45.21289922033116,0 167.6910111824217,-45.21273713806407,0 167.6910215334813,-45.21245941389633,0 167.691254242158,-45.21224383340893,0 167.6916425520373,-45.21239971762126,0 167.6920216243356,-45.21258563946951,0 167.6922436047912,-45.21281828036349,0 167.6925342659669,-45.21328243549325,0 167.69250251336,-45.21334129051409,0 167.6922086783903,-45.21342206553045,0 167.6919085675224,-45.21342512045338,0 167.6920672395167,-45.21370163443731,0 167.6921283144592,-45.21362284741469,0 167.6924940069849,-45.21375876826795,0 167.6929052191975,-45.21387019727491,0 167.6932484610367,-45.21381078583122,0 167.6937044941159,-45.21371615562933,0 167.6941096836134,-45.21380828280304,0 167.694499523939,-45.21396738793676,0 167.6949465442298,-45.2139418983195,0 167.6953071319713,-45.21402983609119,0 167.6954295982751,-45.21417777747482,0 167.6951170450855,-45.2143972477535,0 167.6948057481004,-45.21474869402278,0 167.6948000309396,-45.21498474980535,0 167.6945515133936,-45.21535272936081,0 167.694439991021,-45.21572071144867,0 167.6945957012745,-45.21613915499524,0 167.6947033238574,-45.21634342007989,0 167.69512719454,-45.21663073277887,0 167.6953966455409,-45.21698214631353,0 167.6955181601306,-45.217379046821,0 167.6954941283417,-45.21760410082245,0 167.6952993928272,-45.21772025274727,0 167.6948579894115,-45.2175662789951,0 167.6945175234521,-45.21733467321937,0 167.6944188797098,-45.21725061807953,0 167.6939587656958,-45.21714721451656,0 167.6936632453625,-45.21680701648289,0 167.6934285920453,-45.21653167125191,0 167.6931807029053,-45.21645017750632,0 167.6930141243579,-45.21640076541231,0 167.6927670313518,-45.21603658665519,0 167.6925753800385,-45.21553609568133,0 167.6925582802561,-45.21497222108993,0 167.691598127697,-45.2149073218182,0 167.691437448319,-45.21500643523903,0 167.6912072244415,-45.21496855898584,0 167.6904514246143,-45.21436654953114,0 167.6895752139234,-45.21507772033088,0 167.6902261213486,-45.21557563251826,0 167.6906379625695,-45.2174061300117,0 167.6921766393852,-45.21795684122196,0 167.6937211838576,-45.21969553464424,0 167.6948494945857,-45.2205442928598,0 167.6972454218723,-45.22188514718503,0 167.6969704701932,-45.21912212478226,0 
						
</coordinates>

						</LinearRing>

					</outerBoundaryIs>

				</Polygon>

				<flyID>1</flyID>

				<flyDescription>Keep to 5 knots or less (9.25km / fast walking pace) in Lake Te Anau within 200 metres of shore.</flyDescription>

			</Placemark>
<Placemark>

				<name>5 Knot Zone</name>

				<description>Keep to 5 knots or less (9.25km / fast walking pace) in Lake Te Anau within 200 metres of shore.</description>

				<styleUrl>#style0</styleUrl>

				<Polygon>

					<tessellate>1</tessellate>

					<outerBoundaryIs>

						<LinearRing>

							<coordinates>

							167.6942368920352,-45.19600630929829,0 167.6957519262748,-45.19330700141979,0 167.6928641638545,-45.19419115418514,0 167.6902487909899,-45.1932202560096,0 167.6857177166729,-45.1929091652344,0 167.6839670965948,-45.1912000739303,0 167.6806416401166,-45.19026182090157,0 167.6759805933313,-45.1889453111303,0 167.6736869175106,-45.18635428315724,0 167.6678907225179,-45.18443845061127,0 167.6638527617641,-45.18465599301042,0 167.6630614851536,-45.1865672611072,0 167.6635982614748,-45.18703859309995,0 167.6637505286055,-45.1869738074193,0 167.6640138464505,-45.1865226608708,0 167.6649146056537,-45.18640729392937,0 167.6668179512832,-45.18624242996873,0 167.6689303289138,-45.18656512656069,0 167.6708826566583,-45.1871675216319,0 167.6725717713062,-45.18809765349408,0 167.6732554779586,-45.18904638917201,0 167.6726504676727,-45.18958149287857,0 167.6726406222651,-45.19000991111827,0 167.6734367443121,-45.1905958787102,0 167.6743407279417,-45.19102792886536,0 167.6749810185954,-45.19075011943671,0 167.6758351422087,-45.19114477347156,0 167.6763708550527,-45.19157890242173,0 167.6771198176345,-45.19165433610655,0 167.6782177097563,-45.19152319080549,0 167.679193354718,-45.1920627439933,0 167.679927784695,-45.19230195069441,0 167.6804502677854,-45.19239698396726,0 167.680477930564,-45.19273785576334,0 167.6810483576877,-45.1926953257422,0 167.6811146034262,-45.19218466069045,0 167.6820684433826,-45.19251372843343,0 167.6828241158053,-45.19310781829505,0 167.6828076275127,-45.19373952254479,0 167.682368010143,-45.19376602462412,0 167.6816301521814,-45.19345571487914,0 167.681652376629,-45.19389458378254,0 167.681576018382,-45.19415328767188,0 167.6821847352062,-45.1946751795876,0 167.682359592287,-45.19521166903134,0 167.6832212069352,-45.19577805108886,0 167.6830993388931,-45.19670067182666,0 167.68483132852,-45.19692965542192,0 167.6844011398069,-45.19654030687551,0 167.6841031773554,-45.19578970844013,0 167.6839043942576,-45.1954452670035,0 167.6832965129444,-45.19478334960315,0 167.6833819482235,-45.19453233302121,0 167.6844679094714,-45.19452788645303,0 167.6855557898941,-45.19489952499261,0 167.6863497193997,-45.19528297450187,0 167.6867557389444,-45.1952852187208,0 167.6869861356001,-45.19496870061693,0 167.6879036860376,-45.19503068598832,0 167.6887162418822,-45.19520066120222,0 167.6896443008665,-45.19496747525852,0 167.6906556641895,-45.19546186634561,0 167.6913390114615,-45.19623448804651,0 167.6914567782094,-45.19724808155607,0 167.691288417913,-45.19773330699096,0 167.6915456779418,-45.19843864968933,0 167.6919219145184,-45.19896726261271,0 167.691941376909,-45.19927242728965,0 167.691747480275,-45.19978626434294,0 167.6918437406319,-45.19940661636237,0 167.6916609157792,-45.19963029545584,0 167.6910359722658,-45.19950469320639,0 167.6907879154161,-45.19959676968741,0 167.6905611982908,-45.20014992627413,0 167.6902346765572,-45.20068776272051,0 167.6896081620307,-45.20094490522772,0 167.6888062420757,-45.2008860839358,0 167.6881308098435,-45.20026334030248,0 167.6876681562475,-45.19964825137787,0 167.6871272708073,-45.19928140655286,0 167.6848923179558,-45.20015576747781,0 167.6852613639551,-45.20053763087563,0 167.6856201625768,-45.20077138241824,0 167.6857443259945,-45.20084628539424,0 167.6862343862199,-45.2015471056917,0 167.685747135738,-45.20132204585985,0 167.6852843747258,-45.20120204930911,0 167.684663756678,-45.20113633519739,0 167.6843370615061,-45.20109885284171,0 167.6838236910381,-45.20088436660311,0 167.683492965527,-45.20080444088762,0 167.6830422967959,-45.20053680016083,0 167.6827240994534,-45.2004211437765,0 167.6823345842962,-45.2001012218066,0 167.6830625160292,-45.20002482367477,0 167.683645798853,-45.19982084700777,0 167.6843453474845,-45.19947750509624,0 167.6846381106877,-45.19977332232963,0 167.6848888756469,-45.20015462602823,0 167.6871254482671,-45.19927832353173,0 167.6859148224452,-45.19752945359486,0 167.6848354218409,-45.19693876599799,0 167.6830955069497,-45.19670360684022,0 167.6828620800506,-45.19787751423999,0 167.6821212422174,-45.1983025174249,0 167.6815719483155,-45.19766002111316,0 167.680534316704,-45.19728779189513,0 167.6790946048097,-45.19642344650816,0 167.6785300452984,-45.19636891084333,0 167.678034244692,-45.19700091013475,0 167.6774496556138,-45.19718947349556,0 167.6762797728948,-45.19727918693806,0 167.6754513400823,-45.19674424480986,0 167.6747946554783,-45.19635017664239,0 167.6738853000238,-45.19611202896631,0 167.6733496776397,-45.19548289029962,0 167.6722632077763,-45.19545445153749,0 167.6713865860935,-45.19493979958106,0 167.6708016869131,-45.19402060679986,0 167.6704777458235,-45.19331629003749,0 167.6698836514932,-45.19342153829757,0 167.668815092327,-45.19424393438977,0 167.6679835515181,-45.19462823092777,0 167.6668641276857,-45.19432866751969,0 167.6664948032942,-45.19374328593905,0 167.6658605274119,-45.19352263233438,0 167.6647415542076,-45.19336825454157,0 167.6637093886217,-45.19277039346828,0 167.6635231073946,-45.19163608988396,0 167.6628852459955,-45.19113386288828,0 167.6619325667621,-45.19054452549175,0 167.6620706605924,-45.18981333540257,0 167.6611551184212,-45.18877527697698,0 167.6606635897014,-45.18842166789496,0 167.6590962206858,-45.18815378474108,0 167.6584892970504,-45.18824304655303,0 167.6578972024097,-45.18862126978305,0 167.6574146033898,-45.1890732222548,0 167.6568180682048,-45.18917573193387,0 167.6561025586905,-45.18871272157575,0 167.6558873327926,-45.18815437060019,0 167.6565927574873,-45.18747628472214,0 167.6568097414661,-45.18710866869083,0 167.6566356426486,-45.18656978577185,0 167.65603136056,-45.18607778628098,0 167.6557057795073,-45.18579412236389,0 167.6561689377086,-45.18553696799231,0 167.6575124667003,-45.18560411627833,0 167.6587431032013,-45.18569009207695,0 167.6598657539453,-45.185742062661,0 167.6609286097282,-45.18578515640257,0 167.6619866788319,-45.18593504392647,0 167.6630561189848,-45.1865720438817,0 167.6638446929416,-45.18466082064959,0 167.6625082988432,-45.18413261121963,0 167.6609509273263,-45.18392028835059,0 167.6574402376801,-45.1838491246047,0 167.6537560075437,-45.18343822120477,0 167.6516181545987,-45.18480607581262,0 167.651517857685,-45.18633607889139,0 167.6534195482071,-45.18743820231308,0 167.653570492099,-45.18879786391199,0 167.6549137611381,-45.19043859387724,0 167.656455956888,-45.19106637220618,0 167.6585100148295,-45.19077624953312,0 167.6593369929145,-45.19045291942283,0 167.6596756144782,-45.19152065751886,0 167.6610439649675,-45.19263513168248,0 167.6619547910818,-45.19411645973592,0 167.6643914213609,-45.19511830828618,0 167.6669770729458,-45.19633753708075,0 167.6691412199305,-45.19629805152764,0 167.6717069139451,-45.19732095451383,0 167.6744506185992,-45.19861308941917,0 167.6745715716602,-45.19955344307041,0 167.6759208452165,-45.20060376954162,0 167.6729669145083,-45.20215229136021,0 167.6757702898428,-45.20337982573471,0 167.6758275369794,-45.20308851096887,0 167.6755002301126,-45.20269134583117,0 167.6757669758869,-45.20251699571022,0 167.6761561531926,-45.20257131223037,0 167.6765621013961,-45.20283233748482,0 167.6770669712492,-45.20291217198539,0 167.6779895889845,-45.20261039592814,0 167.6788963484793,-45.20232193809957,0 167.6795965580384,-45.20247375777064,0 167.6801701499454,-45.201503596459,0 167.6805784592241,-45.20138286210904,0 167.6809533782304,-45.20188845981681,0 167.6810559112386,-45.20206669094567,0 167.6816770931096,-45.20208799372233,0 167.682418575565,-45.20249979452199,0 167.6828864485931,-45.20258036184044,0 167.6827828858036,-45.20312657482598,0 167.6829710845423,-45.20329212860091,0 167.6837569785831,-45.20307943879256,0 167.6842892728108,-45.20293018215691,0 167.6847380801819,-45.2030244326789,0 167.6851790891584,-45.2035002400434,0 167.6858376200095,-45.20363381191993,0 167.6861438241046,-45.20372754937228,0 167.6857216957851,-45.20391449038654,0 167.6860851803759,-45.20407572123143,0 167.6865795105779,-45.20444304356472,0 167.6872414445561,-45.20504042826114,0 167.6880648986155,-45.2055414300329,0 167.6888101283377,-45.20615589636396,0 167.6942368920352,-45.19600630929829,0 
						
</coordinates>

						</LinearRing>

					</outerBoundaryIs>

				</Polygon>

				<flyID>2</flyID>

				<flyDescription>Keep to 5 knots or less (9.25km / fast walking pace) in Lake Te Anau within 200 metres of shore.</flyDescription>

			</Placemark>
<Placemark>

				<name>5 Knot Zone</name>

				<description>Keep to 5 knots or less (9.25km / fast walking pace) in Lake Te Anau within 200 metres of shore.</description>

				<styleUrl>#style0</styleUrl>

				<Polygon>

					<tessellate>1</tessellate>

					<outerBoundaryIs>

						<LinearRing>

							<coordinates>

							167.674557408735,-45.20699855418881,0 167.6739590645684,-45.20616183743761,0 167.6725996504584,-45.20460925771717,0 167.6705270175133,-45.2032822689093,0 167.6669853845625,-45.20292114071378,0 167.6674478690575,-45.2010366866477,0 167.6649855316171,-45.19886772372451,0 167.6631607528915,-45.19770570172901,0 167.6619717073789,-45.19597598969564,0 167.6600095910496,-45.1937110126069,0 167.6598293243494,-45.19201280322199,0 167.6580932239317,-45.191189879399,0 167.6553685436533,-45.19154649402842,0 167.6544083060274,-45.19290912688593,0 167.653242611572,-45.19292220725887,0 167.6536861598837,-45.19083011003044,0 167.6509842235591,-45.18806139806584,0 167.6475653588186,-45.18605509362087,0 167.6488925365442,-45.18327263573166,0 167.6465306594221,-45.1814001746404,0 167.6421097927661,-45.18116210501798,0 167.6442051588871,-45.18237564137737,0 167.6459327410485,-45.18370582001435,0 167.6455333718627,-45.18527628964332,0 167.6448015562916,-45.18707947870259,0 167.6449024732741,-45.18861786259199,0 167.6466412779009,-45.18838160564845,0 167.6482908754902,-45.18905452971185,0 167.6505219408166,-45.1903391215391,0 167.6509867981587,-45.19176097510672,0 167.6504125293997,-45.19363080362118,0 167.6524446306642,-45.1949407396908,0 167.6538297029203,-45.19487280153419,0 167.6561100426119,-45.19445542226675,0 167.6581403466228,-45.19459520032081,0 167.6595876018409,-45.19758272747438,0 167.6612489907569,-45.19903908445101,0 167.6620214407998,-45.20060674134916,0 167.6639925790373,-45.20083597487202,0 167.6646084451954,-45.20154325549551,0 167.6643352178365,-45.20314635565701,0 167.6645449213433,-45.20417472813457,0 167.6652476644526,-45.20521633090224,0 167.6665467286505,-45.20488628430673,0 167.6693684088729,-45.2048649940388,0 167.6723697841717,-45.20729003815512,0 167.671611757956,-45.20761737509941,0 167.6718861222735,-45.21053340038421,0 167.6736152420828,-45.21081209175899,0 167.6751483706289,-45.21117269000904,0 167.6757535564903,-45.20941602239363,0 167.6744509453355,-45.20921491445581,0 167.6752799258412,-45.20769284231006,0 167.674557408735,-45.20699855418881,0 
						
</coordinates>

						</LinearRing>

					</outerBoundaryIs>

				</Polygon>

				<flyID>3</flyID>

				<flyDescription>Keep to 5 knots or less (9.25km / fast walking pace) in Lake Te Anau within 200 metres of shore.</flyDescription>

			</Placemark>
<Placemark>

				<name>5 Knot Zone</name>

				<description>Keep to 5 knots or less (9.25km / fast walking pace) in Lake Te Anau within 200 metres of shore.</description>

				<styleUrl>#style0</styleUrl>

				<Polygon>

					<tessellate>1</tessellate>

					<outerBoundaryIs>

						<LinearRing>

							<coordinates>

							167.6337692352346,-45.17422554247047,0 167.636515029736,-45.17409146905488,0 167.6388105288226,-45.17317696374072,0 167.6389999772746,-45.17136977625132,0 167.6360573027866,-45.16882379140121,0 167.6328076946867,-45.16481936734802,0 167.6289409983261,-45.16092426777524,0 167.6273146790614,-45.1595168131275,0 167.6270169139698,-45.16232641497332,0 167.627894614766,-45.16291066630227,0 167.62871095971,-45.1640237760238,0 167.6294151083676,-45.16501020521687,0 167.6294865630706,-45.16548171163586,0 167.6293745439974,-45.16582331145164,0 167.6295748428339,-45.16593618237513,0 167.6298605621439,-45.16545690359524,0 167.629937630791,-45.16598133237847,0 167.6300093717753,-45.16652226635159,0 167.6298976684915,-45.16671253738318,0 167.6297177897859,-45.16684029490182,0 167.630995705014,-45.16799292290283,0 167.6311355009961,-45.16753942386994,0 167.6313481761174,-45.16697297662623,0 167.6315733384341,-45.16674810729171,0 167.6318850042608,-45.16679287830288,0 167.6320007868926,-45.16701981786094,0 167.6318397668773,-45.1675214060801,0 167.6321980753621,-45.16798070058946,0 167.6324062588726,-45.1686618023293,0 167.632257507792,-45.16927181747695,0 167.6323943461993,-45.16932333474185,0 167.6325510562567,-45.1691449849824,0 167.63298552312,-45.16914125881074,0 167.6331097207785,-45.16917826606207,0 167.6331578597776,-45.16936803890207,0 167.6334459145352,-45.16975611399437,0 167.6335373455355,-45.16998290311321,0 167.6335655882304,-45.17016381974081,0 167.63376665959,-45.17037200170287,0 167.6341617701181,-45.17046946346514,0 167.6344579427277,-45.17061201576144,0 167.6345209361715,-45.17093795127876,0 167.6348398977075,-45.17078720037853,0 167.6355402807855,-45.17080076036226,0 167.6355895047746,-45.17128049595279,0 167.6351852146522,-45.17154209505305,0 167.6354631415781,-45.17201656449345,0 167.6351518763823,-45.17232976468554,0 167.6344350235583,-45.17223552690251,0 167.6340327383558,-45.17169008830303,0 167.6337020984171,-45.17119152289962,0 167.6336297319516,-45.17098001673066,0 167.6333149845432,-45.17063588400514,0 167.632806798614,-45.17039470098657,0 167.6327772983076,-45.17061048418229,0 167.6328751536011,-45.1706706787998,0 167.6328347307961,-45.17078896577166,0 167.632743342574,-45.17080361061964,0 167.6326818562895,-45.17078719932108,0 167.6321866316525,-45.17121471885734,0 167.6322332078532,-45.17127423540698,0 167.6322628763577,-45.17137758573801,0 167.6321461779959,-45.17147982374848,0 167.6320722901697,-45.17157796266861,0 167.632056875083,-45.17171324012718,0 167.6320591944347,-45.17176736762699,0 167.6319514706318,-45.17179546891364,0 167.6318423406483,-45.17173105375043,0 167.6317525861337,-45.17163245272135,0 167.631753129813,-45.17159417865422,0 167.6316717160069,-45.17157888957178,0 167.6316290276241,-45.1715158273951,0 167.6317172498594,-45.17135109691385,0 167.6318987531363,-45.17118069649338,0 167.6320634474405,-45.17117364932239,0 167.6321846238142,-45.17121469919243,0 167.6326797696611,-45.17078547442824,0 167.6326330615394,-45.17075342085033,0 167.63261086517,-45.17066647526882,0 167.6327738115193,-45.17061151725022,0 167.6328042340423,-45.17039366788566,0 167.6323884038922,-45.1702016899081,0 167.6320925316781,-45.17029897802003,0 167.6318899911343,-45.17043539344846,0 167.6319849073863,-45.17013023579931,0 167.6318078010093,-45.16983103969234,0 167.6315638288937,-45.1698455477615,0 167.6312969120869,-45.16999295125608,0 167.6310556412074,-45.16994251267499,0 167.630795019731,-45.1695777671721,0 167.6307068439762,-45.16872080883152,0 167.630922479554,-45.16805348970085,0 167.6296585165502,-45.16689291689787,0 167.6294480530409,-45.16693125183994,0 167.6291348792348,-45.16697773437575,0 167.6288834156639,-45.16698811206616,0 167.6288642321249,-45.16681184755019,0 167.6283503345811,-45.16653697297802,0 167.6279801053198,-45.16618062688794,0 167.6276091339088,-45.16601697147096,0 167.6258972502435,-45.16577492221571,0 167.6244605390762,-45.16491289505872,0 167.6241745937306,-45.16399633254067,0 167.6243559048434,-45.16324564795234,0 167.624327253645,-45.16277178157545,0 167.6242117398585,-45.16239364977765,0 167.6239625738983,-45.16189685674167,0 167.6242527828282,-45.16065084220998,0 167.6251462520378,-45.15996080665378,0 167.6250813192757,-45.1605680600725,0 167.6252289580453,-45.16096512388632,0 167.6254998435393,-45.16097635654069,0 167.625839892662,-45.16115799236992,0 167.6258435156581,-45.1614605654855,0 167.6262807078538,-45.16177022537583,0 167.6264311018044,-45.16186218964863,0 167.6268928495653,-45.16216670963181,0 167.6271379701528,-45.15926135598073,0 167.6265581008217,-45.15831481880867,0 167.6236928101917,-45.15827735926178,0 167.6214237846394,-45.16024372627446,0 167.6211839422007,-45.16401346041663,0 167.6254747469399,-45.16742653597033,0 167.6259411781938,-45.16730968714682,0 167.6264275955429,-45.16818033456426,0 167.6337692352346,-45.17422554247047,0 
						
</coordinates>

						</LinearRing>

					</outerBoundaryIs>

				</Polygon>

				<flyID>4</flyID>

				<flyDescription>Keep to 5 knots or less (9.25km / fast walking pace) in Lake Te Anau within 200 metres of shore.</flyDescription>

			</Placemark>
<Placemark>

				<name>5 Knot Zone</name>

				<description>Keep to 5 knots or less (9.25km / fast walking pace) in Lake Te Anau within 200 metres of shore.</description>

				<styleUrl>#style0</styleUrl>

				<Polygon>

					<tessellate>1</tessellate>

					<outerBoundaryIs>

						<LinearRing>

							<coordinates>

							167.6464739104568,-45.18147612529163,0 167.6422613809255,-45.17866190149057,0 167.6391790989461,-45.17766319379616,0 167.6367259979967,-45.17708831340014,0 167.6337479990023,-45.17428489858731,0 167.6211839422007,-45.16401346041663,0 167.6191363789213,-45.16172715197312,0 167.6170375442567,-45.1573924156812,0 167.6133550146424,-45.1554442777107,0 167.6141115661531,-45.1534333375748,0 167.6133937493533,-45.15085929191171,0 167.6111711587988,-45.14780336084231,0 167.6115823618301,-45.14639381337626,0 167.6125796169047,-45.14335530884512,0 167.6114856299145,-45.14111673547578,0 167.607345444957,-45.13896614949216,0 167.6036467736492,-45.13886631256239,0 167.6049348563182,-45.14103711189178,0 167.6074633937382,-45.14123240079206,0 167.6096111356278,-45.14263857987619,0 167.6099054428224,-45.14419077631099,0 167.6087413605986,-45.14662105155323,0 167.6077685755689,-45.14672550365107,0 167.6073087600538,-45.14771234582728,0 167.6098959836387,-45.1498171071092,0 167.6104283615274,-45.15231357735159,0 167.6113057131862,-45.15282930516098,0 167.6108125387178,-45.1537140585959,0 167.6104089697429,-45.15474786914536,0 167.6104255509943,-45.15596970989871,0 167.6120205977776,-45.15723764773733,0 167.6148727106358,-45.15786097366667,0 167.6156310781076,-45.16064528547093,0 167.6169861701449,-45.16211579446177,0 167.6167901110345,-45.16345426244338,0 167.6179315020958,-45.16451481496399,0 167.6204217207097,-45.16604074713273,0 167.6224049125586,-45.16684344142498,0 167.6243292548077,-45.16819044684556,0 167.6251692206063,-45.1679325504393,0 167.6259110313968,-45.16735310960151,0 167.626958197807,-45.16953662420881,0 167.6263960947613,-45.17018305050197,0 167.6264540442383,-45.17148950249438,0 167.6284665443837,-45.17263434132843,0 167.6288088990085,-45.17326818347387,0 167.6293061745724,-45.17386186408282,0 167.6314796180337,-45.17491405406011,0 167.633299514291,-45.17664025969966,0 167.633343933334,-45.17804407631525,0 167.6341445863452,-45.17888256003535,0 167.6350469624569,-45.17856303211545,0 167.6372389460236,-45.18010249798076,0 167.6385129863566,-45.17999241406715,0 167.6404542933168,-45.17993117183666,0 167.642021869001,-45.18134219221492,0 167.6464739104568,-45.18147612529163,0 
						
</coordinates>

						</LinearRing>

					</outerBoundaryIs>

				</Polygon>

				<flyID>5</flyID>

				<flyDescription>Keep to 5 knots or less (9.25km / fast walking pace) in Lake Te Anau within 200 metres of shore.</flyDescription>

			</Placemark>
<Placemark>

				<name>5 Knot Zone</name>

				<description>Keep to 5 knots or less (9.25km / fast walking pace) in Lake Te Anau within 200 metres of shore.</description>

				<styleUrl>#style0</styleUrl>

				<Polygon>

					<tessellate>1</tessellate>

					<outerBoundaryIs>

						<LinearRing>

							<coordinates>

							167.6036742920557,-45.13891882358293,0 167.5982217556197,-45.14214106282814,0 167.5937836421136,-45.14501233047044,0 167.5935812815512,-45.14729471013795,0 167.5900316703898,-45.15010025617519,0 167.5874483657136,-45.1533852037204,0 167.5828891463458,-45.15412732545918,0 167.5795122894313,-45.15365959206819,0 167.5730638763366,-45.15322166068183,0 167.5673656095851,-45.15338082187984,0 167.5630764124624,-45.15394751639567,0 167.5580208024558,-45.15391536668786,0 167.557481635919,-45.15241189512545,0 167.5542852195232,-45.15071785053851,0 167.5507972667794,-45.15091190166641,0 167.5473382209585,-45.14936345861647,0 167.5438961768486,-45.15053949071816,0 167.5437340640208,-45.15250019543484,0 167.5468670662559,-45.15144574849312,0 167.5478890555852,-45.15235091691482,0 167.549445100562,-45.1540081011799,0 167.5515911860652,-45.15327532874331,0 167.5529398838176,-45.15486713668688,0 167.5562472436706,-45.15561337404765,0 167.56251663327,-45.15664754615026,0 167.5662642696588,-45.15517411492987,0 167.5697837653592,-45.15677568491897,0 167.5738903659411,-45.15522094786653,0 167.576766084393,-45.15570241621571,0 167.581576201471,-45.15617183822236,0 167.5852079696731,-45.15605861230345,0 167.5898337287474,-45.15453602391806,0 167.591276996281,-45.15308001084198,0 167.5931354872742,-45.15048238745683,0 167.5950031849025,-45.14925066901591,0 167.5966291259593,-45.14854003802403,0 167.5969994005199,-45.14780245063997,0 167.5971939844202,-45.14683809134837,0 167.5960406156911,-45.14590112050913,0 167.5966056048503,-45.14522224517976,0 167.5986447279447,-45.14485418017947,0 167.6008275101202,-45.14356047468569,0 167.6031473639875,-45.14234382640295,0 167.6051530162097,-45.14109180813644,0 167.6036742920557,-45.13891882358293,0 
						
</coordinates>

						</LinearRing>

					</outerBoundaryIs>

				</Polygon>

				<flyID>6</flyID>

				<flyDescription>Keep to 5 knots or less (9.25km / fast walking pace) in Lake Te Anau within 200 metres of shore.</flyDescription>

			</Placemark>
<Placemark>

				<name>5 Knot Zone</name>

				<description>Keep to 5 knots or less (9.25km / fast walking pace) in Lake Te Anau within 200 metres of shore.</description>

				<styleUrl>#style0</styleUrl>

				<Polygon>

					<tessellate>1</tessellate>

					<outerBoundaryIs>

						<LinearRing>

							<coordinates>

							167.5444657892384,-45.14577033401446,0 167.547583580091,-45.14606764240826,0 167.5525233883449,-45.14791872968528,0 167.557072062573,-45.1478022222727,0 167.5584283395329,-45.14966786862318,0 167.5616866886489,-45.15025259958602,0 167.5661257006766,-45.14842112635173,0 167.5732077471738,-45.145956899698,0 167.5783803890998,-45.14431314933259,0 167.5809732204285,-45.1408790003185,0 167.58786472746,-45.13798565178446,0 167.5938990948505,-45.13471934769109,0 167.5943610503253,-45.13182307292702,0 167.5916447180705,-45.13260631725062,0 167.591668554494,-45.13359821721367,0 167.5900418474121,-45.13459323259972,0 167.587157703462,-45.13609707647251,0 167.583606889975,-45.1373130690811,0 167.5810611879173,-45.13854693087064,0 167.5775168159658,-45.14064546695113,0 167.5759279993439,-45.14274103715627,0 167.5754538376291,-45.14348971730295,0 167.5734573751979,-45.14394273717949,0 167.5706003099891,-45.14491524054018,0 167.5671731218702,-45.14606803476398,0 167.5653487913727,-45.14678998700668,0 167.5621428956193,-45.14739390065298,0 167.560465794291,-45.14787505539839,0 167.5602063761219,-45.14730873144365,0 167.5603918059934,-45.14622992392157,0 167.55904963377,-45.14513598464455,0 167.5574235662945,-45.14485563564264,0 167.5568137223969,-45.14578943682541,0 167.5544915178397,-45.14592230789739,0 167.5527752780966,-45.14563311128294,0 167.5513016836764,-45.14511355132217,0 167.5502411213114,-45.14438029451564,0 167.5488839328752,-45.14360892534326,0 167.5487633023025,-45.14251569941884,0 167.5474294812601,-45.14236025119902,0 167.5462769773793,-45.14348641601195,0 167.5455013862776,-45.14304470411965,0 167.5428557592595,-45.1438591223531,0 167.5444657892384,-45.14577033401446,0 
						
</coordinates>

						</LinearRing>

					</outerBoundaryIs>

				</Polygon>

				<flyID>7</flyID>

				<flyDescription>Keep to 5 knots or less (9.25km / fast walking pace) in Lake Te Anau within 200 metres of shore.</flyDescription>

			</Placemark>
<Placemark>

				<name>5 Knot Zone</name>

				<description>Keep to 5 knots or less (9.25km / fast walking pace) in Lake Te Anau within 200 metres of shore.</description>

				<styleUrl>#style0</styleUrl>

				<Polygon>

					<tessellate>1</tessellate>

					<outerBoundaryIs>

						<LinearRing>

							<coordinates>

							167.5438445382597,-45.15048674688342,0 167.5407783075046,-45.15092997342568,0 167.5375159417107,-45.15124596146688,0 167.5335849665495,-45.14983930050655,0 167.5306699965254,-45.14902365511796,0 167.5263972314047,-45.1499242171172,0 167.5183907169817,-45.15002615817174,0 167.5137183217177,-45.15048329534911,0 167.5093178271629,-45.15127677603525,0 167.5055225443143,-45.15023644786157,0 167.5010509198898,-45.14924844172629,0 167.4980388011345,-45.14613198643458,0 167.4935641267056,-45.1442248965111,0 167.4943687604125,-45.1414692858948,0 167.497315165745,-45.14145240777414,0 167.5004916362776,-45.13986326912585,0 167.5022036181401,-45.14162831718246,0 167.5054671606549,-45.14242816515336,0 167.5115844778531,-45.14232413521454,0 167.5163571936662,-45.14379156694102,0 167.5222756414734,-45.14431554016951,0 167.5255180327109,-45.14592933831841,0 167.5328621518292,-45.14714077552821,0 167.5390776172011,-45.14715617843607,0 167.5444657892384,-45.14577033401446,0 167.5425176879496,-45.14370013744819,0 167.5402697335402,-45.14477860486187,0 167.537195922551,-45.14540294622419,0 167.5344493454913,-45.14533402852096,0 167.5294869970642,-45.14454638981781,0 167.526655225932,-45.14370809914817,0 167.5254416716508,-45.14390677626635,0 167.5248005336873,-45.14273319554707,0 167.521733838798,-45.14221849793109,0 167.5164128213581,-45.14153564379198,0 167.5137565081465,-45.14056053302812,0 167.5077315539473,-45.1400898626613,0 167.5059283784817,-45.13989583711029,0 167.5047150173486,-45.14052744468442,0 167.5027427600073,-45.1388281984231,0 167.5003614425035,-45.13758458782226,0 167.4990442353704,-45.13797668394414,0 167.4975259409002,-45.13923457049879,0 167.4958055403285,-45.13916528164162,0 167.4928058013392,-45.13930883436464,0 167.4921036000195,-45.14024604223257,0 167.4909232460206,-45.14023722287737,0 167.4904017531774,-45.14074284911921,0 167.4908072289715,-45.14212374758418,0 167.4907092042087,-45.14283385179316,0 167.490479522653,-45.14383362921805,0 167.4910447638568,-45.14545993072157,0 167.4909348756991,-45.14615289084869,0 167.4906981172306,-45.14683270566032,0 167.4904828588586,-45.14726542978832,0 167.4911882072644,-45.14700375053944,0 167.4913111216166,-45.14637353532491,0 167.4917153788111,-45.14591543140899,0 167.4925980285059,-45.14652016339545,0 167.4946503643185,-45.14708378379088,0 167.49434050675,-45.14814039078219,0 167.4951352346797,-45.14726681275891,0 167.4957382359193,-45.14757972168248,0 167.4969663549614,-45.14824047684634,0 167.4965793119835,-45.148668409609,0 167.4958604910745,-45.14867748178475,0 167.4948790375018,-45.14855610296565,0 167.493070843252,-45.14901390012707,0 167.4917529366477,-45.15002861384949,0 167.494777488008,-45.14961345335978,0 167.4957093640665,-45.15068693109826,0 167.4973923758175,-45.15081043232717,0 167.4988286645506,-45.15057790025802,0 167.4984160260599,-45.15157512328739,0 167.4988381562898,-45.15239548630976,0 167.5015611435116,-45.15267388389179,0 167.5031842052642,-45.15187516365237,0 167.5056537338971,-45.15261193193135,0 167.5082667817207,-45.15349806591537,0 167.5126670184805,-45.15268973169414,0 167.5167577370126,-45.15215066703938,0 167.5234035096133,-45.15181751140904,0 167.5278410509287,-45.15161173558737,0 167.5294030836554,-45.15171441047798,0 167.5307580274455,-45.1508376347123,0 167.5328825132629,-45.15206041317104,0 167.5362137824139,-45.15303006555075,0 167.5383331275797,-45.15386134090842,0 167.5397039699746,-45.15349801756484,0 167.5436872341383,-45.15263726117381,0 167.5438445382597,-45.15048674688342,0 
						
</coordinates>

						</LinearRing>

					</outerBoundaryIs>

				</Polygon>

				<flyID>8</flyID>

				<flyDescription>Keep to 5 knots or less (9.25km / fast walking pace) in Lake Te Anau within 200 metres of shore.</flyDescription>

			</Placemark>
<Placemark>

				<name>5 Knot Zone</name>

				<description>Keep to 5 knots or less (9.25km / fast walking pace) in Lake Te Anau within 200 metres of shore.</description>

				<styleUrl>#style0</styleUrl>

				<Polygon>

					<tessellate>1</tessellate>

					<outerBoundaryIs>

						<LinearRing>

							<coordinates>

							167.5943015458058,-45.13190243506332,0 167.5909686023678,-45.12897684382103,0 167.5875307632117,-45.12468528580096,0 167.583098147985,-45.11930835613281,0 167.5804729743154,-45.11174669285925,0 167.5791451331788,-45.10683928753102,0 167.577787667666,-45.10246022948058,0 167.5758365543614,-45.09943945104671,0 167.5785602644161,-45.0987742504246,0 167.5795086386778,-45.09626750351199,0 167.5784104417179,-45.09389127909516,0 167.5834853314807,-45.09529104166922,0 167.584425815526,-45.09800383629904,0 167.5852124240197,-45.09990392883499,0 167.5881346117592,-45.10214019804046,0 167.5916077790403,-45.10671359793773,0 167.5948132909988,-45.10884805960308,0 167.5959010061578,-45.11188850195821,0 167.5979822235252,-45.11364923829936,0 167.599916826448,-45.11593448940296,0 167.601977700067,-45.11908515399282,0 167.6061963822864,-45.12275543348278,0 167.607763031993,-45.12614392042502,0 167.6072860408343,-45.12868218079045,0 167.608440766516,-45.13188451612363,0 167.6106545711259,-45.13106315151198,0 167.6101189065598,-45.12952036354464,0 167.610692448643,-45.12698383427959,0 167.61089890002,-45.12528928799526,0 167.6097537640192,-45.12391855655092,0 167.6093620639689,-45.12245384158894,0 167.6080655088426,-45.12112952963595,0 167.6045693688236,-45.11854785282652,0 167.6032191994212,-45.11624313288033,0 167.6019636888605,-45.1145791079162,0 167.6017085953183,-45.11312093938926,0 167.6000909678977,-45.11170440282215,0 167.5983864443698,-45.11110742334573,0 167.5984163806682,-45.11026710324864,0 167.5972722218177,-45.10812231296568,0 167.5967315500812,-45.10694129693609,0 167.5961710130972,-45.10614726197317,0 167.5941477449628,-45.10544445043308,0 167.5927716195741,-45.10422511086913,0 167.5915369886632,-45.1019735025544,0 167.5907818424437,-45.09995395820901,0 167.5892787094481,-45.09983928474016,0 167.5878085423301,-45.09957488016888,0 167.587390930055,-45.09804202430634,0 167.5883554516278,-45.09685175221463,0 167.5880368807246,-45.09598147448296,0 167.5869499608718,-45.09534633867569,0 167.5861091623054,-45.09385599366375,0 167.5845221093344,-45.09314480112289,0 167.5817816905737,-45.09302593197077,0 167.5807652122449,-45.09244659439295,0 167.578828983516,-45.09164100154435,0 167.5756901335376,-45.09208723698685,0 167.5755542382856,-45.09332833182188,0 167.5751451515816,-45.09455638120023,0 167.5763892743908,-45.09564973493631,0 167.5758619428867,-45.09633372147083,0 167.5764823075715,-45.09714283985804,0 167.5754782174658,-45.0973798728878,0 167.5746672869845,-45.09651953185816,0 167.5732495643907,-45.0963967253122,0 167.5717414086316,-45.09746920395558,0 167.5724493435399,-45.09917511273828,0 167.5736789005103,-45.10145664892083,0 167.576038256193,-45.1045356605091,0 167.5756928052253,-45.10574919772731,0 167.576603665199,-45.10724460990269,0 167.5771107558907,-45.11069142771112,0 167.5787993373378,-45.11429304685481,0 167.5800901212988,-45.11786975494783,0 167.5805989325727,-45.11979156389648,0 167.5850400567472,-45.1253108172424,0 167.5874201313961,-45.12878723245823,0 167.5916447180705,-45.13260631725062,0 167.5943015458058,-45.13190243506332,0 
						
</coordinates>

						</LinearRing>

					</outerBoundaryIs>

				</Polygon>

				<flyID>9</flyID>

				<flyDescription>Keep to 5 knots or less (9.25km / fast walking pace) in Lake Te Anau within 200 metres of shore.</flyDescription>

			</Placemark>
<Placemark>

				<name>5 Knot Zone</name>

				<description>Keep to 5 knots or less (9.25km / fast walking pace) in Lake Te Anau within 200 metres of shore.</description>

				<styleUrl>#style0</styleUrl>

				<Polygon>

					<tessellate>1</tessellate>

					<outerBoundaryIs>

						<LinearRing>

							<coordinates>

							167.6080366912952,-45.13197871803428,0 167.6119934294433,-45.13417877725595,0 167.615019730843,-45.13603759805475,0 167.6186410109685,-45.13826327472971,0 167.6254092120831,-45.13970442075066,0 167.6287425117554,-45.14146047834216,0 167.6302667931334,-45.14475280762066,0 167.6342998453244,-45.14771739516527,0 167.6397060056425,-45.15268400479371,0 167.643487198127,-45.15248214001622,0 167.6391690203508,-45.1483886466755,0 167.6373980848769,-45.14781701447786,0 167.6364892830557,-45.14616614650386,0 167.6364201314761,-45.14470850595949,0 167.6340732708872,-45.14385535558939,0 167.6328506287822,-45.14315627892154,0 167.633091330039,-45.14188874823819,0 167.631680181448,-45.1408657444346,0 167.6304676059995,-45.13937828929715,0 167.6289135795554,-45.13906592121497,0 167.6285984700425,-45.13764695298773,0 167.6272356438142,-45.13733139707877,0 167.6261373388483,-45.13736954468691,0 167.623859040452,-45.13735855668706,0 167.621732314107,-45.13672129509276,0 167.621109014696,-45.1370204685667,0 167.6192862621152,-45.13574716721512,0 167.617810281629,-45.13489082408517,0 167.6178631381612,-45.13424419378585,0 167.6173488861309,-45.13306646426206,0 167.6155053575309,-45.13293045515157,0 167.6141012390656,-45.13267743783044,0 167.6122427618913,-45.13245016162547,0 167.6106545711259,-45.13106315151198,0 167.6080366912952,-45.13197871803428,0 
						
</coordinates>

						</LinearRing>

					</outerBoundaryIs>

				</Polygon>

				<flyID>10</flyID>

				<flyDescription>Keep to 5 knots or less (9.25km / fast walking pace) in Lake Te Anau within 200 metres of shore.</flyDescription>

			</Placemark>
<Placemark>

				<name>5 Knot Zone</name>

				<description>Keep to 5 knots or less (9.25km / fast walking pace) in Lake Te Anau within 200 metres of shore.</description>

				<styleUrl>#style0</styleUrl>

				<Polygon>

					<tessellate>1</tessellate>

					<outerBoundaryIs>

						<LinearRing>

							<coordinates>

							167.6616712616531,-45.17111762015595,0 167.6598790234673,-45.17072405989913,0 167.6574353282055,-45.170697498025,0 167.655604667654,-45.17183181090825,0 167.6554332623675,-45.17342298474224,0 167.6567583155251,-45.17541651320747,0 167.6583582642342,-45.17775470829414,0 167.6598362746858,-45.1783356310296,0 167.6606424504648,-45.17845391062998,0 167.6614806978174,-45.17674991988348,0 167.6610948118758,-45.1766435101178,0 167.6607711887344,-45.17660738333948,0 167.6602065896109,-45.17646413411898,0 167.6595835255643,-45.17554826908116,0 167.659271584493,-45.17484817132453,0 167.6590269164358,-45.17442813052466,0 167.6580786315739,-45.17315952606251,0 167.6580266222515,-45.17275156429867,0 167.6584434531266,-45.1724309117573,0 167.6597126477414,-45.17249471314193,0 167.6605412703336,-45.17280221648851,0 167.6612760466399,-45.17328752123055,0 167.6618661637884,-45.1734801638391,0 167.6621830854819,-45.1739621853898,0 167.6623844003811,-45.17425365879479,0 167.6627949722464,-45.17466754825632,0 167.6628026834576,-45.17492952932501,0 167.6633574627594,-45.17537212235082,0 167.6636437454405,-45.17575663072174,0 167.663211592738,-45.17629643910663,0 167.6625574659925,-45.17662594652705,0 167.6620360231268,-45.17676907361976,0 167.6614833831023,-45.17675209892165,0 167.6606465759699,-45.17845520425011,0 167.6610298155163,-45.17852911577866,0 167.6622915940546,-45.1786000866356,0 167.6643161579764,-45.17796150153265,0 167.665632621894,-45.1769062891604,0 167.6660865999648,-45.17548086735234,0 167.6651004854237,-45.17396253316873,0 167.6643285058254,-45.17266056575696,0 167.6631858582811,-45.17188745770383,0 167.6616778957674,-45.17112513498731,0 167.6616712616531,-45.17111762015595,0 
						
</coordinates>

						</LinearRing>

					</outerBoundaryIs>

				</Polygon>

				<flyID>11</flyID>

				<flyDescription>Keep to 5 knots or less (9.25km / fast walking pace) in Lake Te Anau within 200 metres of shore.</flyDescription>

			</Placemark>
<Placemark>

				<name>5 Knot Zone</name>

				<description>Keep to 5 knots or less (9.25km / fast walking pace) in Lake Te Anau within 200 metres of shore.</description>

				<styleUrl>#style0</styleUrl>

				<Polygon>

					<tessellate>1</tessellate>

					<outerBoundaryIs>

						<LinearRing>

							<coordinates>

							167.6397060056425,-45.15268400479371,0 167.6463597854421,-45.15758350302232,0 167.6513709229581,-45.15885222435952,0 167.6529185041222,-45.16084805262445,0 167.6603031545693,-45.16328455707048,0 167.6621200469828,-45.16350682947067,0 167.6633947691503,-45.16373642092464,0 167.6651100060898,-45.16450697695689,0 167.6651236431604,-45.16451269710559,0 167.6677277721707,-45.16727248285754,0 167.6742113909502,-45.16695690380828,0 167.679062714425,-45.16764463960547,0 167.6835038491485,-45.16515195884151,0 167.6904070825921,-45.16808926880229,0 167.6958504441331,-45.16790882769622,0 167.7009462439829,-45.16863372647789,0 167.7008059710944,-45.16593500363829,0 167.6995566548589,-45.16621302727716,0 167.698913421662,-45.16564767228036,0 167.6980835521152,-45.16530340077756,0 167.6967844375199,-45.16537445733425,0 167.6956823910498,-45.16506444066468,0 167.6949104274705,-45.16550905280198,0 167.693858019869,-45.16590646868615,0 167.6929732025639,-45.16572344270216,0 167.692276642056,-45.1659129984947,0 167.6912756361939,-45.16569812597642,0 167.689461631552,-45.16519092715912,0 167.686569658643,-45.1636756499472,0 167.6851287989275,-45.16254619598348,0 167.6834778065586,-45.16259246232463,0 167.6797493692151,-45.16419861456556,0 167.6788185013211,-45.16583780764366,0 167.676819758871,-45.16507542550239,0 167.6738841120133,-45.16436388318848,0 167.6728451217032,-45.16474965738532,0 167.6715211218628,-45.16458567200517,0 167.669975323504,-45.16480203734125,0 167.6684561070339,-45.16478263889933,0 167.6684378440963,-45.16393063745402,0 167.6684246452794,-45.1629915297743,0 167.6666461520465,-45.16232567715974,0 167.6636489677133,-45.16143698995341,0 167.6619862782355,-45.16134724507008,0 167.6605965158045,-45.16120315950393,0 167.658169403797,-45.16036189051434,0 167.6559891259962,-45.15974000678997,0 167.6553628230268,-45.15884498173441,0 167.6551198668364,-45.15767019662921,0 167.6538655159174,-45.15718660817675,0 167.6484046920994,-45.15547690569764,0 167.6435619826607,-45.15241999077266,0 167.6397060056425,-45.15268400479371,0 
						
</coordinates>

						</LinearRing>

					</outerBoundaryIs>

				</Polygon>

				<flyID>12</flyID>

				<flyDescription>Keep to 5 knots or less (9.25km / fast walking pace) in Lake Te Anau within 200 metres of shore.</flyDescription>

			</Placemark>
<Placemark>

				<name>5 Knot Zone</name>

				<description>Keep to 5 knots or less (9.25km / fast walking pace) in Lake Te Anau within 200 metres of shore.</description>

				<styleUrl>#style0</styleUrl>

				<Polygon>

					<tessellate>1</tessellate>

					<outerBoundaryIs>

						<LinearRing>

							<coordinates>

							167.7008622138141,-45.16872188391638,0 167.7083384734189,-45.17345630763982,0 167.7141003139089,-45.17871410434732,0 167.7174756506717,-45.18074155486859,0 167.7214407690207,-45.18062775443243,0 167.7253715992306,-45.1824039996364,0 167.7361048933398,-45.18309700707051,0 167.7451288363461,-45.18388912089811,0 167.7502134923911,-45.18261046198791,0 167.7557999199267,-45.17936471442732,0 167.7651793858184,-45.17297218620792,0 167.7728872389281,-45.1679978390033,0 167.7796215086478,-45.16146529071197,0 167.7871218794142,-45.15687826481869,0 167.7845571008267,-45.15559549947798,0 167.7829155553445,-45.15678965531833,0 167.7799222402339,-45.15845579650662,0 167.7755855342874,-45.16175359550894,0 167.7736470953734,-45.16387120955717,0 167.7714505121672,-45.16634837555989,0 167.7677189630216,-45.16863055241485,0 167.7666250005901,-45.16972570547702,0 167.7649541438746,-45.17019357655642,0 167.761185994773,-45.17289456626825,0 167.7583049357712,-45.17463534978016,0 167.7561325398919,-45.1765513737792,0 167.7538226208211,-45.17864560325652,0 167.7507303167691,-45.17978455027203,0 167.746978673549,-45.18158551944637,0 167.7438861646726,-45.18199601422828,0 167.7412168363062,-45.18166603081832,0 167.736966738776,-45.1809961368609,0 167.7324769326909,-45.18070604798412,0 167.7290161896224,-45.18080828223038,0 167.7261769729669,-45.1803070680763,0 167.724307184065,-45.17945355246357,0 167.7226140270862,-45.17869239701177,0 167.7209841912819,-45.17845732461513,0 167.719895192665,-45.17871293640679,0 167.7193110787788,-45.17929045187003,0 167.7177416205612,-45.1778428769393,0 167.7162661463067,-45.17715861314407,0 167.7147742460644,-45.17588893076967,0 167.71361245826,-45.17442217922592,0 167.7117061301421,-45.17313590393713,0 167.7096451853745,-45.17186583466053,0 167.7079762134002,-45.17045236637989,0 167.7056009028859,-45.16868687731954,0 167.7033657589539,-45.16717716231071,0 167.7021768701641,-45.16622385272835,0 167.7008059710944,-45.16593500363829,0 167.7008622138141,-45.16872188391638,0 
						
</coordinates>

						</LinearRing>

					</outerBoundaryIs>

				</Polygon>

				<flyID>13</flyID>

				<flyDescription>Keep to 5 knots or less (9.25km / fast walking pace) in Lake Te Anau within 200 metres of shore.</flyDescription>

			</Placemark>
<Placemark>

				<name>5 Knot Zone</name>

				<description>Keep to 5 knots or less (9.25km / fast walking pace) in Lake Te Anau within 200 metres of shore.</description>

				<styleUrl>#style0</styleUrl>

				<Polygon>

					<tessellate>1</tessellate>

					<outerBoundaryIs>

						<LinearRing>

							<coordinates>

							167.7960605621635,-45.11376456704149,0 167.7948005873343,-45.11301316205202,0 167.788325325001,-45.1118222495775,0 167.7868879341377,-45.10998201600621,0 167.7831196906971,-45.10889037587453,0 167.7801816563984,-45.11071944815235,0 167.7775121573391,-45.11026769750034,0 167.771190503542,-45.10835140979966,0 167.7680773008588,-45.10658777967723,0 167.7651287796882,-45.10189579794973,0 167.7638906795296,-45.0988228803018,0 167.7644609529712,-45.09649306462411,0 167.760588158838,-45.09286120864251,0 167.754211100707,-45.09050214407282,0 167.7523318907925,-45.0869968843168,0 167.7504553667192,-45.08272607845317,0 167.7459698153097,-45.07703719919589,0 167.7410320405838,-45.0728247719502,0 167.7373735755473,-45.06709507306969,0 167.7340202475696,-45.06140698688885,0 167.731214575437,-45.05691159609108,0 167.7277694116492,-45.0544921537178,0 167.7280605208772,-45.05700417555371,0 167.7288137291477,-45.05811895133723,0 167.729782554499,-45.06030266426739,0 167.7313773896978,-45.06232331088084,0 167.7336582631701,-45.06423634283709,0 167.7343219816299,-45.06728651496164,0 167.7360313420572,-45.06958909074788,0 167.7385652103093,-45.07392729028173,0 167.741085357879,-45.07630681460472,0 167.7429636942235,-45.07759678445588,0 167.7478545083822,-45.08337485893885,0 167.7499697341282,-45.08915138137429,0 167.7516137165673,-45.0924120340952,0 167.7538527555512,-45.09306162294747,0 167.7569949687414,-45.09408632070135,0 167.7595076847732,-45.09612312838077,0 167.760728712677,-45.09728818415252,0 167.7606833372559,-45.09972502438831,0 167.7624361525892,-45.10267839199754,0 167.7645112885998,-45.10551594000177,0 167.7655760498136,-45.10797538249337,0 167.768241204866,-45.10974234839867,0 167.7705808360644,-45.11082360716241,0 167.7749690029046,-45.11193065175014,0 167.7776746655115,-45.11280526005091,0 167.7798989923018,-45.11404110099433,0 167.7822727302747,-45.1123204200217,0 167.784253571455,-45.11131464829683,0 167.7851452886509,-45.11299340671,0 167.7875652507063,-45.11439800255431,0 167.7920283942117,-45.11500412176243,0 167.7939805284202,-45.1161332133961,0 167.7934884964102,-45.11702293000458,0 167.7960605621635,-45.11376456704149,0 
						
</coordinates>

						</LinearRing>

					</outerBoundaryIs>

				</Polygon>

				<flyID>14</flyID>

				<flyDescription>Keep to 5 knots or less (9.25km / fast walking pace) in Lake Te Anau within 200 metres of shore.</flyDescription>

			</Placemark>
<Placemark>

				<name>5 Knot Zone</name>

				<description>Keep to 5 knots or less (9.25km / fast walking pace) in Lake Te Anau within 200 metres of shore.</description>

				<styleUrl>#style0</styleUrl>

				<Polygon>

					<tessellate>1</tessellate>

					<outerBoundaryIs>

						<LinearRing>

							<coordinates>

							167.7154287507483,-45.03019759216625,0 167.7174632761737,-45.02947115011902,0 167.7188730138349,-45.02846743437746,0 167.7199205184978,-45.02704711098218,0 167.7215765633667,-45.02602983116126,0 167.7202295874244,-45.02547716092123,0 167.7173726113496,-45.02455172341377,0 167.7170839908781,-45.02348299428371,0 167.7151362101188,-45.02254022080658,0 167.7131517450899,-45.02136035779039,0 167.7129299191511,-45.01980458586428,0 167.710638848485,-45.018583732102,0 167.7098062343181,-45.01738436038957,0 167.7095256414688,-45.01545094508587,0 167.7075324901862,-45.01568655452447,0 167.7059637258711,-45.01436570239198,0 167.7055525229063,-45.01366071884343,0 167.7053754990116,-45.01319789789,0 167.7028394840713,-45.01378330642488,0 167.703324010413,-45.01475910898801,0 167.7041194655635,-45.01599074762416,0 167.7057888521142,-45.01714040218957,0 167.7072080669763,-45.01770053341404,0 167.7078539554925,-45.01937729885684,0 167.7104651397507,-45.02103828347,0 167.7106683447764,-45.02226580652201,0 167.7125848621232,-45.0234590843784,0 167.7143533126706,-45.02443370690835,0 167.7150410368066,-45.02585521435999,0 167.7170335150615,-45.02667211791233,0 167.7166660697126,-45.02773813900228,0 167.7149685861065,-45.02798718684152,0 167.7133298323297,-45.02863238973643,0 167.7121592805058,-45.02787639536635,0 167.7112970372543,-45.02763097878033,0 167.7088168553001,-45.02509701498456,0 167.7088231207918,-45.02376392026626,0 167.7082825503137,-45.02284025895119,0 167.7073559034554,-45.02253925023072,0 167.7074419638723,-45.02146337198873,0 167.7065279730565,-45.02018930966166,0 167.7062490749456,-45.01893451450123,0 167.7054174072824,-45.01773854856968,0 167.704231492275,-45.01698077356747,0 167.703891758343,-45.01626702057698,0 167.7027171289753,-45.01547605453831,0 167.7025580889396,-45.01414565269021,0 167.7020945938408,-45.01343812948713,0 167.701051861578,-45.01270694871212,0 167.7014745418792,-45.01186572611874,0 167.7015490920509,-45.01071741933861,0 167.7011767799986,-45.00969336529366,0 167.7016935889917,-45.00799266629407,0 167.7025228682838,-45.00568807451175,0 167.7023465295338,-45.00444155653465,0 167.7010713912792,-45.00254319098529,0 167.6998977080592,-45.00124251940773,0 167.701451995129,-45.00135108197536,0 167.7022998842826,-45.00097008018152,0 167.703774605803,-45.00098659664264,0 167.7046231183038,-45.00078797289299,0 167.7051477805984,-45.00208008765245,0 167.7050392138971,-45.0027083197885,0 167.7053704627743,-45.00330768269127,0 167.7047797087982,-45.00503684422155,0 167.7046240810231,-45.00749228830721,0 167.7051081247734,-45.00880153409506,0 167.7050714684578,-45.00914062613167,0 167.7037666962068,-45.01002892495083,0 167.7027965035556,-45.01185442430363,0 167.7026950593717,-45.01303113327548,0 167.7028330141919,-45.01375612402147,0 167.7053676750149,-45.01317128214422,0 167.7055504557151,-45.01198954918569,0 167.7073892138586,-45.00972173134137,0 167.7076562740484,-45.00847602806699,0 167.7074282627035,-45.00640820896286,0 167.7078220305786,-45.00295123099414,0 167.7071096515698,-44.99978010073286,0 167.7062079721688,-44.99808737494158,0 167.7048893412086,-44.9977630385492,0 167.703181509259,-44.99879323736239,0 167.6995491670413,-44.99842041948449,0 167.6972370768147,-44.9987499706609,0 167.6962258650834,-45.00067698001466,0 167.6996266411001,-45.00510752437577,0 167.6987932745268,-45.00715001068461,0 167.6986560679995,-45.0099972642867,0 167.6989510084926,-45.0113767056687,0 167.6981790596776,-45.01346873919087,0 167.7000294106375,-45.01538076001247,0 167.7033473664205,-45.01925131020467,0 167.7052041371873,-45.02316043299367,0 167.70595573133,-45.02555971357682,0 167.7089160747073,-45.02860199588281,0 167.7108628927354,-45.0292219273502,0 167.7138114594679,-45.03092555510454,0 167.7154287507483,-45.03019759216625,0 
						
</coordinates>

						</LinearRing>

					</outerBoundaryIs>

				</Polygon>

				<flyID>15</flyID>

				<flyDescription>Keep to 5 knots or less (9.25km / fast walking pace) in Lake Te Anau within 200 metres of shore.</flyDescription>

			</Placemark>
<Placemark>

				<name>5 Knot Zone</name>

				<description>Keep to 5 knots or less (9.25km / fast walking pace) in Lake Te Anau within 200 metres of shore.</description>

				<styleUrl>#style0</styleUrl>

				<Polygon>

					<tessellate>1</tessellate>

					<outerBoundaryIs>

						<LinearRing>

							<coordinates>

							167.7278988699184,-45.05450891134336,0 167.722204184604,-45.05232317443749,0 167.7155581276593,-45.05050659333017,0 167.7115856551884,-45.04704378828277,0 167.712314116229,-45.04488000010202,0 167.7111987072042,-45.04180860619954,0 167.7118622492392,-45.04055362966815,0 167.7114673483057,-45.03850439850127,0 167.7146161439634,-45.03625936642307,0 167.7177516730338,-45.03834843324503,0 167.7168499917515,-45.04039974351909,0 167.7151991737713,-45.04424469279466,0 167.7189213180562,-45.04638689499555,0 167.7260338873386,-45.04835456958691,0 167.7302260656192,-45.04980018112326,0 167.7365186891273,-45.05055018406509,0 167.739320022515,-45.04920838238964,0 167.737247515161,-45.04828828768745,0 167.7352192531282,-45.04820573134893,0 167.7330867882193,-45.04832662356152,0 167.7312098894726,-45.04793495236598,0 167.7282296572491,-45.04664659624748,0 167.7237480114783,-45.04596687588631,0 167.7210998906638,-45.04474876568418,0 167.7193028090296,-45.0432491127053,0 167.7182369327007,-45.04359467864466,0 167.7183496296835,-45.04218020927551,0 167.7204888571133,-45.03954069806329,0 167.7207709744202,-45.03781925533112,0 167.7201589757136,-45.03634587385858,0 167.7180299234084,-45.03487373811311,0 167.7171831547746,-45.03484551853786,0 167.7165672567877,-45.03335930817183,0 167.7153910118639,-45.03247097400923,0 167.7154287507483,-45.03019759216625,0 167.7138114594679,-45.03092555510454,0 167.7141263107083,-45.03242703593848,0 167.7128257336747,-45.03449314816377,0 167.7090496053883,-45.03726599649653,0 167.708187494961,-45.03829663498707,0 167.7094119797114,-45.03937933684542,0 167.7068834452195,-45.04186689006776,0 167.7090308878439,-45.0438986142,0 167.7091780218653,-45.04596780280986,0 167.7082731620501,-45.04742902265208,0 167.7084927333683,-45.04855958878695,0 167.7115221816833,-45.05020185355004,0 167.7137461741888,-45.05238341833606,0 167.7149804948259,-45.05299163344049,0 167.7194384187494,-45.05351385854461,0 167.7174809490981,-45.05620679501097,0 167.7204031494248,-45.053989778103,0 167.7214590129635,-45.0549855719002,0 167.7226674196842,-45.05464480945836,0 167.7250510044383,-45.05567294864147,0 167.7280605208772,-45.05700417555371,0 167.7278988699184,-45.05450891134336,0 
						
</coordinates>

						</LinearRing>

					</outerBoundaryIs>

				</Polygon>

				<flyID>16</flyID>

				<flyDescription>Keep to 5 knots or less (9.25km / fast walking pace) in Lake Te Anau within 200 metres of shore.</flyDescription>

			</Placemark>
<Placemark>

				<name>5 Knot Zone</name>

				<description>Keep to 5 knots or less (9.25km / fast walking pace) in Lake Te Anau within 200 metres of shore.</description>

				<styleUrl>#style0</styleUrl>

				<Polygon>

					<tessellate>1</tessellate>

					<outerBoundaryIs>

						<LinearRing>

							<coordinates>

							167.7365186891273,-45.05055018406509,0 167.7388052215775,-45.05437963449975,0 167.7430524121868,-45.05696389296857,0 167.7461930252806,-45.05722218544867,0 167.748353779857,-45.06098195875823,0 167.7508341984797,-45.06660312548636,0 167.7536402888548,-45.07299646320345,0 167.7566111199465,-45.07625879884156,0 167.7654340393386,-45.08277292900544,0 167.7693648960311,-45.08739789831662,0 167.775504499331,-45.09190772208244,0 167.7810887958315,-45.09683935859476,0 167.7835397916356,-45.10008933844959,0 167.7908005306508,-45.10253488927264,0 167.7962290469405,-45.10107170172114,0 167.7983705404238,-45.10166052993064,0 167.8029288380882,-45.10165166606886,0 167.8078093653397,-45.10047330586856,0 167.8133348734428,-45.10184781542972,0 167.8183113393221,-45.09905635828807,0 167.8151139024454,-45.09874622673155,0 167.8129544707516,-45.09981211950016,0 167.8106556922246,-45.09908176294737,0 167.8076587083818,-45.09855717742528,0 167.8054847874865,-45.09873896083016,0 167.8038951239454,-45.09971868894637,0 167.8001556319558,-45.09959111316111,0 167.799269316947,-45.09913874216871,0 167.7974740745619,-45.09858582420589,0 167.7951441306237,-45.09901195689312,0 167.7917051772137,-45.0999065250687,0 167.7895591881782,-45.09975893416585,0 167.7865142603449,-45.09893354140659,0 167.7851774229834,-45.09701808116317,0 167.7852973165234,-45.09577644761013,0 167.7816786653522,-45.09394044796777,0 167.7824834183141,-45.09349114600863,0 167.7795575170787,-45.09174381873098,0 167.7726126726377,-45.08741427659814,0 167.7713082538479,-45.08569301881251,0 167.7673451728696,-45.08112301865901,0 167.7608187146276,-45.07637368887774,0 167.7566772717887,-45.07336786135019,0 167.7562151258808,-45.07194682028569,0 167.7550142246674,-45.06904836396595,0 167.7527587054913,-45.0652937416493,0 167.7516433785233,-45.0623197038197,0 167.7514241736355,-45.06017854737944,0 167.7508454603724,-45.05822580912272,0 167.7497208504464,-45.05737108311245,0 167.7493001744733,-45.0562852059516,0 167.7478626954273,-45.05494647796487,0 167.746862828976,-45.05518344542754,0 167.7439737246058,-45.05514699028392,0 167.7435915209655,-45.05430450429275,0 167.7408898464938,-45.05327108145183,0 167.7400682966466,-45.05126027198643,0 167.739320022515,-45.04920838238964,0 167.737247515161,-45.04828828768745,0 167.7352192531282,-45.04820573134893,0 167.7365186891273,-45.05055018406509,0 
						
</coordinates>

						</LinearRing>

					</outerBoundaryIs>

				</Polygon>

				<flyID>17</flyID>

				<flyDescription>Keep to 5 knots or less (9.25km / fast walking pace) in Lake Te Anau within 200 metres of shore.</flyDescription>

			</Placemark>

</Document>
</kml>
