<?xml version="1.0" encoding="UTF-8"?>
<kml xmlns="http://www.opengis.net/kml/2.2" xmlns:gx="http://www.google.com/kml/ext/2.2" xmlns:kml="http://www.opengis.net/kml/2.2" xmlns:atom="http://www.w3.org/2005/Atom">
<Document>
<name>R50 C16.kml</name>

<Style id="style0">

					<LineStyle>

						<color>ffff0000</color>

					</LineStyle>

					<PolyStyle>

						<color>ffff0000</color>

						<width>0.9</width>

					</PolyStyle>

				</Style>
<Style id="style1">

					<LineStyle>

						<color>ff0000ff</color>

					</LineStyle>

					<PolyStyle>

						<color>ff0000ff</color>

						<width>0.9</width>

					</PolyStyle>

				</Style>
<Style id="style2">

					<LineStyle>

						<color>ff5fb0a9</color>

					</LineStyle>

					<PolyStyle>

						<color>ff5fb0a9</color>

						<width>0.9</width>

					</PolyStyle>

				</Style>
<Style id="style3">

					<LineStyle>

						<color>ff00ffff</color>

					</LineStyle>

					<PolyStyle>

						<color>ff00ffff</color>

						<width>0.9</width>

					</PolyStyle>

				</Style>

<Placemark>

				<name>High Speed Access Lane</name>

				<description>This area is designated for high speed by powerered vessels. Water skiing is strictly prohibited.</description>

				<styleUrl>#style0</styleUrl>

				<Polygon>

					<tessellate>1</tessellate>

					<outerBoundaryIs>

						<LinearRing>

							<coordinates>

							168.7308655911977,-45.02795357471572,0 168.7309945414135,-45.02777351569498,0 168.7294512075811,-45.02681954914079,0 168.7299587104513,-45.02749941401833,0 168.7308655911977,-45.02795357471572,0 
						
</coordinates>

						</LinearRing>

					</outerBoundaryIs>

				</Polygon>

				<flyID>0</flyID>

				<flyDescription>This area is designated for high speed by powerered vessels. Water skiing is strictly prohibited.</flyDescription>

			</Placemark>
<Placemark>

				<name>High Speed Access Lane</name>

				<description>This area is designated for high speed by powerered vessels. Water skiing is strictly prohibited.</description>

				<styleUrl>#style0</styleUrl>

				<Polygon>

					<tessellate>1</tessellate>

					<outerBoundaryIs>

						<LinearRing>

							<coordinates>

							168.731422289171,-45.02721837545469,0 168.7315485802232,-45.0270908454591,0 168.7304573964065,-45.02623127642742,0 168.7303028026715,-45.02634566800683,0 168.731422289171,-45.02721837545469,0 
						
</coordinates>

						</LinearRing>

					</outerBoundaryIs>

				</Polygon>

				<flyID>1</flyID>

				<flyDescription>This area is designated for high speed by powerered vessels. Water skiing is strictly prohibited.</flyDescription>

			</Placemark>
<Placemark>

				<name>High Speed Access Lane</name>

				<description>This area is designated for high speed by powerered vessels. Water skiing is strictly prohibited.</description>

				<styleUrl>#style0</styleUrl>

				<Polygon>

					<tessellate>1</tessellate>

					<outerBoundaryIs>

						<LinearRing>

							<coordinates>

							168.7329851728223,-45.02848331707812,0 168.7331592075972,-45.0283751002033,0 168.7315539124014,-45.02709174557996,0 168.731431512097,-45.02721783674983,0 168.7329851728223,-45.02848331707812,0 
						
</coordinates>

						</LinearRing>

					</outerBoundaryIs>

				</Polygon>

				<flyID>2</flyID>

				<flyDescription>This area is designated for high speed by powerered vessels. Water skiing is strictly prohibited.</flyDescription>

			</Placemark>
<Placemark>

				<name>High Speed Access Lane</name>

				<description>This area is designated for high speed by powerered vessels. Water skiing is strictly prohibited.</description>

				<styleUrl>#style0</styleUrl>

				<Polygon>

					<tessellate>1</tessellate>

					<outerBoundaryIs>

						<LinearRing>

							<coordinates>

							168.7308707046775,-45.02795874087932,0 168.7325170683088,-45.02889586571801,0 168.7326643768067,-45.02878305216882,0 168.7309960811274,-45.02777180874906,0 168.7308707046775,-45.02795874087932,0 
						
</coordinates>

						</LinearRing>

					</outerBoundaryIs>

				</Polygon>

				<flyID>3</flyID>

				<flyDescription>This area is designated for high speed by powerered vessels. Water skiing is strictly prohibited.</flyDescription>

			</Placemark>
<Placemark>

				<name>5 Knot Zone</name>

				<description>Keep to 5 knots or less (9.25km / fast walking pace) in this area</description>

				<styleUrl>#style3</styleUrl>

				<Polygon>

					<tessellate>1</tessellate>

					<outerBoundaryIs>

						<LinearRing>

							<coordinates>

							168.7338830401659,-45.02993740127854,0 168.7363874854091,-45.03049754233967,0 168.7392608921059,-45.03170679170473,0 168.7415241691157,-45.03293671284535,0 168.7453490014834,-45.03464192841968,0 168.7464579935923,-45.03472118506648,0 168.7486524454012,-45.03464634486127,0 168.749737563588,-45.03294052136856,0 168.7506694303856,-45.03116043851081,0 168.7526368383009,-45.03032956153841,0 168.7558925254891,-45.02930960769656,0 168.7568649209285,-45.02871420679408,0 168.7569758319267,-45.02703112566454,0 168.7585099235688,-45.0248351486343,0 168.7607862689045,-45.02333442311939,0 168.7646973926064,-45.02122569934963,0 168.762686630451,-45.02050141460263,0 168.7618221257624,-45.02128045258711,0 168.7569958228536,-45.02446734005972,0 168.7564197946438,-45.02561898664012,0 168.7555625890939,-45.02762903906356,0 168.7543051144926,-45.02882482425603,0 168.7532968144538,-45.02908063310757,0 168.7495366823914,-45.0307151001082,0 168.7479148045085,-45.03381618343462,0 168.745941085523,-45.0335869445231,0 168.7451639602888,-45.03326773535424,0 168.7451278238748,-45.03331666471196,0 168.7456422858187,-45.03351196639544,0 168.7462479042969,-45.03370187891444,0 168.7466986576029,-45.03383584506254,0 168.7472409932666,-45.0338895962659,0 168.7476243431129,-45.03381492782245,0 168.74793100478,-45.03382684803583,0 168.7479701338004,-45.03370079472779,0 168.7481114326003,-45.03386622070104,0 168.7476022734136,-45.03415382317031,0 168.7473152704133,-45.03423924791072,0 168.746823621722,-45.03425931150427,0 168.7463150250767,-45.03417118959367,0 168.7457421282775,-45.03395995045694,0 168.7449860111919,-45.03367804869876,0 168.7444896989675,-45.03343200138572,0 168.7439404067177,-45.03312555877872,0 168.7435698215968,-45.03281656512024,0 168.7433896036286,-45.03259342214582,0 168.7434052388034,-45.03256082951697,0 168.7442537909208,-45.03296739875701,0 168.744844114259,-45.03321422022501,0 168.7451275169375,-45.0333165449789,0 168.7451646584303,-45.03326635141673,0 168.740903676921,-45.03141169924817,0 168.7364197523341,-45.02968998604067,0 168.7349002590379,-45.02851076566259,0 168.7336288823566,-45.02810140563078,0 168.7316070048789,-45.02694405366413,0 168.7315495859726,-45.02707972260312,0 168.7331628204383,-45.02836772755296,0 168.7329846249541,-45.02849230836914,0 168.7314243375003,-45.02722718761345,0 168.7310154285444,-45.02777604764533,0 168.7326682606657,-45.02878314627109,0 168.7325085196798,-45.02890050106304,0 168.7308591320899,-45.02795461517043,0 168.7306209383605,-45.02822459056845,0 168.7338830401659,-45.02993740127854,0 
						
</coordinates>

						</LinearRing>

					</outerBoundaryIs>

				</Polygon>

				<flyID>4</flyID>

				<flyDescription>Keep to 5 knots or less (9.25km / fast walking pace) in this area</flyDescription>

			</Placemark>
<Placemark>

				<name>High Speed Access Lane</name>

				<description>This area is designated for high speed by powerered vessels. Water skiing is strictly prohibited.</description>

				<styleUrl>#style0</styleUrl>

				<Polygon>

					<tessellate>1</tessellate>

					<outerBoundaryIs>

						<LinearRing>

							<coordinates>

							168.653380040602,-45.03897146495886,0 168.6603166655817,-45.03503228155116,0 168.6588536146269,-45.033912933503,0 168.6504378088118,-45.03837365247618,0 168.653380040602,-45.03897146495886,0 
						
</coordinates>

						</LinearRing>

					</outerBoundaryIs>

				</Polygon>

				<flyID>5</flyID>

				<flyDescription>This area is designated for high speed by powerered vessels. Water skiing is strictly prohibited.</flyDescription>

			</Placemark>
<Placemark>

				<name>High Speed Access Lane</name>

				<description>This area is designated for high speed by powerered vessels. Water skiing is strictly prohibited.</description>

				<styleUrl>#style0</styleUrl>

				<Polygon>

					<tessellate>1</tessellate>

					<outerBoundaryIs>

						<LinearRing>

							<coordinates>

							168.6657426938098,-45.04187165638404,0 168.6665888672559,-45.04149621725876,0 168.6674772952964,-45.04117812871371,0 168.6687625519396,-45.04072430361867,0 168.6697238970873,-45.04041408618274,0 168.6699226818868,-45.04027426226903,0 168.6708958555957,-45.03995574025016,0 168.6726625575895,-45.03952067164516,0 168.6732483325996,-45.03948258322156,0 168.6739707796356,-45.03929661167596,0 168.6744579589148,-45.03908331591399,0 168.6751838775361,-45.03920814231005,0 168.6760260153011,-45.03924601293912,0 168.6757137680542,-45.03736802427468,0 168.6714594024281,-45.03785300818476,0 168.670078518763,-45.03827022001219,0 168.6658997894109,-45.03970321441074,0 168.6640147480502,-45.04077504357961,0 168.6646229094063,-45.04246587615913,0 168.6657426938098,-45.04187165638404,0 
						
</coordinates>

						</LinearRing>

					</outerBoundaryIs>

				</Polygon>

				<flyID>6</flyID>

				<flyDescription>This area is designated for high speed by powerered vessels. Water skiing is strictly prohibited.</flyDescription>

			</Placemark>
<Placemark>

				<name>5 Knot Zone</name>

				<description>Buoys to true left 5 knots</description>

				<styleUrl>#style2</styleUrl>

				<Polygon>

					<tessellate>1</tessellate>

					<outerBoundaryIs>

						<LinearRing>

							<coordinates>

							168.7434078162936,-45.03257287660829,0 168.7435223492989,-45.03275579847509,0 168.7439971786548,-45.03315172358394,0 168.7445983751193,-45.03349375093394,0 168.7453703682629,-45.03384125689577,0 168.7459696463646,-45.03404003920878,0 168.746482479894,-45.03421603010789,0 168.7469128393678,-45.03426286985975,0 168.7472840750291,-45.03423951003252,0 168.7476296567932,-45.03414484917852,0 168.7481074616743,-45.03386531810273,0 168.7478263938039,-45.03383283677354,0 168.7474686603741,-45.0338472834977,0 168.7472769651133,-45.03388924541251,0 168.7466554903023,-45.03382919267938,0 168.7458896937157,-45.03359864033682,0 168.7445228526985,-45.03309944986915,0 168.7434078162936,-45.03257287660829,0 
						
</coordinates>

						</LinearRing>

					</outerBoundaryIs>

				</Polygon>

				<flyID>7</flyID>

				<flyDescription>Buoys to true left 5 knots</flyDescription>

			</Placemark>
<Placemark>

				<name>Danger-Reef And Powerlines</name>

				<description>Use caution when operating near this area.</description>

				<styleUrl>#style1</styleUrl>

				<Polygon>

					<tessellate>1</tessellate>

					<outerBoundaryIs>

						<LinearRing>

							<coordinates>

							168.6552964522601,-45.03908347530757,0 168.6570377714057,-45.03928347187415,0 168.6566920591778,-45.03889656480848,0 168.6571237668002,-45.0378297327833,0 168.6533970874656,-45.03896155777141,0 168.6552964522601,-45.03908347530757,0 
						
</coordinates>

						</LinearRing>

					</outerBoundaryIs>

				</Polygon>

				<flyID>8</flyID>

				<flyDescription>Use caution when operating near this area.</flyDescription>

			</Placemark>
<Placemark>

				<name>5 Knot Zone</name>

				<description>Keep to 5 knots or less (9.25km / fast walking pace) in this area</description>

				<styleUrl>#style3</styleUrl>

				<Polygon>

					<tessellate>1</tessellate>

					<outerBoundaryIs>

						<LinearRing>

							<coordinates>

							168.5641336167955,-45.00935814325921,0 168.5675086794769,-45.00055666298168,0 168.5694733588842,-45.00864498803942,0 168.5725047694606,-45.00879684522257,0 168.5726724052696,-45.00802138514754,0 168.5707637398975,-45.00616422664597,0 168.5706982852606,-45.00438472353313,0 168.5731493366073,-45.0027038868805,0 168.5737376770988,-45.00053891447762,0 168.571986350596,-44.99839625508014,0 168.5692623433968,-44.99858558322972,0 168.5645865977778,-44.99719271146581,0 168.5621456629774,-45.000390811406,0 168.5605236725936,-45.00904202150845,0 168.5641336167955,-45.00935814325921,0 
						
</coordinates>

						</LinearRing>

					</outerBoundaryIs>

				</Polygon>

				<flyID>9</flyID>

				<flyDescription>Keep to 5 knots or less (9.25km / fast walking pace) in this area</flyDescription>

			</Placemark>
<Placemark>

				<name>5 Knot Zone</name>

				<description>Keep to 5 knots or less (9.25km / fast walking pace) in this area</description>

				<styleUrl>#style3</styleUrl>

				<Polygon>

					<tessellate>1</tessellate>

					<outerBoundaryIs>

						<LinearRing>

							<coordinates>

							168.547259722754,-45.04963144822515,0 168.5484133812492,-45.04756839554303,0 168.5492308294691,-45.045860763402,0 168.5495820524031,-45.04402919964211,0 168.5524525106631,-45.04181575573935,0 168.5528974724776,-45.0393487270434,0 168.5524630068049,-45.03920087084888,0 168.5515788742879,-45.03872367525302,0 168.5482554546446,-45.04287496002619,0 168.5469843426367,-45.04619312063323,0 168.5454062086272,-45.04895906777867,0 168.5455281686201,-45.05199751055827,0 168.5464658507038,-45.05248913600607,0 168.547259722754,-45.04963144822515,0 
						
</coordinates>

						</LinearRing>

					</outerBoundaryIs>

				</Polygon>

				<flyID>10</flyID>

				<flyDescription>Keep to 5 knots or less (9.25km / fast walking pace) in this area</flyDescription>

			</Placemark>

</Document>
</kml>
