<?xml version="1.0" encoding="UTF-8"?>
<kml xmlns="http://www.opengis.net/kml/2.2" xmlns:gx="http://www.google.com/kml/ext/2.2" xmlns:kml="http://www.opengis.net/kml/2.2" xmlns:atom="http://www.w3.org/2005/Atom">
<Document>
<name>R52 C12.kml</name>

<Style id="style0">

					<LineStyle>

						<color>ff00aa00</color>

					</LineStyle>

					<PolyStyle>

						<color>ff00aa00</color>

						<width>0.9</width>

					</PolyStyle>

				</Style>
<Style id="style1">

					<LineStyle>

						<color>ff00ff00</color>

					</LineStyle>

					<PolyStyle>

						<color>ff00ff00</color>

						<width>0.9</width>

					</PolyStyle>

				</Style>
<Style id="style2">

					<LineStyle>

						<color>ff00ffff</color>

					</LineStyle>

					<PolyStyle>

						<color>ff00ffff</color>

						<width>0.9</width>

					</PolyStyle>

				</Style>

<Placemark>

				<name>5 Knot Zone &amp; Speed Exemption Between Sunrise And Sunset</name>

				<description>Keep to 5 knots or less (9.25km / fast walking pace) in Lake Manapouri within 200 metres of shore

Waiau River from 1.6 kilometres downstream of Lake Te Anau to Lake Manapouri</description>

				<styleUrl>#style0</styleUrl>

				<Polygon>

					<tessellate>1</tessellate>

					<outerBoundaryIs>

						<LinearRing>

							<coordinates>

							167.6006451000175,-45.49437235523128,0 167.6024680147987,-45.49485825226262,0 167.6049065121143,-45.49502500901657,0 167.6071100499417,-45.49530499673559,0 167.606762191083,-45.49494075435865,0 167.6068826136679,-45.49418595496486,0 167.6082100259382,-45.49339880467149,0 167.609603987618,-45.49254690447898,0 167.6052164677536,-45.49336888208561,0 167.6006451000175,-45.49437235523128,0 
						
</coordinates>

						</LinearRing>

					</outerBoundaryIs>

				</Polygon>

				<flyID>0</flyID>

				<flyDescription>Keep to 5 knots or less (9.25km / fast walking pace) in Lake Manapouri within 200 metres of shore

Waiau River from 1.6 kilometres downstream of Lake Te Anau to Lake Manapouri</flyDescription>

			</Placemark>
<Placemark>

				<name>Speed Exemption</name>

				<description>There is no speed restriction between the 1st of Oct and 31st of July from the Mararoa Weir to a point 2 kilometres down stream of the Tuatapere bridge.</description>

				<styleUrl>#style1</styleUrl>

				<Polygon>

					<tessellate>1</tessellate>

					<outerBoundaryIs>

						<LinearRing>

							<coordinates>

							167.6316559347257,-45.6789113446884,0 167.6313557489057,-45.67496693276388,0 167.6322946491072,-45.67256949336543,0 167.6360432477709,-45.66969584074562,0 167.6396949989969,-45.66808267123647,0 167.641944588519,-45.66606358618916,0 167.6429256070331,-45.66485699890837,0 167.6447361265936,-45.66376353566067,0 167.6477165004524,-45.66388750896999,0 167.6494324193745,-45.66377062040968,0 167.6522622485751,-45.66207087395167,0 167.6568740808895,-45.65960073072515,0 167.6601945335962,-45.65816441068771,0 167.6619062802104,-45.65635379292587,0 167.6636041513575,-45.65420848924362,0 167.6634445278588,-45.65239347163966,0 167.6633866008085,-45.6507353690164,0 167.6658431863966,-45.64834873849577,0 167.6694164765202,-45.64694027512172,0 167.6710950810922,-45.64467929479562,0 167.6708194298494,-45.64303367463986,0 167.6690362880545,-45.64140411090042,0 167.6672034677673,-45.63991146712084,0 167.6663221235008,-45.63858082583343,0 167.6674198121768,-45.63685611161883,0 167.6700811123362,-45.63578492446174,0 167.6728982188487,-45.63539819368696,0 167.6761150183531,-45.63553127066525,0 167.6800516853732,-45.63641519767396,0 167.6830781006094,-45.63630161423691,0 167.6850461216337,-45.63543159980485,0 167.6865229470222,-45.63283111938679,0 167.6862010324074,-45.63076260953891,0 167.6850076128906,-45.62826981635708,0 167.6846000888828,-45.62682946667868,0 167.6861952319218,-45.62507230272989,0 167.6881397607199,-45.62368097337018,0 167.6894638076821,-45.62136170663134,0 167.6902505791938,-45.61884478936573,0 167.6921979578875,-45.61686923662816,0 167.6927619228036,-45.61598827468403,0 167.6920746032108,-45.61567421349348,0 167.6917030069582,-45.61631224899966,0 167.6904720960844,-45.61761213769773,0 167.6894669270791,-45.61872157369871,0 167.6887900693692,-45.62067917283743,0 167.6877196574254,-45.6227043893731,0 167.6847231949034,-45.62584141794746,0 167.6837131341986,-45.6273090941081,0 167.683838350842,-45.62856038128621,0 167.6850317586294,-45.63045832371162,0 167.6853909803523,-45.63181781618129,0 167.685268457601,-45.63318073975371,0 167.6845024237708,-45.63444308530951,0 167.6833705437953,-45.63541942449044,0 167.681960026714,-45.63563191922951,0 167.6802678840001,-45.63520301829011,0 167.6786432597297,-45.6342004247038,0 167.6767704582764,-45.63381040889788,0 167.674995133528,-45.63374896438423,0 167.672952605314,-45.63437948613841,0 167.6708317224755,-45.63477902837683,0 167.6676621991192,-45.63577457875612,0 167.6659589616765,-45.63705346189127,0 167.6653147749806,-45.63817881078478,0 167.6657524588781,-45.63972910855643,0 167.6669123259916,-45.64125952036988,0 167.6679072094335,-45.64185414408653,0 167.669326054836,-45.64280347792317,0 167.6699361396796,-45.64381455063435,0 167.6694504190745,-45.64547702139244,0 167.6680322885596,-45.64670044426575,0 167.6655971655641,-45.6474825581147,0 167.6638475971234,-45.64859260321641,0 167.6624535307662,-45.64982382248638,0 167.6619433855676,-45.65068277840207,0 167.6620680453948,-45.65161607641016,0 167.6626152303151,-45.65240497544576,0 167.6620080176377,-45.65392284946005,0 167.6606955324044,-45.65604589966011,0 167.6587722022459,-45.65769537969981,0 167.6566413642685,-45.65867638499692,0 167.6536160531185,-45.65912014045216,0 167.6511689472988,-45.65990707591592,0 167.6499994720422,-45.66054905976257,0 167.6489057649384,-45.66155683495835,0 167.6475421698433,-45.66209858481236,0 167.6440443540681,-45.66271052919051,0 167.6424213677586,-45.66385864545081,0 167.6408472699237,-45.66509904087614,0 167.6381000851866,-45.66656804954214,0 167.6365185122997,-45.66764287900185,0 167.6356672689855,-45.66838914490176,0 167.6344735606465,-45.66906052185707,0 167.6328710682938,-45.67034135031238,0 167.6311636876638,-45.67226629051884,0 167.6304142743659,-45.67439039502398,0 167.6290678131156,-45.67553956610797,0 167.6278665405344,-45.67638169594169,0 167.6273713033978,-45.67783861277088,0 167.6275576982773,-45.67851887066938,0 167.6271082163217,-45.67948994117795,0 167.6316559347257,-45.6789113446884,0 
						
</coordinates>

						</LinearRing>

					</outerBoundaryIs>

				</Polygon>

				<flyID>1</flyID>

				<flyDescription>There is no speed restriction between the 1st of Oct and 31st of July from the Mararoa Weir to a point 2 kilometres down stream of the Tuatapere bridge.</flyDescription>

			</Placemark>
<Placemark>

				<name>Speed Exemption</name>

				<description>There is no speed restriction between the 1st of Oct and 31st of July from the Mararoa Weir to a point 2 kilometres down stream of the Tuatapere bridge.</description>

				<styleUrl>#style1</styleUrl>

				<Polygon>

					<tessellate>1</tessellate>

					<outerBoundaryIs>

						<LinearRing>

							<coordinates>

							167.6191482946455,-45.72560568306283,0 167.6215096487098,-45.7228668233833,0 167.6221152119013,-45.72221205354894,0 167.6225821882151,-45.72173572884766,0 167.6225562698094,-45.7212113326204,0 167.6229187021459,-45.72002020434992,0 167.6231475543263,-45.71862492358672,0 167.6230218815886,-45.71734238960238,0 167.6223943582326,-45.71647887331024,0 167.6215738654956,-45.71583040330734,0 167.6213804047191,-45.71546617208716,0 167.6214194721018,-45.71455236337739,0 167.6216661859911,-45.71248601932801,0 167.6216066494351,-45.71104160547964,0 167.6211017595501,-45.70898739878323,0 167.6214830680819,-45.70622176891458,0 167.6219064322367,-45.70411879531017,0 167.62280093298,-45.70191505715027,0 167.6221324900623,-45.70048479360815,0 167.6196883715587,-45.69971922325948,0 167.6180981704892,-45.69978080640692,0 167.6160795687975,-45.69938867513609,0 167.6147966625053,-45.6978950808354,0 167.614276065326,-45.69532297138003,0 167.6128129690415,-45.69263062064378,0 167.6139410372444,-45.69021695690054,0 167.6149212576344,-45.68943959574719,0 167.618198754117,-45.68820897314127,0 167.6207580313389,-45.68658321763739,0 167.6251753785716,-45.68557850061984,0 167.6279835274766,-45.68443266380289,0 167.6304306135085,-45.68197833487739,0 167.6316559347257,-45.6789113446884,0 167.6271082163217,-45.67948994117795,0 167.6263309635334,-45.68038257132883,0 167.6236366004118,-45.68158214113077,0 167.6223860077568,-45.68239540221241,0 167.6224349084975,-45.68360312597248,0 167.6210319912513,-45.6845548647607,0 167.6186424551847,-45.68550623859261,0 167.6173873942066,-45.68612178397691,0 167.6164023461204,-45.68750549941044,0 167.6140154210854,-45.68848354803736,0 167.6120290425925,-45.68898711692533,0 167.6100006260772,-45.68981847209722,0 167.6089546072795,-45.69029901547425,0 167.6087022956232,-45.69184936044596,0 167.6098206570348,-45.69308926393634,0 167.6103269231535,-45.69415244266289,0 167.6097862433297,-45.6961760335084,0 167.6087956343914,-45.69831913989793,0 167.6090627349536,-45.69991194369115,0 167.6100142975861,-45.70169730143789,0 167.6109017440206,-45.70293686612411,0 167.6135227626351,-45.70410617195932,0 167.6163623838866,-45.70503494755823,0 167.6170345682476,-45.70568842107513,0 167.6185183257479,-45.70816021293666,0 167.6198755521721,-45.70879682682826,0 167.6204252073578,-45.71004367761163,0 167.6202052273195,-45.71172246789563,0 167.6196349426722,-45.71471248890012,0 167.6191638173708,-45.71639729171631,0 167.6188490745033,-45.7173223454649,0 167.620532297396,-45.71827722878912,0 167.6214016354581,-45.71908301088421,0 167.6211549768507,-45.72172196180933,0 167.6200023057065,-45.723214982969,0 167.617673090619,-45.72568188926254,0 167.6191482946455,-45.72560568306283,0 
						
</coordinates>

						</LinearRing>

					</outerBoundaryIs>

				</Polygon>

				<flyID>2</flyID>

				<flyDescription>There is no speed restriction between the 1st of Oct and 31st of July from the Mararoa Weir to a point 2 kilometres down stream of the Tuatapere bridge.</flyDescription>

			</Placemark>
<Placemark>

				<name>Speed Exemption</name>

				<description>There is no speed restriction between the 1st of Oct and 31st of July from the Mararoa Weir to a point 2 kilometres down stream of the Tuatapere bridge.</description>

				<styleUrl>#style1</styleUrl>

				<Polygon>

					<tessellate>1</tessellate>

					<outerBoundaryIs>

						<LinearRing>

							<coordinates>

							167.6046738252258,-45.75163794488787,0 167.6069717080552,-45.75065925895251,0 167.6079402943282,-45.74868493273161,0 167.6074911767083,-45.74731348875912,0 167.6061283048018,-45.74588446409345,0 167.6045486619314,-45.74516790834715,0 167.6031928728563,-45.74480798658119,0 167.5997966610141,-45.74529377737477,0 167.5973569931914,-45.74586724022998,0 167.5953271094052,-45.74628766023836,0 167.5940295000435,-45.74636961570622,0 167.5933206348946,-45.74605751167847,0 167.5925557955791,-45.74555956965961,0 167.5911791067299,-45.7450909972383,0 167.5903961955937,-45.74503027564882,0 167.5895418283762,-45.74502432756509,0 167.5891952215478,-45.74487762847735,0 167.5879537444953,-45.74328122039339,0 167.5872911572454,-45.74047838478865,0 167.5884616804442,-45.73767782956639,0 167.5916036734859,-45.73521108897304,0 167.5944218104767,-45.73382143334126,0 167.5991705432997,-45.73239350988054,0 167.6049665980941,-45.73099128672133,0 167.6094412215095,-45.73048577944828,0 167.6113006791971,-45.73002599061242,0 167.6134176616372,-45.72929368812494,0 167.6159007992017,-45.72792810323672,0 167.6191482946455,-45.72560568306283,0 167.617673090619,-45.72568188926254,0 167.6159701133161,-45.72705094972077,0 167.6129510574789,-45.72851694305828,0 167.6088816770977,-45.7299028421742,0 167.6046737504986,-45.73058033211469,0 167.5989268316893,-45.73187971195594,0 167.5940433083314,-45.73322083438249,0 167.590144407917,-45.73520991068116,0 167.5872507223906,-45.73714999544434,0 167.5852982040497,-45.73970230245946,0 167.5855765216763,-45.74151270572735,0 167.5863042079782,-45.74378299486375,0 167.5854580421157,-45.74483759494352,0 167.5852070043188,-45.74589658619294,0 167.5859617330692,-45.74642027653296,0 167.5863531895258,-45.74760631986632,0 167.5873335941061,-45.74850333059149,0 167.5884909359811,-45.74881320625208,0 167.5896465202082,-45.74839269311572,0 167.5907785335408,-45.74777228692401,0 167.5929168287104,-45.74747061294461,0 167.5949016715768,-45.74710383739756,0 167.5976038944165,-45.7468377879564,0 167.6001988512498,-45.74608623053861,0 167.6012064583212,-45.74572432995056,0 167.6034561336941,-45.74576967995009,0 167.6050605134168,-45.7462117309876,0 167.6064874501217,-45.74735673065993,0 167.6067772364445,-45.74862896553629,0 167.6068190000636,-45.74933185845154,0 167.6062002726612,-45.75024748631976,0 167.6042636761268,-45.7511555515479,0 167.6046738252258,-45.75163794488787,0 
						
</coordinates>

						</LinearRing>

					</outerBoundaryIs>

				</Polygon>

				<flyID>3</flyID>

				<flyDescription>There is no speed restriction between the 1st of Oct and 31st of July from the Mararoa Weir to a point 2 kilometres down stream of the Tuatapere bridge.</flyDescription>

			</Placemark>
<Placemark>

				<name>Speed Exemption</name>

				<description>There is no speed restriction between the 1st of Oct and 31st of July from the Mararoa Weir to a point 2 kilometres down stream of the Tuatapere bridge.</description>

				<styleUrl>#style1</styleUrl>

				<Polygon>

					<tessellate>1</tessellate>

					<outerBoundaryIs>

						<LinearRing>

							<coordinates>

							167.6322516586414,-45.79550182934131,0 167.6313419705936,-45.79477415613536,0 167.6315931223213,-45.79402213433653,0 167.6315302928066,-45.79354030240035,0 167.6306377113506,-45.79258797498316,0 167.6305859673637,-45.79077226808032,0 167.6315513587954,-45.78724045655898,0 167.6327357417616,-45.78510481214033,0 167.6326364046717,-45.78379594819131,0 167.6316262785757,-45.78169997351124,0 167.6297809837627,-45.7795616676566,0 167.6291127998424,-45.77894006034737,0 167.6288132688989,-45.77757467166523,0 167.6285987774151,-45.77674566492077,0 167.6270318332281,-45.77524531158042,0 167.6239188953717,-45.77420994829182,0 167.6212198613552,-45.77412319279605,0 167.6184618531443,-45.7749957020979,0 167.6150165083143,-45.77446323378683,0 167.6128679823052,-45.77321879109748,0 167.6117337273162,-45.77255848179801,0 167.611023039512,-45.77123806628593,0 167.6099598259387,-45.77002270991381,0 167.6099003866284,-45.76857204117269,0 167.6090547706318,-45.76776647258912,0 167.608891226826,-45.76708108602828,0 167.6087387343578,-45.76661275988386,0 167.6074596580843,-45.76634321998274,0 167.6058348532715,-45.76510761948668,0 167.6043203615156,-45.76410687960873,0 167.6028737406462,-45.76298808869637,0 167.6019892800105,-45.76068986666451,0 167.6026235822311,-45.758216608292,0 167.6033969661457,-45.75634064705484,0 167.6032895715599,-45.7544626145348,0 167.6046738252258,-45.75163794488787,0 167.6042636761268,-45.7511555515479,0 167.6033401715663,-45.75243404944274,0 167.6027033369114,-45.75398315376665,0 167.6024658520228,-45.75541624899152,0 167.6025558016724,-45.75667639750306,0 167.6018418244865,-45.7581974217026,0 167.6014239262371,-45.76025170711139,0 167.6014087170896,-45.76182012310785,0 167.6022231701007,-45.76344708254146,0 167.6036456779463,-45.76500800229698,0 167.6048027165587,-45.7653378802166,0 167.605772966002,-45.76583733607225,0 167.6065573300724,-45.76655546741618,0 167.6076782658529,-45.76698845276304,0 167.6087801411631,-45.7681169600688,0 167.6092321910693,-45.76891704771691,0 167.6092920833917,-45.76988929553404,0 167.6107599164479,-45.77202137200936,0 167.6116962892824,-45.77332287257767,0 167.6132558142651,-45.77451173962942,0 167.6144036436822,-45.77509145892478,0 167.6161324810784,-45.77529290540887,0 167.6186376486957,-45.77551852652458,0 167.6197275752741,-45.77552829978764,0 167.6210529717405,-45.77564026315951,0 167.6219505362654,-45.77524505173153,0 167.6231392172561,-45.77466489018608,0 167.6247565356487,-45.77493357853312,0 167.6268539832518,-45.77686467289001,0 167.6280908632109,-45.77880691611972,0 167.6299350397013,-45.78053841783644,0 167.6314328610498,-45.78293782975138,0 167.6320381621514,-45.78492717252829,0 167.6309018153837,-45.78686328387625,0 167.6302525780175,-45.78915393041654,0 167.6296874433794,-45.79138128994585,0 167.62929934191,-45.79257383727003,0 167.6296134592879,-45.79298133945088,0 167.6306424419715,-45.79334753736955,0 167.6308766650966,-45.794023825746,0 167.6303351679445,-45.79488760033357,0 167.6303630521242,-45.79531780997816,0 167.6314010923882,-45.7958256263424,0 167.6322516586414,-45.79550182934131,0 
						
</coordinates>

						</LinearRing>

					</outerBoundaryIs>

				</Polygon>

				<flyID>4</flyID>

				<flyDescription>There is no speed restriction between the 1st of Oct and 31st of July from the Mararoa Weir to a point 2 kilometres down stream of the Tuatapere bridge.</flyDescription>

			</Placemark>
<Placemark>

				<name>Speed Exemption</name>

				<description>Frasers Beach - Lake Manapouri along Frasers Beach within 200 metres of the edge of the water. Ski Lane Area.</description>

				<styleUrl>#style1</styleUrl>

				<Polygon>

					<tessellate>1</tessellate>

					<outerBoundaryIs>

						<LinearRing>

							<coordinates>

							167.6077039849019,-45.5650060814722,0 167.6092113017075,-45.56415563478433,0 167.6077290099819,-45.56268828978308,0 167.6062079779402,-45.56356654972625,0 167.6077039849019,-45.5650060814722,0 
						
</coordinates>

						</LinearRing>

					</outerBoundaryIs>

				</Polygon>

				<flyID>5</flyID>

				<flyDescription>Frasers Beach - Lake Manapouri along Frasers Beach within 200 metres of the edge of the water. Ski Lane Area.</flyDescription>

			</Placemark>
<Placemark>

				<name>Speed Exemption</name>

				<description>Surprise Bay - Lake Manapouri, within 200 metres of the edge of the water. Ski Lane Area.</description>

				<styleUrl>#style1</styleUrl>

				<Polygon>

					<tessellate>1</tessellate>

					<outerBoundaryIs>

						<LinearRing>

							<coordinates>

							167.5616893257741,-45.55381059441221,0 167.5624794154186,-45.55286157346306,0 167.5617435259751,-45.55114946270395,0 167.5609765211764,-45.55212310619169,0 167.5616893257741,-45.55381059441221,0 
						
</coordinates>

						</LinearRing>

					</outerBoundaryIs>

				</Polygon>

				<flyID>6</flyID>

				<flyDescription>Surprise Bay - Lake Manapouri, within 200 metres of the edge of the water. Ski Lane Area.</flyDescription>

			</Placemark>
<Placemark>

				<name>5 Knot Zone</name>

				<description>Keep to 5 knots or less (9.25km / fast walking pace) in Lake Manapouri within 200 metres of shore</description>

				<styleUrl>#style2</styleUrl>

				<Polygon>

					<tessellate>1</tessellate>

					<outerBoundaryIs>

						<LinearRing>

							<coordinates>

							167.5189152329264,-45.48530399054897,0 167.5177035706791,-45.48469617685826,0 167.5173373833234,-45.48347437163054,0 167.5171176348477,-45.48194543823865,0 167.5141726821059,-45.48035101655905,0 167.5114988915753,-45.47913033799477,0 167.5104468597675,-45.47883551791579,0 167.5107483356792,-45.47724384917976,0 167.5105386880649,-45.47581049866377,0 167.5112816342308,-45.47542092836521,0 167.5118855143757,-45.47729285486434,0 167.5135183786273,-45.478872761657,0 167.5162448715578,-45.48045812027452,0 167.5184435653196,-45.48161835752133,0 167.5201605172811,-45.4819137441002,0 167.522218411184,-45.48284237365951,0 167.5242851568315,-45.48276007374575,0 167.5268447533375,-45.48260273329106,0 167.5284636101112,-45.48324933871324,0 167.5302076144161,-45.48357502316956,0 167.5327009688089,-45.48424909375006,0 167.5347716677114,-45.48370433482962,0 167.5367373214649,-45.48366852771785,0 167.5385428018321,-45.48372752161534,0 167.5407544656234,-45.48274589872355,0 167.5423144780593,-45.48117373050641,0 167.5420184283421,-45.47970158283168,0 167.5427530031631,-45.47828476502386,0 167.5421118980711,-45.47658128719153,0 167.5409170341197,-45.4761114913366,0 167.5402653785115,-45.47594222876282,0 167.5422965977722,-45.47525156101214,0 167.5437679380488,-45.47512396711738,0 167.5464720909293,-45.4746773307988,0 167.5488641984,-45.47509164364014,0 167.5505093939846,-45.47594237229362,0 167.5545195026439,-45.47640026410859,0 167.5565504881309,-45.47609298072974,0 167.5585424269142,-45.47553305744793,0 167.5593411309662,-45.47347228399403,0 167.557512250857,-45.4736187694209,0 167.5535771477071,-45.47444024052665,0 167.5512812388747,-45.47364033687341,0 167.5484445558295,-45.47307976035677,0 167.5452424467067,-45.47295964503211,0 167.5427115359873,-45.47299258525779,0 167.5378499143448,-45.47462554979315,0 167.5367083635968,-45.47661555617427,0 167.5379307909721,-45.47709294821289,0 167.538262786024,-45.47786866129184,0 167.5397369923008,-45.47783375162338,0 167.5389004571093,-45.4786089012369,0 167.5369956474676,-45.47964527499725,0 167.5393476592519,-45.48047466916313,0 167.5383783491944,-45.48133347732787,0 167.5368746625156,-45.48163403403121,0 167.534515856236,-45.48139028532322,0 167.5323593810568,-45.481931488786,0 167.5310273112798,-45.48130609314608,0 167.5286943565347,-45.48031516459903,0 167.5270360642074,-45.48019448522782,0 167.5246616726398,-45.480777157075,0 167.5228698354702,-45.48075601141768,0 167.5207355044674,-45.47974583732407,0 167.5189087133416,-45.47971590925578,0 167.5175339533962,-45.4785689583432,0 167.5148015594865,-45.47701427402743,0 167.5138195469195,-45.47511968751498,0 167.5134514751292,-45.47302933487443,0 167.5088465237103,-45.47389659771378,0 167.5078511203123,-45.47507384021194,0 167.5071650888078,-45.47601441618064,0 167.5082930096352,-45.4775130022726,0 167.5073288623476,-45.47873346997212,0 167.5073930987415,-45.48038229940935,0 167.5091990211622,-45.48077691962544,0 167.5123827111151,-45.48230228221528,0 167.5141068476893,-45.48247871918436,0 167.5144469013192,-45.48403701739385,0 167.5155686735905,-45.48608681971946,0 167.5189152329264,-45.48530399054897,0 
						
</coordinates>

						</LinearRing>

					</outerBoundaryIs>

				</Polygon>

				<flyID>7</flyID>

				<flyDescription>Keep to 5 knots or less (9.25km / fast walking pace) in Lake Manapouri within 200 metres of shore</flyDescription>

			</Placemark>
<Placemark>

				<name>5 Knot Zone</name>

				<description>Keep to 5 knots or less (9.25km / fast walking pace) in Lake Manapouri within 200 metres of shore</description>

				<styleUrl>#style2</styleUrl>

				<Polygon>

					<tessellate>1</tessellate>

					<outerBoundaryIs>

						<LinearRing>

							<coordinates>

							167.4804202049472,-45.4976108989717,0 167.4827135558574,-45.49692098741237,0 167.4837722862101,-45.4956720024432,0 167.4843085508861,-45.49398621171419,0 167.4850048882062,-45.49268127049178,0 167.4854094992719,-45.49210335435129,0 167.4872567017477,-45.49193415553841,0 167.4887824552578,-45.49176638693884,0 167.4898048491923,-45.49143398948201,0 167.492053630417,-45.4921137016637,0 167.4939867791933,-45.49255957012666,0 167.4980421093163,-45.49452219902077,0 167.5018513208005,-45.49654576259259,0 167.5047793240668,-45.49833837358708,0 167.5088154972525,-45.49990536039967,0 167.5132123979615,-45.50094834006067,0 167.5172143423552,-45.5012127421789,0 167.5210135471698,-45.50042902567613,0 167.5242943042524,-45.49968256365649,0 167.5253950039302,-45.49851769677306,0 167.5257430573077,-45.49660598842696,0 167.5272300170163,-45.49568796480813,0 167.5283502937984,-45.49402611202713,0 167.5280385896543,-45.49273761950598,0 167.5269068693219,-45.49182269687698,0 167.5254439323103,-45.49155909289656,0 167.5242677779295,-45.49049434238407,0 167.5234745002002,-45.49000232761305,0 167.5215054901585,-45.48864522542187,0 167.5196335520607,-45.4878232192425,0 167.5191301075891,-45.48760007923156,0 167.5194834385027,-45.48657269660549,0 167.5189152329264,-45.48530399054897,0 167.5177035706791,-45.48469617685826,0 167.5155686735905,-45.48608681971946,0 167.5166804144395,-45.48648261623101,0 167.5159870771478,-45.48768851939819,0 167.5159908916547,-45.48863447567252,0 167.5174330027063,-45.48957672982203,0 167.5197752744258,-45.4900666870578,0 167.5220500903976,-45.49198154141092,0 167.5239130104044,-45.49352259910856,0 167.5252108979525,-45.49408181552834,0 167.523351685622,-45.49496729560088,0 167.5231954717463,-45.4955160012421,0 167.5227380102038,-45.49718990678724,0 167.5228243189611,-45.49807573595538,0 167.5217396568008,-45.49830681426555,0 167.5175284553573,-45.49913204752536,0 167.5153940307402,-45.49941479419024,0 167.5112808884122,-45.49844481159922,0 167.5059655830542,-45.49657700944561,0 167.5021723751585,-45.49406112264354,0 167.4992644864605,-45.4925269619312,0 167.4969541624408,-45.49176621597604,0 167.4952690382877,-45.49063079133956,0 167.4928908056709,-45.49013799487724,0 167.4906344375303,-45.48928572249568,0 167.4888051580633,-45.48919517968816,0 167.4887079339064,-45.48978953177576,0 167.4848840102791,-45.49020329751817,0 167.4824708177895,-45.491376812053,0 167.482111501592,-45.49286956321053,0 167.4808057936376,-45.49318563694009,0 167.4811760560753,-45.49410337976757,0 167.4808146880604,-45.4955026811655,0 167.4794421418211,-45.49565469225483,0 167.4804202049472,-45.4976108989717,0 
						
</coordinates>

						</LinearRing>

					</outerBoundaryIs>

				</Polygon>

				<flyID>8</flyID>

				<flyDescription>Keep to 5 knots or less (9.25km / fast walking pace) in Lake Manapouri within 200 metres of shore</flyDescription>

			</Placemark>
<Placemark>

				<name>5 Knot Zone</name>

				<description>Keep to 5 knots or less (9.25km / fast walking pace) in Lake Manapouri within 200 metres of shore</description>

				<styleUrl>#style2</styleUrl>

				<Polygon>

					<tessellate>1</tessellate>

					<outerBoundaryIs>

						<LinearRing>

							<coordinates>

							167.5063972970085,-45.5459960267428,0 167.5025791719374,-45.54552317515433,0 167.5043299967186,-45.54454126209677,0 167.5048405980913,-45.54295729150991,0 167.5044892239735,-45.54194607718916,0 167.5059517727681,-45.54172505703387,0 167.5069456442086,-45.54075718274468,0 167.5067715614708,-45.53936738901351,0 167.5064097782521,-45.53873699414353,0 167.5062968218706,-45.53742949735052,0 167.5054417854312,-45.53642270906209,0 167.5045590761758,-45.53415108256362,0 167.5028283692705,-45.53336090202954,0 167.5006433790503,-45.53329214357151,0 167.4984036219063,-45.5340941945904,0 167.4958504030325,-45.53531184915612,0 167.4932555739446,-45.53571432611875,0 167.4897215654447,-45.53752659334202,0 167.4874399140475,-45.53851127237298,0 167.486563533983,-45.53959507422453,0 167.4832269000015,-45.54012010233828,0 167.4816783078038,-45.5400615222447,0 167.4806589270852,-45.53896719673277,0 167.4793312592304,-45.53819909981843,0 167.4782658944239,-45.53723708220866,0 167.4746688023519,-45.5364512597614,0 167.470906954023,-45.53499340841148,0 167.4678643950117,-45.53314347049292,0 167.4662139705761,-45.5326955518829,0 167.4654570929744,-45.53210201060355,0 167.4655287284987,-45.53089507862335,0 167.4643071874421,-45.5287894780787,0 167.461283731216,-45.52555824295487,0 167.4585026449727,-45.52351382422948,0 167.4561233226835,-45.52253812765959,0 167.4536022248845,-45.52183966898961,0 167.4509691449494,-45.52189403193254,0 167.449501336627,-45.52333253525834,0 167.4468687366095,-45.52455736165188,0 167.4426428994423,-45.52608294095182,0 167.4403538446087,-45.52699705097376,0 167.4353342918946,-45.53232771062161,0 167.4311695283318,-45.53634010661183,0 167.4299987748316,-45.53824994788426,0 167.4272794328896,-45.53998495544887,0 167.4259602971143,-45.54213092646438,0 167.4221044575824,-45.54363419421736,0 167.4248985401488,-45.54522435829977,0 167.4278901581597,-45.54344773870017,0 167.4296942069944,-45.54107806121555,0 167.432547633615,-45.53891929280406,0 167.4330691841652,-45.53784928912606,0 167.4350466285323,-45.53538700415211,0 167.4379476399783,-45.53305966392662,0 167.440033725967,-45.53104784346174,0 167.4417920464404,-45.52951855912941,0 167.4425386546972,-45.52806576948157,0 167.4441525224904,-45.52781637983662,0 167.4473333057296,-45.52676594589082,0 167.4514095457657,-45.52453528169393,0 167.4525172392376,-45.523514952246,0 167.4550497373447,-45.52433804849488,0 167.4567628854313,-45.52531125382901,0 167.4591042138346,-45.52690736186519,0 167.4622651726167,-45.53006211275617,0 167.4626115558798,-45.53136290321184,0 167.4624753141924,-45.53195408543115,0 167.4627201661721,-45.53268159908317,0 167.4633392058394,-45.53375988724479,0 167.4650002348745,-45.53465853949545,0 167.4660371415622,-45.53473788455702,0 167.4673695927285,-45.53561533629398,0 167.4711006956252,-45.53733222077858,0 167.4748948896604,-45.53861122120277,0 167.4769720033482,-45.53924107099753,0 167.478411029739,-45.54019705653619,0 167.4801033077041,-45.5414954005296,0 167.4819428268697,-45.54200099532012,0 167.484378960321,-45.54212035822736,0 167.4866279440554,-45.54160791041817,0 167.4885927420764,-45.54131403338942,0 167.4897798150885,-45.54073244521834,0 167.4893795214363,-45.54027232775412,0 167.4895394320243,-45.53964982065306,0 167.493923282379,-45.53771441327246,0 167.4973103160725,-45.53687542354731,0 167.4988405539219,-45.53615525096535,0 167.5007967877664,-45.53547296445737,0 167.5013522675525,-45.53528083937744,0 167.5022781805909,-45.5352128458413,0 167.5028356524812,-45.53634195473864,0 167.5023175946816,-45.53684220603989,0 167.5024240206473,-45.53739872805155,0 167.5032312798105,-45.53768836772891,0 167.5039374488688,-45.5382527528154,0 167.503529084229,-45.53852744726844,0 167.5023457267375,-45.53842118912921,0 167.5020354308626,-45.53868819361079,0 167.5021696466081,-45.53903014652288,0 167.5030317910439,-45.53920497394253,0 167.5034716005417,-45.53956519009839,0 167.5037502243296,-45.5398411144579,0 167.5044126326099,-45.54013553670011,0 167.5037663595619,-45.54001800213352,0 167.5029608577991,-45.54001199715475,0 167.5024322813856,-45.53982705631492,0 167.5019977020615,-45.5399272298601,0 167.5022260116348,-45.54103834034203,0 167.5014280996711,-45.54157993850452,0 167.5012316825342,-45.54218003635279,0 167.5015383807512,-45.54244773600446,0 167.5022400678295,-45.54326068895737,0 167.5014167321428,-45.54384150499813,0 167.5006710292365,-45.54393126630968,0 167.50013424798,-45.54380233568953,0 167.4996979621085,-45.54319048368895,0 167.4991739483014,-45.54307572971452,0 167.5001402512588,-45.54243895401261,0 167.5002412121401,-45.54182561946476,0 167.4999915231509,-45.54151523360852,0 167.4986519538957,-45.54137893874962,0 167.4961221043815,-45.54155061568363,0 167.4953771935245,-45.54107695796292,0 167.4927499970179,-45.54144550346673,0 167.4932965264652,-45.54219519340839,0 167.4929543886327,-45.54261973844507,0 167.4927355353255,-45.54356437183127,0 167.4927101390453,-45.54436821013082,0 167.4935046867632,-45.54462293438607,0 167.4944853380528,-45.54452925633955,0 167.4952762589481,-45.54415154496331,0 167.4964270189119,-45.54449161298421,0 167.4974994022508,-45.54475662060202,0 167.4980561019849,-45.54588751373996,0 167.4980262801167,-45.5467583187971,0 167.498764854015,-45.54739648394935,0 167.5001137606903,-45.54757586048205,0 167.5010941629863,-45.54718220816899,0 167.5016040282887,-45.54729466268782,0 167.5028919542205,-45.54756679780143,0 167.5054778039823,-45.54803262295685,0 167.5064237568929,-45.54796972660248,0 167.5075968109968,-45.54853580639068,0 167.5063972970085,-45.5459960267428,0 
						
</coordinates>

						</LinearRing>

					</outerBoundaryIs>

				</Polygon>

				<flyID>9</flyID>

				<flyDescription>Keep to 5 knots or less (9.25km / fast walking pace) in Lake Manapouri within 200 metres of shore</flyDescription>

			</Placemark>
<Placemark>

				<name>5 Knot Zone</name>

				<description>Keep to 5 knots or less (9.25km / fast walking pace) in Lake Manapouri within 200 metres of shore</description>

				<styleUrl>#style2</styleUrl>

				<Polygon>

					<tessellate>1</tessellate>

					<outerBoundaryIs>

						<LinearRing>

							<coordinates>

							167.5339620174565,-45.58445225164395,0 167.5280452989374,-45.58217254341088,0 167.525584403673,-45.58090728669674,0 167.5234031764803,-45.57768964929886,0 167.5246865245629,-45.57661398210049,0 167.5259505291475,-45.57439915728665,0 167.5256789807553,-45.57223479235708,0 167.5236777877688,-45.56978879768673,0 167.5221826257362,-45.56883705447538,0 167.5211197417191,-45.56869553446506,0 167.5208834514324,-45.56743577335597,0 167.5200166969969,-45.56630101154434,0 167.5181066193208,-45.56427233580043,0 167.517222407702,-45.5624014294835,0 167.5166022212618,-45.55994754589545,0 167.5165369081382,-45.55823862155176,0 167.5156234932641,-45.55682288875779,0 167.5162583275524,-45.55564734567573,0 167.5147899906197,-45.55139242560172,0 167.5119718275277,-45.54913574051935,0 167.5102504308235,-45.54808039841769,0 167.5092913385432,-45.54667465727139,0 167.5063972970085,-45.5459960267428,0 167.5075624430443,-45.54833118462872,0 167.5076754237806,-45.54872751966549,0 167.5083832390971,-45.54932886256407,0 167.5099410644553,-45.55035878676327,0 167.5119188481606,-45.55200810619112,0 167.5128887850348,-45.55349383794172,0 167.5137888557674,-45.55522162010742,0 167.5129457602216,-45.55603033353665,0 167.5127227750099,-45.55688534152436,0 167.513698432492,-45.55857872418223,0 167.5140477363324,-45.55916652179009,0 167.5135211581179,-45.56011896904313,0 167.5139458605708,-45.56115391465483,0 167.5146647338748,-45.56250705754172,0 167.5150692374884,-45.56421740317227,0 167.5156876199517,-45.56492682571617,0 167.5162028003152,-45.56607947892027,0 167.516685520202,-45.56612107266227,0 167.5176298145596,-45.56729268179289,0 167.5182369674516,-45.56792323565049,0 167.5183574321387,-45.5686500517077,0 167.5185739056373,-45.56919225406954,0 167.5184434138132,-45.56995250525118,0 167.5192705153878,-45.57035774357491,0 167.5208608537183,-45.57062613113031,0 167.5213426694973,-45.57095320399072,0 167.5221131990179,-45.57160330904037,0 167.5229432169818,-45.57281382212434,0 167.5228053779572,-45.57359296843473,0 167.5232251926668,-45.57418668525958,0 167.5228851913518,-45.5746035944315,0 167.5228266295687,-45.57529331319577,0 167.5221711676589,-45.57545117382546,0 167.5215910681809,-45.57622694629819,0 167.5202267492127,-45.57721350966336,0 167.521447523519,-45.57940972135313,0 167.5249524583043,-45.58263438840243,0 167.5287807180068,-45.58430579048248,0 167.5302516017176,-45.58489416221474,0 167.5322394426246,-45.58597355692046,0 167.533208165925,-45.58636031717555,0 167.5345520967489,-45.58611204721231,0 167.5339620174565,-45.58445225164395,0 
						
</coordinates>

						</LinearRing>

					</outerBoundaryIs>

				</Polygon>

				<flyID>10</flyID>

				<flyDescription>Keep to 5 knots or less (9.25km / fast walking pace) in Lake Manapouri within 200 metres of shore</flyDescription>

			</Placemark>
<Placemark>

				<name>5 Knot Zone</name>

				<description>Keep to 5 knots or less (9.25km / fast walking pace) in Lake Manapouri within 200 metres of shore</description>

				<styleUrl>#style2</styleUrl>

				<Polygon>

					<tessellate>1</tessellate>

					<outerBoundaryIs>

						<LinearRing>

							<coordinates>

							167.5397226494966,-45.55177436541591,0 167.5410083479772,-45.55358862145374,0 167.5436349168226,-45.55593064639739,0 167.5458236135762,-45.55758118645631,0 167.5486650994895,-45.55859067836732,0 167.5514352779901,-45.5588723916423,0 167.5532986186028,-45.55874322111903,0 167.5541854604662,-45.5591516819325,0 167.5548061738449,-45.5599864556552,0 167.5531433723229,-45.56048476393878,0 167.5516752789515,-45.5604344517534,0 167.5487609835051,-45.55951412878311,0 167.5458532276531,-45.55874013825939,0 167.5412931768344,-45.55878182583742,0 167.5392991348859,-45.55945379880327,0 167.5365362017857,-45.56155679807429,0 167.5353458139819,-45.56378039047587,0 167.5356963684323,-45.56508479025757,0 167.5379376309489,-45.56606885695756,0 167.5400888873719,-45.56658624657484,0 167.541795734667,-45.56625197868829,0 167.542067624069,-45.56692541404598,0 167.5405010290597,-45.56848565100737,0 167.5406900262497,-45.56975887297132,0 167.5386361074251,-45.56892491401463,0 167.5357461624259,-45.56923899386621,0 167.5332255631729,-45.57050272085721,0 167.5323841319926,-45.57466105804819,0 167.5323967824704,-45.57641624044754,0 167.533486378956,-45.5787389803279,0 167.5366206959394,-45.5807782352179,0 167.539554367432,-45.58191501222895,0 167.5394759364429,-45.5852169951778,0 167.5354463833325,-45.58471912633719,0 167.5339620174565,-45.58445225164395,0 167.5345520967489,-45.58611204721231,0 167.535904171409,-45.58603398428387,0 167.5365522653304,-45.58647466062408,0 167.5385628149877,-45.58665920819306,0 167.5405667971386,-45.58818470667067,0 167.5407152265581,-45.58862704301087,0 167.5414846700938,-45.58893097678941,0 167.5419945451689,-45.5888377116667,0 167.5432981209543,-45.58828485432589,0 167.5436745823707,-45.58783427085058,0 167.5439085668835,-45.58716605442657,0 167.5431626783701,-45.58124984810126,0 167.5425834846598,-45.58085981146334,0 167.540850268766,-45.58007722176573,0 167.5400607549472,-45.58005393938917,0 167.5385977539542,-45.58028676695223,0 167.5379482426165,-45.5798664457192,0 167.5376532558211,-45.57925603161172,0 167.5364402589444,-45.57847152778331,0 167.5360087762492,-45.57777317478513,0 167.5355954438819,-45.57687064939438,0 167.5348941613049,-45.57585662291899,0 167.5350564847765,-45.57538307605103,0 167.5349546721367,-45.57389123186313,0 167.5354559640016,-45.57347879675417,0 167.535426026653,-45.57313161556535,0 167.5356690180241,-45.57262999190633,0 167.5360043730519,-45.57224424833593,0 167.5358365782091,-45.57184471050583,0 167.5358630889396,-45.57167482338731,0 167.5359692057097,-45.57147475689422,0 167.536495123576,-45.57127106743964,0 167.5366591150714,-45.57102234923946,0 167.5372534124876,-45.57115975374899,0 167.5377751054524,-45.57098932405836,0 167.5382118387016,-45.5711154833671,0 167.5382883510964,-45.57137395725157,0 167.5387137350119,-45.57168315144934,0 167.5392874688193,-45.57185608722232,0 167.5399070074361,-45.57166207381184,0 167.5404435045926,-45.57165162882909,0 167.5421152880821,-45.57174438874578,0 167.5427297599428,-45.57219078044618,0 167.5434137331792,-45.5723029294759,0 167.5438545290841,-45.57220332396393,0 167.5440282278526,-45.57191313381919,0 167.5438032976073,-45.57173078751745,0 167.5436786664076,-45.57119748422765,0 167.5441480308538,-45.57093345528283,0 167.5444952725246,-45.57047672866055,0 167.5441481006502,-45.57000322628287,0 167.5435452014153,-45.56995831892665,0 167.5431764714185,-45.56945952901903,0 167.5433214150462,-45.56877463637104,0 167.5439900926275,-45.56851299547692,0 167.5450114794835,-45.56852568034227,0 167.5454808373879,-45.56850797667525,0 167.5464265614506,-45.56782876233148,0 167.5468557739496,-45.56714505282175,0 167.5469487646838,-45.56645467434485,0 167.54665611793,-45.56592779571246,0 167.5463333774938,-45.56572132801741,0 167.5460592064856,-45.56586380764228,0 167.5447867996949,-45.56646515793939,0 167.5444917438176,-45.56644402554685,0 167.5449920352121,-45.56572043755052,0 167.5450770518656,-45.56504001373261,0 167.5442660488142,-45.56483333295979,0 167.5425202566874,-45.56449922593108,0 167.5423015832886,-45.56401134634897,0 167.5417015385859,-45.56381968499424,0 167.5405357720063,-45.56391069922051,0 167.5400644556887,-45.56463808657639,0 167.539839209706,-45.56439904499803,0 167.5390605525907,-45.56426184597917,0 167.5381218354536,-45.56406096774144,0 167.5379419715604,-45.56386098287141,0 167.5380410250841,-45.56366208214855,0 167.5386286583104,-45.5628701545449,0 167.5390490802862,-45.56260077412087,0 167.5392509793261,-45.56230696336855,0 167.5398971000583,-45.56180557899793,0 167.5405258924192,-45.56115195047453,0 167.5414648308297,-45.56058340637737,0 167.5428875426233,-45.56066226529339,0 167.543730511294,-45.56050616930534,0 167.544976573939,-45.56075902598456,0 167.5454935628623,-45.56060637292914,0 167.5464045568634,-45.56093262878358,0 167.5471179860386,-45.56109742157639,0 167.5482392505705,-45.56154362047374,0 167.548280891459,-45.56212982503722,0 167.5494691984065,-45.56231298455938,0 167.5503663148921,-45.56233624746653,0 167.5508636059229,-45.56211137919514,0 167.5516131761163,-45.56226103309908,0 167.5520658997906,-45.56273079188402,0 167.5528735420042,-45.56267292986457,0 167.5546163676087,-45.56215613163062,0 167.5568290384989,-45.56144721839077,0 167.5585588274853,-45.56064610180106,0 167.5587054033279,-45.56014022683901,0 167.5585339617835,-45.5599752892741,0 167.5583583226561,-45.55963322016997,0 167.5584418224477,-45.5592511242829,0 167.5575841820828,-45.55871518595496,0 167.5570453193558,-45.55873792544831,0 167.5569186680133,-45.55848633526093,0 167.556480716981,-45.5580848098057,0 167.5555828821316,-45.55718105960631,0 167.554398485651,-45.55705196978906,0 167.5537118771998,-45.55659874264565,0 167.5524616653626,-45.55690227813979,0 167.5509292788216,-45.55694350936337,0 167.5484288220568,-45.55665349009921,0 167.5464137001006,-45.55560683427346,0 167.5448038885871,-45.55389365772884,0 167.5439363224447,-45.55278904263267,0 167.5429990486582,-45.55242286524229,0 167.542753691053,-45.55177167758436,0 167.5424961055401,-45.55154462150486,0 167.5417026916137,-45.55024587554134,0 167.5411307797397,-45.54986352388759,0 167.5397226494966,-45.55177436541591,0 
						
</coordinates>

						</LinearRing>

					</outerBoundaryIs>

				</Polygon>

				<flyID>11</flyID>

				<flyDescription>Keep to 5 knots or less (9.25km / fast walking pace) in Lake Manapouri within 200 metres of shore</flyDescription>

			</Placemark>
<Placemark>

				<name>5 Knot Zone</name>

				<description>Keep to 5 knots or less (9.25km / fast walking pace) in Lake Manapouri within 200 metres of shore</description>

				<styleUrl>#style2</styleUrl>

				<Polygon>

					<tessellate>1</tessellate>

					<outerBoundaryIs>

						<LinearRing>

							<coordinates>

							167.5801099850135,-45.55211451814252,0 167.5801116806084,-45.55068669840096,0 167.5816227175828,-45.54836603924008,0 167.58270663295,-45.54672100616367,0 167.5826834492228,-45.54532283849525,0 167.5821084618994,-45.54455438682021,0 167.5821546414928,-45.54291866409236,0 167.5812317788098,-45.54138360745306,0 167.580639503594,-45.54067263846024,0 167.5803121111553,-45.53954750659429,0 167.5776316839674,-45.5377161294862,0 167.5764248410493,-45.53634383688008,0 167.5767961785806,-45.53399380174675,0 167.5764136461185,-45.53219231119161,0 167.5752170057101,-45.53088395778369,0 167.5729495279949,-45.53050186104888,0 167.5706310761889,-45.53155379186811,0 167.5692075904194,-45.53334246506747,0 167.5688686901191,-45.53451060350667,0 167.5676653394869,-45.53362914792347,0 167.5655514944979,-45.53355593879604,0 167.5624801453677,-45.53346686177736,0 167.5600979227866,-45.53381650934803,0 167.5585584361209,-45.5346879270614,0 167.5564083507348,-45.5353307447347,0 167.5548362234981,-45.53704510332966,0 167.5539911834677,-45.53787292752541,0 167.5540910048206,-45.53913187147018,0 167.5559025317016,-45.54025514296131,0 167.5587662530314,-45.54106412294157,0 167.5607567455093,-45.54106455752199,0 167.5613918623527,-45.54063194707871,0 167.5629626769902,-45.54110622633173,0 167.5639028942737,-45.5411026793571,0 167.5651490306212,-45.5419798397234,0 167.5665205824925,-45.54252304221879,0 167.5675959380548,-45.54437376796228,0 167.5689911843156,-45.54564252593839,0 167.5702286026436,-45.54676403722269,0 167.5682225523759,-45.54676066403302,0 167.5664090696544,-45.54701911868635,0 167.5658167101607,-45.54714662861507,0 167.5636772273935,-45.54533621177665,0 167.5619496530003,-45.54449253029815,0 167.560271381571,-45.54396290061757,0 167.5590382569347,-45.5439614542196,0 167.557499632693,-45.54304641729583,0 167.5543466716766,-45.54244990224975,0 167.5517051120968,-45.54240269010498,0 167.5502222759796,-45.54165475087417,0 167.5482034888779,-45.54188586423203,0 167.5462509960395,-45.54021014047371,0 167.5421484266441,-45.53920871569233,0 167.5393918296422,-45.53912557809605,0 167.5374941835804,-45.53911168649444,0 167.5359829725785,-45.53754783672945,0 167.5330990567113,-45.53692757866227,0 167.5311357997805,-45.53740369537279,0 167.5289443571678,-45.53980586620018,0 167.5273602173025,-45.54250887849118,0 167.5276664276496,-45.54390123193752,0 167.5295436297128,-45.5448657836604,0 167.5321861660962,-45.54473751864183,0 167.5326217508436,-45.54453102854796,0 167.5325302702698,-45.54576122989538,0 167.5334107450143,-45.54663392700897,0 167.5347752554253,-45.54774428360811,0 167.534775421053,-45.55018018179375,0 167.5355650788347,-45.55110945025547,0 167.5375319161765,-45.55165199306931,0 167.5397226494966,-45.55177436541591,0 167.5411088450406,-45.54997259698315,0 167.5411564532471,-45.54942604530353,0 167.540078363807,-45.54910313886951,0 167.5390939355931,-45.5493329676285,0 167.5392104174628,-45.54977325413965,0 167.5384880152495,-45.55001246793339,0 167.5372763720268,-45.54980859386991,0 167.5375851310175,-45.54928995787294,0 167.5376415046213,-45.54886558341146,0 167.5373495978343,-45.54806103916121,0 167.5380484025979,-45.54719558366019,0 167.5380477767671,-45.54662900539213,0 167.5364409252195,-45.5461157878409,0 167.5361580146315,-45.54573145766677,0 167.5356468556572,-45.54548502834964,0 167.5352552225162,-45.54518365051783,0 167.5352230080636,-45.54425336767343,0 167.5359599856645,-45.54284515337425,0 167.5351184528669,-45.54223098974058,0 167.5329389282489,-45.5421970691056,0 167.5312508429337,-45.54251310844993,0 167.5308252969268,-45.5430321038702,0 167.5300226536969,-45.5428708247556,0 167.5305568129609,-45.54216262425204,0 167.531073755832,-45.54188661283314,0 167.531062366997,-45.54129787859517,0 167.5315756352215,-45.54046059985133,0 167.5323378733236,-45.53922770532125,0 167.5332675572843,-45.53894141038177,0 167.5346272497474,-45.53935412043438,0 167.5345635469104,-45.5395879299035,0 167.5342891600905,-45.54016994812462,0 167.5353014979072,-45.54058716202991,0 167.536447126424,-45.54085394932784,0 167.5366739981909,-45.54123946625845,0 167.5371710569783,-45.54112241388772,0 167.5380575258163,-45.54137060245671,0 167.5385783487185,-45.54168605187926,0 167.539312996201,-45.54141601810343,0 167.5398388686563,-45.54106591896193,0 167.5408643511594,-45.54113169318063,0 167.5417618584372,-45.54124006265211,0 167.5426822004383,-45.54154879130177,0 167.5432768396011,-45.54212299833367,0 167.5440063064701,-45.54192835692467,0 167.544350916991,-45.541721240248,0 167.5452973499214,-45.5424142240427,0 167.5456370557122,-45.54292840803786,0 167.5465878376746,-45.54376119172476,0 167.5477556808897,-45.5440867486777,0 167.5486192567033,-45.54375328848399,0 167.5495685318381,-45.54367971863384,0 167.5505899501414,-45.54433943389743,0 167.5522111423519,-45.54456064679169,0 167.5538030072628,-45.54416734855639,0 167.5552813320326,-45.54448268382231,0 167.5569078552894,-45.54516191578874,0 167.5568614351913,-45.54541982818059,0 167.5573248283182,-45.54574728150646,0 167.5599247106398,-45.5460215840971,0 167.5612115280866,-45.54642450848851,0 167.5623728217379,-45.5474082840374,0 167.5637968146972,-45.54842612556621,0 167.5635474858302,-45.54970921448503,0 167.5636825489736,-45.55000249868453,0 167.5649836798103,-45.54995350794541,0 167.566019466731,-45.54987440791103,0 167.5661803969948,-45.54929370014332,0 167.5667355369849,-45.54899570075286,0 167.5675227800373,-45.54909891819,0 167.5682289554174,-45.5488310362673,0 167.5690168103638,-45.54863508846221,0 167.5696698957647,-45.54878152698828,0 167.5700903491138,-45.54856135811404,0 167.5702120076325,-45.54935302993503,0 167.571263820889,-45.54988001965297,0 167.5723063592491,-45.54946038412918,0 167.5732998587513,-45.54950167107187,0 167.5740731893634,-45.54917419942687,0 167.5747920587725,-45.54803850070308,0 167.5738217957189,-45.54713875863296,0 167.5729856535096,-45.54608540843493,0 167.5718100271992,-45.54481505284372,0 167.5709068852073,-45.54444880922407,0 167.5700692115115,-45.54342552336969,0 167.5689082205473,-45.54175236997601,0 167.5693555009576,-45.54131940486144,0 167.5690458085535,-45.54061181972308,0 167.5682618924868,-45.54043031730717,0 167.5668557357832,-45.54065745769879,0 167.5656535685671,-45.53989212932138,0 167.5645898001395,-45.53908906550889,0 167.5640228603298,-45.53887118564027,0 167.5635674522371,-45.53928259748196,0 167.5628649619753,-45.53929413564901,0 167.5620438173397,-45.53887065315568,0 167.5620376037637,-45.53858998111921,0 167.5614993385901,-45.53824850220736,0 167.5606219858061,-45.5388299786474,0 167.5594907100804,-45.53933921866724,0 167.5585816880677,-45.53909659917176,0 167.5572929389846,-45.53870099070167,0 167.5565396588733,-45.53829819428766,0 167.5571085756997,-45.53801188848492,0 167.5580468417229,-45.53690633415802,0 167.5592761353593,-45.53669751158512,0 167.5602235000862,-45.53650430388921,0 167.5606135233112,-45.53652014571305,0 167.5610095135907,-45.53644877343011,0 167.5610189479512,-45.5360412292751,0 167.5611460168341,-45.53568478528492,0 167.561569577931,-45.53565301253482,0 167.5619739548992,-45.53601956518417,0 167.5626193689327,-45.53590744602111,0 167.5630758883127,-45.53548134676321,0 167.5637208166458,-45.53561211259917,0 167.5642255132992,-45.53552336505454,0 167.5650243591024,-45.53553597554411,0 167.5657622038673,-45.53557890239438,0 167.5662794194285,-45.53569145668723,0 167.5666634807419,-45.53541754293817,0 167.5665859412448,-45.53597268458953,0 167.5669041286957,-45.53634438739401,0 167.5671110165514,-45.53696374716221,0 167.5677248130585,-45.53728847378828,0 167.5683163244832,-45.53744550443334,0 167.5688631054859,-45.53722983141789,0 167.569552497053,-45.53666472062121,0 167.5701439728266,-45.53673861977089,0 167.5708472115741,-45.53586466343601,0 167.5715670912862,-45.53472585613425,0 167.5718959796017,-45.53402370492233,0 167.5719421922195,-45.53356246580096,0 167.572286497134,-45.53361933784128,0 167.5727111298834,-45.53336116408246,0 167.573068267731,-45.5328931519035,0 167.5733310468599,-45.53232397989498,0 167.5737588880078,-45.53249541538388,0 167.5735173892769,-45.53286570737045,0 167.5736258594683,-45.5332722883466,0 167.5741929063848,-45.53361136623975,0 167.5742443311394,-45.53413324345263,0 167.5741141093001,-45.5348035740824,0 167.5738512726412,-45.53595709913697,0 167.5733746787769,-45.53685121006816,0 167.5740985728587,-45.53720708795257,0 167.5743642753849,-45.53799556484464,0 167.5749633225802,-45.53818625438988,0 167.5753052253385,-45.53877944663947,0 167.5763186256882,-45.53937100419427,0 167.5772379799413,-45.53992133973114,0 167.5779154355888,-45.54036769876435,0 167.5778502229282,-45.54085728131793,0 167.5780587285437,-45.54161929653066,0 167.5792501280061,-45.54251749503498,0 167.5795369711143,-45.54305050152742,0 167.5792341668144,-45.54462936488572,0 167.5792301925002,-45.54507474580508,0 167.5800475432808,-45.54578586948946,0 167.5800136537118,-45.54615647344774,0 167.5796540706225,-45.54720685902876,0 167.5791078756261,-45.54750026729126,0 167.578597982252,-45.54835806091696,0 167.5779074060429,-45.54972490874205,0 167.5774029641349,-45.55088511851142,0 167.5774644235515,-45.55217055364961,0 167.5801099850135,-45.55211451814252,0 
						
</coordinates>

						</LinearRing>

					</outerBoundaryIs>

				</Polygon>

				<flyID>12</flyID>

				<flyDescription>Keep to 5 knots or less (9.25km / fast walking pace) in Lake Manapouri within 200 metres of shore</flyDescription>

			</Placemark>
<Placemark>

				<name>5 Knot Zone</name>

				<description>Keep to 5 knots or less (9.25km / fast walking pace) in Lake Manapouri within 200 metres of shore</description>

				<styleUrl>#style2</styleUrl>

				<Polygon>

					<tessellate>1</tessellate>

					<outerBoundaryIs>

						<LinearRing>

							<coordinates>

							167.6096384710183,-45.49251777670478,0 167.6070178522649,-45.49415189208776,0 167.6068639479477,-45.49475042461105,0 167.6071028823523,-45.49543539362685,0 167.6086392702522,-45.49532169552834,0 167.6096523119042,-45.4938471176265,0 167.6101796983562,-45.4927207189409,0 167.611216049943,-45.49293849601545,0 167.6137469028029,-45.4936063670664,0 167.615354848946,-45.49275152829637,0 167.6179377056718,-45.49296991645726,0 167.6188951463249,-45.49136358938127,0 167.6208328880231,-45.4903099897155,0 167.6200734460484,-45.48863833810799,0 167.6177888097406,-45.48628885688718,0 167.6156059790542,-45.48594694821004,0 167.6148164373013,-45.48468877064668,0 167.6137726440643,-45.48406086619257,0 167.6108300119504,-45.48356285868849,0 167.6094546826931,-45.48109140883472,0 167.6074889040639,-45.47958448683134,0 167.6035987126515,-45.47723588464038,0 167.600597288156,-45.47634901539632,0 167.5998227120711,-45.47540652877805,0 167.5973700593336,-45.47551958230058,0 167.5951878143929,-45.47729036451851,0 167.5933636865444,-45.47814685119153,0 167.5935606762161,-45.47985932094152,0 167.5898406927789,-45.48156266309908,0 167.5861759694853,-45.48241838605826,0 167.5851826355729,-45.48198584739131,0 167.584130464905,-45.48243466411593,0 167.5813380092202,-45.4813281396221,0 167.5783814362694,-45.48087570299833,0 167.5755317469229,-45.48028341307309,0 167.5734859965008,-45.48008834703016,0 167.5681725849064,-45.47873283529735,0 167.563899095417,-45.47740858341269,0 167.5615765496912,-45.47432323198626,0 167.5592780843873,-45.47341196335656,0 167.5585240939223,-45.47549363829095,0 167.559556234532,-45.47583699082822,0 167.5607592669965,-45.47773939130604,0 167.5624888158865,-45.47921875629165,0 167.5652308547694,-45.48023894118885,0 167.5667059693292,-45.48027219981601,0 167.5715813824608,-45.48193810170644,0 167.5762812153268,-45.48296313837412,0 167.5798408480459,-45.48320839031349,0 167.5850026190321,-45.48452862757442,0 167.5890127350865,-45.48414236917223,0 167.5952169830721,-45.48141690338768,0 167.5964811397159,-45.47905872294532,0 167.5982955919736,-45.47732465004481,0 167.6032246805652,-45.47911474419649,0 167.6065631061853,-45.48158889302037,0 167.6081474370278,-45.48458766369894,0 167.6096953813115,-45.48568663198392,0 167.6118869532891,-45.4858257651296,0 167.614497440495,-45.48789660918043,0 167.6156094886657,-45.48819998719323,0 167.6173926682003,-45.4898283786042,0 167.6162953183406,-45.49057582692456,0 167.613759066746,-45.49091953376981,0 167.612106721182,-45.49106351910976,0 167.6094478577678,-45.49073095577517,0 167.6048954142161,-45.49238201843718,0 167.6052024831336,-45.49334209432073,0 167.6096384710183,-45.49251777670478,0 
						
</coordinates>

						</LinearRing>

					</outerBoundaryIs>

				</Polygon>

				<flyID>13</flyID>

				<flyDescription>Keep to 5 knots or less (9.25km / fast walking pace) in Lake Manapouri within 200 metres of shore</flyDescription>

			</Placemark>
<Placemark>

				<name>5 Knot Zone</name>

				<description>Keep to 5 knots or less (9.25km / fast walking pace) in Lake Manapouri within 200 metres of shore</description>

				<styleUrl>#style2</styleUrl>

				<Polygon>

					<tessellate>1</tessellate>

					<outerBoundaryIs>

						<LinearRing>

							<coordinates>

							167.6012357203749,-45.53069326649926,0 167.599485623475,-45.52996671358846,0 167.5972516656832,-45.52776437875841,0 167.5983688089019,-45.5268942568892,0 167.598890388073,-45.52452686707069,0 167.6001349513966,-45.52302703271074,0 167.6000435154142,-45.52240503951694,0 167.5989837906383,-45.52079218196413,0 167.5991953069799,-45.51796795501837,0 167.5987915326727,-45.51564553724284,0 167.6001280172367,-45.51314632213748,0 167.6002711985449,-45.51157927958911,0 167.6012221302482,-45.51133239459495,0 167.602766718488,-45.50915177642069,0 167.6039452632192,-45.50759918556246,0 167.6050826359782,-45.5044291846918,0 167.6039648048086,-45.50223156853644,0 167.6030247845631,-45.50165481364835,0 167.6013286085011,-45.50170282054739,0 167.6000464350625,-45.50165759342365,0 167.5975614836599,-45.50197168299184,0 167.5959235756161,-45.50219127555343,0 167.5936546879093,-45.50176868299905,0 167.591107515332,-45.50206254766886,0 167.5888763033844,-45.5020146927264,0 167.589489669757,-45.5014235224861,0 167.5887557467373,-45.50089531260115,0 167.5889741751577,-45.49964748510499,0 167.5916495701007,-45.49881816854099,0 167.5942685699357,-45.49739178190887,0 167.5959245801023,-45.49596960806768,0 167.5968759630848,-45.49516221969902,0 167.6003362258752,-45.49447422111907,0 167.605311331472,-45.49334620844552,0 167.6013444411569,-45.49263053630114,0 167.5956562278422,-45.49324748792205,0 167.5935755379335,-45.49486843678777,0 167.5921415423767,-45.49631271727847,0 167.5890163746942,-45.49729643879729,0 167.5866118842007,-45.49891371109445,0 167.5858545183454,-45.5014588403752,0 167.5868213462443,-45.50336361393771,0 167.5888757239204,-45.50413848403577,0 167.5912394002241,-45.50398821704747,0 167.5930383960296,-45.50340741787209,0 167.5956338214514,-45.50405330618906,0 167.5990847629294,-45.50344784536021,0 167.602153826297,-45.50381284501528,0 167.6019232119464,-45.50495799683096,0 167.6011921004054,-45.5075820873812,0 167.5977921999072,-45.51051938158634,0 167.5974235366241,-45.51217151144505,0 167.5961803316435,-45.51412940129137,0 167.5966150617019,-45.51777915851066,0 167.59614419002,-45.51911751224398,0 167.5963729258033,-45.52252525840449,0 167.5948623576894,-45.52758917018733,0 167.5966393922164,-45.53050809261289,0 167.5989799780329,-45.53250804013997,0 167.6025705874096,-45.53249504978782,0 167.6012357203749,-45.53069326649926,0 
						
</coordinates>

						</LinearRing>

					</outerBoundaryIs>

				</Polygon>

				<flyID>14</flyID>

				<flyDescription>Keep to 5 knots or less (9.25km / fast walking pace) in Lake Manapouri within 200 metres of shore</flyDescription>

			</Placemark>
<Placemark>

				<name>5 Knot Zone</name>

				<description>Keep to 5 knots or less (9.25km / fast walking pace) in Lake Manapouri within 200 metres of shore</description>

				<styleUrl>#style2</styleUrl>

				<Polygon>

					<tessellate>1</tessellate>

					<outerBoundaryIs>

						<LinearRing>

							<coordinates>

							167.6092460008697,-45.56416880935308,0 167.6124832368528,-45.56251587805629,0 167.6171493189257,-45.55896962904333,0 167.6219722038173,-45.55474508125565,0 167.6253694313379,-45.55134767749639,0 167.6239532851629,-45.5481433297341,0 167.6207093088149,-45.54475029291553,0 167.6190111970446,-45.54450333694525,0 167.6142855395899,-45.54026973868197,0 167.6130597351679,-45.53870346423791,0 167.6132368185928,-45.53708502665769,0 167.6151430560012,-45.53624475112157,0 167.6137889676863,-45.53437101144304,0 167.6125065692036,-45.53231279039067,0 167.6119388118302,-45.53107961349281,0 167.612286464405,-45.52932333557695,0 167.6116162574862,-45.52882875429091,0 167.6092439662957,-45.5283239855686,0 167.6065614732431,-45.52704642808197,0 167.6049127088715,-45.52731952862976,0 167.6033645745912,-45.52723225313157,0 167.6017252639726,-45.52783488860489,0 167.6017959660655,-45.5295804709947,0 167.6012357203749,-45.53069326649926,0 167.6025705874096,-45.53249504978782,0 167.6044149193405,-45.53115756188981,0 167.6040024938343,-45.52934136114045,0 167.6059037643387,-45.529347357528,0 167.6089908285951,-45.5303038387785,0 167.6094485705188,-45.53249467161183,0 167.6117173412141,-45.53549945085403,0 167.6107368857933,-45.53654473755878,0 167.6100671238744,-45.53762314472349,0 167.6102495949427,-45.53970762601533,0 167.6160091945234,-45.5444820741194,0 167.6178792058329,-45.54630612941325,0 167.6201421322517,-45.54730689741429,0 167.6224747003709,-45.55043250052646,0 167.6218741069677,-45.55133532980073,0 167.6196643555461,-45.55367968280459,0 167.6159346860638,-45.55696603837223,0 167.61345722846,-45.55911050345437,0 167.6078103767161,-45.56268074629105,0 167.6092460008697,-45.56416880935308,0 
						
</coordinates>

						</LinearRing>

					</outerBoundaryIs>

				</Polygon>

				<flyID>15</flyID>

				<flyDescription>Keep to 5 knots or less (9.25km / fast walking pace) in Lake Manapouri within 200 metres of shore</flyDescription>

			</Placemark>
<Placemark>

				<name>5 Knot Zone</name>

				<description>Keep to 5 knots or less (9.25km / fast walking pace) in Lake Manapouri within 200 metres of shore</description>

				<styleUrl>#style2</styleUrl>

				<Polygon>

					<tessellate>1</tessellate>

					<outerBoundaryIs>

						<LinearRing>

							<coordinates>

							167.572146805145,-45.55897460914438,0 167.5717469314148,-45.55900873318171,0 167.569995570949,-45.55818012606576,0 167.5683414098741,-45.55785746009832,0 167.5633133055584,-45.55646510187721,0 167.5626359851,-45.55591103514133,0 167.5626048189971,-45.55461037815339,0 167.5626225399929,-45.55340093961604,0 167.5647261675264,-45.55260342875619,0 167.5664619309658,-45.5539683848199,0 167.5688443282586,-45.55632711802274,0 167.5716181262421,-45.55699294541325,0 167.5739488129264,-45.55701495639487,0 167.575516821416,-45.55606274629071,0 167.5771092582608,-45.5556880892408,0 167.5790537812904,-45.55401258413614,0 167.5801099850135,-45.55211451814252,0 167.5774644235515,-45.55217055364961,0 167.576647166369,-45.55310798994437,0 167.5754183396113,-45.55372510739399,0 167.5754242382329,-45.55413571283339,0 167.5749634028911,-45.55422663938671,0 167.5738697631327,-45.55452398786697,0 167.5731209822304,-45.55516907480865,0 167.5726588209988,-45.55514776798095,0 167.5715180963222,-45.5550555924514,0 167.5705829822144,-45.55484776886245,0 167.5699479896852,-45.5544980907224,0 167.5698294892634,-45.55412389242732,0 167.5694780630344,-45.55379906908981,0 167.5688933819882,-45.55331646456173,0 167.5692348050356,-45.5526436280612,0 167.5691106068651,-45.55231551798006,0 167.567731730686,-45.55218175125902,0 167.566669007542,-45.55152349867513,0 167.5660629152694,-45.55069387004058,0 167.5645430459376,-45.55067508221575,0 167.5637028014541,-45.55055786986113,0 167.5633491571947,-45.55094044454301,0 167.5627236658792,-45.55114369052553,0 167.5618102709639,-45.55109730779916,0 167.5625866667746,-45.55286341240675,0 167.5617306299178,-45.55392440731509,0 167.5609062604761,-45.55219143725296,0 167.5600951800067,-45.55281350592347,0 167.5599880109894,-45.55403339472694,0 167.5600782080307,-45.55496455841766,0 167.5598850029555,-45.55637060669666,0 167.5602461261812,-45.55698732827441,0 167.5611088423244,-45.55764299983989,0 167.5616850010974,-45.5581843446922,0 167.5622637814204,-45.55840902749028,0 167.562985737459,-45.55840534285078,0 167.5633967635152,-45.55857902287237,0 167.56404764501,-45.55868162058401,0 167.5647196814324,-45.55907325079803,0 167.5651904909998,-45.55917755494473,0 167.5661878772857,-45.55923261331527,0 167.5668441264948,-45.55952704143493,0 167.5677190574805,-45.55982349892338,0 167.5684918662552,-45.55982962421844,0 167.5692230671677,-45.55995712734816,0 167.5697737084153,-45.56030799966764,0 167.5705104068117,-45.56080628737789,0 167.5727627942499,-45.5608912586884,0 167.5733432710152,-45.56099451863869,0 167.5742498342642,-45.56095079492758,0 167.574333564234,-45.55920218405473,0 167.572146805145,-45.55897460914438,0 
						
</coordinates>

						</LinearRing>

					</outerBoundaryIs>

				</Polygon>

				<flyID>16</flyID>

				<flyDescription>Keep to 5 knots or less (9.25km / fast walking pace) in Lake Manapouri within 200 metres of shore</flyDescription>

			</Placemark>
<Placemark>

				<name>5 Knot Zone</name>

				<description>Keep to 5 knots or less (9.25km / fast walking pace) in Lake Manapouri within 200 metres of shore</description>

				<styleUrl>#style2</styleUrl>

				<Polygon>

					<tessellate>1</tessellate>

					<outerBoundaryIs>

						<LinearRing>

							<coordinates>

							167.6061819629629,-45.56355043693048,0 167.6031399381808,-45.56436665503569,0 167.6017451920082,-45.56529465636288,0 167.5997033284044,-45.56710498568248,0 167.5973873566391,-45.56835186205851,0 167.5926020158551,-45.56801380324013,0 167.5904357043102,-45.56834874556103,0 167.5862246482825,-45.56696728228784,0 167.5842700892713,-45.56572844220065,0 167.5829530797441,-45.56571946908641,0 167.5809525444395,-45.56416307371164,0 167.5810603271225,-45.56260536846389,0 167.5799472359508,-45.56144554684211,0 167.5785693346988,-45.56121345803066,0 167.5774893978622,-45.56054519209993,0 167.5759906972514,-45.55945174630619,0 167.5741843792411,-45.55915837147291,0 167.5742498342642,-45.56095079492758,0 167.5747040276501,-45.56135201247235,0 167.575138446926,-45.56169357051402,0 167.5758149175628,-45.56197552109417,0 167.5773051028641,-45.56312207569063,0 167.5780167556013,-45.5630892258222,0 167.5784347142512,-45.56310863694509,0 167.5782793959836,-45.56464207771688,0 167.5793518530893,-45.56574063315334,0 167.5808627229861,-45.56683360026084,0 167.5819806990276,-45.56741623445258,0 167.5830920486704,-45.56758867562383,0 167.5842728065963,-45.56832642714174,0 167.5860048267139,-45.56909350573833,0 167.5873786149746,-45.56970403680193,0 167.58899660452,-45.570084509753,0 167.591329228522,-45.57013160301004,0 167.592617338816,-45.57000413549045,0 167.5945882721482,-45.57013836701299,0 167.5970832542853,-45.57031925996594,0 167.598321440655,-45.57022370597427,0 167.6006270236372,-45.56930735721222,0 167.6024259957419,-45.56826656958596,0 167.6076946467652,-45.56498952162905,0 167.6061819629629,-45.56355043693048,0 
						
</coordinates>

						</LinearRing>

					</outerBoundaryIs>

				</Polygon>

				<flyID>17</flyID>

				<flyDescription>Keep to 5 knots or less (9.25km / fast walking pace) in Lake Manapouri within 200 metres of shore</flyDescription>

			</Placemark>
<Placemark>

				<name>5 Knot Zone</name>

				<description>Keep to 5 knots or less (9.25km / fast walking pace) in Lake Manapouri within 200 metres of shore</description>

				<styleUrl>#style2</styleUrl>

				<Polygon>

					<tessellate>1</tessellate>

					<outerBoundaryIs>

						<LinearRing>

							<coordinates>

							167.6919202372242,-45.61484214230489,0 167.6911157322291,-45.61364326940699,0 167.6886251078775,-45.61279683424811,0 167.6858190943253,-45.61158817542431,0 167.6827549083118,-45.61006107703136,0 167.6794620502431,-45.60843879906332,0 167.6781984542398,-45.60702124566164,0 167.6763753658581,-45.60476691189831,0 167.6734365801372,-45.60307020024163,0 167.6706687221279,-45.60169757852454,0 167.6692600873154,-45.6015255714066,0 167.6678644187663,-45.60090169015143,0 167.6656412319192,-45.59994260684259,0 167.6639998871037,-45.59796813955729,0 167.6634713762428,-45.59640311279865,0 167.6629203271227,-45.59289153819688,0 167.6635501573951,-45.59213003821533,0 167.6649054291614,-45.59147661407889,0 167.6663810792667,-45.59118580010155,0 167.6674186069305,-45.59068252774742,0 167.6679941246065,-45.58938951621546,0 167.6677009573625,-45.58769019800126,0 167.6665872373639,-45.58727314488094,0 167.6648086379273,-45.58708003584082,0 167.6624763752164,-45.58645049178062,0 167.6619272174564,-45.58602114370526,0 167.6603879393926,-45.58584944463695,0 167.6594136945691,-45.58611082124096,0 167.6591380532225,-45.58647356394991,0 167.6541082476023,-45.58677688204708,0 167.6473820092342,-45.58617624080841,0 167.6437412964829,-45.58528607009142,0 167.6412582927964,-45.58415440096038,0 167.6388145245093,-45.58341076515518,0 167.6345591834856,-45.58283661369252,0 167.6303449343872,-45.58153557275089,0 167.6254000259007,-45.57908759693314,0 167.6215365921416,-45.57572717740003,0 167.6179134556459,-45.571085585512,0 167.6176116048964,-45.57016905186579,0 167.6145405483608,-45.56963538032247,0 167.6119577564936,-45.56903314997272,0 167.6107616946015,-45.56919632289678,0 167.6080817433194,-45.56869341605087,0 167.6057964338044,-45.56765690966769,0 167.603260554652,-45.5673356682426,0 167.6035616376741,-45.56671133727229,0 167.6023367562947,-45.56822106195806,0 167.6027051572783,-45.56833841259137,0 167.603480866464,-45.56875140345576,0 167.6039795277819,-45.56902833231588,0 167.604949226122,-45.56931742979467,0 167.6058292218664,-45.5693697760717,0 167.6065884012229,-45.56946071966936,0 167.6084752771128,-45.56981573861591,0 167.6102012182141,-45.57026893657102,0 167.611188553928,-45.57078892525775,0 167.6127700414509,-45.57136261409046,0 167.6156889543661,-45.5722093426971,0 167.6173625210756,-45.57300552196032,0 167.6181153442581,-45.57433954993781,0 167.6195558025577,-45.5759292487444,0 167.6202409093335,-45.57664162181003,0 167.6202464547654,-45.57715216436383,0 167.6207505181401,-45.5776221256946,0 167.6212312895561,-45.57804674319389,0 167.6215589160598,-45.5786464812626,0 167.6222701115877,-45.57894366423729,0 167.622994808196,-45.57888636797841,0 167.6234773295664,-45.57935210067235,0 167.6238371227793,-45.57968607400296,0 167.6252181989559,-45.58005516408655,0 167.6258411815392,-45.58053567610125,0 167.6271091627291,-45.5815740013938,0 167.6288474048803,-45.58247050672954,0 167.63071758748,-45.58290233114406,0 167.6330741930377,-45.58337107020749,0 167.6347368455523,-45.58380582035756,0 167.6359069549206,-45.58397308668511,0 167.6394979191666,-45.58443175548059,0 167.6408361582891,-45.58483890776237,0 167.642477885817,-45.58569617358152,0 167.6440425543214,-45.58609123881362,0 167.6472670900078,-45.58691466698381,0 167.649733917837,-45.5872577221818,0 167.6528142562906,-45.5876510120134,0 167.6547296942335,-45.58769774139111,0 167.657464376549,-45.58770513356135,0 167.6595416077736,-45.587439267947,0 167.6605323639024,-45.58766530552881,0 167.6614797426339,-45.5874973602261,0 167.6627362900626,-45.58760240536206,0 167.6646085884432,-45.58824612998521,0 167.6654209921509,-45.58891960799835,0 167.6656366065745,-45.58974266861438,0 167.6648661400426,-45.59036267673199,0 167.6635728074427,-45.59055619698584,0 167.6619386899611,-45.59197367954867,0 167.6614721711777,-45.59360090711379,0 167.6620055512546,-45.595481996528,0 167.6622089220146,-45.59751394979445,0 167.663609493961,-45.59923501823928,0 167.6656398943166,-45.60103086435179,0 167.6680118115737,-45.60213978019194,0 167.6706927870181,-45.60271720252194,0 167.6715389973658,-45.60300939181531,0 167.6719288914008,-45.60342708797997,0 167.673777960303,-45.60431101674709,0 167.6759271600412,-45.60568527380479,0 167.677971534769,-45.60848024573211,0 167.6794427935901,-45.60943915167563,0 167.6818406346252,-45.61058279544641,0 167.6828335977612,-45.61137805750744,0 167.6835526702633,-45.61167968434792,0 167.6841858569971,-45.61173507864723,0 167.6855136783836,-45.61219146487996,0 167.6870384081753,-45.61288303635772,0 167.687712713085,-45.61373117592891,0 167.6878500569602,-45.61390063348628,0 167.6877249588025,-45.61464341173949,0 167.6878745130272,-45.61477869211697,0 167.6879594109003,-45.6150283867043,0 167.6880239406338,-45.61527314535169,0 167.6898979603607,-45.6151588693407,0 167.6918916286716,-45.61549690301345,0 167.6920498526235,-45.61547247433487,0 167.692134569889,-45.6156119113739,0 167.6928144842386,-45.61584660008308,0 167.6929652730352,-45.61584171926074,0 167.6919202372242,-45.61484214230489,0 
						
</coordinates>

						</LinearRing>

					</outerBoundaryIs>

				</Polygon>

				<flyID>18</flyID>

				<flyDescription>Keep to 5 knots or less (9.25km / fast walking pace) in Lake Manapouri within 200 metres of shore</flyDescription>

			</Placemark>
<Placemark>

				<name>Speed Exemption Between Sunrise And Sunset</name>

				<description>There is no speed restriction between sunrise and sunset in the Waiau River from 1.6 kilometres downstream of Lake Te Anau to Lake Manapouri.</description>

				<styleUrl>#style1</styleUrl>

				<Polygon>

					<tessellate>1</tessellate>

					<outerBoundaryIs>

						<LinearRing>

							<coordinates>

							167.6833819602649,-45.49172310386715,0 167.6838551820029,-45.49166423733123,0 167.684928415379,-45.49152579072163,0 167.6860186965757,-45.49111184730427,0 167.6865523320301,-45.49084345995744,0 167.6878008503028,-45.49084599958182,0 167.6882045625844,-45.4904923036808,0 167.6887640150142,-45.48985545972005,0 167.6892272317769,-45.48920444451956,0 167.6897120715084,-45.48898133274611,0 167.6902721588242,-45.4888140582758,0 167.6911727004817,-45.48855657901818,0 167.6915762514165,-45.48838204437539,0 167.6920216421567,-45.48830270124583,0 167.6935053355285,-45.48785423276871,0 167.6951727175003,-45.48737026053133,0 167.6956025614638,-45.48717131626791,0 167.6973373067269,-45.48657320674098,0 167.6982621368375,-45.48634337766422,0 167.6991220503754,-45.48614685939496,0 167.6997998432951,-45.4858238534483,0 167.700222878774,-45.48550146253009,0 167.7008494777526,-45.48505318837498,0 167.7010874887149,-45.48463767013875,0 167.7014071895042,-45.48441943473996,0 167.7017975087752,-45.48380530047297,0 167.7017224690525,-45.4835999995107,0 167.7017454219478,-45.48327808558466,0 167.701739847259,-45.48253936963754,0 167.7016417414164,-45.48214454460877,0 167.7012430570612,-45.48157538148543,0 167.7009940523135,-45.48139011294539,0 167.7007435101515,-45.48116164609289,0 167.7003606059952,-45.48101438319471,0 167.700033501928,-45.48086565102245,0 167.698998245472,-45.48062341270915,0 167.6978847233241,-45.48058161036309,0 167.6968761415997,-45.48063149238207,0 167.6965640471673,-45.48072738657509,0 167.6961718510888,-45.48061695312868,0 167.6950601033024,-45.48131180570893,0 167.6943372368824,-45.48205788782926,0 167.693756744135,-45.48270832622195,0 167.6931611546017,-45.48294090290138,0 167.6919807523481,-45.4830749607084,0 167.6911213553456,-45.48297121300763,0 167.6898271307097,-45.48254521420995,0 167.6884715275301,-45.48187584681995,0 167.6870562874731,-45.48123738045493,0 167.6866928585185,-45.4808071931893,0 167.6852249935511,-45.48079313515431,0 167.6857903717876,-45.48139522055498,0 167.6875746079053,-45.48246154466483,0 167.689285872069,-45.48337461318155,0 167.6901305257562,-45.48388944743649,0 167.6909934877033,-45.48453267855923,0 167.6916377484378,-45.48464133668372,0 167.6923678560045,-45.4847113372597,0 167.692869419238,-45.48455570183153,0 167.6935354405096,-45.48401082245896,0 167.6939213496688,-45.48359545381106,0 167.6945792821824,-45.48316926623032,0 167.6949723958241,-45.48270469322604,0 167.6954719922152,-45.48186239757178,0 167.6956683772492,-45.48165032967623,0 167.6969666738108,-45.48133825391472,0 167.6974452746634,-45.48130787707661,0 167.6981984930243,-45.4811956041906,0 167.698750008681,-45.48122509100848,0 167.6997290060119,-45.48156333766558,0 167.7004476976556,-45.48206500534166,0 167.7007518891893,-45.48252295755476,0 167.700859437788,-45.48319003207862,0 167.700633545957,-45.48396391353451,0 167.7002285331542,-45.48439616250531,0 167.6988875180203,-45.48530776576414,0 167.6983858168644,-45.48548935198642,0 167.6963796424565,-45.48602349971789,0 167.6946727586206,-45.48668959529663,0 167.693631412363,-45.48705774858932,0 167.6920484485779,-45.48755579406195,0 167.6908553610493,-45.48764953527758,0 167.6899876798912,-45.48814867288481,0 167.6887219490158,-45.48873150915584,0 167.6872743895622,-45.48935112676026,0 167.6871331383762,-45.4895376993199,0 167.6865926013541,-45.48974630312154,0 167.6856835601111,-45.49024916560278,0 167.6850715745371,-45.49071042237083,0 167.6840882384061,-45.49100781347295,0 167.6834327595781,-45.49106059451072,0 167.6833819602649,-45.49172310386715,0 
						
</coordinates>

						</LinearRing>

					</outerBoundaryIs>

				</Polygon>

				<flyID>19</flyID>

				<flyDescription>There is no speed restriction between sunrise and sunset in the Waiau River from 1.6 kilometres downstream of Lake Te Anau to Lake Manapouri.</flyDescription>

			</Placemark>
<Placemark>

				<name>Speed Exemption Between Sunrise And Sunset</name>

				<description>There is no speed restriction between sunrise and sunset in the Waiau River from 1.6 kilometres downstream of Lake Te Anau to Lake Manapouri.</description>

				<styleUrl>#style1</styleUrl>

				<Polygon>

					<tessellate>1</tessellate>

					<outerBoundaryIs>

						<LinearRing>

							<coordinates>

							167.6562702026801,-45.49436285979947,0 167.6574102010313,-45.49346760728693,0 167.6584748700801,-45.49293367470397,0 167.6594557467191,-45.49243570116423,0 167.6606496921613,-45.49178007945341,0 167.6619590918469,-45.49124449741047,0 167.6626136078395,-45.49120693274626,0 167.6629347819763,-45.4910808867207,0 167.6640427920202,-45.49084008481331,0 167.6649946767594,-45.49062533121581,0 167.6661938968134,-45.49047006912598,0 167.666645431324,-45.49054170412572,0 167.6671530553306,-45.49083826946216,0 167.6672453762409,-45.49248652006403,0 167.6673621414839,-45.49401286248979,0 167.6679881241795,-45.49501962235991,0 167.6682425708821,-45.49518012684775,0 167.6688878832265,-45.49551247277691,0 167.6692468544572,-45.49553696290011,0 167.6698748000649,-45.49540314612919,0 167.6706213387843,-45.49532969456845,0 167.6710091724621,-45.49526121027012,0 167.6724067122827,-45.4950896660587,0 167.6727114318555,-45.49486529276655,0 167.6730127479586,-45.49456166008125,0 167.6733152419649,-45.49404374605808,0 167.6733428035918,-45.49366544398136,0 167.6735287117586,-45.49357054865948,0 167.6740489963868,-45.49283226452765,0 167.6744240538694,-45.49231202634682,0 167.6748876007176,-45.49165430529998,0 167.6753548850322,-45.49092727644291,0 167.6753943334524,-45.49068668074129,0 167.6756602736756,-45.49036556240483,0 167.6759449737372,-45.48997765013651,0 167.676339193736,-45.48911616184496,0 167.6765347757272,-45.48859217121574,0 167.6768501925989,-45.48793484806087,0 167.6779146355817,-45.48712962679343,0 167.6790490895855,-45.48619211839942,0 167.6799459601888,-45.48543161108616,0 167.6801804403068,-45.48537172410496,0 167.6808004667119,-45.48541413216591,0 167.6811937673748,-45.48555607064241,0 167.6813502438295,-45.48591291706945,0 167.6811140047808,-45.48642023104941,0 167.6803313855934,-45.48714904331879,0 167.6793297257051,-45.48824991248558,0 167.6790175804186,-45.48902874651048,0 167.6791019542661,-45.48960514132219,0 167.6794683197582,-45.49022292871785,0 167.6803378233651,-45.49089169921451,0 167.6817703332543,-45.49153638914706,0 167.6833819602649,-45.49172310386715,0 167.6838551820029,-45.49166423733123,0 167.6840882384061,-45.49100781347295,0 167.6834327595781,-45.49106059451072,0 167.6824221379479,-45.49102022184504,0 167.6817403702099,-45.49073323840513,0 167.6809010922533,-45.49017356773594,0 167.6802153816936,-45.48932309009827,0 167.6801712677834,-45.48855767079193,0 167.6802486480532,-45.48830078142899,0 167.6807604013641,-45.48790986125133,0 167.6816930691175,-45.48715326182676,0 167.6820141463662,-45.48687703829884,0 167.6827103368825,-45.48686866086262,0 167.6833547804147,-45.48676096319839,0 167.6835212696185,-45.4861838369012,0 167.6834090701728,-45.48574588999423,0 167.6828077764841,-45.48513883046766,0 167.6823934645101,-45.48507697086134,0 167.6814201500991,-45.48478974815391,0 167.6811387815089,-45.48467049679392,0 167.67992254305,-45.48459569800513,0 167.6793244404475,-45.4848508309798,0 167.6791006467566,-45.48518394694995,0 167.6785628852876,-45.48557470530027,0 167.6777400545477,-45.48620934375875,0 167.6769041316618,-45.48685272912767,0 167.6760087745225,-45.48750819839913,0 167.6754781234902,-45.4884540271037,0 167.674721290887,-45.48999849549336,0 167.6741926663352,-45.49121887255176,0 167.674042872413,-45.49133380952745,0 167.6737989705482,-45.49140586993072,0 167.6731243274604,-45.49231330584929,0 167.6728261925205,-45.49286631487094,0 167.6724887475264,-45.49319841072202,0 167.6722871501899,-45.49359687684378,0 167.6720772005253,-45.49411682817989,0 167.6712037662817,-45.49470745870949,0 167.670722804043,-45.49488880924997,0 167.670327113349,-45.49487654410326,0 167.6696161023063,-45.49421507167865,0 167.669141323428,-45.49336498479659,0 167.6690533896212,-45.49306749822663,0 167.6686051841044,-45.49286033596471,0 167.6684290561079,-45.49253348970752,0 167.6686098871887,-45.49179122730818,0 167.668789929462,-45.49124738705483,0 167.6685974820275,-45.49068489266302,0 167.6680607763494,-45.48993977158282,0 167.6677001521181,-45.4897741343492,0 167.6672707466949,-45.48972427061221,0 167.6661900398169,-45.48982554046245,0 167.6651845363566,-45.48997984268372,0 167.6641423267572,-45.49019333611853,0 167.66298139571,-45.49031832472597,0 167.662192091235,-45.49047225671566,0 167.6606816486231,-45.49092493947664,0 167.6600496765899,-45.49118049647699,0 167.6590844993353,-45.49181782767249,0 167.6577871811475,-45.4925123214199,0 167.6566624235257,-45.4929562907069,0 167.6557716579829,-45.49356889601605,0 167.6555283363129,-45.49375950134468,0 167.6562702026801,-45.49436285979947,0 
						
</coordinates>

						</LinearRing>

					</outerBoundaryIs>

				</Polygon>

				<flyID>20</flyID>

				<flyDescription>There is no speed restriction between sunrise and sunset in the Waiau River from 1.6 kilometres downstream of Lake Te Anau to Lake Manapouri.</flyDescription>

			</Placemark>
<Placemark>

				<name>Speed Exemption Between Sunrise And Sunset</name>

				<description>There is no speed restriction between sunrise and sunset in the Waiau River from 1.6 kilometres downstream of Lake Te Anau to Lake Manapouri.</description>

				<styleUrl>#style1</styleUrl>

				<Polygon>

					<tessellate>1</tessellate>

					<outerBoundaryIs>

						<LinearRing>

							<coordinates>

							167.6527527762191,-45.50301956493176,0 167.6529893238463,-45.50266164180928,0 167.6531215558026,-45.50232267372489,0 167.6528756604833,-45.50183413201747,0 167.6528778354269,-45.50128408010713,0 167.6531592077662,-45.50058476885554,0 167.6535764651765,-45.50012045949467,0 167.6538667662638,-45.49926310034668,0 167.6542490333811,-45.49887679552281,0 167.6548091311573,-45.49819132348342,0 167.6555873202526,-45.49768576265026,0 167.6556556788986,-45.49738984310898,0 167.6555139572631,-45.4970812672691,0 167.6551635475723,-45.49692347486376,0 167.6545918562404,-45.49693561218399,0 167.6543817958396,-45.49662847735029,0 167.6551373800532,-45.49567663083661,0 167.6556693399501,-45.49484970092556,0 167.6562702026801,-45.49436285979947,0 167.6557716579829,-45.49356889601605,0 167.6555283363129,-45.49375950134468,0 167.6549991806536,-45.49384163273106,0 167.6545371912532,-45.49379693477213,0 167.6540776333865,-45.49384006955239,0 167.6537944574194,-45.49408031773765,0 167.6532858619039,-45.49468163437184,0 167.6528578999991,-45.49534185677517,0 167.6523146201665,-45.49593165437224,0 167.6521660554899,-45.496314148172,0 167.651812324787,-45.49676583443399,0 167.6519123794574,-45.49733152500622,0 167.6519369327872,-45.4978400374985,0 167.6517146651538,-45.49805059596039,0 167.6516306252352,-45.49761556540529,0 167.6512283981714,-45.4968616373467,0 167.650861233579,-45.49578198424667,0 167.650699587244,-45.49531724637625,0 167.6508255006711,-45.494672373402,0 167.6504623149893,-45.49298066819359,0 167.6496928917211,-45.49198270228895,0 167.6489216762853,-45.4913492530596,0 167.648858692157,-45.49100958373162,0 167.6486288340598,-45.49093735729996,0 167.6482907139169,-45.49104557100155,0 167.6469492991909,-45.49120369577228,0 167.6458731106153,-45.49165951945406,0 167.6462196704783,-45.4923453784679,0 167.6464840751446,-45.49215664548414,0 167.6469155597907,-45.49191434307854,0 167.6473520203408,-45.49181774148235,0 167.6477954088615,-45.49178920049759,0 167.6481304379144,-45.49171086971757,0 167.648732314345,-45.49214638309792,0 167.6491143127209,-45.4925574792868,0 167.6494890482868,-45.49299024620926,0 167.6496305820511,-45.49354438563541,0 167.649640721023,-45.49423892493766,0 167.6496598748053,-45.49487659776289,0 167.6497533711452,-45.49561671789603,0 167.6497154505768,-45.49639929802753,0 167.6497154732533,-45.49653330723498,0 167.6507146310779,-45.49744315757474,0 167.6506603533255,-45.4977787226951,0 167.6507968724037,-45.49833063827922,0 167.650368263844,-45.49804476223707,0 167.650034378583,-45.49780160786176,0 167.6499005859915,-45.49751639423374,0 167.6494510808171,-45.49697461747277,0 167.6488364231749,-45.49678852850615,0 167.6482639327759,-45.49641871475178,0 167.6477137382414,-45.49625801105997,0 167.6474515495468,-45.49609962813381,0 167.646947452864,-45.49598983160654,0 167.6465910164895,-45.49600839964226,0 167.6461905947111,-45.49594256346656,0 167.6458053781036,-45.49532381071436,0 167.6456033446249,-45.49484443758041,0 167.645620123846,-45.49431897492475,0 167.6456708627188,-45.49402643587901,0 167.6457000570318,-45.49377935175286,0 167.6458302437033,-45.49350306407213,0 167.6459814508002,-45.49266596323872,0 167.6462136088081,-45.49234831743597,0 167.645868705389,-45.49165954659905,0 167.6454553786564,-45.49185796165675,0 167.6448743729757,-45.49245504548582,0 167.6447220868766,-45.49335768978366,0 167.6446733095555,-45.494088105286,0 167.6448371125158,-45.49473333273379,0 167.6449372155341,-45.49526417594205,0 167.6450898938567,-45.4957415913265,0 167.6460961173389,-45.49635548526257,0 167.647073601196,-45.49647699541046,0 167.6474433318459,-45.49662322405821,0 167.6482555809693,-45.49716125148208,0 167.649180223851,-45.49788256962263,0 167.6502156941209,-45.4988785100843,0 167.6502371617947,-45.49911917705747,0 167.6501703553489,-45.49952258228844,0 167.6501583700965,-45.49991492049243,0 167.6502726752963,-45.50059320375995,0 167.6504015563339,-45.50129802079176,0 167.650779008522,-45.50200058765138,0 167.6514412287253,-45.50255547926325,0 167.6516178989417,-45.50278481066013,0 167.6527527762191,-45.50301956493176,0 
						
</coordinates>

						</LinearRing>

					</outerBoundaryIs>

				</Polygon>

				<flyID>21</flyID>

				<flyDescription>There is no speed restriction between sunrise and sunset in the Waiau River from 1.6 kilometres downstream of Lake Te Anau to Lake Manapouri.</flyDescription>

			</Placemark>
<Placemark>

				<name>Speed Exemption Between Sunrise And Sunset</name>

				<description>There is no speed restriction between sunrise and sunset in the Waiau River from 1.6 kilometres downstream of Lake Te Anau to Lake Manapouri.</description>

				<styleUrl>#style1</styleUrl>

				<Polygon>

					<tessellate>1</tessellate>

					<outerBoundaryIs>

						<LinearRing>

							<coordinates>

							167.6239268845455,-45.51608966195717,0 167.6248355255501,-45.51539966643939,0 167.6257077994875,-45.51500268226027,0 167.627049346586,-45.51420746534491,0 167.6289013690054,-45.51342919091995,0 167.6301985454171,-45.51273734614968,0 167.6323921928508,-45.51118890916896,0 167.6338647346481,-45.51005726732566,0 167.634132146936,-45.50966493536195,0 167.6345768355512,-45.50924572592233,0 167.6358659625288,-45.50844065314931,0 167.6364987841775,-45.50791286957142,0 167.6376066390762,-45.50719582847286,0 167.6380807537771,-45.50673233550644,0 167.6384441532754,-45.50659688307125,0 167.6391477329832,-45.50616752335359,0 167.6395272725721,-45.50567947670422,0 167.6401728980784,-45.50495982289286,0 167.6409384086689,-45.50462005115882,0 167.6416516058593,-45.50450966504005,0 167.6428413633319,-45.50484169343222,0 167.6441858763047,-45.50552018677546,0 167.6457859844292,-45.5059832042961,0 167.647110421624,-45.50610888082481,0 167.6494697888668,-45.50612238048291,0 167.6508025301688,-45.50563361198482,0 167.6519435285425,-45.50491038439266,0 167.6526875928298,-45.50417850241204,0 167.6527527762191,-45.50301956493176,0 167.6529893238463,-45.50266164180928,0 167.6516178989417,-45.50278481066013,0 167.6512341874256,-45.50348457743969,0 167.650197762946,-45.50436831328584,0 167.6491181747437,-45.5047685696473,0 167.6481923790301,-45.50498570227995,0 167.647671084926,-45.50492928648545,0 167.6466507859844,-45.50514331828811,0 167.6460784586599,-45.50518429355743,0 167.6451633796068,-45.504990505514,0 167.6442873942536,-45.50463693855161,0 167.6427705504702,-45.50401418091195,0 167.6413181003641,-45.5038320108919,0 167.640169172842,-45.50399630988382,0 167.6393582285236,-45.50426622867456,0 167.6386942577427,-45.50491915054819,0 167.6382192451666,-45.50573228569898,0 167.6373589237471,-45.50658256387407,0 167.6362524991379,-45.50719314892266,0 167.6356155252912,-45.50761521667132,0 167.6346811541219,-45.50816085622975,0 167.6342475601977,-45.50832809162061,0 167.6338935286904,-45.50894858402975,0 167.6325226767618,-45.50995344634286,0 167.6314607857178,-45.51086847112855,0 167.6299010814281,-45.51181650257244,0 167.6277467326337,-45.51302892286756,0 167.6262423474734,-45.51372246232941,0 167.6243460604181,-45.51459173364383,0 167.6239268845455,-45.51608966195717,0 
						
</coordinates>

						</LinearRing>

					</outerBoundaryIs>

				</Polygon>

				<flyID>22</flyID>

				<flyDescription>There is no speed restriction between sunrise and sunset in the Waiau River from 1.6 kilometres downstream of Lake Te Anau to Lake Manapouri.</flyDescription>

			</Placemark>
<Placemark>

				<name>Speed Exemption Between Sunrise And Sunset</name>

				<description>There is no speed restriction between sunrise and sunset in the Waiau River from 1.6 kilometres downstream of Lake Te Anau to Lake Manapouri.</description>

				<styleUrl>#style1</styleUrl>

				<Polygon>

					<tessellate>1</tessellate>

					<outerBoundaryIs>

						<LinearRing>

							<coordinates>

							167.6057740126117,-45.49552345580779,0 167.6059939537967,-45.49601662890139,0 167.6066282039104,-45.49658979848745,0 167.6070643191603,-45.49755640460908,0 167.6086487658314,-45.498662134539,0 167.6102579114575,-45.49902079408535,0 167.6120470937517,-45.49883794887553,0 167.6138342628999,-45.49843559065772,0 167.6148176693483,-45.49796871753029,0 167.616307387357,-45.49774874491842,0 167.618183430041,-45.49821862186985,0 167.618454990972,-45.49902907891095,0 167.6180611675061,-45.49955260334991,0 167.6170065765391,-45.50046304284619,0 167.6159968200119,-45.50069470970545,0 167.615007708781,-45.50105060824944,0 167.6141012463117,-45.5018255895826,0 167.6139179622134,-45.50237596528596,0 167.6138356571104,-45.50354022282537,0 167.6143357962144,-45.50393473035027,0 167.6173998124647,-45.50496387377466,0 167.6182553939332,-45.50490096582016,0 167.6195726444073,-45.50485072624841,0 167.6207534445784,-45.50517772888164,0 167.62235183464,-45.50625170423464,0 167.6231249298106,-45.50732624556954,0 167.6226495339129,-45.51055001136584,0 167.6229322138918,-45.51132715379278,0 167.6231418100247,-45.51208797401665,0 167.6224003700081,-45.51296938965486,0 167.6210389407236,-45.51298720859899,0 167.6183814305747,-45.51314895501562,0 167.6167271841651,-45.51380066276416,0 167.6157297087601,-45.51459120504672,0 167.6144048645662,-45.51494399904785,0 167.6142602630123,-45.51523819747842,0 167.6148783518818,-45.51613781436919,0 167.6155554485574,-45.51661919932946,0 167.6164288036445,-45.5170089517059,0 167.6173507095155,-45.51754678329763,0 167.6199316211801,-45.51836850997795,0 167.6214963011351,-45.51857182976169,0 167.6223814142687,-45.5184046450476,0 167.6228493362917,-45.5182073040041,0 167.6231828662221,-45.51774228828769,0 167.6235793989471,-45.5170114722741,0 167.6239268845455,-45.51608966195717,0 167.6243460604181,-45.51459173364383,0 167.623677059655,-45.51509610850793,0 167.6228543467875,-45.51580869213739,0 167.6224113744137,-45.51660138971554,0 167.622313208475,-45.51729735041658,0 167.6218241067551,-45.51770040006812,0 167.6211708528763,-45.51777179951969,0 167.6206177030073,-45.51757102783925,0 167.6197351968138,-45.51753513565301,0 167.6190400834905,-45.51716806989846,0 167.6174167119061,-45.5164935789274,0 167.6167586293784,-45.51603148247493,0 167.6163951692701,-45.51549718402578,0 167.616500378328,-45.51496395293137,0 167.6173725246999,-45.51452791474905,0 167.6186067518643,-45.51393542406377,0 167.6195235704463,-45.51363899681845,0 167.6213829909761,-45.51367002903,0 167.6229497979707,-45.51334337286431,0 167.6242421985377,-45.51266951125583,0 167.6243538068628,-45.51212705707115,0 167.6240200421435,-45.51109492757033,0 167.6236189342149,-45.5105150102598,0 167.6235724347694,-45.50992205829968,0 167.6240073059416,-45.50873224566541,0 167.6240909123427,-45.50781559738407,0 167.623989441323,-45.50747769284813,0 167.6236887457184,-45.50703277813719,0 167.6236358754606,-45.50660287184545,0 167.6231919901302,-45.5056565390443,0 167.6225400662755,-45.50492833454364,0 167.6212954430779,-45.50415555281189,0 167.6199244705925,-45.50396007992019,0 167.6179092307663,-45.50385443339675,0 167.6164006177687,-45.50366122298904,0 167.6159929208336,-45.50357310426771,0 167.615941848708,-45.50307090526901,0 167.6177731036447,-45.50131497519871,0 167.6185887936358,-45.50084111419633,0 167.6193518300444,-45.49951587416515,0 167.6194336796176,-45.49890907346698,0 167.6195696028553,-45.49733528042448,0 167.6192127661577,-45.49693340511197,0 167.6174305431792,-45.49615293206362,0 167.6163010915845,-45.49609548191061,0 167.6145413463575,-45.49648591100359,0 167.6138928734713,-45.49698158685107,0 167.6124108849467,-45.49762449424078,0 167.6114764191019,-45.49799265220777,0 167.6112097955928,-45.49813124893327,0 167.6098775565743,-45.49809390623351,0 167.6094900539078,-45.49783352229794,0 167.6089564313741,-45.49767477352205,0 167.6081875225932,-45.49717666015625,0 167.60794326582,-45.49674197255911,0 167.6074981959578,-45.49618111582393,0 167.6070229723807,-45.49530730528123,0 167.6048297944572,-45.49500561977396,0 167.6057740126117,-45.49552345580779,0 
						
</coordinates>

						</LinearRing>

					</outerBoundaryIs>

				</Polygon>

				<flyID>23</flyID>

				<flyDescription>There is no speed restriction between sunrise and sunset in the Waiau River from 1.6 kilometres downstream of Lake Te Anau to Lake Manapouri.</flyDescription>

			</Placemark>

</Document>
</kml>
