<?xml version="1.0" encoding="UTF-8"?>
<kml xmlns="http://www.opengis.net/kml/2.2" xmlns:gx="http://www.google.com/kml/ext/2.2" xmlns:kml="http://www.opengis.net/kml/2.2" xmlns:atom="http://www.w3.org/2005/Atom">
<Document>
<name>R55 C17.kml</name>

<Style id="style0">

					<LineStyle>

						<color>ff00ff00</color>

					</LineStyle>

					<PolyStyle>

						<color>ff00ff00</color>

						<width>0.9</width>

					</PolyStyle>

				</Style>

<Placemark>

				<name>Speed Exemption 1 Aug To 30 Sept</name>

				<description>There is no speed restriction from the 1st of August to 30th of September on Mataura River from the Ardlussa Bridge downstream to the Seaward Downs Bridge.</description>

				<styleUrl>#style0</styleUrl>

				<Polygon>

					<tessellate>1</tessellate>

					<outerBoundaryIs>

						<LinearRing>

							<coordinates>

							168.8327653998144,-46.26414863842729,0 168.8338888566275,-46.26183066311469,0 168.8341717536778,-46.26086343284162,0 168.8343078367929,-46.26030248535213,0 168.8330139124522,-46.25973537122322,0 168.831858679066,-46.25880261406657,0 168.8306644079694,-46.25844860405085,0 168.8314945070331,-46.25727736466017,0 168.8335656592513,-46.25756999307011,0 168.8356514618143,-46.25815457124935,0 168.8377809552704,-46.25822550444289,0 168.8396883066777,-46.25777649507553,0 168.8403138953447,-46.25658703655447,0 168.839957655509,-46.25522791754545,0 168.8390983116719,-46.25391922846131,0 168.837876746211,-46.25294739147758,0 168.8368377413982,-46.25255360220763,0 168.8348017556634,-46.25341483622697,0 168.8342023737131,-46.25289184103417,0 168.8335221455835,-46.2516288345582,0 168.8329575001189,-46.25068096447958,0 168.8336292455973,-46.2499230575463,0 168.8366589068319,-46.25018915842081,0 168.8386015236442,-46.249700428586,0 168.8407121561228,-46.24829585263861,0 168.8411165781145,-46.24635422412574,0 168.8411540985676,-46.24472802885057,0 168.8408149739088,-46.24291670918914,0 168.8396726808606,-46.24243655026538,0 168.8380859263965,-46.24249809439532,0 168.8391786048439,-46.24195480617259,0 168.8387500450646,-46.24104858400644,0 168.838799976793,-46.2402722742873,0 168.8401923931855,-46.23949003778486,0 168.8401494237139,-46.23854888681903,0 168.8413923344201,-46.2372369511639,0 168.8422164495488,-46.23655578326005,0 168.8449529366453,-46.23542530478484,0 168.8482537324167,-46.23430225691777,0 168.8500313874013,-46.23351720456486,0 168.8495612051236,-46.23255833343394,0 168.847272070634,-46.2332951558894,0 168.84482324905,-46.23440174788725,0 168.8421890211162,-46.23493096968277,0 168.8396838008737,-46.23659356349163,0 168.8382513148382,-46.23847758236722,0 168.8376986092221,-46.24002159185382,0 168.8366043040652,-46.24033101812039,0 168.8366682062327,-46.24154925908706,0 168.8366045424628,-46.24265085177839,0 168.8367932108667,-46.2439329411703,0 168.8378593163087,-46.24353470951163,0 168.8399367687027,-46.24415864549458,0 168.8397863282146,-46.24675041173598,0 168.8396618056673,-46.24827763142868,0 168.8375931569273,-46.24938317465637,0 168.8363560542344,-46.24938748386472,0 168.8350936468607,-46.24897766191816,0 168.8329935464207,-46.24908869419147,0 168.831969666442,-46.25022488153314,0 168.8323517620962,-46.25194433171566,0 168.8330580089792,-46.25323363357544,0 168.8349338902978,-46.25420721664753,0 168.8367156003697,-46.25381141758957,0 168.8379297457344,-46.2540069411908,0 168.8391967620987,-46.2556498431539,0 168.8390160018859,-46.25707691354139,0 168.8370338184718,-46.25755127020619,0 168.83404975509,-46.25698829581694,0 168.8324760868738,-46.25651941867256,0 168.8302705117355,-46.25699819494589,0 168.8294569337483,-46.25830719402883,0 168.8299074194943,-46.25931749421665,0 168.8314368766472,-46.25949701288283,0 168.8327112896096,-46.26085583524424,0 168.8328982432234,-46.2617464676958,0 168.8318067016595,-46.26366985675834,0 168.8327653998144,-46.26414863842729,0 
						
</coordinates>

						</LinearRing>

					</outerBoundaryIs>

				</Polygon>

				<flyID>0</flyID>

				<flyDescription>There is no speed restriction from the 1st of August to 30th of September on Mataura River from the Ardlussa Bridge downstream to the Seaward Downs Bridge.</flyDescription>

			</Placemark>
<Placemark>

				<name>Speed Exemption 1 Aug To 30 Sept</name>

				<description>There is no speed restriction from the 1st of August to 30th of September on Mataura River from the Ardlussa Bridge downstream to the Seaward Downs Bridge.</description>

				<styleUrl>#style0</styleUrl>

				<Polygon>

					<tessellate>1</tessellate>

					<outerBoundaryIs>

						<LinearRing>

							<coordinates>

							168.8276023475029,-46.29596585336325,0 168.8276679486908,-46.29507477031511,0 168.8305671719997,-46.29476770587552,0 168.8331256766207,-46.29483633254747,0 168.835346543916,-46.29438825028165,0 168.8365333550393,-46.29309732163468,0 168.8373747469851,-46.29074747719596,0 168.837274963403,-46.28921536791102,0 168.8381153198037,-46.28781348117738,0 168.8376794363185,-46.28412168464124,0 168.8374076813782,-46.28148377330105,0 168.8368474326524,-46.27913286891671,0 168.8346179152056,-46.27684202796481,0 168.8339358284306,-46.27391867023098,0 168.8332705836663,-46.27011138893216,0 168.832974736823,-46.26720080058281,0 168.8327653998144,-46.26414863842729,0 168.8318067016595,-46.26366985675834,0 168.8315854764276,-46.26738801121648,0 168.8321876095469,-46.27097482348373,0 168.8327596799558,-46.27517425057292,0 168.8344787648229,-46.27847356252271,0 168.8364162329265,-46.28027127840604,0 168.8361286470035,-46.28365684076574,0 168.8356547378456,-46.28745373273645,0 168.8354279064715,-46.28932576600943,0 168.8365353424514,-46.29063671154156,0 168.835433028543,-46.29287770023331,0 168.8331563516623,-46.29389399600105,0 168.8284919694094,-46.293914338482,0 168.8263519916239,-46.29448720383298,0 168.8263955918857,-46.29604708186723,0 168.8276023475029,-46.29596585336325,0 
						
</coordinates>

						</LinearRing>

					</outerBoundaryIs>

				</Polygon>

				<flyID>1</flyID>

				<flyDescription>There is no speed restriction from the 1st of August to 30th of September on Mataura River from the Ardlussa Bridge downstream to the Seaward Downs Bridge.</flyDescription>

			</Placemark>
<Placemark>

				<name>Speed Exemption 1 Aug To 30 Sept</name>

				<description>There is no speed restriction from the 1st of August to 30th of September on Mataura River from the Ardlussa Bridge downstream to the Seaward Downs Bridge.</description>

				<styleUrl>#style0</styleUrl>

				<Polygon>

					<tessellate>1</tessellate>

					<outerBoundaryIs>

						<LinearRing>

							<coordinates>

							168.8320674976771,-46.33733954363129,0 168.833904283298,-46.3361884392879,0 168.8374263694966,-46.3346962222567,0 168.838910185594,-46.33326220635479,0 168.8392037574094,-46.33187909781324,0 168.8374479260022,-46.33050021938733,0 168.8364773153285,-46.32975958640846,0 168.8333281232327,-46.32901612264507,0 168.8312326165494,-46.32777271405719,0 168.8301191216512,-46.32526067953097,0 168.830300823601,-46.32317475685218,0 168.8297730625787,-46.32187503157704,0 168.830262957144,-46.32077735770091,0 168.8329666040274,-46.3206167646698,0 168.8369140216768,-46.32101314418001,0 168.8408163670979,-46.32022045403728,0 168.8429368596693,-46.31877699848102,0 168.8452108091455,-46.31712884478366,0 168.8478198676984,-46.31645686863283,0 168.8499799205705,-46.31687647744943,0 168.852140183494,-46.31606078781515,0 168.852869222566,-46.31392808352214,0 168.8520022701592,-46.31149389194357,0 168.8510344942769,-46.31018368625357,0 168.847663949132,-46.30859905456936,0 168.844779950252,-46.30789175058787,0 168.8411151757697,-46.30604727531317,0 168.8395526826733,-46.30469333006805,0 168.8382592765359,-46.30231968961074,0 168.8372552576459,-46.30042471723163,0 168.8350704241564,-46.29904573132475,0 168.8318669909887,-46.29756097556632,0 168.8292833413981,-46.29618253585533,0 168.8276023475029,-46.29596585336325,0 168.8263955918857,-46.29604708186723,0 168.8292200966862,-46.29746501202632,0 168.8336938139794,-46.29969409424162,0 168.8359219531715,-46.30136421119655,0 168.8369199273557,-46.30381402469244,0 168.839321051899,-46.3057933693274,0 168.8429921252663,-46.30839920464261,0 168.8464385684625,-46.30943252006447,0 168.8497162616189,-46.3107356100608,0 168.8510824588115,-46.31192974736278,0 168.851493591676,-46.31337852208075,0 168.8513104093919,-46.31523584847044,0 168.8502641626268,-46.31593217511426,0 168.8484521545067,-46.31576232494704,0 168.8466356142846,-46.31567836194866,0 168.8429136823328,-46.31723018107827,0 168.8410525460373,-46.31891392857439,0 168.839082581465,-46.31966203269922,0 168.8368880365615,-46.31999545490009,0 168.833683169296,-46.31999504334131,0 168.830661406251,-46.31959293763835,0 168.8294606382075,-46.31975887705692,0 168.8285341642657,-46.32226782716469,0 168.8281936832188,-46.32491090313891,0 168.8283635129895,-46.32634741644308,0 168.8301263636438,-46.32871723751323,0 168.8324556520864,-46.32981359245301,0 168.8361442770281,-46.33080055739642,0 168.8377069371207,-46.33178371937387,0 168.8379780328161,-46.33258605282155,0 168.8363323994681,-46.33391438907001,0 168.834023140376,-46.33505104197508,0 168.8323925598595,-46.33582871661267,0 168.8304151793875,-46.33743845427614,0 168.8320674976771,-46.33733954363129,0 
						
</coordinates>

						</LinearRing>

					</outerBoundaryIs>

				</Polygon>

				<flyID>2</flyID>

				<flyDescription>There is no speed restriction from the 1st of August to 30th of September on Mataura River from the Ardlussa Bridge downstream to the Seaward Downs Bridge.</flyDescription>

			</Placemark>
<Placemark>

				<name>Speed Exemption 1 Aug To 30 Sept</name>

				<description>There is no speed restriction from the 1st of August to 30th of September on Mataura River from the Ardlussa Bridge downstream to the Seaward Downs Bridge.</description>

				<styleUrl>#style0</styleUrl>

				<Polygon>

					<tessellate>1</tessellate>

					<outerBoundaryIs>

						<LinearRing>

							<coordinates>

							168.8266209613551,-46.36721636519127,0 168.8263942084051,-46.36589774075443,0 168.8292014469509,-46.36471935763309,0 168.8312472384611,-46.36327895326313,0 168.8315877896935,-46.36146094559091,0 168.8316728785477,-46.35772168739204,0 168.8327140412216,-46.35493466345333,0 168.8348810523102,-46.35264946627043,0 168.8373672713079,-46.35131858501196,0 168.8407003169802,-46.35020346572123,0 168.8422379509336,-46.34907158491296,0 168.841460396689,-46.34857935438657,0 168.8422943322457,-46.34747844422126,0 168.8431798721086,-46.3459517077186,0 168.8446728336617,-46.34578032274987,0 168.8442897867169,-46.3454343079658,0 168.8455973232832,-46.34421306686532,0 168.8451516536009,-46.34191650449971,0 168.8440865249098,-46.34027992709794,0 168.8414182231483,-46.33852585184157,0 168.8397121403297,-46.33702260694745,0 168.8378622320348,-46.33663733325583,0 168.8360941366889,-46.3377803392647,0 168.8342063779248,-46.33816055478805,0 168.8326735790278,-46.33786542203994,0 168.8320674976771,-46.33733954363129,0 168.8304151793875,-46.33743845427614,0 168.8304739616029,-46.33801999041003,0 168.8320953659095,-46.33875620055009,0 168.8341724521631,-46.33988872515641,0 168.8358754546918,-46.34076351372808,0 168.8371891235969,-46.34084125533687,0 168.8386494335335,-46.34171523408458,0 168.8387316082348,-46.34378216818814,0 168.8369768480831,-46.34519151463434,0 168.8372388589116,-46.34696123759557,0 168.8388816861557,-46.34839795329791,0 168.8398300893842,-46.34924825378869,0 168.8383126205117,-46.35027519821978,0 168.8360150077272,-46.35065665503782,0 168.8338723176274,-46.3512112367932,0 168.8320616553363,-46.35221686120107,0 168.8310527062955,-46.35303325082666,0 168.8312433933724,-46.35463333502553,0 168.8311497660744,-46.35630826445708,0 168.830688914445,-46.35803749390682,0 168.8305136526415,-46.36084076913436,0 168.830203708498,-46.36288461470969,0 168.8290556430405,-46.36370202997826,0 168.8261047384119,-46.3648732448638,0 168.8246933998307,-46.36552437422774,0 168.8266209613551,-46.36721636519127,0 
						
</coordinates>

						</LinearRing>

					</outerBoundaryIs>

				</Polygon>

				<flyID>3</flyID>

				<flyDescription>There is no speed restriction from the 1st of August to 30th of September on Mataura River from the Ardlussa Bridge downstream to the Seaward Downs Bridge.</flyDescription>

			</Placemark>
<Placemark>

				<name>Speed Exemption 1 Aug To 30 Sept</name>

				<description>There is no speed restriction from the 1st of August to 30th of September on Mataura River from the Ardlussa Bridge downstream to the Seaward Downs Bridge.</description>

				<styleUrl>#style0</styleUrl>

				<Polygon>

					<tessellate>1</tessellate>

					<outerBoundaryIs>

						<LinearRing>

							<coordinates>

							168.8168968821094,-46.39199592610881,0 168.8181006298681,-46.39176532462629,0 168.8185844211455,-46.39074220144393,0 168.8185616945484,-46.38991798725991,0 168.8187877070795,-46.38931674098121,0 168.8181771999139,-46.38852207752467,0 168.8182119192942,-46.38734872882598,0 168.8180402073541,-46.38628518807858,0 168.8183990802982,-46.38405794823662,0 168.8179841256535,-46.38313128013824,0 168.8171581877661,-46.3819334680057,0 168.8165612210741,-46.3796862264597,0 168.8177623139029,-46.37706167328176,0 168.8211331750134,-46.37406515291693,0 168.8240195846331,-46.37133377823054,0 168.8251300502218,-46.37009938015275,0 168.8253569128659,-46.36805826212559,0 168.8266209613551,-46.36721636519127,0 168.824655549336,-46.36546962530336,0 168.8217659584969,-46.36502766270299,0 168.8206742673071,-46.36471193817448,0 168.8196631045518,-46.36494589051637,0 168.8192974543388,-46.36589219224693,0 168.8198410549221,-46.36711737853092,0 168.8204271896636,-46.3686793280864,0 168.820948778991,-46.3702294804166,0 168.8210443172656,-46.37117569795358,0 168.8204528689096,-46.37242118009167,0 168.8199475869184,-46.37364419040466,0 168.8178969929058,-46.37555079303115,0 168.8159427543036,-46.37799766919569,0 168.8152892718496,-46.37993391938209,0 168.815886319347,-46.38203934850704,0 168.8170118969292,-46.3833889234234,0 168.8173127628967,-46.38469157726833,0 168.8168174083086,-46.38832222364121,0 168.8160112898942,-46.3901611154294,0 168.8157473219973,-46.39141571718298,0 168.8168968821094,-46.39199592610881,0 
						
</coordinates>

						</LinearRing>

					</outerBoundaryIs>

				</Polygon>

				<flyID>4</flyID>

				<flyDescription>There is no speed restriction from the 1st of August to 30th of September on Mataura River from the Ardlussa Bridge downstream to the Seaward Downs Bridge.</flyDescription>

			</Placemark>
<Placemark>

				<name>Speed Exemption 1 Aug To 30 Sept</name>

				<description>There is no speed restriction from the 1st of August to 30th of September on Mataura River from the Ardlussa Bridge downstream to the Seaward Downs Bridge.</description>

				<styleUrl>#style0</styleUrl>

				<Polygon>

					<tessellate>1</tessellate>

					<outerBoundaryIs>

						<LinearRing>

							<coordinates>

							168.7752189126161,-46.39054726017543,0 168.7760413147946,-46.39116128143979,0 168.7766883644772,-46.39079500091211,0 168.7777335336196,-46.39027222971799,0 168.7779722274985,-46.38971579918275,0 168.7780336783246,-46.3881834469669,0 168.7803716675692,-46.38607585924499,0 168.7839282026567,-46.38503677694692,0 168.7870642880598,-46.38459076467175,0 168.7902238445531,-46.38554645214223,0 168.7942595468685,-46.38795199488427,0 168.7967518715338,-46.38969437087496,0 168.7999956956845,-46.39112475734842,0 168.8029808078995,-46.39221561443906,0 168.8054608640883,-46.39275004833619,0 168.8089204596283,-46.39307049649011,0 168.8117202315437,-46.39291288594554,0 168.8147320986287,-46.39299162932899,0 168.81621508396,-46.3923093106927,0 168.8168968821094,-46.39199592610881,0 168.8157473219973,-46.39141571718298,0 168.8126004766824,-46.3920332806859,0 168.8088885450208,-46.39182173334669,0 168.8056382949698,-46.39161324931968,0 168.8025222853611,-46.39114016625809,0 168.800779604512,-46.39051803570784,0 168.7983125614892,-46.38931897347485,0 168.7950060638265,-46.38760217156936,0 168.7930491228402,-46.38605828313646,0 168.7909204566522,-46.38473489775957,0 168.7881181908475,-46.38391814998663,0 168.783431744506,-46.38414678095093,0 168.780256462214,-46.38504651897468,0 168.7784848368117,-46.3861289436533,0 168.7752189126161,-46.39054726017543,0 
						
</coordinates>

						</LinearRing>

					</outerBoundaryIs>

				</Polygon>

				<flyID>5</flyID>

				<flyDescription>There is no speed restriction from the 1st of August to 30th of September on Mataura River from the Ardlussa Bridge downstream to the Seaward Downs Bridge.</flyDescription>

			</Placemark>

</Document>
</kml>
